%!PS-Adobe-3.0 EPSF-3.0
%%BoundingBox: 0 0 416 347
%%Creator: yExport 1.5
%%Producer: org.freehep.graphicsio.ps.EPSGraphics2D Revision: 12753 
%%For: 
%%Title: 
%%CreationDate: Thursday, March 30, 2017 2:35:23 PM BST
%%LanguageLevel: 3
%%EndComments
%%BeginProlog
100 dict dup begin

%
% File: org/freehep/graphicsio.ps/PSProlog.txt
% Author: Charles Loomis
%

% Redefinitions which save some space in the output file.  These are also
% the same as the PDF operators.
/q {gsave} def
/Q {grestore} def

/n {newpath} def
/m {moveto} def
/l {lineto} def
/c {curveto} def
/h {closepath} def

/re {4 -2 roll moveto
     dup 0 exch rlineto exch 0 rlineto
     neg 0 exch rlineto closepath} def

/f {fill} def
/f* {eofill} def
/F {gsave vg&FC fill grestore} def
/F* {gsave vg&FC eofill grestore} def

/s {closepath stroke} def
/S {stroke} def

/b {closepath gsave vg&FC fill grestore
    gsave stroke grestore newpath} def
/B {gsave vg&FC fill grestore gsave stroke grestore newpath} def
/b* {closepath gsave vg&FC eofill grestore
    gsave stroke grestore newpath} def
/B* {gsave vg&FC eofill grestore gsave stroke grestore newpath} def

/g {1 array astore /vg&fcolor exch def} def
/G {setgray} def
/k {4 array astore /vg&fcolor exch def} def
/K {setcmykcolor} def
/rg {3 array astore /vg&fcolor exch def} def
/RG {setrgbcolor} def

% Initialize the fill color.
0 0 0 rg

/vg&FC {mark vg&fcolor aload pop
        counttomark 1 eq {G} if
        counttomark 3 eq {RG} if
        counttomark 4 eq {K} if
        cleartomark } def

/vg&DFC {/vg&fcolor exch def} def

/vg&C {mark exch aload pop
       counttomark 1 eq {G} if
       counttomark 3 eq {RG} if
       counttomark 4 eq {K} if
       cleartomark } def

/w {setlinewidth} def
/j {setlinejoin} def
/J {setlinecap} def
/M {setmiterlimit} def
/d {setdash} def
/i {setflat} def

/W {clip} def
/W* {eoclip} def

% Setup the default graphics state.
% (black; 1 pt. linewidth; miter join; butt-ends; solid)
/defaultGraphicsState {0 g 1 w 0 j 0 J [] 0 d} def

% Emulation of the rectangle operators for PostScript implementations
% which do not implement all Level 2 features.  This is an INCOMPLETE
% emulation; only the "x y width height rect..." form is emulated.
/*rf {gsave newpath re fill grestore} def
/*rs {gsave newpath re stroke grestore} def
/*rc {newpath re clip} def
/rf  /rectfill where {pop /rectfill}{/*rf} ifelse load def
/rs  /rectstroke where {pop /rectstroke}{/*rs} ifelse load def
/rc  /rectclip where {pop /rectclip}{/*rc} ifelse load def

% Emulation of the selectfont operator.  This includes a 20% increase in
% the fontsize which is necessary to get sizes similar to the Java fonts.
/*sf {exch findfont exch
      dup type /arraytype eq {makefont}{scalefont} ifelse setfont} bind def
/sf /selectfont where {pop {1.2 mul selectfont}}{{1.2 mul *sf}} ifelse def

% Special version of stroke which allows the dash pattern to continue
% across path segments.  (This may be needed for PostScript although
% modern printers seem to do this correctly.)
/vg&stroke {
  currentdash pop length 0 eq
  {stroke}
  {
    currentdash /vg&doffset exch def pop
    flattenpath
    {m vg&resetdash}
    {2 copy
     currentpoint
     3 -1 roll sub dup mul
     3 1 roll sub dup mul
     add sqrt
     3 1 roll l
     currentdash 3 -1 roll add setdash}
     {}
     {h vg&resetdash}
     pathforall
     stroke
     vg&resetdash
  } ifelse
} def
/vg&resetdash {currentdash pop vg&doffset setdash} def

% Initialize variables for safety.
/delta 0 def
/xv 0 def  /yv 0 def  /width 0 def  /height 0 def

% Initialize to portrait INTERNATIONAL (Letter-height, A4-width) page.
/pw 595 def  /ph 791  def  /po true def /ftp false def

% Initialize margins to 20 points.
/ml 20 def  /mr 20 def  /mt 20 def  /mb 20 def

% Temporary matrices.
/smatrix 0 def  /nmatrix 0 def

% set page size (usage: <page width><page height> setpagesize)
/setpagesize {/ph exch def /pw exch def} def

% set page orientation (usage: portrait or landscape)
/portrait {/po true def} def
/landscape {/po false def} def

% force natural size for image (usage: naturalsize)
/naturalsize {/ftp false def} def

% resize image to fill page (usage: fittopage)
/fittopage {/ftp true def} def

% set margins of the page (usage: <left><bottom><top><right> setmargins)
/setmargins {/mr exch def /mt exch def /mb exch def /ml exch def} def

% set the graphic's size (usage: <width><height> setsize)
/setsize {/gh exch def /gw exch def} def

% set the graphic's origin (usage: <x0><y0> setorigin)
/setorigin {/gy exch def /gx exch def} def

% calculate image center
/imagecenter {pw ml sub mr sub 2 div ml add
              ph mt sub mb sub 2 div mb add} def

% calculate the necessary scaling
/imagescale {po {gw}{gh} ifelse pw ml sub mr sub div
             po {gh}{gw} ifelse ph mt sub mb sub div
             2 copy lt {exch} if pop
             ftp not {1 2 copy lt {exch} if pop} if
             1 exch div /sfactor exch def
             /gw gw sfactor mul def /gh gh sfactor mul def} def

% calculate image origin
/imageorigin {pw ml sub mr sub 2 div ml add
              po {gw}{gh} ifelse 2 div sub
              ph mt sub mb sub 2 div mb add
              po {gh}{gw} ifelse 2 div po {add}{sub} ifelse} def

% calculate the clipping origin
/cliporigin  {pw ml sub mr sub 2 div ml add
              po {gw}{gh} ifelse 2 div sub floor
              ph mt sub mb sub 2 div mb add
              po {gh}{gw} ifelse 2 div sub floor} def

% Set the clipping region to the bounding box.
/cliptobounds {cliporigin po {gw}{gh} ifelse 1 add
                          po {gh}{gw} ifelse 1 add rc} def

% set the base transformation matrix (usage: setbasematrix)
/setbasematrix {imageorigin translate
                po {0}{90} ifelse rotate
                sfactor sfactor neg scale
                /defaultmatrix matrix currentmatrix def} def

% The lower-right bias in drawing 1 pt. wide lines.
/bias  {q 0.5 0.5 translate} def
/unbias {Q} def

% Define the composite fonts used to print Unicode strings.
% Undefine particular values in an encoding array.
/vg&undef { {exch dup 3 -1 roll /.notdef put} forall } def
/vg&redef { {3 -1 roll dup 4 2 roll put} forall } def

% usage: key encoding basefontname vg&newbasefont font
/vg&newbasefont {
findfont dup length dict copy
  begin
    currentdict /FID undef
    /Encoding exch def
    dup /FontName exch def
    currentdict
  end
definefont
} def

% usage: key encoding basefontname vg&newskewedbasefont font
/vg&newskewedbasefont {
findfont dup length dict copy
  begin
    currentdict /FID undef
    /Encoding exch def
    dup /FontName exch def
    exch FontMatrix exch matrix concatmatrix /FontMatrix exch def
    currentdict
  end
definefont
} def

% usage: basekey suffix vg&nconcat name
/vg&nconcat {
  2 {dup length string cvs exch} repeat
  dup length 3 -1 roll dup length 3 -1 roll add string
  dup 0 4 -1 roll dup length 5 1 roll putinterval
  dup 4 -2 roll exch putinterval cvn
} def

%usage: fontname vg&skewmatrix matrix
/vg&skewmatrix {
findfont dup /FontInfo known
  {
    /FontInfo get dup /ItalicAngle known
    {
      [ 1 0 4 -1 roll /ItalicAngle get neg dup sin exch cos div 1 0 0 ]
    }
    {pop matrix} ifelse
  }
  {pop matrix} ifelse
} def

% usage: newfontname basefontname vg&newcompositefont --
/vg&newcompositefont {
/vg&fstyle exch def
/vg&bfont exch def
/vg&fname exch def
<<
/FontStyleBits vg&fstyle
/FontType 0
/FontMatrix matrix
/FontName vg&fname
/FMapType 2
/Encoding [ 0 1 255 {pop 6} for ]
          dup 16#00 0 put % Latin
          dup 16#03 1 put % Greek
          dup 16#20 2 put % Punctuation
          dup 16#21 3 put % Arrows
          dup 16#22 4 put % MathOps
          dup 16#27 5 put % Dingbats

/FDepVector [
vg&bfont /-UC-Latin vg&nconcat UCLatinEncoding
vg&bfont vg&newbasefont

vg&bfont vg&skewmatrix
vg&bfont /-UC-Greek vg&nconcat UCGreekEncoding
/Symbol vg&newskewedbasefont

vg&bfont /-UC-Punctuation vg&nconcat UCPunctuationEncoding
vg&bfont vg&newbasefont

/Arrows-UC findfont
/MathOps-UC findfont
/Dingbats-UC findfont
/Undefined-UC findfont ]
>>
vg&fname exch definefont pop
} def

% Null encoding vector (all elements set to .notdef)
/NullEncoding [ 256 {/.notdef} repeat ] def

% Unicode Latin encoding (unicode codes \u0000-\u00ff)
/UCLatinEncoding
  ISOLatin1Encoding dup length array copy
  dup 16#60 /grave put
  [ 16#90 16#91 16#92 16#93 16#94 16#95 16#96
    16#97 16#98 16#9a 16#9b 16#9d 16#9e 16#9f
  ] vg&undef
  def

% Unicode Greek encoding (unicode codes \u0370-\u03ff)
/UCGreekEncoding
  NullEncoding dup length array copy
  << 16#91 /Alpha    16#92 /Beta      16#93 /Gamma    16#94 /Delta
     16#95 /Epsilon  16#96 /Zeta      16#97 /Eta      16#98 /Theta
     16#99 /Iota     16#9a /Kappa     16#9b /Lambda   16#9c /Mu
     16#9d /Nu       16#9e /Xi        16#9f /Omicron  16#a0 /Pi
     16#a1 /Rho      16#a3 /Sigma     16#a4 /Tau      16#a5 /Upsilon
     16#a6 /Phi      16#a7 /Chi       16#a8 /Psi      16#a9 /Omega
     16#b1 /alpha    16#b2 /beta      16#b3 /gamma    16#b4 /delta
     16#b5 /epsilon  16#b6 /zeta      16#b7 /eta      16#b8 /theta
     16#b9 /iota     16#ba /kappa     16#bb /lambda   16#bc /mu
     16#bd /nu       16#be /xi        16#bf /omicron  16#c0 /pi
     16#c1 /rho      16#c2 /sigma1    16#c3 /sigma    16#c4 /tau
     16#c5 /upsilon  16#c6 /phi1      16#c7 /chi      16#c8 /psi
     16#c9 /omega    16#7e /semicolon 16#87 /dotmath  16#d1 /theta1
     16#d2 /Upsilon1 16#d5 /phi       16#d6 /omega1
  >> vg&redef
  def

% Unicode punctuation encoding (unicode codes \u2000-\u206f)
/UCPunctuationEncoding
  NullEncoding dup length array copy
  << 16#10 /hyphen          16#11 /hyphen              16#12 /endash
     16#13 /emdash          16#18 /quoteleft           16#19 /quoteright
     16#1a /quotesinglbase  16#1b /quotesingle         16#1c /quotedblleft
     16#1d /quotedblright   16#1e /quotedblbase        16#1f /quotedbl
     16#20 /dagger          16#21 /daggerdbl           16#22 /bullet
     16#24 /period          16#26 /ellipsis            16#27 /periodcentered
     16#30 /perthousand     16#44 /fraction
     16#70 /zerosuperior    16#74 /foursuperior        16#75 /fivesuperior
     16#76 /sixsuperior     16#77 /sevensuperior       16#78 /eightsuperior
     16#79 /ninesuperior    16#7b /hyphensuperior      16#7d /parenleftsuperior
     16#7e /parenrightsuperior
     16#80 /zeroinferior    16#84 /fourinferior        16#85 /fiveinferior
     16#81 /oneinferior     16#82 /twoinferior         16#83 /threeinferior
     16#86 /sixinferior     16#87 /seveninferior       16#88 /eightinferior
     16#89 /nineinferior    16#8b /hypheninferior      16#8d /parenleftinferior
     16#8e /parenrightinferior
  >> vg&redef
  def

% Unicode mathematical operators encoding (unicode codes \u2200-\u22ff)
/UCMathOpsEncoding
  NullEncoding dup length array copy
  << 16#00 /universal       16#02 /partialdiff         16#03 /existential
     16#05 /emptyset        16#06 /Delta               16#07 /gradient
     16#08 /element         16#09 /notelement          16#0b /suchthat
     16#0f /product         16#11 /summation           16#12 /minus
     16#15 /fraction        16#17 /asteriskmath        16#19 /bullet
     16#1a /radical         16#1d /proportional        16#1e /infinity
     16#20 /angle           16#23 /bar                 16#27 /logicaland
     16#28 /logicalor       16#29 /intersection        16#2a /union
     16#2b /integral        16#34 /therefore           16#36 /colon
     16#3c /similar         16#45 /congruent           16#48 /approxequal
     16#60 /notequal        16#61 /equivalence         16#64 /lessequal
     16#65 /greaterequal    16#82 /propersubset        16#83 /propersuperset
     16#86 /reflexsubset    16#87 /reflexsuperset      16#95 /circleplus
     16#97 /circlemultiply  16#a5 /perpendicular       16#03 /existential
     16#c0 /logicaland      16#c1 /logicalor           16#c2 /intersection
     16#c3 /union           16#c4 /diamond             16#c5 /dotmath
  >> vg&redef
  def

% Unicode arrows encoding (unicode codes \u2190-\u21ff)
% Also includes those "Letterlike" unicode characters
% which are available in the symbol font. (unicode codes \u2100-\u214f)
/UCArrowsEncoding
  NullEncoding dup length array copy
  << 16#11 /Ifraktur        16#1c /Rfraktur            16#22 /trademarkserif
     16#35 /aleph
     16#90 /arrowleft       16#91 /arrowup             16#92 /arrowright
     16#93 /arrowdown       16#94 /arrowboth           16#d0 /arrowdblleft
     16#d1 /arrowdblup      16#d2 /arrowdblright       16#d3 /arrowdbldown
     16#d4 /arrowdblboth
  >> vg&redef
  def

/ZapfDingbats findfont /Encoding get
dup length array copy /UCDingbatsEncoding exch def
16#20 1 16#7f {
  dup 16#20 sub exch
  UCDingbatsEncoding exch get
  UCDingbatsEncoding 3 1 roll put
} for
16#a0 1 16#ff {
  dup 16#40 sub exch
  UCDingbatsEncoding exch get
  UCDingbatsEncoding 3 1 roll put
} for
UCDingbatsEncoding [ 16#c0 1 16#ff {} for ] vg&undef
[ 16#00  16#05 16#0a 16#0b  16#28 16#4c 16#4e  16#53 16#54 16#55  16#57 16#5f
  16#60  16#68 16#69 16#6a  16#6b 16#6c 16#6d  16#6e 16#6f 16#70  16#71 16#72
  16#73  16#74 16#75 16#95  16#96 16#97 16#b0  16#bf
] vg&undef pop

% Define the base fonts which don't change.
/Undefined-UC NullEncoding       /Helvetica    vg&newbasefont pop
/MathOps-UC   UCMathOpsEncoding  /Symbol       vg&newbasefont pop
/Arrows-UC    UCArrowsEncoding   /Symbol       vg&newbasefont pop
/Dingbats-UC  UCDingbatsEncoding /ZapfDingbats vg&newbasefont pop

% Make the SansSerif composite fonts.
/SansSerif /Helvetica 16#00 vg&newcompositefont
/SansSerif-Bold /Helvetica-Bold 16#01 vg&newcompositefont
/SansSerif-Italic /Helvetica-Oblique 16#02 vg&newcompositefont
/SansSerif-BoldItalic /Helvetica-BoldOblique 16#03 vg&newcompositefont

% Make the Serif composite fonts.
/Serif /Times-Roman 16#00 vg&newcompositefont
/Serif-Bold /Times-Bold 16#01 vg&newcompositefont
/Serif-Italic /Times-Italic 16#02 vg&newcompositefont
/Serif-BoldItalic /Times-BoldItalic 16#03 vg&newcompositefont

% Make the Monospaced composite fonts.
/Monospaced /Courier 16#00 vg&newcompositefont
/Monospaced-Bold /Courier-Bold 16#01 vg&newcompositefont
/Monospaced-Italic /Courier-Oblique 16#02 vg&newcompositefont
/Monospaced-BoldItalic /Courier-BoldOblique 16#03 vg&newcompositefont

% Make the Dialog composite fonts.
/Dialog /Helvetica 16#00 vg&newcompositefont
/Dialog-Bold /Helvetica-Bold 16#01 vg&newcompositefont
/Dialog-Italic /Helvetica-Oblique 16#02 vg&newcompositefont
/Dialog-BoldItalic /Helvetica-BoldOblique 16#03 vg&newcompositefont

% Make the DialogInput composite fonts.
/DialogInput /Courier 16#00 vg&newcompositefont
/DialogInput-Bold /Courier-Bold 16#01 vg&newcompositefont
/DialogInput-Italic /Courier-Oblique 16#02 vg&newcompositefont
/DialogInput-BoldItalic /Courier-BoldOblique 16#03 vg&newcompositefont

% Make the Typewriter composite fonts (JDK 1.1 only).
/Typewriter /Courier 16#00 vg&newcompositefont
/Typewriter-Bold /Courier-Bold 16#01 vg&newcompositefont
/Typewriter-Italic /Courier-Oblique 16#02 vg&newcompositefont
/Typewriter-BoldItalic /Courier-BoldOblique 16#03 vg&newcompositefont


/cfontH {
 dup /fontsize exch def /SansSerif exch sf
 /vg&fontstyles [{cfontH} {cfontHB} {cfontHI} {cfontHBI}] def
} def
/cfontHB {
  dup /fontsize exch def /SansSerif-Bold exch sf
 /vg&fontstyles [{cfontH} {cfontHB} {cfontHI} {cfontHBI}] def
} def
/cfontHI {
 dup /fontsize exch def /SansSerif-Italic exch sf
 /vg&fontstyles [{cfontH} {cfontHB} {cfontHI} {cfontHBI}] def
} def
/cfontHBI {
 dup /fontsize exch def /SansSerif-BoldItalic exch sf
 /vg&fontstyles [{cfontH} {cfontHB} {cfontHI} {cfontHBI}] def
} def

/cfontT {
 dup /fontsize exch def /Serif exch sf
 /vg&fontstyles [{cfontT} {cfontTB} {cfontTI} {cfontTBI}] def
} def
/cfontTB {
 dup /fontsize exch def /Serif-Bold exch sf
 /vg&fontstyles [{cfontT} {cfontTB} {cfontTI} {cfontTBI}] def
} def
/cfontTI {
 dup /fontsize exch def /Serif-Italic exch sf
 /vg&fontstyles [{cfontT} {cfontTB} {cfontTI} {cfontTBI}] def
} def
/cfontTBI {
 dup /fontsize exch def /Serif-BoldItalic exch sf
 /vg&fontstyles [{cfontT} {cfontTB} {cfontTI} {cfontTBI}] def
} def

/cfontC {
 dup /fontsize exch def /Typewriter exch sf
 /vg&fontstyles [{cfontC} {cfontCB} {cfontCI} {cfontCBI}] def
} def
/cfontCB {
 dup /fontsize exch def /Typewriter-Bold exch sf
 /vg&fontstyles [{cfontC} {cfontCB} {cfontCI} {cfontCBI}] def
} def
/cfontCI {
 dup /fontsize exch def /Typewriter-Italic exch sf
 /vg&fontstyles [{cfontC} {cfontCB} {cfontCI} {cfontCBI}] def
} def
/cfontCBI {
 dup /fontsize exch def /Typewriter-BoldItalic exch sf
 /vg&fontstyles [{cfontC} {cfontCB} {cfontCI} {cfontCBI}] def
} def

% Darken or lighten the current color.
/darken {0.7 exch exp 3 copy
         q 4 -1 roll vg&C
         currentrgbcolor 3 {4 -2 roll mul} repeat
         3 array astore Q} def

/displayColorMap
<< /Cr   [1.00 0.00 0.00]       /Cg     [0.00 1.00 0.00]
   /Cb   [0.00 0.00 1.00]       /Cc     [1.00 0.00 0.00 0.00]
   /Cm   [0.00 1.00 0.00 0.00]  /Cy     [0.00 0.00 1.00 0.00]
   /Co   [1.00 0.78 0.00]       /Cp     [1.00 0.67 0.67]
   /Cw   [1   ]                 /Cgrl   [0.75]
   /Cgr  [0.50]                 /Cgrd   [0.25]
   /Ck   [0   ]
   /CGr  [1.00 0.00 0.00]       /CGg    [0.00 1.00 0.00]
   /CGb  [0.00 0.00 1.00]       /CGc    [1.00 0.00 0.00 0.00]
   /CGm  [0.00 1.00 0.00 0.00]  /CGy    [0.00 0.00 1.00 0.00]
   /CGo  [1.00 0.78 0.00]       /CGp    [1.00 0.67 0.67]
   /CGw  [1   ]                 /CGgrl  [0.75]
   /CGgr [0.50]                 /CGgrd  [0.25]
   /CGk  [0   ]
   /CIr  [1.00 0.00 0.00]       /CIg    [0.00 1.00 0.00]
   /CIb  [0.00 0.00 1.00]       /CIc    [1.00 0.00 0.00 0.00]
   /CIm  [0.00 1.00 0.00 0.00]  /CIy    [0.00 0.00 1.00 0.00]
   /CIo  [1.00 0.78 0.00]       /CIp    [1.00 0.67 0.67]
   /CIw  [1   ]                 /CIgrl  [0.75]
   /CIgr [0.50]                 /CIgrd  [0.25]
   /CIk  [0   ]
>> def

/printColorMap
<< /Cr   [1.00 0.33 0.33]       /Cg     [0.33 1.00 0.33]
   /Cb   [0.33 0.33 1.00]       /Cc     [1.00 0.00 0.00 0.00]
   /Cm   [0.00 1.00 0.00 0.00]  /Cy     [0.00 0.00 1.00 0.00]
   /Co   [1.00 0.78 0.00]       /Cp     [1.00 0.67 0.67]
   /Cw   [1   ]                 /Cgrl   [0.75]
   /Cgr  [0.50]                 /Cgrd   [0.25]
   /Ck   [0   ]
   /CGr  [1.00 0.33 0.33]       /CGg    [0.33 1.00 0.33]
   /CGb  [0.33 0.33 1.00]       /CGc    [1.00 0.00 0.00 0.00]
   /CGm  [0.00 1.00 0.00 0.00]  /CGy    [0.00 0.00 1.00 0.00]
   /CGo  [1.00 0.78 0.00]       /CGp    [1.00 0.67 0.67]
   /CGw  [1   ]                 /CGgrl  [0.75]
   /CGgr [0.50]                 /CGgrd  [0.25]
   /CGk  [0   ]
   /CIr  [1.00 0.33 0.33]       /CIg    [0.33 1.00 0.33]
   /CIb  [0.33 0.33 1.00]       /CIc    [1.00 0.00 0.00 0.00]
   /CIm  [0.00 1.00 0.00 0.00]  /CIy    [0.00 0.00 1.00 0.00]
   /CIo  [1.00 0.78 0.00]       /CIp    [1.00 0.67 0.67]
   /CIw  [1   ]                 /CIgrl  [0.75]
   /CIgr [0.50]                 /CIgrd  [0.25]
   /CIk  [0   ]
>> def

/grayColorMap
<< /Cr   [0   ]                 /Cg     [0   ]
   /Cb   [0   ]                 /Cc     [0   ]
   /Cm   [0   ]                 /Cy     [0   ]
   /Co   [0   ]                 /Cp     [0   ]
   /Cw   [0   ]                 /Cgrl   [0   ]
   /Cgr  [0   ]                 /Cgrd   [0   ]
   /Ck   [0   ]
   /CGr  [0.75]                 /CGg    [1   ]
   /CGb  [0.50]                 /CGc    [0.75]
   /CGm  [0.50]                 /CGy    [1   ]
   /CGo  [0.75]                 /CGp    [1   ]
   /CGw  [0   ]                 /CGgrl  [0.25]
   /CGgr [0.50]                 /CGgrd  [0.75]
   /CGk  [1   ]
   /CIr  [1   ]                 /CIg    [1   ]
   /CIb  [1   ]                 /CIc    [1   ]
   /CIm  [1   ]                 /CIy    [1   ]
   /CIo  [1   ]                 /CIp    [1   ]
   /CIw  [1   ]                 /CIgrl  [1   ]
   /CIgr [1   ]                 /CIgrd  [1   ]
   /CIk  [1   ]
>> def

/bwColorMap
<< /Cr   [0   ]                 /Cg     [0   ]
   /Cb   [0   ]                 /Cc     [0   ]
   /Cm   [0   ]                 /Cy     [0   ]
   /Co   [0   ]                 /Cp     [0   ]
   /Cw   [0   ]                 /Cgrl   [0   ]
   /Cgr  [0   ]                 /Cgrd   [0   ]
   /Ck   [0   ]
   /CGr  [1   ]                 /CGg    [1   ]
   /CGb  [1   ]                 /CGc    [1   ]
   /CGm  [1   ]                 /CGy    [1   ]
   /CGo  [1   ]                 /CGp    [1   ]
   /CGw  [0   ]                 /CGgrl  [1   ]
   /CGgr [1   ]                 /CGgrd  [1   ]
   /CGk  [1   ]
   /CIr  [1   ]                 /CIg    [1   ]
   /CIb  [1   ]                 /CIc    [1   ]
   /CIm  [1   ]                 /CIy    [1   ]
   /CIo  [1   ]                 /CIp    [1   ]
   /CIw  [1   ]                 /CIgrl  [1   ]
   /CIgr [1   ]                 /CIgrd  [1   ]
   /CIk  [1   ]
>> def

%
% The following routines handle the alignment of and printing of
% tagged strings.
%

% Predefine the bounding box values.
/bbllx 0 def /bblly 0 def /bburx 0 def /bbury 0 def

% This routine pops the first unicode character off of a string and returns
% the remainder of the string, the character code of first character,
% and a "true" if the string was non-zero length.
% <string>      popfirst <remaining string> <true>
% <null string> popfirst <false>
/popfirst {
  dup length 1 gt
    {dup 0 get /vg&fbyte exch def
     dup 1 get /vg&cbyte exch def
     dup length 2 sub 2 exch getinterval true}
    {pop false} ifelse
} def

% This routine shows a single unicode character given the font and
% character codes.
% <font code> <char code> unicharshow --
/unicharshow {
  2 string
  dup 0 5 -1 roll put
  dup 1 4 -1 roll put
  internalshow
} def

% This is an internal routine to alternate between determining the
% bounding box for stringsize and showing the string for recshow.
% <string> internalshow --
/internalshow {show} def

% This is an internal routine to alternate between determining the
% bounding box for stringsize and stroking various ornaments.
% <string> internalstroke --
/internalstroke {S} def

% Sets up internalshow to use the null device to determine string size.
% -- nullinternalshow --
/nullinternalshow {/internalshow {false charpath flattenpath
                                  pathbbox updatebbox} def} def

% Sets up internalstroke to use the null device to determine string size.
% -- nullinternalstroke --
/nullinternalstroke {
 /internalstroke {flattenpath pathbbox updatebbox} def} def

% This routine tests to see if the character code matches the first
% character of a string.
% <char code> <string> testchar <char code> <true or false>
/testchar {exch dup 3 -1 roll 0 get eq} def

% Raise the text baseline for superscripts.
% -- raise --
/raise {
  0 fontsize 2 div rmoveto
  /fontsize fontsize 2 mul 3 div def
  currentfont /FontName get fontsize sf
} def

% Un-raise the text baseline for superscripts.
% -- unraise --
/unraise {
  /fontsize fontsize 1.5 mul def
  0 fontsize 2 div neg rmoveto
} def

% Lower the text baseline for subscripts.
% -- lower --
/lower {
  0 fontsize 3 div neg rmoveto
  /fontsize fontsize 2 mul 3 div def
  currentfont /FontName get fontsize sf
} def

% Un-lower the text baseline for subscripts.
% -- unlower --
/unlower {
  /fontsize fontsize 1.5 mul def
  0 fontsize 3 div rmoveto
} def

% Compare the top two elements on the stack and leave only the
% larger one.
/maxval {2 copy gt {pop} {exch pop} ifelse} def

% Tokenize a string.  Do not use the usual PostScript token because
% parentheses will not be interpreted correctly because of rescanning
% of the string.
/vg&token {/vg&string exch def /vg&index -1 def /vg&level 0 def
0 2 vg&string length 2 sub {
  dup dup 1 add exch vg&string exch get 8 bitshift vg&string 3 -1 roll get or
  dup 16#f0fe eq {pop 1}{16#f0ff eq {-1}{0} ifelse} ifelse
  /vg&level exch vg&level add def
  vg&level 0 eq {/vg&index exch def exit} if pop
} for
vg&index 0 ge {
  vg&string vg&index 2 add dup vg&string length exch sub getinterval
  vg&index 2 gt {vg&string 2 vg&index 2 sub getinterval}{()} ifelse
  true}
{false} ifelse
} bind def

% Recursively show an unicode string.
% <string> recshow --
/recshow {
  popfirst
  {
    % Test to see if this is a string attribute.
    vg&fbyte 16#f0 and 16#e0 eq
    {
      q

      % Font style.
      currentfont dup /FontStyleBits known {/FontStyleBits get}{pop 0} ifelse
      vg&cbyte or vg&fontstyles exch get fontsize exch exec

      vg&token pop recshow currentpoint Q m recshow
    }
    {
      vg&fbyte 16#F8 and 16#F0 eq {

        % Superscript and/or subscript.
        vg&cbyte 16#00 eq {
          vg&token pop exch vg&token pop 3 -1 roll
          q raise recshow unraise currentpoint pop Q exch
          q lower recshow unlower currentpoint pop Q
          maxval currentpoint exch pop m recshow } if

        % Strikeout.
        vg&cbyte 16#01 eq {
          vg&token pop currentpoint 3 -1 roll recshow
          q 0 J vg&underline vg&uthick w
          currentpoint 4 -2 roll fontsize 3 div add moveto
          fontsize 3 div add lineto internalstroke Q
          recshow} if

        % Underline.
        vg&cbyte 16#02 eq {
          vg&token pop currentpoint 3 -1 roll recshow
          q 0 J vg&underline vg&uthick w
          currentpoint 4 -2 roll vg&uoffset add moveto
          vg&uoffset add lineto internalstroke Q
          recshow} if

        % Dashed underline.
        vg&cbyte 16#03 eq {
          vg&token pop currentpoint 3 -1 roll recshow
          q 0 J [ vg&uthick 5 mul vg&uthick 2 mul] 0 d
          vg&underline vg&uthick w
          currentpoint 4 -2 roll vg&uoffset add moveto
          vg&uoffset add lineto internalstroke Q
          recshow} if

        % Dotted underline.
        vg&cbyte 16#04 eq {
          vg&token pop currentpoint 3 -1 roll recshow
          q 1 J [ 0 vg&uthick 3 mul] 0 d
          vg&underline vg&uthick w
          currentpoint 4 -2 roll vg&uoffset add moveto
          vg&uoffset add lineto internalstroke Q
          recshow} if

        % Thick underline.
        vg&cbyte 16#05 eq {
          vg&token pop currentpoint 3 -1 roll recshow
          q 0 J vg&underline vg&uthick 2 mul w
          currentpoint 4 -2 roll vg&uoffset vg&uthick 2 div sub add moveto
          vg&uoffset vg&uthick 2 div sub add lineto internalstroke Q
          recshow} if

        % Gray thick underline.
        vg&cbyte 16#06 eq {
          vg&token pop currentpoint 3 -1 roll recshow
          q 0 J vg&underline vg&uthick 2 mul w 0.5 setgray
          currentpoint 4 -2 roll vg&uoffset vg&uthick 2 div sub add moveto
          vg&uoffset vg&uthick 2 div sub add lineto internalstroke Q
          recshow} if

        % Overbar.
        vg&cbyte 16#07 eq {
          vg&token pop dup stringsize relative 4 1 roll pop pop exch
          3 -1 roll recshow
          q 0 J vg&underline vg&uthick w
          vg&uoffset neg add dup currentpoint pop exch m l internalstroke Q
          recshow} if
      }
      {
        vg&fbyte vg&cbyte unicharshow recshow
      } ifelse
    } ifelse
  } if
} def

% Get the underline position and thickness from the current font.
/vg&underline {

currentfont dup /FontType get 0 eq {/FDepVector get 0 get} if
dup dup /FontInfo known {
  /FontInfo get dup
  dup /UnderlinePosition known {
    /UnderlinePosition get /vg&uoffset exch def
  }
  {
    pop /vg&uoffset 0 def
  } ifelse
  dup /UnderlineThickness known {
    /UnderlineThickness get /vg&uthick exch def
  }
  {
    pop /vg&uthick 0 def
  } ifelse
}
{
  pop /vg&uoffset 0 def /vg&uthick 0 def
} ifelse
/FontMatrix get
currentfont dup /FontType get 0 eq
{/FontMatrix get matrix concatmatrix}{pop} ifelse
dup 0 vg&uoffset 3 -1 roll transform /vg&uoffset exch def pop
0 vg&uthick 3 -1 roll transform /vg&uthick exch def pop
} def

% Make a frame with the coordinates on the stack.
% <llx> <lly> <urx> <ury> frame --
/frame {4 copy m 3 1 roll exch l 4 -2 roll l l h} def

% Resets the accumulated bounding box to a degenerate box at the
% current point.
% -- resetbbox --
/resetbbox {
  currentpoint 2 copy
  /bbury exch def
  /bburx exch def
  /bblly exch def
  /bbllx exch def
} def

% Update the accumulated bounding box.
% <llx'> <lly'> <urx'> <ury'> updatebbox --
/updatebbox {
  dup bbury gt {/bbury exch def} {pop} ifelse
  dup bburx gt {/bburx exch def} {pop} ifelse
  dup bblly lt {/bblly exch def} {pop} ifelse
  dup bbllx lt {/bbllx exch def} {pop} ifelse
} def

% Set the bounding box to the values on the stack.
% <llx'> <lly'> <urx'> <ury'> updatebbox --
/restorebbox {
  /bbury exch def /bburx exch def /bblly exch def /bbllx exch def
} def

% Push the accumulated bounding box onto the stack.
% -- pushbbox <llx> <lly> <urx> <ury>
/pushbbox {bbllx bblly bburx bbury} def

% Make the relative bounding box relative to the currentpoint.
% <llx'> <lly'> <urx'> <ury'> inflate <llx> <lly> <urx> <ury>
/inflate {
  2 {fontsize 0.2 mul add 4 1 roll} repeat
  2 {fontsize 0.2 mul sub 4 1 roll} repeat
} def

% Make the relative bounding box relative to the currentpoint.
% <llx'> <lly'> <urx'> <ury'> relative <llx> <lly> <urx> <ury>
/relative {
  currentpoint 3 -1 roll add 3 1 roll add exch 4 2 roll
  currentpoint 3 -1 roll add 3 1 roll add exch 4 2 roll
} def

% Returns the size of a string appropriate for recshow.
% <string> stringsize <llx> <lly> <urx> <ury>
/stringsize {
  pushbbox /internalshow load /internalstroke load 7 -1 roll
  q
  nulldevice 0 0 m
  nullinternalshow nullinternalstroke
  resetbbox
  recshow
  /internalstroke exch def /internalshow exch def
  pushbbox 8 -4 roll restorebbox
  Q
} def

% Calculate values for string positioning.
/calcval {4 copy
  3 -1 roll sub /widy exch def sub neg /widx exch def
  pop pop /dy exch def /dx exch def} def

% Utilities to position a string.
% First letter (U=upper, C=center, B=baseline, L=lower)
% Second letter (L=left, C=center, R=right)
/align [
{calcval dx neg widy dy add neg rmoveto} % UL
{calcval dx neg widy 2 div dy add neg rmoveto} % CL
{calcval dx neg 0 rmoveto} % BL
{calcval dx neg dy neg rmoveto} % LL
{calcval widx dx add neg widy dy add neg rmoveto} % UR
{calcval widx dx add neg widy 2 div dy add neg rmoveto} % CR
{calcval widx dx add neg 0 rmoveto} % BR
{calcval widx dx add neg dy neg rmoveto} % LR
{calcval widx 2 div dx add neg widy dy add neg rmoveto} % UC
{calcval widx 2 div dx add neg widy 2 div dy add neg rmoveto} % CC
{calcval widx 2 div dx add neg 0 rmoveto} % BC
{calcval widx 2 div dx add neg dy neg rmoveto} % LC
] def

/vg&str {m q 1 -1 scale dup stringsize 4 copy align 11 -1 roll get exec
         q inflate relative frame exch exec Q recshow Q} def

end /procDict exch def
%%EndProlog

%%BeginSetup
save
procDict begin
printColorMap begin
416 347 setpagesize
0 0 0 0 setmargins
0 0 setorigin
416 347 setsize
naturalsize
portrait
imagescale
cliptobounds
setbasematrix
/Helvetica 10 sf
defaultGraphicsState
%%EndSetup

0.00000 0.00000 0.00000 RG
[ 1.00000 0.00000 0.00000 1.00000 0.00000 0.00000 ] defaultmatrix matrix concatmatrix setmatrix
cliprestore
1.00000 1.00000 1.00000 RG
newpath
0.00000 0.00000 m
416.000 0.00000 l
416.000 347.000 l
0.00000 347.000 l
0.00000 0.00000 l
h
f
0.00000 0.00000 0.00000 RG
0.00000 0.00000 0.00000 RG
[ 1.00000 0.00000 0.00000 1.00000 0.00000 0.00000 ] defaultmatrix matrix concatmatrix setmatrix
cliprestore
1.00000 1.00000 1.00000 RG
newpath
0.00000 0.00000 m
416.000 0.00000 l
416.000 347.000 l
0.00000 347.000 l
0.00000 0.00000 l
h
f
0.00000 0.00000 0.00000 RG
0 0 416 347 rc
q
[ 1.00000 0.00000 0.00000 1.00000 0.00000 0.00000 ] concat
[ 1.00000 0.00000 0.00000 1.00000 -405.000 -165.000 ] concat
1.00000 1.00000 1.00000 RG
newpath
405.000 165.000 m
821.000 165.000 l
821.000 512.000 l
405.000 512.000 l
405.000 165.000 l
h
f
0.00000 0.00000 0.00000 RG
[ 1.00000 0.00000 0.00000 1.00000 -405.000 -165.000 ] defaultmatrix matrix concatmatrix setmatrix
[ 1.00000 0.00000 0.00000 1.00000 -405.000 -165.000 ] defaultmatrix matrix concatmatrix setmatrix
[ 1.00000 0.00000 0.00000 1.00000 0.00000 0.00000 ] defaultmatrix matrix concatmatrix setmatrix
[ 1.00000 0.00000 0.00000 1.00000 -405.000 -165.000 ] defaultmatrix matrix concatmatrix setmatrix
1.00000 .800000 0.00000 RG
newpath
700.000 345.000 m
761.000 345.000 l
761.000 375.000 l
700.000 375.000 l
700.000 345.000 l
h
f
0 J
1.45000 M
0.00000 0.00000 0.00000 RG
newpath
700.000 345.000 m
761.000 345.000 l
761.000 375.000 l
700.000 375.000 l
700.000 345.000 l
h
S
2 J
10.0000 M
0 J
1.45000 M
newpath
724.764 363.727 m
724.072 364.363 723.406 364.682 722.766 364.682  c
722.238 364.682 721.801 364.517 721.453 364.187  c
721.105 363.856 720.932 363.439 720.932 362.936  c
720.932 362.240 721.224 361.706 721.808 361.333  c
722.392 360.960 723.229 360.773 724.318 360.773  c
724.594 360.773 l
724.594 360.006 l
724.594 359.268 724.215 358.898 723.457 358.898  c
722.848 358.898 722.189 359.086 721.482 359.461  c
721.482 358.506 l
722.260 358.189 722.988 358.031 723.668 358.031  c
724.379 358.031 724.903 358.191 725.241 358.512  c
725.579 358.832 725.748 359.330 725.748 360.006  c
725.748 362.889 l
725.748 363.549 725.951 363.879 726.357 363.879  c
726.408 363.879 726.482 363.871 726.580 363.855  c
726.662 364.494 l
726.400 364.619 726.111 364.682 725.795 364.682  c
725.256 364.682 724.912 364.363 724.764 363.727  c
h
724.594 363.100 m
724.594 361.453 l
724.207 361.441 l
723.574 361.441 723.062 361.562 722.672 361.802  c
722.281 362.042 722.086 362.357 722.086 362.748  c
722.086 363.025 722.184 363.260 722.379 363.451  c
722.574 363.643 722.812 363.738 723.094 363.738  c
723.574 363.738 724.074 363.525 724.594 363.100  c
h
728.109 364.535 m
728.109 358.172 l
729.264 358.172 l
729.264 359.367 l
729.873 358.477 730.619 358.031 731.502 358.031  c
732.053 358.031 732.492 358.206 732.820 358.556  c
733.148 358.905 733.312 359.375 733.312 359.965  c
733.312 364.535 l
732.158 364.535 l
732.158 360.340 l
732.158 359.867 732.089 359.530 731.950 359.329  c
731.812 359.128 731.582 359.027 731.262 359.027  c
730.555 359.027 729.889 359.490 729.264 360.416  c
729.264 364.535 l
h
735.926 366.850 m
736.957 364.535 l
734.496 358.172 l
735.744 358.172 l
737.566 362.965 l
739.512 358.172 l
740.602 358.172 l
737.127 366.850 l
h
f
2 J
10.0000 M
1.00000 .800000 0.00000 RG
newpath
469.000 221.000 m
530.000 221.000 l
530.000 251.000 l
469.000 251.000 l
469.000 221.000 l
h
f
0 J
1.45000 M
0.00000 0.00000 0.00000 RG
newpath
469.000 221.000 m
530.000 221.000 l
530.000 251.000 l
469.000 251.000 l
469.000 221.000 l
h
S
2 J
10.0000 M
0 J
1.45000 M
newpath
491.830 240.535 m
491.830 231.283 l
492.984 231.283 l
492.984 240.535 l
h
498.580 239.727 m
497.889 240.363 497.223 240.682 496.582 240.682  c
496.055 240.682 495.617 240.517 495.270 240.187  c
494.922 239.856 494.748 239.439 494.748 238.936  c
494.748 238.240 495.040 237.706 495.624 237.333  c
496.208 236.960 497.045 236.773 498.135 236.773  c
498.410 236.773 l
498.410 236.006 l
498.410 235.268 498.031 234.898 497.273 234.898  c
496.664 234.898 496.006 235.086 495.299 235.461  c
495.299 234.506 l
496.076 234.189 496.805 234.031 497.484 234.031  c
498.195 234.031 498.720 234.191 499.058 234.512  c
499.396 234.832 499.564 235.330 499.564 236.006  c
499.564 238.889 l
499.564 239.549 499.768 239.879 500.174 239.879  c
500.225 239.879 500.299 239.871 500.396 239.855  c
500.479 240.494 l
500.217 240.619 499.928 240.682 499.611 240.682  c
499.072 240.682 498.729 240.363 498.580 239.727  c
h
498.410 239.100 m
498.410 237.453 l
498.023 237.441 l
497.391 237.441 496.879 237.562 496.488 237.802  c
496.098 238.042 495.902 238.357 495.902 238.748  c
495.902 239.025 496.000 239.260 496.195 239.451  c
496.391 239.643 496.629 239.738 496.910 239.738  c
497.391 239.738 497.891 239.525 498.410 239.100  c
h
501.926 240.605 m
501.926 231.283 l
503.080 231.283 l
503.080 235.367 l
503.553 234.477 504.262 234.031 505.207 234.031  c
505.973 234.031 506.575 234.311 507.015 234.869  c
507.454 235.428 507.674 236.191 507.674 237.160  c
507.674 238.215 507.425 239.065 506.927 239.712  c
506.429 240.358 505.773 240.682 504.961 240.682  c
504.207 240.682 503.580 240.393 503.080 239.814  c
502.939 240.605 l
h
503.080 239.018 m
503.674 239.549 504.240 239.814 504.779 239.814  c
505.889 239.814 506.443 238.969 506.443 237.277  c
506.443 235.785 505.951 235.039 504.967 235.039  c
504.322 235.039 503.693 235.389 503.080 236.088  c
h
f
2 J
10.0000 M
1.00000 .800000 0.00000 RG
newpath
469.000 423.000 m
530.000 423.000 l
530.000 453.000 l
469.000 453.000 l
469.000 423.000 l
h
f
0 J
1.45000 M
0.00000 0.00000 0.00000 RG
newpath
469.000 423.000 m
530.000 423.000 l
530.000 453.000 l
469.000 453.000 l
469.000 423.000 l
h
S
2 J
10.0000 M
0 J
1.45000 M
newpath
480.592 442.682 m
479.732 442.682 479.020 442.363 478.453 441.727  c
477.887 441.090 477.604 440.287 477.604 439.318  c
477.604 438.283 477.884 437.477 478.444 436.898  c
479.005 436.320 479.787 436.031 480.791 436.031  c
481.287 436.031 481.842 436.100 482.455 436.236  c
482.455 437.203 l
481.803 437.012 481.271 436.916 480.861 436.916  c
480.271 436.916 479.798 437.138 479.440 437.581  c
479.083 438.024 478.904 438.615 478.904 439.354  c
478.904 440.068 479.088 440.646 479.455 441.088  c
479.822 441.529 480.303 441.750 480.896 441.750  c
481.424 441.750 481.967 441.615 482.525 441.346  c
482.525 442.342 l
481.779 442.568 481.135 442.682 480.592 442.682  c
h
487.535 441.727 m
486.844 442.363 486.178 442.682 485.537 442.682  c
485.010 442.682 484.572 442.517 484.225 442.187  c
483.877 441.856 483.703 441.439 483.703 440.936  c
483.703 440.240 483.995 439.706 484.579 439.333  c
485.163 438.960 486.000 438.773 487.090 438.773  c
487.365 438.773 l
487.365 438.006 l
487.365 437.268 486.986 436.898 486.229 436.898  c
485.619 436.898 484.961 437.086 484.254 437.461  c
484.254 436.506 l
485.031 436.189 485.760 436.031 486.439 436.031  c
487.150 436.031 487.675 436.191 488.013 436.512  c
488.351 436.832 488.520 437.330 488.520 438.006  c
488.520 440.889 l
488.520 441.549 488.723 441.879 489.129 441.879  c
489.180 441.879 489.254 441.871 489.352 441.855  c
489.434 442.494 l
489.172 442.619 488.883 442.682 488.566 442.682  c
488.027 442.682 487.684 442.363 487.535 441.727  c
h
487.365 441.100 m
487.365 439.453 l
486.979 439.441 l
486.346 439.441 485.834 439.562 485.443 439.802  c
485.053 440.042 484.857 440.357 484.857 440.748  c
484.857 441.025 484.955 441.260 485.150 441.451  c
485.346 441.643 485.584 441.738 485.865 441.738  c
486.346 441.738 486.846 441.525 487.365 441.100  c
h
490.881 442.535 m
490.881 436.172 l
492.035 436.172 l
492.035 437.367 l
492.598 436.477 493.320 436.031 494.203 436.031  c
495.055 436.031 495.635 436.477 495.943 437.367  c
496.490 436.473 497.201 436.025 498.076 436.025  c
498.639 436.025 499.074 436.190 499.383 436.521  c
499.691 436.851 499.846 437.312 499.846 437.906  c
499.846 442.535 l
498.686 442.535 l
498.686 438.088 l
498.686 437.361 498.398 436.998 497.824 436.998  c
497.227 436.998 496.600 437.422 495.943 438.270  c
495.943 442.535 l
494.783 442.535 l
494.783 438.088 l
494.783 437.357 494.490 436.992 493.904 436.992  c
493.322 436.992 492.699 437.418 492.035 438.270  c
492.035 442.535 l
h
502.084 444.850 m
502.084 436.172 l
503.238 436.172 l
503.238 437.367 l
503.711 436.477 504.420 436.031 505.365 436.031  c
506.131 436.031 506.733 436.311 507.173 436.869  c
507.612 437.428 507.832 438.191 507.832 439.160  c
507.832 440.215 507.583 441.065 507.085 441.712  c
506.587 442.358 505.932 442.682 505.119 442.682  c
504.365 442.682 503.738 442.393 503.238 441.814  c
503.238 444.850 l
h
503.238 441.018 m
503.832 441.549 504.398 441.814 504.938 441.814  c
506.047 441.814 506.602 440.969 506.602 439.277  c
506.602 437.785 506.109 437.039 505.125 437.039  c
504.480 437.039 503.852 437.389 503.238 438.088  c
h
513.615 442.535 m
513.615 441.340 l
513.002 442.234 512.258 442.682 511.383 442.682  c
510.828 442.682 510.387 442.507 510.059 442.157  c
509.730 441.808 509.566 441.336 509.566 440.742  c
509.566 436.172 l
510.721 436.172 l
510.721 440.367 l
510.721 440.844 510.790 441.183 510.929 441.384  c
511.067 441.585 511.299 441.686 511.623 441.686  c
512.326 441.686 512.990 441.223 513.615 440.297  c
513.615 436.172 l
514.770 436.172 l
514.770 442.535 l
h
518.771 442.682 m
518.244 442.682 517.604 442.559 516.850 442.312  c
516.850 441.252 l
517.604 441.627 518.260 441.814 518.818 441.814  c
519.150 441.814 519.426 441.725 519.645 441.545  c
519.863 441.365 519.973 441.141 519.973 440.871  c
519.973 440.477 519.666 440.150 519.053 439.893  c
518.379 439.605 l
517.383 439.191 516.885 438.596 516.885 437.818  c
516.885 437.264 517.081 436.827 517.474 436.509  c
517.866 436.190 518.404 436.031 519.088 436.031  c
519.443 436.031 519.883 436.080 520.406 436.178  c
520.646 436.225 l
520.646 437.186 l
520.002 436.994 519.490 436.898 519.111 436.898  c
518.369 436.898 517.998 437.168 517.998 437.707  c
517.998 438.055 518.279 438.348 518.842 438.586  c
519.398 438.820 l
520.027 439.086 520.473 439.366 520.734 439.661  c
520.996 439.956 521.127 440.324 521.127 440.766  c
521.127 441.324 520.906 441.783 520.465 442.143  c
520.023 442.502 519.459 442.682 518.771 442.682  c
h
f
2 J
10.0000 M
1.00000 0.00000 0.00000 RG
0 J
1.45000 M
newpath
734.854 374.989 m
735.367 375.935 l
738.847 380.153 l
743.065 383.633 l
747.906 386.260 l
753.256 387.921 l
759.000 388.500 l
764.744 387.921 l
770.094 386.260 l
774.935 383.633 l
779.153 380.153 l
782.633 375.935 l
785.260 371.093 l
786.921 365.744 l
787.500 360.000 l
786.921 354.256 l
785.260 348.907 l
782.633 344.065 l
779.153 339.847 l
774.935 336.367 l
770.094 333.740 l
764.744 332.079 l
759.000 331.500 l
753.256 332.079 l
747.906 333.740 l
743.065 336.367 l
740.007 338.891 l
739.945 338.970 l
S
newpath
734.790 345.087 m
746.346 339.134 l
740.590 338.206 l
738.700 332.689 l
h
f
0.00000 0.00000 0.00000 RG
newpath
778.761 364.535 m
778.761 363.340 l
778.292 364.234 777.585 364.682 776.640 364.682  c
775.874 364.682 775.271 364.402 774.832 363.844  c
774.393 363.285 774.173 362.521 774.173 361.553  c
774.173 360.494 774.422 359.643 774.920 358.998  c
775.418 358.354 776.073 358.031 776.886 358.031  c
777.640 358.031 778.265 358.320 778.761 358.898  c
778.761 355.283 l
779.921 355.283 l
779.921 364.535 l
h
778.761 359.689 m
778.163 359.162 777.597 358.898 777.062 358.898  c
775.956 358.898 775.403 359.744 775.403 361.436  c
775.403 362.924 775.896 363.668 776.880 363.668  c
777.521 363.668 778.147 363.318 778.761 362.619  c
h
786.894 364.330 m
786.120 364.564 785.458 364.682 784.907 364.682  c
783.970 364.682 783.205 364.370 782.613 363.747  c
782.021 363.124 781.726 362.316 781.726 361.324  c
781.726 360.359 781.986 359.568 782.508 358.951  c
783.029 358.334 783.696 358.025 784.509 358.025  c
785.278 358.025 785.873 358.299 786.293 358.846  c
786.713 359.393 786.923 360.170 786.923 361.178  c
786.917 361.535 l
782.903 361.535 l
783.071 363.047 783.812 363.803 785.124 363.803  c
785.604 363.803 786.194 363.674 786.894 363.416  c
h
782.956 360.668 m
785.763 360.668 l
785.763 359.484 785.321 358.893 784.438 358.893  c
783.552 358.893 783.058 359.484 782.956 360.668  c
h
788.915 364.535 m
788.915 358.172 l
790.069 358.172 l
790.069 359.367 l
790.679 358.477 791.425 358.031 792.308 358.031  c
792.858 358.031 793.298 358.206 793.626 358.556  c
793.954 358.905 794.118 359.375 794.118 359.965  c
794.118 364.535 l
792.964 364.535 l
792.964 360.340 l
792.964 359.867 792.895 359.530 792.756 359.329  c
792.617 359.128 792.388 359.027 792.067 359.027  c
791.360 359.027 790.694 359.490 790.069 360.416  c
790.069 364.535 l
h
796.731 366.850 m
797.763 364.535 l
795.302 358.172 l
796.550 358.172 l
798.372 362.965 l
800.317 358.172 l
801.407 358.172 l
797.933 366.850 l
h
f
1.00000 0.00000 0.00000 RG
2 J
10.0000 M
0.00000 0.00000 0.00000 RG
0.00000 1.00000 0.00000 RG
0 J
1.45000 M
newpath
732.548 374.978 m
733.834 378.176 l
735.507 381.394 l
737.473 384.424 l
739.716 387.249 l
742.217 389.847 l
744.960 392.198 l
747.927 394.282 l
751.100 396.080 l
754.461 397.571 l
757.993 398.734 l
761.679 399.551 l
765.500 400.000 l
769.347 400.062 l
773.108 399.742 l
776.764 399.057 l
780.293 398.026 l
783.676 396.666 l
786.894 394.993 l
789.924 393.027 l
792.749 390.784 l
795.347 388.283 l
797.698 385.540 l
799.782 382.573 l
801.580 379.400 l
803.071 376.039 l
804.234 372.507 l
805.051 368.821 l
805.500 365.000 l
805.562 361.153 l
805.242 357.392 l
804.557 353.736 l
803.526 350.207 l
802.166 346.824 l
800.493 343.606 l
798.527 340.576 l
796.284 337.751 l
793.783 335.153 l
791.040 332.802 l
788.073 330.718 l
784.900 328.920 l
781.539 327.429 l
778.007 326.266 l
774.321 325.449 l
770.500 325.000 l
766.653 324.938 l
762.892 325.258 l
759.236 325.943 l
755.707 326.974 l
752.323 328.334 l
749.106 330.007 l
746.076 331.973 l
743.251 334.216 l
740.653 336.717 l
739.252 338.353 l
739.198 338.437 l
S
newpath
734.715 345.063 m
745.581 337.925 l
739.758 337.609 l
737.298 332.322 l
h
f
0.00000 0.00000 0.00000 RG
newpath
763.254 400.300 m
763.254 391.622 l
764.409 391.622 l
764.409 392.817 l
764.881 391.927 765.590 391.481 766.536 391.481  c
767.301 391.481 767.904 391.761 768.343 392.319  c
768.783 392.878 769.003 393.642 769.003 394.610  c
769.003 395.665 768.753 396.516 768.255 397.162  c
767.757 397.809 767.102 398.132 766.290 398.132  c
765.536 398.132 764.909 397.843 764.409 397.265  c
764.409 400.300 l
h
764.409 396.468 m
765.003 396.999 765.569 397.265 766.108 397.265  c
767.217 397.265 767.772 396.419 767.772 394.728  c
767.772 393.235 767.280 392.489 766.295 392.489  c
765.651 392.489 765.022 392.839 764.409 393.538  c
h
775.471 397.780 m
774.698 398.015 774.036 398.132 773.485 398.132  c
772.547 398.132 771.783 397.820 771.191 397.197  c
770.599 396.574 770.303 395.767 770.303 394.774  c
770.303 393.810 770.564 393.019 771.086 392.401  c
771.607 391.784 772.274 391.476 773.086 391.476  c
773.856 391.476 774.451 391.749 774.871 392.296  c
775.291 392.843 775.501 393.620 775.501 394.628  c
775.495 394.985 l
771.481 394.985 l
771.649 396.497 772.389 397.253 773.702 397.253  c
774.182 397.253 774.772 397.124 775.471 396.866  c
h
771.534 394.118 m
774.340 394.118 l
774.340 392.935 773.899 392.343 773.016 392.343  c
772.129 392.343 771.635 392.935 771.534 394.118  c
h
777.493 397.985 m
777.493 391.622 l
778.647 391.622 l
778.647 392.817 l
779.104 391.927 779.768 391.481 780.639 391.481  c
780.756 391.481 780.879 391.491 781.008 391.511  c
781.008 392.589 l
780.809 392.522 780.633 392.489 780.481 392.489  c
779.751 392.489 779.139 392.923 778.647 393.790  c
778.647 397.985 l
h
782.403 397.985 m
782.403 391.622 l
783.557 391.622 l
783.557 392.817 l
784.120 391.927 784.842 391.481 785.725 391.481  c
786.577 391.481 787.157 391.927 787.465 392.817  c
788.012 391.923 788.723 391.476 789.598 391.476  c
790.161 391.476 790.596 391.641 790.905 391.971  c
791.213 392.301 791.368 392.763 791.368 393.356  c
791.368 397.985 l
790.208 397.985 l
790.208 393.538 l
790.208 392.812 789.920 392.448 789.346 392.448  c
788.749 392.448 788.122 392.872 787.465 393.720  c
787.465 397.985 l
786.305 397.985 l
786.305 393.538 l
786.305 392.808 786.012 392.442 785.426 392.442  c
784.844 392.442 784.221 392.868 783.557 393.720  c
783.557 397.985 l
h
793.606 397.985 m
793.606 391.622 l
794.760 391.622 l
794.760 397.985 l
h
793.606 390.468 m
793.606 389.314 l
794.760 389.314 l
794.760 390.468 l
h
798.985 398.132 m
798.399 398.132 797.942 397.964 797.614 397.628  c
797.286 397.292 797.122 396.825 797.122 396.228  c
797.122 392.489 l
796.325 392.489 l
796.325 391.622 l
797.122 391.622 l
797.122 390.468 l
798.276 390.356 l
798.276 391.622 l
799.940 391.622 l
799.940 392.489 l
798.276 392.489 l
798.276 396.017 l
798.276 396.849 798.635 397.265 799.354 397.265  c
799.506 397.265 799.692 397.239 799.911 397.189  c
799.911 397.985 l
799.555 398.083 799.247 398.132 798.985 398.132  c
h
f
0.00000 1.00000 0.00000 RG
2 J
10.0000 M
0.00000 0.00000 0.00000 RG
0.00000 1.00000 0.00000 RG
0 J
1.45000 M
newpath
495.195 220.979 m
494.547 219.786 l
491.006 215.494 l
486.714 211.953 l
481.788 209.279 l
476.345 207.589 l
473.465 207.150 l
470.500 207.000 l
467.535 207.150 l
464.655 207.589 l
459.212 209.279 l
454.286 211.953 l
449.994 215.494 l
446.453 219.786 l
443.779 224.712 l
442.089 230.155 l
441.650 233.035 l
441.500 236.000 l
441.650 238.965 l
442.089 241.845 l
443.779 247.288 l
446.453 252.214 l
449.994 256.506 l
454.286 260.047 l
459.212 262.721 l
464.655 264.411 l
467.535 264.850 l
470.500 265.000 l
473.465 264.850 l
476.345 264.411 l
481.788 262.721 l
486.714 260.047 l
490.139 257.221 l
490.200 257.142 l
S
newpath
495.258 250.944 m
483.797 257.080 l
489.568 257.917 l
491.545 263.402 l
h
f
0.00000 0.00000 0.00000 RG
newpath
423.500 242.850 m
423.500 234.172 l
424.654 234.172 l
424.654 235.367 l
425.127 234.477 425.836 234.031 426.781 234.031  c
427.547 234.031 428.149 234.311 428.589 234.869  c
429.028 235.428 429.248 236.191 429.248 237.160  c
429.248 238.215 428.999 239.065 428.501 239.712  c
428.003 240.358 427.348 240.682 426.535 240.682  c
425.781 240.682 425.154 240.393 424.654 239.814  c
424.654 242.850 l
h
424.654 239.018 m
425.248 239.549 425.814 239.814 426.354 239.814  c
427.463 239.814 428.018 238.969 428.018 237.277  c
428.018 235.785 427.525 235.039 426.541 235.039  c
425.896 235.039 425.268 235.389 424.654 236.088  c
h
435.717 240.330 m
434.943 240.564 434.281 240.682 433.730 240.682  c
432.793 240.682 432.028 240.370 431.437 239.747  c
430.845 239.124 430.549 238.316 430.549 237.324  c
430.549 236.359 430.810 235.568 431.331 234.951  c
431.853 234.334 432.520 234.025 433.332 234.025  c
434.102 234.025 434.696 234.299 435.116 234.846  c
435.536 235.393 435.746 236.170 435.746 237.178  c
435.740 237.535 l
431.727 237.535 l
431.895 239.047 432.635 239.803 433.947 239.803  c
434.428 239.803 435.018 239.674 435.717 239.416  c
h
431.779 236.668 m
434.586 236.668 l
434.586 235.484 434.145 234.893 433.262 234.893  c
432.375 234.893 431.881 235.484 431.779 236.668  c
h
437.738 240.535 m
437.738 234.172 l
438.893 234.172 l
438.893 235.367 l
439.350 234.477 440.014 234.031 440.885 234.031  c
441.002 234.031 441.125 234.041 441.254 234.061  c
441.254 235.139 l
441.055 235.072 440.879 235.039 440.727 235.039  c
439.996 235.039 439.385 235.473 438.893 236.340  c
438.893 240.535 l
h
442.648 240.535 m
442.648 234.172 l
443.803 234.172 l
443.803 235.367 l
444.365 234.477 445.088 234.031 445.971 234.031  c
446.822 234.031 447.402 234.477 447.711 235.367  c
448.258 234.473 448.969 234.025 449.844 234.025  c
450.406 234.025 450.842 234.190 451.150 234.521  c
451.459 234.851 451.613 235.312 451.613 235.906  c
451.613 240.535 l
450.453 240.535 l
450.453 236.088 l
450.453 235.361 450.166 234.998 449.592 234.998  c
448.994 234.998 448.367 235.422 447.711 236.270  c
447.711 240.535 l
446.551 240.535 l
446.551 236.088 l
446.551 235.357 446.258 234.992 445.672 234.992  c
445.090 234.992 444.467 235.418 443.803 236.270  c
443.803 240.535 l
h
453.852 240.535 m
453.852 234.172 l
455.006 234.172 l
455.006 240.535 l
h
453.852 233.018 m
453.852 231.863 l
455.006 231.863 l
455.006 233.018 l
h
459.230 240.682 m
458.645 240.682 458.188 240.514 457.859 240.178  c
457.531 239.842 457.367 239.375 457.367 238.777  c
457.367 235.039 l
456.570 235.039 l
456.570 234.172 l
457.367 234.172 l
457.367 233.018 l
458.521 232.906 l
458.521 234.172 l
460.186 234.172 l
460.186 235.039 l
458.521 235.039 l
458.521 238.566 l
458.521 239.398 458.881 239.814 459.600 239.814  c
459.752 239.814 459.938 239.789 460.156 239.738  c
460.156 240.535 l
459.801 240.633 459.492 240.682 459.230 240.682  c
h
f
0.00000 1.00000 0.00000 RG
2 J
10.0000 M
0.00000 0.00000 0.00000 RG
1.00000 0.00000 0.00000 RG
0 J
1.45000 M
newpath
520.996 220.974 m
522.033 217.635 l
522.500 213.000 l
522.033 208.365 l
520.693 204.047 l
518.572 200.140 l
515.763 196.737 l
512.359 193.928 l
508.453 191.807 l
504.135 190.467 l
499.500 190.000 l
494.865 190.467 l
490.547 191.807 l
486.640 193.928 l
483.237 196.737 l
480.428 200.140 l
478.307 204.047 l
476.967 208.365 l
476.500 213.000 l
476.512 213.115 l
476.541 213.210 l
S
newpath
478.022 221.072 m
480.714 208.354 l
476.356 212.228 l
470.887 210.205 l
h
f
0.00000 0.00000 0.00000 RG
newpath
490.761 194.535 m
490.761 193.340 l
490.292 194.234 489.585 194.682 488.640 194.682  c
487.874 194.682 487.271 194.402 486.832 193.844  c
486.393 193.285 486.173 192.521 486.173 191.553  c
486.173 190.494 486.422 189.643 486.920 188.998  c
487.418 188.354 488.073 188.031 488.886 188.031  c
489.640 188.031 490.265 188.320 490.761 188.898  c
490.761 185.283 l
491.921 185.283 l
491.921 194.535 l
h
490.761 189.689 m
490.163 189.162 489.597 188.898 489.062 188.898  c
487.956 188.898 487.403 189.744 487.403 191.436  c
487.403 192.924 487.896 193.668 488.880 193.668  c
489.521 193.668 490.147 193.318 490.761 192.619  c
h
498.894 194.330 m
498.120 194.564 497.458 194.682 496.907 194.682  c
495.970 194.682 495.205 194.370 494.613 193.747  c
494.021 193.124 493.726 192.316 493.726 191.324  c
493.726 190.359 493.986 189.568 494.508 188.951  c
495.029 188.334 495.696 188.025 496.509 188.025  c
497.278 188.025 497.873 188.299 498.293 188.846  c
498.713 189.393 498.923 190.170 498.923 191.178  c
498.917 191.535 l
494.903 191.535 l
495.071 193.047 495.812 193.803 497.124 193.803  c
497.604 193.803 498.194 193.674 498.894 193.416  c
h
494.956 190.668 m
497.763 190.668 l
497.763 189.484 497.321 188.893 496.438 188.893  c
495.552 188.893 495.058 189.484 494.956 190.668  c
h
500.915 194.535 m
500.915 188.172 l
502.069 188.172 l
502.069 189.367 l
502.679 188.477 503.425 188.031 504.308 188.031  c
504.858 188.031 505.298 188.206 505.626 188.556  c
505.954 188.905 506.118 189.375 506.118 189.965  c
506.118 194.535 l
504.964 194.535 l
504.964 190.340 l
504.964 189.867 504.895 189.530 504.756 189.329  c
504.617 189.128 504.388 189.027 504.067 189.027  c
503.360 189.027 502.694 189.490 502.069 190.416  c
502.069 194.535 l
h
508.731 196.850 m
509.763 194.535 l
507.302 188.172 l
508.550 188.172 l
510.372 192.965 l
512.317 188.172 l
513.407 188.172 l
509.933 196.850 l
h
f
1.00000 0.00000 0.00000 RG
2 J
10.0000 M
0.00000 0.00000 0.00000 RG
0.00000 1.00000 0.00000 RG
0 J
1.45000 M
newpath
528.786 251.000 m
622.500 299.000 l
693.225 343.707 l
S
newpath
699.987 347.982 m
692.516 337.343 l
692.380 343.173 l
687.172 345.796 l
h
f
0.00000 0.00000 0.00000 RG
newpath
604.500 305.850 m
604.500 297.172 l
605.654 297.172 l
605.654 298.367 l
606.127 297.477 606.836 297.031 607.781 297.031  c
608.547 297.031 609.149 297.311 609.589 297.869  c
610.028 298.428 610.248 299.191 610.248 300.160  c
610.248 301.215 609.999 302.065 609.501 302.712  c
609.003 303.358 608.348 303.682 607.535 303.682  c
606.781 303.682 606.154 303.393 605.654 302.814  c
605.654 305.850 l
h
605.654 302.018 m
606.248 302.549 606.814 302.814 607.354 302.814  c
608.463 302.814 609.018 301.969 609.018 300.277  c
609.018 298.785 608.525 298.039 607.541 298.039  c
606.896 298.039 606.268 298.389 605.654 299.088  c
h
616.717 303.330 m
615.943 303.564 615.281 303.682 614.730 303.682  c
613.793 303.682 613.028 303.370 612.437 302.747  c
611.845 302.124 611.549 301.316 611.549 300.324  c
611.549 299.359 611.810 298.568 612.331 297.951  c
612.853 297.334 613.520 297.025 614.332 297.025  c
615.102 297.025 615.696 297.299 616.116 297.846  c
616.536 298.393 616.746 299.170 616.746 300.178  c
616.740 300.535 l
612.727 300.535 l
612.895 302.047 613.635 302.803 614.947 302.803  c
615.428 302.803 616.018 302.674 616.717 302.416  c
h
612.779 299.668 m
615.586 299.668 l
615.586 298.484 615.145 297.893 614.262 297.893  c
613.375 297.893 612.881 298.484 612.779 299.668  c
h
618.738 303.535 m
618.738 297.172 l
619.893 297.172 l
619.893 298.367 l
620.350 297.477 621.014 297.031 621.885 297.031  c
622.002 297.031 622.125 297.041 622.254 297.061  c
622.254 298.139 l
622.055 298.072 621.879 298.039 621.727 298.039  c
620.996 298.039 620.385 298.473 619.893 299.340  c
619.893 303.535 l
h
623.648 303.535 m
623.648 297.172 l
624.803 297.172 l
624.803 298.367 l
625.365 297.477 626.088 297.031 626.971 297.031  c
627.822 297.031 628.402 297.477 628.711 298.367  c
629.258 297.473 629.969 297.025 630.844 297.025  c
631.406 297.025 631.842 297.190 632.150 297.521  c
632.459 297.851 632.613 298.312 632.613 298.906  c
632.613 303.535 l
631.453 303.535 l
631.453 299.088 l
631.453 298.361 631.166 297.998 630.592 297.998  c
629.994 297.998 629.367 298.422 628.711 299.270  c
628.711 303.535 l
627.551 303.535 l
627.551 299.088 l
627.551 298.357 627.258 297.992 626.672 297.992  c
626.090 297.992 625.467 298.418 624.803 299.270  c
624.803 303.535 l
h
634.852 303.535 m
634.852 297.172 l
636.006 297.172 l
636.006 303.535 l
h
634.852 296.018 m
634.852 294.863 l
636.006 294.863 l
636.006 296.018 l
h
640.230 303.682 m
639.645 303.682 639.188 303.514 638.859 303.178  c
638.531 302.842 638.367 302.375 638.367 301.777  c
638.367 298.039 l
637.570 298.039 l
637.570 297.172 l
638.367 297.172 l
638.367 296.018 l
639.521 295.906 l
639.521 297.172 l
641.186 297.172 l
641.186 298.039 l
639.521 298.039 l
639.521 301.566 l
639.521 302.398 639.881 302.814 640.600 302.814  c
640.752 302.814 640.938 302.789 641.156 302.738  c
641.156 303.535 l
640.801 303.633 640.492 303.682 640.230 303.682  c
h
f
0.00000 1.00000 0.00000 RG
2 J
10.0000 M
0.00000 0.00000 0.00000 RG
0.00000 1.00000 0.00000 RG
0 J
1.45000 M
newpath
476.914 452.999 m
475.498 457.562 l
475.000 462.500 l
475.498 467.438 l
476.925 472.036 l
479.184 476.198 l
482.176 479.824 l
485.802 482.816 l
489.964 485.075 l
494.562 486.502 l
499.500 487.000 l
504.438 486.502 l
509.036 485.075 l
513.198 482.816 l
516.824 479.824 l
519.816 476.198 l
522.075 472.036 l
523.502 467.438 l
524.000 462.500 l
523.829 460.807 l
523.800 460.712 l
S
newpath
522.064 452.902 m
519.787 465.701 l
524.017 461.688 l
529.548 463.532 l
h
f
0.00000 0.00000 0.00000 RG
newpath
481.500 493.850 m
481.500 485.172 l
482.654 485.172 l
482.654 486.367 l
483.127 485.477 483.836 485.031 484.781 485.031  c
485.547 485.031 486.149 485.311 486.589 485.869  c
487.028 486.428 487.248 487.191 487.248 488.160  c
487.248 489.215 486.999 490.065 486.501 490.712  c
486.003 491.358 485.348 491.682 484.535 491.682  c
483.781 491.682 483.154 491.393 482.654 490.814  c
482.654 493.850 l
h
482.654 490.018 m
483.248 490.549 483.814 490.814 484.354 490.814  c
485.463 490.814 486.018 489.969 486.018 488.277  c
486.018 486.785 485.525 486.039 484.541 486.039  c
483.896 486.039 483.268 486.389 482.654 487.088  c
h
493.717 491.330 m
492.943 491.564 492.281 491.682 491.730 491.682  c
490.793 491.682 490.028 491.370 489.437 490.747  c
488.845 490.124 488.549 489.316 488.549 488.324  c
488.549 487.359 488.810 486.568 489.331 485.951  c
489.853 485.334 490.520 485.025 491.332 485.025  c
492.102 485.025 492.696 485.299 493.116 485.846  c
493.536 486.393 493.746 487.170 493.746 488.178  c
493.740 488.535 l
489.727 488.535 l
489.895 490.047 490.635 490.803 491.947 490.803  c
492.428 490.803 493.018 490.674 493.717 490.416  c
h
489.779 487.668 m
492.586 487.668 l
492.586 486.484 492.145 485.893 491.262 485.893  c
490.375 485.893 489.881 486.484 489.779 487.668  c
h
495.738 491.535 m
495.738 485.172 l
496.893 485.172 l
496.893 486.367 l
497.350 485.477 498.014 485.031 498.885 485.031  c
499.002 485.031 499.125 485.041 499.254 485.061  c
499.254 486.139 l
499.055 486.072 498.879 486.039 498.727 486.039  c
497.996 486.039 497.385 486.473 496.893 487.340  c
496.893 491.535 l
h
500.648 491.535 m
500.648 485.172 l
501.803 485.172 l
501.803 486.367 l
502.365 485.477 503.088 485.031 503.971 485.031  c
504.822 485.031 505.402 485.477 505.711 486.367  c
506.258 485.473 506.969 485.025 507.844 485.025  c
508.406 485.025 508.842 485.190 509.150 485.521  c
509.459 485.851 509.613 486.312 509.613 486.906  c
509.613 491.535 l
508.453 491.535 l
508.453 487.088 l
508.453 486.361 508.166 485.998 507.592 485.998  c
506.994 485.998 506.367 486.422 505.711 487.270  c
505.711 491.535 l
504.551 491.535 l
504.551 487.088 l
504.551 486.357 504.258 485.992 503.672 485.992  c
503.090 485.992 502.467 486.418 501.803 487.270  c
501.803 491.535 l
h
511.852 491.535 m
511.852 485.172 l
513.006 485.172 l
513.006 491.535 l
h
511.852 484.018 m
511.852 482.863 l
513.006 482.863 l
513.006 484.018 l
h
517.230 491.682 m
516.645 491.682 516.188 491.514 515.859 491.178  c
515.531 490.842 515.367 490.375 515.367 489.777  c
515.367 486.039 l
514.570 486.039 l
514.570 485.172 l
515.367 485.172 l
515.367 484.018 l
516.521 483.906 l
516.521 485.172 l
518.186 485.172 l
518.186 486.039 l
516.521 486.039 l
516.521 489.566 l
516.521 490.398 516.881 490.814 517.600 490.814  c
517.752 490.814 517.938 490.789 518.156 490.738  c
518.156 491.535 l
517.801 491.633 517.492 491.682 517.230 491.682  c
h
f
0.00000 1.00000 0.00000 RG
2 J
10.0000 M
0.00000 0.00000 0.00000 RG
1.00000 0.00000 0.00000 RG
0 J
1.45000 M
newpath
485.500 250.970 m
485.500 414.971 l
S
newpath
485.500 422.971 m
490.500 410.971 l
485.500 413.971 l
480.500 410.971 l
h
f
0.00000 0.00000 0.00000 RG
newpath
476.761 341.535 m
476.761 340.340 l
476.292 341.234 475.585 341.682 474.640 341.682  c
473.874 341.682 473.271 341.402 472.832 340.844  c
472.393 340.285 472.173 339.521 472.173 338.553  c
472.173 337.494 472.422 336.643 472.920 335.998  c
473.418 335.354 474.073 335.031 474.886 335.031  c
475.640 335.031 476.265 335.320 476.761 335.898  c
476.761 332.283 l
477.921 332.283 l
477.921 341.535 l
h
476.761 336.689 m
476.163 336.162 475.597 335.898 475.062 335.898  c
473.956 335.898 473.403 336.744 473.403 338.436  c
473.403 339.924 473.896 340.668 474.880 340.668  c
475.521 340.668 476.147 340.318 476.761 339.619  c
h
484.894 341.330 m
484.120 341.564 483.458 341.682 482.907 341.682  c
481.970 341.682 481.205 341.370 480.613 340.747  c
480.021 340.124 479.726 339.316 479.726 338.324  c
479.726 337.359 479.986 336.568 480.508 335.951  c
481.029 335.334 481.696 335.025 482.509 335.025  c
483.278 335.025 483.873 335.299 484.293 335.846  c
484.713 336.393 484.923 337.170 484.923 338.178  c
484.917 338.535 l
480.903 338.535 l
481.071 340.047 481.812 340.803 483.124 340.803  c
483.604 340.803 484.194 340.674 484.894 340.416  c
h
480.956 337.668 m
483.763 337.668 l
483.763 336.484 483.321 335.893 482.438 335.893  c
481.552 335.893 481.058 336.484 480.956 337.668  c
h
486.915 341.535 m
486.915 335.172 l
488.069 335.172 l
488.069 336.367 l
488.679 335.477 489.425 335.031 490.308 335.031  c
490.858 335.031 491.298 335.206 491.626 335.556  c
491.954 335.905 492.118 336.375 492.118 336.965  c
492.118 341.535 l
490.964 341.535 l
490.964 337.340 l
490.964 336.867 490.895 336.530 490.756 336.329  c
490.617 336.128 490.388 336.027 490.067 336.027  c
489.360 336.027 488.694 336.490 488.069 337.416  c
488.069 341.535 l
h
494.731 343.850 m
495.763 341.535 l
493.302 335.172 l
494.550 335.172 l
496.372 339.965 l
498.317 335.172 l
499.407 335.172 l
495.933 343.850 l
h
f
1.00000 0.00000 0.00000 RG
2 J
10.0000 M
0.00000 0.00000 0.00000 RG
0.00000 1.00000 0.00000 RG
0 J
1.45000 M
newpath
730.500 375.000 m
730.500 438.000 l
538.000 438.000 l
S
newpath
530.000 438.000 m
542.000 443.000 l
539.000 438.000 l
542.000 433.000 l
h
f
0.00000 0.00000 0.00000 RG
newpath
658.500 444.850 m
658.500 436.172 l
659.654 436.172 l
659.654 437.367 l
660.127 436.477 660.836 436.031 661.781 436.031  c
662.547 436.031 663.149 436.311 663.589 436.869  c
664.028 437.428 664.248 438.191 664.248 439.160  c
664.248 440.215 663.999 441.065 663.501 441.712  c
663.003 442.358 662.348 442.682 661.535 442.682  c
660.781 442.682 660.154 442.393 659.654 441.814  c
659.654 444.850 l
h
659.654 441.018 m
660.248 441.549 660.814 441.814 661.354 441.814  c
662.463 441.814 663.018 440.969 663.018 439.277  c
663.018 437.785 662.525 437.039 661.541 437.039  c
660.896 437.039 660.268 437.389 659.654 438.088  c
h
670.717 442.330 m
669.943 442.564 669.281 442.682 668.730 442.682  c
667.793 442.682 667.028 442.370 666.437 441.747  c
665.845 441.124 665.549 440.316 665.549 439.324  c
665.549 438.359 665.810 437.568 666.331 436.951  c
666.853 436.334 667.520 436.025 668.332 436.025  c
669.102 436.025 669.696 436.299 670.116 436.846  c
670.536 437.393 670.746 438.170 670.746 439.178  c
670.740 439.535 l
666.727 439.535 l
666.895 441.047 667.635 441.803 668.947 441.803  c
669.428 441.803 670.018 441.674 670.717 441.416  c
h
666.779 438.668 m
669.586 438.668 l
669.586 437.484 669.145 436.893 668.262 436.893  c
667.375 436.893 666.881 437.484 666.779 438.668  c
h
672.738 442.535 m
672.738 436.172 l
673.893 436.172 l
673.893 437.367 l
674.350 436.477 675.014 436.031 675.885 436.031  c
676.002 436.031 676.125 436.041 676.254 436.061  c
676.254 437.139 l
676.055 437.072 675.879 437.039 675.727 437.039  c
674.996 437.039 674.385 437.473 673.893 438.340  c
673.893 442.535 l
h
677.648 442.535 m
677.648 436.172 l
678.803 436.172 l
678.803 437.367 l
679.365 436.477 680.088 436.031 680.971 436.031  c
681.822 436.031 682.402 436.477 682.711 437.367  c
683.258 436.473 683.969 436.025 684.844 436.025  c
685.406 436.025 685.842 436.190 686.150 436.521  c
686.459 436.851 686.613 437.312 686.613 437.906  c
686.613 442.535 l
685.453 442.535 l
685.453 438.088 l
685.453 437.361 685.166 436.998 684.592 436.998  c
683.994 436.998 683.367 437.422 682.711 438.270  c
682.711 442.535 l
681.551 442.535 l
681.551 438.088 l
681.551 437.357 681.258 436.992 680.672 436.992  c
680.090 436.992 679.467 437.418 678.803 438.270  c
678.803 442.535 l
h
688.852 442.535 m
688.852 436.172 l
690.006 436.172 l
690.006 442.535 l
h
688.852 435.018 m
688.852 433.863 l
690.006 433.863 l
690.006 435.018 l
h
694.230 442.682 m
693.645 442.682 693.188 442.514 692.859 442.178  c
692.531 441.842 692.367 441.375 692.367 440.777  c
692.367 437.039 l
691.570 437.039 l
691.570 436.172 l
692.367 436.172 l
692.367 435.018 l
693.521 434.906 l
693.521 436.172 l
695.186 436.172 l
695.186 437.039 l
693.521 437.039 l
693.521 440.566 l
693.521 441.398 693.881 441.814 694.600 441.814  c
694.752 441.814 694.938 441.789 695.156 441.738  c
695.156 442.535 l
694.801 442.633 694.492 442.682 694.230 442.682  c
h
f
0.00000 1.00000 0.00000 RG
2 J
10.0000 M
0.00000 0.00000 0.00000 RG
1.00000 0.00000 0.00000 RG
0 J
1.45000 M
newpath
530.000 427.701 m
692.420 372.858 l
S
newpath
700.000 370.299 m
687.031 369.400 l
691.473 373.178 l
690.230 378.875 l
h
f
0.00000 0.00000 0.00000 RG
newpath
606.261 403.535 m
606.261 402.340 l
605.792 403.234 605.085 403.682 604.140 403.682  c
603.374 403.682 602.771 403.402 602.332 402.844  c
601.893 402.285 601.673 401.521 601.673 400.553  c
601.673 399.494 601.922 398.643 602.420 397.998  c
602.918 397.354 603.573 397.031 604.386 397.031  c
605.140 397.031 605.765 397.320 606.261 397.898  c
606.261 394.283 l
607.421 394.283 l
607.421 403.535 l
h
606.261 398.689 m
605.663 398.162 605.097 397.898 604.562 397.898  c
603.456 397.898 602.903 398.744 602.903 400.436  c
602.903 401.924 603.396 402.668 604.380 402.668  c
605.021 402.668 605.647 402.318 606.261 401.619  c
h
614.394 403.330 m
613.620 403.564 612.958 403.682 612.407 403.682  c
611.470 403.682 610.705 403.370 610.113 402.747  c
609.521 402.124 609.226 401.316 609.226 400.324  c
609.226 399.359 609.486 398.568 610.008 397.951  c
610.529 397.334 611.196 397.025 612.009 397.025  c
612.778 397.025 613.373 397.299 613.793 397.846  c
614.213 398.393 614.423 399.170 614.423 400.178  c
614.417 400.535 l
610.403 400.535 l
610.571 402.047 611.312 402.803 612.624 402.803  c
613.104 402.803 613.694 402.674 614.394 402.416  c
h
610.456 399.668 m
613.263 399.668 l
613.263 398.484 612.821 397.893 611.938 397.893  c
611.052 397.893 610.558 398.484 610.456 399.668  c
h
616.415 403.535 m
616.415 397.172 l
617.569 397.172 l
617.569 398.367 l
618.179 397.477 618.925 397.031 619.808 397.031  c
620.358 397.031 620.798 397.206 621.126 397.556  c
621.454 397.905 621.618 398.375 621.618 398.965  c
621.618 403.535 l
620.464 403.535 l
620.464 399.340 l
620.464 398.867 620.395 398.530 620.256 398.329  c
620.117 398.128 619.888 398.027 619.567 398.027  c
618.860 398.027 618.194 398.490 617.569 399.416  c
617.569 403.535 l
h
624.231 405.850 m
625.263 403.535 l
622.802 397.172 l
624.050 397.172 l
625.872 401.965 l
627.817 397.172 l
628.907 397.172 l
625.433 405.850 l
h
f
1.00000 0.00000 0.00000 RG
2 J
10.0000 M
0.00000 0.00000 0.00000 RG
0.00000 1.00000 0.00000 RG
0 J
1.45000 M
newpath
514.500 422.953 m
514.500 258.959 l
S
newpath
514.500 250.959 m
509.500 262.959 l
514.500 259.959 l
519.500 262.959 l
h
f
0.00000 0.00000 0.00000 RG
newpath
496.500 368.850 m
496.500 360.172 l
497.654 360.172 l
497.654 361.367 l
498.127 360.477 498.836 360.031 499.781 360.031  c
500.547 360.031 501.149 360.311 501.589 360.869  c
502.028 361.428 502.248 362.191 502.248 363.160  c
502.248 364.215 501.999 365.065 501.501 365.712  c
501.003 366.358 500.348 366.682 499.535 366.682  c
498.781 366.682 498.154 366.393 497.654 365.814  c
497.654 368.850 l
h
497.654 365.018 m
498.248 365.549 498.814 365.814 499.354 365.814  c
500.463 365.814 501.018 364.969 501.018 363.277  c
501.018 361.785 500.525 361.039 499.541 361.039  c
498.896 361.039 498.268 361.389 497.654 362.088  c
h
508.717 366.330 m
507.943 366.564 507.281 366.682 506.730 366.682  c
505.793 366.682 505.028 366.370 504.437 365.747  c
503.845 365.124 503.549 364.316 503.549 363.324  c
503.549 362.359 503.810 361.568 504.331 360.951  c
504.853 360.334 505.520 360.025 506.332 360.025  c
507.102 360.025 507.696 360.299 508.116 360.846  c
508.536 361.393 508.746 362.170 508.746 363.178  c
508.740 363.535 l
504.727 363.535 l
504.895 365.047 505.635 365.803 506.947 365.803  c
507.428 365.803 508.018 365.674 508.717 365.416  c
h
504.779 362.668 m
507.586 362.668 l
507.586 361.484 507.145 360.893 506.262 360.893  c
505.375 360.893 504.881 361.484 504.779 362.668  c
h
510.738 366.535 m
510.738 360.172 l
511.893 360.172 l
511.893 361.367 l
512.350 360.477 513.014 360.031 513.885 360.031  c
514.002 360.031 514.125 360.041 514.254 360.061  c
514.254 361.139 l
514.055 361.072 513.879 361.039 513.727 361.039  c
512.996 361.039 512.385 361.473 511.893 362.340  c
511.893 366.535 l
h
515.648 366.535 m
515.648 360.172 l
516.803 360.172 l
516.803 361.367 l
517.365 360.477 518.088 360.031 518.971 360.031  c
519.822 360.031 520.402 360.477 520.711 361.367  c
521.258 360.473 521.969 360.025 522.844 360.025  c
523.406 360.025 523.842 360.190 524.150 360.521  c
524.459 360.851 524.613 361.312 524.613 361.906  c
524.613 366.535 l
523.453 366.535 l
523.453 362.088 l
523.453 361.361 523.166 360.998 522.592 360.998  c
521.994 360.998 521.367 361.422 520.711 362.270  c
520.711 366.535 l
519.551 366.535 l
519.551 362.088 l
519.551 361.357 519.258 360.992 518.672 360.992  c
518.090 360.992 517.467 361.418 516.803 362.270  c
516.803 366.535 l
h
526.852 366.535 m
526.852 360.172 l
528.006 360.172 l
528.006 366.535 l
h
526.852 359.018 m
526.852 357.863 l
528.006 357.863 l
528.006 359.018 l
h
532.230 366.682 m
531.645 366.682 531.188 366.514 530.859 366.178  c
530.531 365.842 530.367 365.375 530.367 364.777  c
530.367 361.039 l
529.570 361.039 l
529.570 360.172 l
530.367 360.172 l
530.367 359.018 l
531.521 358.906 l
531.521 360.172 l
533.186 360.172 l
533.186 361.039 l
531.521 361.039 l
531.521 364.566 l
531.521 365.398 531.881 365.814 532.600 365.814  c
532.752 365.814 532.938 365.789 533.156 365.738  c
533.156 366.535 l
532.801 366.633 532.492 366.682 532.230 366.682  c
h
f
0.00000 1.00000 0.00000 RG
2 J
10.0000 M
0.00000 0.00000 0.00000 RG
Q
[ 1.00000 0.00000 0.00000 1.00000 0.00000 0.00000 ] defaultmatrix matrix concatmatrix setmatrix
cliprestore

%%Trailer
%%EOF
