%!PS-Adobe-3.0 EPSF-3.0
%%BoundingBox: 0 0 477 213
%%Creator: yExport 1.5
%%Producer: org.freehep.graphicsio.ps.EPSGraphics2D Revision: 12753 
%%For: 
%%Title: 
%%CreationDate: Saturday, March 4, 2017 12:16:32 AM GMT
%%LanguageLevel: 3
%%EndComments
%%BeginProlog
100 dict dup begin

%
% File: org/freehep/graphicsio.ps/PSProlog.txt
% Author: Charles Loomis
%

% Redefinitions which save some space in the output file.  These are also
% the same as the PDF operators.
/q {gsave} def
/Q {grestore} def

/n {newpath} def
/m {moveto} def
/l {lineto} def
/c {curveto} def
/h {closepath} def

/re {4 -2 roll moveto
     dup 0 exch rlineto exch 0 rlineto
     neg 0 exch rlineto closepath} def

/f {fill} def
/f* {eofill} def
/F {gsave vg&FC fill grestore} def
/F* {gsave vg&FC eofill grestore} def

/s {closepath stroke} def
/S {stroke} def

/b {closepath gsave vg&FC fill grestore
    gsave stroke grestore newpath} def
/B {gsave vg&FC fill grestore gsave stroke grestore newpath} def
/b* {closepath gsave vg&FC eofill grestore
    gsave stroke grestore newpath} def
/B* {gsave vg&FC eofill grestore gsave stroke grestore newpath} def

/g {1 array astore /vg&fcolor exch def} def
/G {setgray} def
/k {4 array astore /vg&fcolor exch def} def
/K {setcmykcolor} def
/rg {3 array astore /vg&fcolor exch def} def
/RG {setrgbcolor} def

% Initialize the fill color.
0 0 0 rg

/vg&FC {mark vg&fcolor aload pop
        counttomark 1 eq {G} if
        counttomark 3 eq {RG} if
        counttomark 4 eq {K} if
        cleartomark } def

/vg&DFC {/vg&fcolor exch def} def

/vg&C {mark exch aload pop
       counttomark 1 eq {G} if
       counttomark 3 eq {RG} if
       counttomark 4 eq {K} if
       cleartomark } def

/w {setlinewidth} def
/j {setlinejoin} def
/J {setlinecap} def
/M {setmiterlimit} def
/d {setdash} def
/i {setflat} def

/W {clip} def
/W* {eoclip} def

% Setup the default graphics state.
% (black; 1 pt. linewidth; miter join; butt-ends; solid)
/defaultGraphicsState {0 g 1 w 0 j 0 J [] 0 d} def

% Emulation of the rectangle operators for PostScript implementations
% which do not implement all Level 2 features.  This is an INCOMPLETE
% emulation; only the "x y width height rect..." form is emulated.
/*rf {gsave newpath re fill grestore} def
/*rs {gsave newpath re stroke grestore} def
/*rc {newpath re clip} def
/rf  /rectfill where {pop /rectfill}{/*rf} ifelse load def
/rs  /rectstroke where {pop /rectstroke}{/*rs} ifelse load def
/rc  /rectclip where {pop /rectclip}{/*rc} ifelse load def

% Emulation of the selectfont operator.  This includes a 20% increase in
% the fontsize which is necessary to get sizes similar to the Java fonts.
/*sf {exch findfont exch
      dup type /arraytype eq {makefont}{scalefont} ifelse setfont} bind def
/sf /selectfont where {pop {1.2 mul selectfont}}{{1.2 mul *sf}} ifelse def

% Special version of stroke which allows the dash pattern to continue
% across path segments.  (This may be needed for PostScript although
% modern printers seem to do this correctly.)
/vg&stroke {
  currentdash pop length 0 eq
  {stroke}
  {
    currentdash /vg&doffset exch def pop
    flattenpath
    {m vg&resetdash}
    {2 copy
     currentpoint
     3 -1 roll sub dup mul
     3 1 roll sub dup mul
     add sqrt
     3 1 roll l
     currentdash 3 -1 roll add setdash}
     {}
     {h vg&resetdash}
     pathforall
     stroke
     vg&resetdash
  } ifelse
} def
/vg&resetdash {currentdash pop vg&doffset setdash} def

% Initialize variables for safety.
/delta 0 def
/xv 0 def  /yv 0 def  /width 0 def  /height 0 def

% Initialize to portrait INTERNATIONAL (Letter-height, A4-width) page.
/pw 595 def  /ph 791  def  /po true def /ftp false def

% Initialize margins to 20 points.
/ml 20 def  /mr 20 def  /mt 20 def  /mb 20 def

% Temporary matrices.
/smatrix 0 def  /nmatrix 0 def

% set page size (usage: <page width><page height> setpagesize)
/setpagesize {/ph exch def /pw exch def} def

% set page orientation (usage: portrait or landscape)
/portrait {/po true def} def
/landscape {/po false def} def

% force natural size for image (usage: naturalsize)
/naturalsize {/ftp false def} def

% resize image to fill page (usage: fittopage)
/fittopage {/ftp true def} def

% set margins of the page (usage: <left><bottom><top><right> setmargins)
/setmargins {/mr exch def /mt exch def /mb exch def /ml exch def} def

% set the graphic's size (usage: <width><height> setsize)
/setsize {/gh exch def /gw exch def} def

% set the graphic's origin (usage: <x0><y0> setorigin)
/setorigin {/gy exch def /gx exch def} def

% calculate image center
/imagecenter {pw ml sub mr sub 2 div ml add
              ph mt sub mb sub 2 div mb add} def

% calculate the necessary scaling
/imagescale {po {gw}{gh} ifelse pw ml sub mr sub div
             po {gh}{gw} ifelse ph mt sub mb sub div
             2 copy lt {exch} if pop
             ftp not {1 2 copy lt {exch} if pop} if
             1 exch div /sfactor exch def
             /gw gw sfactor mul def /gh gh sfactor mul def} def

% calculate image origin
/imageorigin {pw ml sub mr sub 2 div ml add
              po {gw}{gh} ifelse 2 div sub
              ph mt sub mb sub 2 div mb add
              po {gh}{gw} ifelse 2 div po {add}{sub} ifelse} def

% calculate the clipping origin
/cliporigin  {pw ml sub mr sub 2 div ml add
              po {gw}{gh} ifelse 2 div sub floor
              ph mt sub mb sub 2 div mb add
              po {gh}{gw} ifelse 2 div sub floor} def

% Set the clipping region to the bounding box.
/cliptobounds {cliporigin po {gw}{gh} ifelse 1 add
                          po {gh}{gw} ifelse 1 add rc} def

% set the base transformation matrix (usage: setbasematrix)
/setbasematrix {imageorigin translate
                po {0}{90} ifelse rotate
                sfactor sfactor neg scale
                /defaultmatrix matrix currentmatrix def} def

% The lower-right bias in drawing 1 pt. wide lines.
/bias  {q 0.5 0.5 translate} def
/unbias {Q} def

% Define the composite fonts used to print Unicode strings.
% Undefine particular values in an encoding array.
/vg&undef { {exch dup 3 -1 roll /.notdef put} forall } def
/vg&redef { {3 -1 roll dup 4 2 roll put} forall } def

% usage: key encoding basefontname vg&newbasefont font
/vg&newbasefont {
findfont dup length dict copy
  begin
    currentdict /FID undef
    /Encoding exch def
    dup /FontName exch def
    currentdict
  end
definefont
} def

% usage: key encoding basefontname vg&newskewedbasefont font
/vg&newskewedbasefont {
findfont dup length dict copy
  begin
    currentdict /FID undef
    /Encoding exch def
    dup /FontName exch def
    exch FontMatrix exch matrix concatmatrix /FontMatrix exch def
    currentdict
  end
definefont
} def

% usage: basekey suffix vg&nconcat name
/vg&nconcat {
  2 {dup length string cvs exch} repeat
  dup length 3 -1 roll dup length 3 -1 roll add string
  dup 0 4 -1 roll dup length 5 1 roll putinterval
  dup 4 -2 roll exch putinterval cvn
} def

%usage: fontname vg&skewmatrix matrix
/vg&skewmatrix {
findfont dup /FontInfo known
  {
    /FontInfo get dup /ItalicAngle known
    {
      [ 1 0 4 -1 roll /ItalicAngle get neg dup sin exch cos div 1 0 0 ]
    }
    {pop matrix} ifelse
  }
  {pop matrix} ifelse
} def

% usage: newfontname basefontname vg&newcompositefont --
/vg&newcompositefont {
/vg&fstyle exch def
/vg&bfont exch def
/vg&fname exch def
<<
/FontStyleBits vg&fstyle
/FontType 0
/FontMatrix matrix
/FontName vg&fname
/FMapType 2
/Encoding [ 0 1 255 {pop 6} for ]
          dup 16#00 0 put % Latin
          dup 16#03 1 put % Greek
          dup 16#20 2 put % Punctuation
          dup 16#21 3 put % Arrows
          dup 16#22 4 put % MathOps
          dup 16#27 5 put % Dingbats

/FDepVector [
vg&bfont /-UC-Latin vg&nconcat UCLatinEncoding
vg&bfont vg&newbasefont

vg&bfont vg&skewmatrix
vg&bfont /-UC-Greek vg&nconcat UCGreekEncoding
/Symbol vg&newskewedbasefont

vg&bfont /-UC-Punctuation vg&nconcat UCPunctuationEncoding
vg&bfont vg&newbasefont

/Arrows-UC findfont
/MathOps-UC findfont
/Dingbats-UC findfont
/Undefined-UC findfont ]
>>
vg&fname exch definefont pop
} def

% Null encoding vector (all elements set to .notdef)
/NullEncoding [ 256 {/.notdef} repeat ] def

% Unicode Latin encoding (unicode codes \u0000-\u00ff)
/UCLatinEncoding
  ISOLatin1Encoding dup length array copy
  dup 16#60 /grave put
  [ 16#90 16#91 16#92 16#93 16#94 16#95 16#96
    16#97 16#98 16#9a 16#9b 16#9d 16#9e 16#9f
  ] vg&undef
  def

% Unicode Greek encoding (unicode codes \u0370-\u03ff)
/UCGreekEncoding
  NullEncoding dup length array copy
  << 16#91 /Alpha    16#92 /Beta      16#93 /Gamma    16#94 /Delta
     16#95 /Epsilon  16#96 /Zeta      16#97 /Eta      16#98 /Theta
     16#99 /Iota     16#9a /Kappa     16#9b /Lambda   16#9c /Mu
     16#9d /Nu       16#9e /Xi        16#9f /Omicron  16#a0 /Pi
     16#a1 /Rho      16#a3 /Sigma     16#a4 /Tau      16#a5 /Upsilon
     16#a6 /Phi      16#a7 /Chi       16#a8 /Psi      16#a9 /Omega
     16#b1 /alpha    16#b2 /beta      16#b3 /gamma    16#b4 /delta
     16#b5 /epsilon  16#b6 /zeta      16#b7 /eta      16#b8 /theta
     16#b9 /iota     16#ba /kappa     16#bb /lambda   16#bc /mu
     16#bd /nu       16#be /xi        16#bf /omicron  16#c0 /pi
     16#c1 /rho      16#c2 /sigma1    16#c3 /sigma    16#c4 /tau
     16#c5 /upsilon  16#c6 /phi1      16#c7 /chi      16#c8 /psi
     16#c9 /omega    16#7e /semicolon 16#87 /dotmath  16#d1 /theta1
     16#d2 /Upsilon1 16#d5 /phi       16#d6 /omega1
  >> vg&redef
  def

% Unicode punctuation encoding (unicode codes \u2000-\u206f)
/UCPunctuationEncoding
  NullEncoding dup length array copy
  << 16#10 /hyphen          16#11 /hyphen              16#12 /endash
     16#13 /emdash          16#18 /quoteleft           16#19 /quoteright
     16#1a /quotesinglbase  16#1b /quotesingle         16#1c /quotedblleft
     16#1d /quotedblright   16#1e /quotedblbase        16#1f /quotedbl
     16#20 /dagger          16#21 /daggerdbl           16#22 /bullet
     16#24 /period          16#26 /ellipsis            16#27 /periodcentered
     16#30 /perthousand     16#44 /fraction
     16#70 /zerosuperior    16#74 /foursuperior        16#75 /fivesuperior
     16#76 /sixsuperior     16#77 /sevensuperior       16#78 /eightsuperior
     16#79 /ninesuperior    16#7b /hyphensuperior      16#7d /parenleftsuperior
     16#7e /parenrightsuperior
     16#80 /zeroinferior    16#84 /fourinferior        16#85 /fiveinferior
     16#81 /oneinferior     16#82 /twoinferior         16#83 /threeinferior
     16#86 /sixinferior     16#87 /seveninferior       16#88 /eightinferior
     16#89 /nineinferior    16#8b /hypheninferior      16#8d /parenleftinferior
     16#8e /parenrightinferior
  >> vg&redef
  def

% Unicode mathematical operators encoding (unicode codes \u2200-\u22ff)
/UCMathOpsEncoding
  NullEncoding dup length array copy
  << 16#00 /universal       16#02 /partialdiff         16#03 /existential
     16#05 /emptyset        16#06 /Delta               16#07 /gradient
     16#08 /element         16#09 /notelement          16#0b /suchthat
     16#0f /product         16#11 /summation           16#12 /minus
     16#15 /fraction        16#17 /asteriskmath        16#19 /bullet
     16#1a /radical         16#1d /proportional        16#1e /infinity
     16#20 /angle           16#23 /bar                 16#27 /logicaland
     16#28 /logicalor       16#29 /intersection        16#2a /union
     16#2b /integral        16#34 /therefore           16#36 /colon
     16#3c /similar         16#45 /congruent           16#48 /approxequal
     16#60 /notequal        16#61 /equivalence         16#64 /lessequal
     16#65 /greaterequal    16#82 /propersubset        16#83 /propersuperset
     16#86 /reflexsubset    16#87 /reflexsuperset      16#95 /circleplus
     16#97 /circlemultiply  16#a5 /perpendicular       16#03 /existential
     16#c0 /logicaland      16#c1 /logicalor           16#c2 /intersection
     16#c3 /union           16#c4 /diamond             16#c5 /dotmath
  >> vg&redef
  def

% Unicode arrows encoding (unicode codes \u2190-\u21ff)
% Also includes those "Letterlike" unicode characters
% which are available in the symbol font. (unicode codes \u2100-\u214f)
/UCArrowsEncoding
  NullEncoding dup length array copy
  << 16#11 /Ifraktur        16#1c /Rfraktur            16#22 /trademarkserif
     16#35 /aleph
     16#90 /arrowleft       16#91 /arrowup             16#92 /arrowright
     16#93 /arrowdown       16#94 /arrowboth           16#d0 /arrowdblleft
     16#d1 /arrowdblup      16#d2 /arrowdblright       16#d3 /arrowdbldown
     16#d4 /arrowdblboth
  >> vg&redef
  def

/ZapfDingbats findfont /Encoding get
dup length array copy /UCDingbatsEncoding exch def
16#20 1 16#7f {
  dup 16#20 sub exch
  UCDingbatsEncoding exch get
  UCDingbatsEncoding 3 1 roll put
} for
16#a0 1 16#ff {
  dup 16#40 sub exch
  UCDingbatsEncoding exch get
  UCDingbatsEncoding 3 1 roll put
} for
UCDingbatsEncoding [ 16#c0 1 16#ff {} for ] vg&undef
[ 16#00  16#05 16#0a 16#0b  16#28 16#4c 16#4e  16#53 16#54 16#55  16#57 16#5f
  16#60  16#68 16#69 16#6a  16#6b 16#6c 16#6d  16#6e 16#6f 16#70  16#71 16#72
  16#73  16#74 16#75 16#95  16#96 16#97 16#b0  16#bf
] vg&undef pop

% Define the base fonts which don't change.
/Undefined-UC NullEncoding       /Helvetica    vg&newbasefont pop
/MathOps-UC   UCMathOpsEncoding  /Symbol       vg&newbasefont pop
/Arrows-UC    UCArrowsEncoding   /Symbol       vg&newbasefont pop
/Dingbats-UC  UCDingbatsEncoding /ZapfDingbats vg&newbasefont pop

% Make the SansSerif composite fonts.
/SansSerif /Helvetica 16#00 vg&newcompositefont
/SansSerif-Bold /Helvetica-Bold 16#01 vg&newcompositefont
/SansSerif-Italic /Helvetica-Oblique 16#02 vg&newcompositefont
/SansSerif-BoldItalic /Helvetica-BoldOblique 16#03 vg&newcompositefont

% Make the Serif composite fonts.
/Serif /Times-Roman 16#00 vg&newcompositefont
/Serif-Bold /Times-Bold 16#01 vg&newcompositefont
/Serif-Italic /Times-Italic 16#02 vg&newcompositefont
/Serif-BoldItalic /Times-BoldItalic 16#03 vg&newcompositefont

% Make the Monospaced composite fonts.
/Monospaced /Courier 16#00 vg&newcompositefont
/Monospaced-Bold /Courier-Bold 16#01 vg&newcompositefont
/Monospaced-Italic /Courier-Oblique 16#02 vg&newcompositefont
/Monospaced-BoldItalic /Courier-BoldOblique 16#03 vg&newcompositefont

% Make the Dialog composite fonts.
/Dialog /Helvetica 16#00 vg&newcompositefont
/Dialog-Bold /Helvetica-Bold 16#01 vg&newcompositefont
/Dialog-Italic /Helvetica-Oblique 16#02 vg&newcompositefont
/Dialog-BoldItalic /Helvetica-BoldOblique 16#03 vg&newcompositefont

% Make the DialogInput composite fonts.
/DialogInput /Courier 16#00 vg&newcompositefont
/DialogInput-Bold /Courier-Bold 16#01 vg&newcompositefont
/DialogInput-Italic /Courier-Oblique 16#02 vg&newcompositefont
/DialogInput-BoldItalic /Courier-BoldOblique 16#03 vg&newcompositefont

% Make the Typewriter composite fonts (JDK 1.1 only).
/Typewriter /Courier 16#00 vg&newcompositefont
/Typewriter-Bold /Courier-Bold 16#01 vg&newcompositefont
/Typewriter-Italic /Courier-Oblique 16#02 vg&newcompositefont
/Typewriter-BoldItalic /Courier-BoldOblique 16#03 vg&newcompositefont


/cfontH {
 dup /fontsize exch def /SansSerif exch sf
 /vg&fontstyles [{cfontH} {cfontHB} {cfontHI} {cfontHBI}] def
} def
/cfontHB {
  dup /fontsize exch def /SansSerif-Bold exch sf
 /vg&fontstyles [{cfontH} {cfontHB} {cfontHI} {cfontHBI}] def
} def
/cfontHI {
 dup /fontsize exch def /SansSerif-Italic exch sf
 /vg&fontstyles [{cfontH} {cfontHB} {cfontHI} {cfontHBI}] def
} def
/cfontHBI {
 dup /fontsize exch def /SansSerif-BoldItalic exch sf
 /vg&fontstyles [{cfontH} {cfontHB} {cfontHI} {cfontHBI}] def
} def

/cfontT {
 dup /fontsize exch def /Serif exch sf
 /vg&fontstyles [{cfontT} {cfontTB} {cfontTI} {cfontTBI}] def
} def
/cfontTB {
 dup /fontsize exch def /Serif-Bold exch sf
 /vg&fontstyles [{cfontT} {cfontTB} {cfontTI} {cfontTBI}] def
} def
/cfontTI {
 dup /fontsize exch def /Serif-Italic exch sf
 /vg&fontstyles [{cfontT} {cfontTB} {cfontTI} {cfontTBI}] def
} def
/cfontTBI {
 dup /fontsize exch def /Serif-BoldItalic exch sf
 /vg&fontstyles [{cfontT} {cfontTB} {cfontTI} {cfontTBI}] def
} def

/cfontC {
 dup /fontsize exch def /Typewriter exch sf
 /vg&fontstyles [{cfontC} {cfontCB} {cfontCI} {cfontCBI}] def
} def
/cfontCB {
 dup /fontsize exch def /Typewriter-Bold exch sf
 /vg&fontstyles [{cfontC} {cfontCB} {cfontCI} {cfontCBI}] def
} def
/cfontCI {
 dup /fontsize exch def /Typewriter-Italic exch sf
 /vg&fontstyles [{cfontC} {cfontCB} {cfontCI} {cfontCBI}] def
} def
/cfontCBI {
 dup /fontsize exch def /Typewriter-BoldItalic exch sf
 /vg&fontstyles [{cfontC} {cfontCB} {cfontCI} {cfontCBI}] def
} def

% Darken or lighten the current color.
/darken {0.7 exch exp 3 copy
         q 4 -1 roll vg&C
         currentrgbcolor 3 {4 -2 roll mul} repeat
         3 array astore Q} def

/displayColorMap
<< /Cr   [1.00 0.00 0.00]       /Cg     [0.00 1.00 0.00]
   /Cb   [0.00 0.00 1.00]       /Cc     [1.00 0.00 0.00 0.00]
   /Cm   [0.00 1.00 0.00 0.00]  /Cy     [0.00 0.00 1.00 0.00]
   /Co   [1.00 0.78 0.00]       /Cp     [1.00 0.67 0.67]
   /Cw   [1   ]                 /Cgrl   [0.75]
   /Cgr  [0.50]                 /Cgrd   [0.25]
   /Ck   [0   ]
   /CGr  [1.00 0.00 0.00]       /CGg    [0.00 1.00 0.00]
   /CGb  [0.00 0.00 1.00]       /CGc    [1.00 0.00 0.00 0.00]
   /CGm  [0.00 1.00 0.00 0.00]  /CGy    [0.00 0.00 1.00 0.00]
   /CGo  [1.00 0.78 0.00]       /CGp    [1.00 0.67 0.67]
   /CGw  [1   ]                 /CGgrl  [0.75]
   /CGgr [0.50]                 /CGgrd  [0.25]
   /CGk  [0   ]
   /CIr  [1.00 0.00 0.00]       /CIg    [0.00 1.00 0.00]
   /CIb  [0.00 0.00 1.00]       /CIc    [1.00 0.00 0.00 0.00]
   /CIm  [0.00 1.00 0.00 0.00]  /CIy    [0.00 0.00 1.00 0.00]
   /CIo  [1.00 0.78 0.00]       /CIp    [1.00 0.67 0.67]
   /CIw  [1   ]                 /CIgrl  [0.75]
   /CIgr [0.50]                 /CIgrd  [0.25]
   /CIk  [0   ]
>> def

/printColorMap
<< /Cr   [1.00 0.33 0.33]       /Cg     [0.33 1.00 0.33]
   /Cb   [0.33 0.33 1.00]       /Cc     [1.00 0.00 0.00 0.00]
   /Cm   [0.00 1.00 0.00 0.00]  /Cy     [0.00 0.00 1.00 0.00]
   /Co   [1.00 0.78 0.00]       /Cp     [1.00 0.67 0.67]
   /Cw   [1   ]                 /Cgrl   [0.75]
   /Cgr  [0.50]                 /Cgrd   [0.25]
   /Ck   [0   ]
   /CGr  [1.00 0.33 0.33]       /CGg    [0.33 1.00 0.33]
   /CGb  [0.33 0.33 1.00]       /CGc    [1.00 0.00 0.00 0.00]
   /CGm  [0.00 1.00 0.00 0.00]  /CGy    [0.00 0.00 1.00 0.00]
   /CGo  [1.00 0.78 0.00]       /CGp    [1.00 0.67 0.67]
   /CGw  [1   ]                 /CGgrl  [0.75]
   /CGgr [0.50]                 /CGgrd  [0.25]
   /CGk  [0   ]
   /CIr  [1.00 0.33 0.33]       /CIg    [0.33 1.00 0.33]
   /CIb  [0.33 0.33 1.00]       /CIc    [1.00 0.00 0.00 0.00]
   /CIm  [0.00 1.00 0.00 0.00]  /CIy    [0.00 0.00 1.00 0.00]
   /CIo  [1.00 0.78 0.00]       /CIp    [1.00 0.67 0.67]
   /CIw  [1   ]                 /CIgrl  [0.75]
   /CIgr [0.50]                 /CIgrd  [0.25]
   /CIk  [0   ]
>> def

/grayColorMap
<< /Cr   [0   ]                 /Cg     [0   ]
   /Cb   [0   ]                 /Cc     [0   ]
   /Cm   [0   ]                 /Cy     [0   ]
   /Co   [0   ]                 /Cp     [0   ]
   /Cw   [0   ]                 /Cgrl   [0   ]
   /Cgr  [0   ]                 /Cgrd   [0   ]
   /Ck   [0   ]
   /CGr  [0.75]                 /CGg    [1   ]
   /CGb  [0.50]                 /CGc    [0.75]
   /CGm  [0.50]                 /CGy    [1   ]
   /CGo  [0.75]                 /CGp    [1   ]
   /CGw  [0   ]                 /CGgrl  [0.25]
   /CGgr [0.50]                 /CGgrd  [0.75]
   /CGk  [1   ]
   /CIr  [1   ]                 /CIg    [1   ]
   /CIb  [1   ]                 /CIc    [1   ]
   /CIm  [1   ]                 /CIy    [1   ]
   /CIo  [1   ]                 /CIp    [1   ]
   /CIw  [1   ]                 /CIgrl  [1   ]
   /CIgr [1   ]                 /CIgrd  [1   ]
   /CIk  [1   ]
>> def

/bwColorMap
<< /Cr   [0   ]                 /Cg     [0   ]
   /Cb   [0   ]                 /Cc     [0   ]
   /Cm   [0   ]                 /Cy     [0   ]
   /Co   [0   ]                 /Cp     [0   ]
   /Cw   [0   ]                 /Cgrl   [0   ]
   /Cgr  [0   ]                 /Cgrd   [0   ]
   /Ck   [0   ]
   /CGr  [1   ]                 /CGg    [1   ]
   /CGb  [1   ]                 /CGc    [1   ]
   /CGm  [1   ]                 /CGy    [1   ]
   /CGo  [1   ]                 /CGp    [1   ]
   /CGw  [0   ]                 /CGgrl  [1   ]
   /CGgr [1   ]                 /CGgrd  [1   ]
   /CGk  [1   ]
   /CIr  [1   ]                 /CIg    [1   ]
   /CIb  [1   ]                 /CIc    [1   ]
   /CIm  [1   ]                 /CIy    [1   ]
   /CIo  [1   ]                 /CIp    [1   ]
   /CIw  [1   ]                 /CIgrl  [1   ]
   /CIgr [1   ]                 /CIgrd  [1   ]
   /CIk  [1   ]
>> def

%
% The following routines handle the alignment of and printing of
% tagged strings.
%

% Predefine the bounding box values.
/bbllx 0 def /bblly 0 def /bburx 0 def /bbury 0 def

% This routine pops the first unicode character off of a string and returns
% the remainder of the string, the character code of first character,
% and a "true" if the string was non-zero length.
% <string>      popfirst <remaining string> <true>
% <null string> popfirst <false>
/popfirst {
  dup length 1 gt
    {dup 0 get /vg&fbyte exch def
     dup 1 get /vg&cbyte exch def
     dup length 2 sub 2 exch getinterval true}
    {pop false} ifelse
} def

% This routine shows a single unicode character given the font and
% character codes.
% <font code> <char code> unicharshow --
/unicharshow {
  2 string
  dup 0 5 -1 roll put
  dup 1 4 -1 roll put
  internalshow
} def

% This is an internal routine to alternate between determining the
% bounding box for stringsize and showing the string for recshow.
% <string> internalshow --
/internalshow {show} def

% This is an internal routine to alternate between determining the
% bounding box for stringsize and stroking various ornaments.
% <string> internalstroke --
/internalstroke {S} def

% Sets up internalshow to use the null device to determine string size.
% -- nullinternalshow --
/nullinternalshow {/internalshow {false charpath flattenpath
                                  pathbbox updatebbox} def} def

% Sets up internalstroke to use the null device to determine string size.
% -- nullinternalstroke --
/nullinternalstroke {
 /internalstroke {flattenpath pathbbox updatebbox} def} def

% This routine tests to see if the character code matches the first
% character of a string.
% <char code> <string> testchar <char code> <true or false>
/testchar {exch dup 3 -1 roll 0 get eq} def

% Raise the text baseline for superscripts.
% -- raise --
/raise {
  0 fontsize 2 div rmoveto
  /fontsize fontsize 2 mul 3 div def
  currentfont /FontName get fontsize sf
} def

% Un-raise the text baseline for superscripts.
% -- unraise --
/unraise {
  /fontsize fontsize 1.5 mul def
  0 fontsize 2 div neg rmoveto
} def

% Lower the text baseline for subscripts.
% -- lower --
/lower {
  0 fontsize 3 div neg rmoveto
  /fontsize fontsize 2 mul 3 div def
  currentfont /FontName get fontsize sf
} def

% Un-lower the text baseline for subscripts.
% -- unlower --
/unlower {
  /fontsize fontsize 1.5 mul def
  0 fontsize 3 div rmoveto
} def

% Compare the top two elements on the stack and leave only the
% larger one.
/maxval {2 copy gt {pop} {exch pop} ifelse} def

% Tokenize a string.  Do not use the usual PostScript token because
% parentheses will not be interpreted correctly because of rescanning
% of the string.
/vg&token {/vg&string exch def /vg&index -1 def /vg&level 0 def
0 2 vg&string length 2 sub {
  dup dup 1 add exch vg&string exch get 8 bitshift vg&string 3 -1 roll get or
  dup 16#f0fe eq {pop 1}{16#f0ff eq {-1}{0} ifelse} ifelse
  /vg&level exch vg&level add def
  vg&level 0 eq {/vg&index exch def exit} if pop
} for
vg&index 0 ge {
  vg&string vg&index 2 add dup vg&string length exch sub getinterval
  vg&index 2 gt {vg&string 2 vg&index 2 sub getinterval}{()} ifelse
  true}
{false} ifelse
} bind def

% Recursively show an unicode string.
% <string> recshow --
/recshow {
  popfirst
  {
    % Test to see if this is a string attribute.
    vg&fbyte 16#f0 and 16#e0 eq
    {
      q

      % Font style.
      currentfont dup /FontStyleBits known {/FontStyleBits get}{pop 0} ifelse
      vg&cbyte or vg&fontstyles exch get fontsize exch exec

      vg&token pop recshow currentpoint Q m recshow
    }
    {
      vg&fbyte 16#F8 and 16#F0 eq {

        % Superscript and/or subscript.
        vg&cbyte 16#00 eq {
          vg&token pop exch vg&token pop 3 -1 roll
          q raise recshow unraise currentpoint pop Q exch
          q lower recshow unlower currentpoint pop Q
          maxval currentpoint exch pop m recshow } if

        % Strikeout.
        vg&cbyte 16#01 eq {
          vg&token pop currentpoint 3 -1 roll recshow
          q 0 J vg&underline vg&uthick w
          currentpoint 4 -2 roll fontsize 3 div add moveto
          fontsize 3 div add lineto internalstroke Q
          recshow} if

        % Underline.
        vg&cbyte 16#02 eq {
          vg&token pop currentpoint 3 -1 roll recshow
          q 0 J vg&underline vg&uthick w
          currentpoint 4 -2 roll vg&uoffset add moveto
          vg&uoffset add lineto internalstroke Q
          recshow} if

        % Dashed underline.
        vg&cbyte 16#03 eq {
          vg&token pop currentpoint 3 -1 roll recshow
          q 0 J [ vg&uthick 5 mul vg&uthick 2 mul] 0 d
          vg&underline vg&uthick w
          currentpoint 4 -2 roll vg&uoffset add moveto
          vg&uoffset add lineto internalstroke Q
          recshow} if

        % Dotted underline.
        vg&cbyte 16#04 eq {
          vg&token pop currentpoint 3 -1 roll recshow
          q 1 J [ 0 vg&uthick 3 mul] 0 d
          vg&underline vg&uthick w
          currentpoint 4 -2 roll vg&uoffset add moveto
          vg&uoffset add lineto internalstroke Q
          recshow} if

        % Thick underline.
        vg&cbyte 16#05 eq {
          vg&token pop currentpoint 3 -1 roll recshow
          q 0 J vg&underline vg&uthick 2 mul w
          currentpoint 4 -2 roll vg&uoffset vg&uthick 2 div sub add moveto
          vg&uoffset vg&uthick 2 div sub add lineto internalstroke Q
          recshow} if

        % Gray thick underline.
        vg&cbyte 16#06 eq {
          vg&token pop currentpoint 3 -1 roll recshow
          q 0 J vg&underline vg&uthick 2 mul w 0.5 setgray
          currentpoint 4 -2 roll vg&uoffset vg&uthick 2 div sub add moveto
          vg&uoffset vg&uthick 2 div sub add lineto internalstroke Q
          recshow} if

        % Overbar.
        vg&cbyte 16#07 eq {
          vg&token pop dup stringsize relative 4 1 roll pop pop exch
          3 -1 roll recshow
          q 0 J vg&underline vg&uthick w
          vg&uoffset neg add dup currentpoint pop exch m l internalstroke Q
          recshow} if
      }
      {
        vg&fbyte vg&cbyte unicharshow recshow
      } ifelse
    } ifelse
  } if
} def

% Get the underline position and thickness from the current font.
/vg&underline {

currentfont dup /FontType get 0 eq {/FDepVector get 0 get} if
dup dup /FontInfo known {
  /FontInfo get dup
  dup /UnderlinePosition known {
    /UnderlinePosition get /vg&uoffset exch def
  }
  {
    pop /vg&uoffset 0 def
  } ifelse
  dup /UnderlineThickness known {
    /UnderlineThickness get /vg&uthick exch def
  }
  {
    pop /vg&uthick 0 def
  } ifelse
}
{
  pop /vg&uoffset 0 def /vg&uthick 0 def
} ifelse
/FontMatrix get
currentfont dup /FontType get 0 eq
{/FontMatrix get matrix concatmatrix}{pop} ifelse
dup 0 vg&uoffset 3 -1 roll transform /vg&uoffset exch def pop
0 vg&uthick 3 -1 roll transform /vg&uthick exch def pop
} def

% Make a frame with the coordinates on the stack.
% <llx> <lly> <urx> <ury> frame --
/frame {4 copy m 3 1 roll exch l 4 -2 roll l l h} def

% Resets the accumulated bounding box to a degenerate box at the
% current point.
% -- resetbbox --
/resetbbox {
  currentpoint 2 copy
  /bbury exch def
  /bburx exch def
  /bblly exch def
  /bbllx exch def
} def

% Update the accumulated bounding box.
% <llx'> <lly'> <urx'> <ury'> updatebbox --
/updatebbox {
  dup bbury gt {/bbury exch def} {pop} ifelse
  dup bburx gt {/bburx exch def} {pop} ifelse
  dup bblly lt {/bblly exch def} {pop} ifelse
  dup bbllx lt {/bbllx exch def} {pop} ifelse
} def

% Set the bounding box to the values on the stack.
% <llx'> <lly'> <urx'> <ury'> updatebbox --
/restorebbox {
  /bbury exch def /bburx exch def /bblly exch def /bbllx exch def
} def

% Push the accumulated bounding box onto the stack.
% -- pushbbox <llx> <lly> <urx> <ury>
/pushbbox {bbllx bblly bburx bbury} def

% Make the relative bounding box relative to the currentpoint.
% <llx'> <lly'> <urx'> <ury'> inflate <llx> <lly> <urx> <ury>
/inflate {
  2 {fontsize 0.2 mul add 4 1 roll} repeat
  2 {fontsize 0.2 mul sub 4 1 roll} repeat
} def

% Make the relative bounding box relative to the currentpoint.
% <llx'> <lly'> <urx'> <ury'> relative <llx> <lly> <urx> <ury>
/relative {
  currentpoint 3 -1 roll add 3 1 roll add exch 4 2 roll
  currentpoint 3 -1 roll add 3 1 roll add exch 4 2 roll
} def

% Returns the size of a string appropriate for recshow.
% <string> stringsize <llx> <lly> <urx> <ury>
/stringsize {
  pushbbox /internalshow load /internalstroke load 7 -1 roll
  q
  nulldevice 0 0 m
  nullinternalshow nullinternalstroke
  resetbbox
  recshow
  /internalstroke exch def /internalshow exch def
  pushbbox 8 -4 roll restorebbox
  Q
} def

% Calculate values for string positioning.
/calcval {4 copy
  3 -1 roll sub /widy exch def sub neg /widx exch def
  pop pop /dy exch def /dx exch def} def

% Utilities to position a string.
% First letter (U=upper, C=center, B=baseline, L=lower)
% Second letter (L=left, C=center, R=right)
/align [
{calcval dx neg widy dy add neg rmoveto} % UL
{calcval dx neg widy 2 div dy add neg rmoveto} % CL
{calcval dx neg 0 rmoveto} % BL
{calcval dx neg dy neg rmoveto} % LL
{calcval widx dx add neg widy dy add neg rmoveto} % UR
{calcval widx dx add neg widy 2 div dy add neg rmoveto} % CR
{calcval widx dx add neg 0 rmoveto} % BR
{calcval widx dx add neg dy neg rmoveto} % LR
{calcval widx 2 div dx add neg widy dy add neg rmoveto} % UC
{calcval widx 2 div dx add neg widy 2 div dy add neg rmoveto} % CC
{calcval widx 2 div dx add neg 0 rmoveto} % BC
{calcval widx 2 div dx add neg dy neg rmoveto} % LC
] def

/vg&str {m q 1 -1 scale dup stringsize 4 copy align 11 -1 roll get exec
         q inflate relative frame exch exec Q recshow Q} def

end /procDict exch def
%%EndProlog

%%BeginSetup
save
procDict begin
printColorMap begin
477 213 setpagesize
0 0 0 0 setmargins
0 0 setorigin
477 213 setsize
naturalsize
portrait
imagescale
cliptobounds
setbasematrix
/Helvetica 10 sf
defaultGraphicsState
%%EndSetup

0.00000 0.00000 0.00000 RG
[ 1.00000 0.00000 0.00000 1.00000 0.00000 0.00000 ] defaultmatrix matrix concatmatrix setmatrix
cliprestore
1.00000 1.00000 1.00000 RG
newpath
0.00000 0.00000 m
477.000 0.00000 l
477.000 213.000 l
0.00000 213.000 l
0.00000 0.00000 l
h
f
0.00000 0.00000 0.00000 RG
0.00000 0.00000 0.00000 RG
[ 1.00000 0.00000 0.00000 1.00000 0.00000 0.00000 ] defaultmatrix matrix concatmatrix setmatrix
cliprestore
1.00000 1.00000 1.00000 RG
newpath
0.00000 0.00000 m
477.000 0.00000 l
477.000 213.000 l
0.00000 213.000 l
0.00000 0.00000 l
h
f
0.00000 0.00000 0.00000 RG
0 0 477 213 rc
q
[ 1.00000 0.00000 0.00000 1.00000 0.00000 0.00000 ] concat
[ 1.00000 0.00000 0.00000 1.00000 -144.000 -324.000 ] concat
1.00000 1.00000 1.00000 RG
newpath
144.000 324.000 m
621.000 324.000 l
621.000 537.000 l
144.000 537.000 l
144.000 324.000 l
h
f
0.00000 0.00000 0.00000 RG
[ 1.00000 0.00000 0.00000 1.00000 -144.000 -324.000 ] defaultmatrix matrix concatmatrix setmatrix
[ 1.00000 0.00000 0.00000 1.00000 -144.000 -324.000 ] defaultmatrix matrix concatmatrix setmatrix
[ 1.00000 0.00000 0.00000 1.00000 0.00000 0.00000 ] defaultmatrix matrix concatmatrix setmatrix
[ 1.00000 0.00000 0.00000 1.00000 -144.000 -324.000 ] defaultmatrix matrix concatmatrix setmatrix
1.00000 .800000 0.00000 RG
newpath
512.126 481.303 m
605.345 481.303 l
605.345 521.234 l
512.126 521.234 l
512.126 481.303 l
h
f
0.00000 0.00000 0.00000 RG
0 J
1.45000 M
newpath
540.516 505.804 m
540.516 498.052 l
537.439 498.052 l
537.439 497.132 l
544.822 497.132 l
544.822 498.052 l
541.746 498.052 l
541.746 505.804 l
h
550.740 505.599 m
549.967 505.833 549.305 505.950 548.754 505.950  c
547.816 505.950 547.052 505.639 546.460 505.016  c
545.868 504.393 545.572 503.585 545.572 502.593  c
545.572 501.628 545.833 500.837 546.354 500.220  c
546.876 499.603 547.543 499.294 548.355 499.294  c
549.125 499.294 549.720 499.567 550.140 500.114  c
550.560 500.661 550.769 501.439 550.769 502.446  c
550.764 502.804 l
546.750 502.804 l
546.918 504.315 547.658 505.071 548.971 505.071  c
549.451 505.071 550.041 504.942 550.740 504.685  c
h
546.803 501.937 m
549.609 501.937 l
549.609 500.753 549.168 500.161 548.285 500.161  c
547.398 500.161 546.904 500.753 546.803 501.937  c
h
556.043 504.995 m
555.352 505.632 554.685 505.950 554.045 505.950  c
553.518 505.950 553.080 505.785 552.732 505.455  c
552.385 505.125 552.211 504.708 552.211 504.204  c
552.211 503.509 552.503 502.975 553.087 502.602  c
553.671 502.229 554.508 502.042 555.598 502.042  c
555.873 502.042 l
555.873 501.274 l
555.873 500.536 555.494 500.167 554.736 500.167  c
554.127 500.167 553.469 500.355 552.762 500.730  c
552.762 499.774 l
553.539 499.458 554.268 499.300 554.947 499.300  c
555.658 499.300 556.183 499.460 556.520 499.780  c
556.858 500.101 557.027 500.599 557.027 501.274  c
557.027 504.157 l
557.027 504.817 557.230 505.147 557.637 505.147  c
557.687 505.147 557.762 505.140 557.859 505.124  c
557.941 505.763 l
557.680 505.888 557.391 505.950 557.074 505.950  c
556.535 505.950 556.191 505.632 556.043 504.995  c
h
555.873 504.368 m
555.873 502.722 l
555.486 502.710 l
554.853 502.710 554.342 502.830 553.951 503.070  c
553.560 503.311 553.365 503.626 553.365 504.017  c
553.365 504.294 553.463 504.528 553.658 504.720  c
553.853 504.911 554.092 505.007 554.373 505.007  c
554.853 505.007 555.353 504.794 555.873 504.368  c
h
559.389 505.804 m
559.389 499.440 l
560.543 499.440 l
560.543 500.636 l
561.105 499.745 561.828 499.300 562.711 499.300  c
563.562 499.300 564.143 499.745 564.451 500.636  c
564.998 499.741 565.709 499.294 566.584 499.294  c
567.146 499.294 567.582 499.459 567.891 499.789  c
568.199 500.119 568.353 500.581 568.353 501.175  c
568.353 505.804 l
567.193 505.804 l
567.193 501.356 l
567.193 500.630 566.906 500.267 566.332 500.267  c
565.734 500.267 565.107 500.690 564.451 501.538  c
564.451 505.804 l
563.291 505.804 l
563.291 501.356 l
563.291 500.626 562.998 500.261 562.412 500.261  c
561.830 500.261 561.207 500.687 560.543 501.538  c
560.543 505.804 l
h
574.353 505.804 m
574.353 497.132 l
576.603 497.132 l
577.471 497.132 578.136 497.296 578.599 497.624  c
579.061 497.952 579.293 498.425 579.293 499.042  c
579.293 500.093 578.699 500.841 577.512 501.286  c
578.930 501.720 579.639 502.503 579.639 503.636  c
579.639 504.339 579.404 504.876 578.935 505.247  c
578.467 505.618 577.791 505.804 576.908 505.804  c
h
575.572 504.884 m
575.824 504.884 l
576.727 504.884 577.310 504.827 577.576 504.714  c
578.084 504.499 578.338 504.101 578.338 503.519  c
578.338 503.003 578.107 502.574 577.646 502.232  c
577.185 501.891 576.609 501.720 575.918 501.720  c
575.572 501.720 l
h
575.572 500.940 m
575.965 500.940 l
576.621 500.940 577.130 500.800 577.491 500.519  c
577.852 500.237 578.033 499.841 578.033 499.329  c
578.033 498.478 577.373 498.052 576.053 498.052  c
575.572 498.052 l
h
f
2 J
10.0000 M
1.00000 .800000 0.00000 RG
0 J
1.45000 M
0.00000 0.00000 0.00000 RG
newpath
512.126 481.303 m
605.345 481.303 l
605.345 521.234 l
512.126 521.234 l
512.126 481.303 l
h
S
2 J
10.0000 M
1.00000 .800000 0.00000 RG
newpath
159.568 481.303 m
252.787 481.303 l
252.787 521.234 l
159.568 521.234 l
159.568 481.303 l
h
f
0.00000 0.00000 0.00000 RG
0 J
1.45000 M
newpath
187.270 505.804 m
187.270 498.052 l
184.194 498.052 l
184.194 497.132 l
191.576 497.132 l
191.576 498.052 l
188.500 498.052 l
188.500 505.804 l
h
197.494 505.599 m
196.721 505.833 196.059 505.950 195.508 505.950  c
194.570 505.950 193.806 505.639 193.214 505.016  c
192.622 504.393 192.326 503.585 192.326 502.593  c
192.326 501.628 192.587 500.837 193.109 500.220  c
193.630 499.603 194.297 499.294 195.110 499.294  c
195.879 499.294 196.474 499.567 196.894 500.114  c
197.314 500.661 197.524 501.439 197.524 502.446  c
197.518 502.804 l
193.504 502.804 l
193.672 504.315 194.412 505.071 195.725 505.071  c
196.205 505.071 196.795 504.942 197.494 504.685  c
h
193.557 501.937 m
196.363 501.937 l
196.363 500.753 195.922 500.161 195.039 500.161  c
194.153 500.161 193.658 500.753 193.557 501.937  c
h
202.797 504.995 m
202.106 505.632 201.440 505.950 200.799 505.950  c
200.272 505.950 199.834 505.785 199.487 505.455  c
199.139 505.125 198.965 504.708 198.965 504.204  c
198.965 503.509 199.257 502.975 199.841 502.602  c
200.425 502.229 201.262 502.042 202.352 502.042  c
202.627 502.042 l
202.627 501.274 l
202.627 500.536 202.248 500.167 201.490 500.167  c
200.881 500.167 200.223 500.355 199.516 500.730  c
199.516 499.774 l
200.293 499.458 201.022 499.300 201.701 499.300  c
202.412 499.300 202.937 499.460 203.275 499.780  c
203.612 500.101 203.781 500.599 203.781 501.274  c
203.781 504.157 l
203.781 504.817 203.985 505.147 204.391 505.147  c
204.442 505.147 204.516 505.140 204.613 505.124  c
204.695 505.763 l
204.434 505.888 204.145 505.950 203.828 505.950  c
203.289 505.950 202.945 505.632 202.797 504.995  c
h
202.627 504.368 m
202.627 502.722 l
202.240 502.710 l
201.608 502.710 201.096 502.830 200.705 503.070  c
200.315 503.311 200.119 503.626 200.119 504.017  c
200.119 504.294 200.217 504.528 200.412 504.720  c
200.608 504.911 200.846 505.007 201.127 505.007  c
201.608 505.007 202.108 504.794 202.627 504.368  c
h
206.143 505.804 m
206.143 499.440 l
207.297 499.440 l
207.297 500.636 l
207.860 499.745 208.582 499.300 209.465 499.300  c
210.317 499.300 210.897 499.745 211.205 500.636  c
211.752 499.741 212.463 499.294 213.338 499.294  c
213.901 499.294 214.336 499.459 214.645 499.789  c
214.953 500.119 215.108 500.581 215.108 501.175  c
215.108 505.804 l
213.947 505.804 l
213.947 501.356 l
213.947 500.630 213.660 500.267 213.086 500.267  c
212.488 500.267 211.862 500.690 211.205 501.538  c
211.205 505.804 l
210.045 505.804 l
210.045 501.356 l
210.045 500.626 209.752 500.261 209.166 500.261  c
208.584 500.261 207.961 500.687 207.297 501.538  c
207.297 505.804 l
h
225.502 502.487 m
224.026 498.749 l
222.543 502.487 l
h
226.803 505.804 m
225.860 503.401 l
222.186 503.401 l
221.231 505.804 l
220.088 505.804 l
223.528 497.132 l
224.746 497.132 l
228.133 505.804 l
h
f
2 J
10.0000 M
1.00000 .800000 0.00000 RG
0 J
1.45000 M
0.00000 0.00000 0.00000 RG
newpath
159.568 481.303 m
252.787 481.303 l
252.787 521.234 l
159.568 521.234 l
159.568 481.303 l
h
S
2 J
10.0000 M
1.00000 .800000 0.00000 RG
newpath
341.568 339.086 m
434.787 339.086 l
434.787 379.017 l
341.568 379.017 l
341.568 339.086 l
h
f
0 J
1.45000 M
0.00000 0.00000 0.00000 RG
newpath
341.568 339.086 m
434.787 339.086 l
434.787 379.017 l
341.568 379.017 l
341.568 339.086 l
h
S
2 J
10.0000 M
0 J
1.45000 M
newpath
358.430 363.587 m
358.430 354.915 l
361.055 354.915 l
361.887 354.915 362.525 355.099 362.968 355.466  c
363.411 355.833 363.633 356.366 363.633 357.065  c
363.633 358.222 363.049 359.042 361.881 359.526  c
364.776 363.587 l
363.264 363.587 l
360.797 359.919 l
359.649 359.919 l
359.649 363.587 l
h
359.649 358.999 m
360.047 358.999 l
361.594 358.999 362.367 358.392 362.367 357.177  c
362.367 356.282 361.719 355.835 360.422 355.835  c
359.649 355.835 l
h
368.080 363.587 m
368.080 355.835 l
365.004 355.835 l
365.004 354.915 l
372.387 354.915 l
372.387 355.835 l
369.311 355.835 l
369.311 363.587 l
h
373.354 360.552 m
373.354 359.685 l
378.557 359.685 l
378.557 360.552 l
h
382.612 363.587 m
382.612 355.835 l
379.535 355.835 l
379.535 354.915 l
386.918 354.915 l
386.918 355.835 l
383.842 355.835 l
383.842 363.587 l
h
392.836 363.382 m
392.063 363.616 391.401 363.733 390.850 363.733  c
389.912 363.733 389.148 363.422 388.556 362.799  c
387.964 362.176 387.668 361.368 387.668 360.376  c
387.668 359.411 387.929 358.620 388.450 358.003  c
388.972 357.386 389.639 357.077 390.451 357.077  c
391.221 357.077 391.816 357.351 392.236 357.897  c
392.655 358.444 392.865 359.222 392.865 360.229  c
392.860 360.587 l
388.846 360.587 l
389.014 362.099 389.754 362.854 391.067 362.854  c
391.547 362.854 392.137 362.726 392.836 362.468  c
h
388.899 359.720 m
391.705 359.720 l
391.705 358.536 391.264 357.944 390.381 357.944  c
389.494 357.944 389.000 358.536 388.899 359.720  c
h
398.139 362.778 m
397.447 363.415 396.781 363.733 396.141 363.733  c
395.613 363.733 395.176 363.568 394.828 363.238  c
394.481 362.908 394.307 362.491 394.307 361.987  c
394.307 361.292 394.599 360.758 395.183 360.385  c
395.767 360.012 396.604 359.825 397.694 359.825  c
397.969 359.825 l
397.969 359.058 l
397.969 358.319 397.590 357.950 396.832 357.950  c
396.223 357.950 395.565 358.138 394.858 358.513  c
394.858 357.558 l
395.635 357.241 396.363 357.083 397.043 357.083  c
397.754 357.083 398.279 357.243 398.616 357.563  c
398.954 357.884 399.123 358.382 399.123 359.058  c
399.123 361.940 l
399.123 362.601 399.326 362.931 399.733 362.931  c
399.783 362.931 399.858 362.923 399.955 362.907  c
400.037 363.546 l
399.776 363.671 399.487 363.733 399.170 363.733  c
398.631 363.733 398.287 363.415 398.139 362.778  c
h
397.969 362.151 m
397.969 360.505 l
397.582 360.493 l
396.949 360.493 396.438 360.613 396.047 360.853  c
395.656 361.094 395.461 361.409 395.461 361.800  c
395.461 362.077 395.559 362.311 395.754 362.503  c
395.949 362.694 396.188 362.790 396.469 362.790  c
396.949 362.790 397.449 362.577 397.969 362.151  c
h
401.485 363.587 m
401.485 357.224 l
402.639 357.224 l
402.639 358.419 l
403.201 357.528 403.924 357.083 404.807 357.083  c
405.658 357.083 406.238 357.528 406.547 358.419  c
407.094 357.524 407.805 357.077 408.680 357.077  c
409.242 357.077 409.678 357.242 409.987 357.572  c
410.295 357.902 410.449 358.364 410.449 358.958  c
410.449 363.587 l
409.289 363.587 l
409.289 359.140 l
409.289 358.413 409.002 358.050 408.428 358.050  c
407.830 358.050 407.203 358.474 406.547 359.321  c
406.547 363.587 l
405.387 363.587 l
405.387 359.140 l
405.387 358.409 405.094 358.044 404.508 358.044  c
403.926 358.044 403.303 358.470 402.639 359.321  c
402.639 363.587 l
h
411.627 363.587 m
414.504 359.233 l
411.768 354.915 l
413.221 354.915 l
415.307 358.185 l
417.498 354.915 l
418.658 354.915 l
415.887 359.104 l
418.729 363.587 l
417.276 363.587 l
415.072 360.147 l
412.793 363.587 l
h
f
2 J
10.0000 M
0 J
1.45000 M
newpath
512.126 501.269 m
263.787 501.269 l
S
newpath
252.787 501.269 m
264.787 507.269 l
264.787 495.269 l
h
f
newpath
342.129 498.884 m
341.270 498.884 340.557 498.565 339.991 497.929  c
339.424 497.292 339.141 496.489 339.141 495.521  c
339.141 494.485 339.421 493.679 339.982 493.101  c
340.543 492.522 341.325 492.233 342.329 492.233  c
342.825 492.233 343.379 492.302 343.993 492.439  c
343.993 493.405 l
343.340 493.214 342.809 493.118 342.399 493.118  c
341.809 493.118 341.336 493.340 340.978 493.783  c
340.621 494.227 340.442 494.817 340.442 495.556  c
340.442 496.271 340.626 496.849 340.993 497.290  c
341.360 497.731 341.840 497.952 342.434 497.952  c
342.961 497.952 343.504 497.817 344.063 497.548  c
344.063 498.544 l
343.317 498.771 342.672 498.884 342.129 498.884  c
h
348.282 498.884 m
347.372 498.884 346.645 498.582 346.102 497.979  c
345.559 497.375 345.288 496.567 345.288 495.556  c
345.288 494.532 345.560 493.723 346.105 493.127  c
346.650 492.531 347.389 492.233 348.323 492.233  c
349.256 492.233 349.996 492.531 350.541 493.127  c
351.086 493.723 351.358 494.528 351.358 495.544  c
351.358 496.583 351.085 497.399 350.538 497.993  c
349.991 498.587 349.239 498.884 348.282 498.884  c
h
348.299 498.017 m
349.522 498.017 350.133 497.192 350.133 495.544  c
350.133 493.915 349.530 493.101 348.323 493.101  c
347.120 493.101 346.518 493.919 346.518 495.556  c
346.518 497.196 347.112 498.017 348.299 498.017  c
h
353.163 498.737 m
353.163 492.374 l
354.317 492.374 l
354.317 493.569 l
354.879 492.679 355.602 492.233 356.485 492.233  c
357.336 492.233 357.917 492.679 358.225 493.569  c
358.772 492.675 359.483 492.228 360.358 492.228  c
360.920 492.228 361.356 492.393 361.665 492.723  c
361.973 493.053 362.128 493.515 362.128 494.108  c
362.128 498.737 l
360.967 498.737 l
360.967 494.290 l
360.967 493.564 360.680 493.200 360.106 493.200  c
359.508 493.200 358.881 493.624 358.225 494.472  c
358.225 498.737 l
357.065 498.737 l
357.065 494.290 l
357.065 493.560 356.772 493.194 356.186 493.194  c
355.604 493.194 354.981 493.620 354.317 494.472  c
354.317 498.737 l
h
364.366 501.052 m
364.366 492.374 l
365.520 492.374 l
365.520 493.569 l
365.993 492.679 366.702 492.233 367.647 492.233  c
368.413 492.233 369.015 492.513 369.455 493.071  c
369.894 493.630 370.114 494.394 370.114 495.362  c
370.114 496.417 369.865 497.268 369.367 497.914  c
368.869 498.561 368.213 498.884 367.401 498.884  c
366.647 498.884 366.020 498.595 365.520 498.017  c
365.520 501.052 l
h
365.520 497.220 m
366.114 497.751 366.680 498.017 367.219 498.017  c
368.329 498.017 368.883 497.171 368.883 495.480  c
368.883 493.987 368.391 493.241 367.407 493.241  c
366.762 493.241 366.133 493.591 365.520 494.290  c
h
371.919 498.737 m
371.919 492.374 l
373.073 492.374 l
373.073 493.569 l
373.530 492.679 374.194 492.233 375.065 492.233  c
375.182 492.233 375.305 492.243 375.434 492.263  c
375.434 493.341 l
375.235 493.274 375.059 493.241 374.907 493.241  c
374.176 493.241 373.565 493.675 373.073 494.542  c
373.073 498.737 l
h
381.493 498.532 m
380.719 498.767 380.057 498.884 379.506 498.884  c
378.569 498.884 377.804 498.572 377.212 497.949  c
376.621 497.326 376.325 496.519 376.325 495.526  c
376.325 494.562 376.586 493.771 377.107 493.153  c
377.628 492.536 378.295 492.228 379.108 492.228  c
379.878 492.228 380.472 492.501 380.892 493.048  c
381.312 493.595 381.522 494.372 381.522 495.380  c
381.516 495.737 l
377.503 495.737 l
377.670 497.249 378.411 498.005 379.723 498.005  c
380.204 498.005 380.794 497.876 381.493 497.618  c
h
377.555 494.870 m
380.362 494.870 l
380.362 493.687 379.920 493.095 379.038 493.095  c
378.151 493.095 377.657 493.687 377.555 494.870  c
h
383.514 498.737 m
383.514 489.485 l
384.669 489.485 l
384.669 493.569 l
385.278 492.679 386.024 492.233 386.907 492.233  c
387.458 492.233 387.897 492.408 388.225 492.758  c
388.553 493.107 388.717 493.577 388.717 494.167  c
388.717 498.737 l
387.563 498.737 l
387.563 494.542 l
387.563 494.069 387.494 493.732 387.355 493.531  c
387.216 493.330 386.987 493.230 386.667 493.230  c
385.960 493.230 385.294 493.692 384.669 494.618  c
384.669 498.737 l
h
395.626 498.532 m
394.852 498.767 394.190 498.884 393.639 498.884  c
392.702 498.884 391.937 498.572 391.345 497.949  c
390.753 497.326 390.458 496.519 390.458 495.526  c
390.458 494.562 390.718 493.771 391.240 493.153  c
391.761 492.536 392.428 492.228 393.241 492.228  c
394.010 492.228 394.605 492.501 395.025 493.048  c
395.445 493.595 395.655 494.372 395.655 495.380  c
395.649 495.737 l
391.635 495.737 l
391.803 497.249 392.544 498.005 393.856 498.005  c
394.336 498.005 394.926 497.876 395.626 497.618  c
h
391.688 494.870 m
394.495 494.870 l
394.495 493.687 394.053 493.095 393.170 493.095  c
392.284 493.095 391.790 493.687 391.688 494.870  c
h
397.647 498.737 m
397.647 492.374 l
398.801 492.374 l
398.801 493.569 l
399.411 492.679 400.157 492.233 401.040 492.233  c
401.590 492.233 402.030 492.408 402.358 492.758  c
402.686 493.107 402.850 493.577 402.850 494.167  c
402.850 498.737 l
401.696 498.737 l
401.696 494.542 l
401.696 494.069 401.627 493.732 401.488 493.531  c
401.349 493.330 401.120 493.230 400.799 493.230  c
400.092 493.230 399.426 493.692 398.801 494.618  c
398.801 498.737 l
h
406.782 498.884 m
406.254 498.884 405.614 498.761 404.860 498.515  c
404.860 497.454 l
405.614 497.829 406.270 498.017 406.829 498.017  c
407.161 498.017 407.436 497.927 407.655 497.747  c
407.874 497.567 407.983 497.343 407.983 497.073  c
407.983 496.679 407.676 496.353 407.063 496.095  c
406.389 495.808 l
405.393 495.394 404.895 494.798 404.895 494.021  c
404.895 493.466 405.091 493.029 405.484 492.711  c
405.877 492.393 406.415 492.233 407.098 492.233  c
407.454 492.233 407.893 492.282 408.417 492.380  c
408.657 492.427 l
408.657 493.388 l
408.012 493.196 407.501 493.101 407.122 493.101  c
406.379 493.101 406.008 493.370 406.008 493.909  c
406.008 494.257 406.290 494.550 406.852 494.788  c
407.409 495.022 l
408.038 495.288 408.483 495.568 408.745 495.863  c
409.006 496.158 409.137 496.526 409.137 496.968  c
409.137 497.526 408.917 497.985 408.475 498.345  c
408.034 498.704 407.469 498.884 406.782 498.884  c
h
411.211 498.737 m
411.211 492.374 l
412.366 492.374 l
412.366 498.737 l
h
411.211 491.220 m
411.211 490.065 l
412.366 490.065 l
412.366 491.220 l
h
415.999 498.737 m
413.631 492.374 l
414.786 492.374 l
416.637 497.325 l
418.588 492.374 l
419.667 492.374 l
417.153 498.737 l
h
425.555 498.532 m
424.782 498.767 424.120 498.884 423.569 498.884  c
422.631 498.884 421.867 498.572 421.275 497.949  c
420.683 497.326 420.387 496.519 420.387 495.526  c
420.387 494.562 420.648 493.771 421.169 493.153  c
421.691 492.536 422.358 492.228 423.170 492.228  c
423.940 492.228 424.535 492.501 424.955 493.048  c
425.375 493.595 425.585 494.372 425.585 495.380  c
425.579 495.737 l
421.565 495.737 l
421.733 497.249 422.473 498.005 423.786 498.005  c
424.266 498.005 424.856 497.876 425.555 497.618  c
h
421.618 494.870 m
424.424 494.870 l
424.424 493.687 423.983 493.095 423.100 493.095  c
422.213 493.095 421.719 493.687 421.618 494.870  c
h
f
newpath
f
2 J
10.0000 M
1.00000 0.00000 0.00000 RG
0 J
1.45000 M
newpath
356.324 383.943 m
231.729 481.303 l
S
newpath
362.627 379.017 m
350.093 382.466 l
355.536 384.559 l
356.250 390.346 l
h
f
0.00000 0.00000 0.00000 RG
newpath
272.457 434.695 m
272.457 433.482 l
272.012 434.389 271.311 434.842 270.354 434.842  c
269.580 434.842 268.973 434.559 268.531 433.992  c
268.090 433.426 267.869 432.646 267.869 431.654  c
267.869 430.576 268.118 429.717 268.616 429.076  c
269.114 428.436 269.783 428.115 270.623 428.115  c
271.295 428.115 271.906 428.381 272.457 428.912  c
272.457 425.443 l
274.197 425.443 l
274.197 434.695 l
h
272.457 429.943 m
272.039 429.475 271.592 429.240 271.115 429.240  c
270.690 429.240 270.350 429.445 270.096 429.855  c
269.842 430.266 269.715 430.816 269.715 431.508  c
269.715 432.824 270.137 433.482 270.981 433.482  c
271.496 433.482 271.988 433.152 272.457 432.492  c
h
281.598 434.479 m
280.774 434.721 279.992 434.842 279.254 434.842  c
278.180 434.842 277.332 434.537 276.711 433.928  c
276.090 433.318 275.779 432.486 275.779 431.432  c
275.779 430.436 276.064 429.634 276.632 429.026  c
277.200 428.419 277.951 428.115 278.885 428.115  c
279.826 428.115 280.514 428.412 280.947 429.006  c
281.381 429.600 281.598 430.539 281.598 431.824  c
277.608 431.824 l
277.725 433.051 278.399 433.664 279.629 433.664  c
280.211 433.664 280.867 433.529 281.598 433.260  c
h
277.584 430.846 m
279.893 430.846 l
279.893 429.748 279.539 429.199 278.832 429.199  c
278.113 429.199 277.697 429.748 277.584 430.846  c
h
283.572 434.695 m
283.572 429.346 l
282.688 429.346 l
282.688 428.262 l
283.572 428.262 l
283.572 427.799 l
283.572 426.131 284.363 425.297 285.945 425.297  c
286.457 425.297 286.985 425.371 287.528 425.520  c
287.528 426.691 l
287.035 426.484 286.594 426.381 286.203 426.381  c
285.606 426.381 285.307 426.832 285.307 427.734  c
285.307 428.262 l
286.936 428.262 l
286.936 429.346 l
285.307 429.346 l
285.307 434.695 l
h
293.604 434.479 m
292.779 434.721 291.998 434.842 291.260 434.842  c
290.186 434.842 289.338 434.537 288.717 433.928  c
288.096 433.318 287.785 432.486 287.785 431.432  c
287.785 430.436 288.070 429.634 288.638 429.026  c
289.206 428.419 289.957 428.115 290.891 428.115  c
291.832 428.115 292.520 428.412 292.953 429.006  c
293.387 429.600 293.604 430.539 293.604 431.824  c
289.613 431.824 l
289.731 433.051 290.404 433.664 291.635 433.664  c
292.217 433.664 292.873 433.529 293.604 433.260  c
h
289.590 430.846 m
291.899 430.846 l
291.899 429.748 291.545 429.199 290.838 429.199  c
290.119 429.199 289.703 429.748 289.590 430.846  c
h
295.397 434.695 m
295.397 428.262 l
297.131 428.262 l
297.131 429.475 l
297.697 428.568 298.428 428.115 299.322 428.115  c
299.897 428.115 300.350 428.297 300.682 428.660  c
301.014 429.023 301.180 429.520 301.180 430.148  c
301.180 434.695 l
299.445 434.695 l
299.445 430.576 l
299.445 429.846 299.203 429.480 298.719 429.480  c
298.168 429.480 297.639 429.869 297.131 430.646  c
297.131 434.695 l
h
303.108 434.490 m
303.108 433.219 l
303.967 433.578 304.701 433.758 305.311 433.758  c
306.022 433.758 306.377 433.516 306.377 433.031  c
306.377 432.719 306.084 432.445 305.498 432.211  c
304.912 431.977 l
304.276 431.719 303.820 431.441 303.547 431.145  c
303.274 430.848 303.137 430.480 303.137 430.043  c
303.137 429.434 303.369 428.960 303.834 428.622  c
304.299 428.284 304.949 428.115 305.785 428.115  c
306.309 428.115 306.932 428.191 307.654 428.344  c
307.654 429.562 l
306.959 429.320 306.383 429.199 305.926 429.199  c
305.207 429.199 304.848 429.422 304.848 429.867  c
304.848 430.160 305.113 430.408 305.645 430.611  c
306.149 430.805 l
306.903 431.090 307.427 431.379 307.722 431.672  c
308.017 431.965 308.164 432.342 308.164 432.803  c
308.164 433.408 307.913 433.899 307.411 434.276  c
306.909 434.653 306.256 434.842 305.451 434.842  c
304.678 434.842 303.897 434.725 303.108 434.490  c
h
310.063 434.695 m
310.063 428.262 l
311.797 428.262 l
311.797 434.695 l
h
310.063 427.178 m
310.063 425.730 l
311.797 425.730 l
311.797 427.178 l
h
315.553 434.695 m
313.098 428.262 l
314.926 428.262 l
316.725 432.902 l
318.512 428.262 l
319.766 428.262 l
317.287 434.695 l
h
326.322 434.479 m
325.498 434.721 324.717 434.842 323.979 434.842  c
322.904 434.842 322.057 434.537 321.436 433.928  c
320.815 433.318 320.504 432.486 320.504 431.432  c
320.504 430.436 320.788 429.634 321.357 429.026  c
321.925 428.419 322.676 428.115 323.610 428.115  c
324.551 428.115 325.238 428.412 325.672 429.006  c
326.106 429.600 326.322 430.539 326.322 431.824  c
322.332 431.824 l
322.449 433.051 323.123 433.664 324.354 433.664  c
324.936 433.664 325.592 433.529 326.322 433.260  c
h
322.309 430.846 m
324.617 430.846 l
324.617 429.748 324.264 429.199 323.557 429.199  c
322.838 429.199 322.422 429.748 322.309 430.846  c
h
f
1.00000 0.00000 0.00000 RG
2 J
10.0000 M
0.00000 0.00000 0.00000 RG
1.00000 0.00000 0.00000 RG
0 J
1.45000 M
newpath
418.266 384.141 m
534.791 481.303 l
S
newpath
412.122 379.017 m
418.136 390.542 l
419.034 384.781 l
424.541 382.862 l
h
f
0.00000 0.00000 0.00000 RG
newpath
448.736 434.695 m
448.736 433.482 l
448.291 434.389 447.589 434.842 446.632 434.842  c
445.859 434.842 445.252 434.559 444.810 433.992  c
444.369 433.426 444.148 432.646 444.148 431.654  c
444.148 430.576 444.397 429.717 444.895 429.076  c
445.393 428.436 446.062 428.115 446.902 428.115  c
447.574 428.115 448.185 428.381 448.736 428.912  c
448.736 425.443 l
450.476 425.443 l
450.476 434.695 l
h
448.736 429.943 m
448.318 429.475 447.871 429.240 447.394 429.240  c
446.968 429.240 446.628 429.445 446.375 429.855  c
446.121 430.266 445.994 430.816 445.994 431.508  c
445.994 432.824 446.416 433.482 447.259 433.482  c
447.775 433.482 448.267 433.152 448.736 432.492  c
h
457.877 434.479 m
457.052 434.721 456.271 434.842 455.533 434.842  c
454.459 434.842 453.611 434.537 452.990 433.928  c
452.369 433.318 452.058 432.486 452.058 431.432  c
452.058 430.436 452.342 429.634 452.911 429.026  c
453.479 428.419 454.230 428.115 455.164 428.115  c
456.105 428.115 456.793 428.412 457.226 429.006  c
457.660 429.600 457.877 430.539 457.877 431.824  c
453.886 431.824 l
454.003 433.051 454.677 433.664 455.908 433.664  c
456.490 433.664 457.146 433.529 457.877 433.260  c
h
453.863 430.846 m
456.171 430.846 l
456.171 429.748 455.818 429.199 455.111 429.199  c
454.392 429.199 453.976 429.748 453.863 430.846  c
h
459.851 434.695 m
459.851 429.346 l
458.966 429.346 l
458.966 428.262 l
459.851 428.262 l
459.851 427.799 l
459.851 426.131 460.642 425.297 462.224 425.297  c
462.736 425.297 463.263 425.371 463.806 425.520  c
463.806 426.691 l
463.314 426.484 462.873 426.381 462.482 426.381  c
461.884 426.381 461.586 426.832 461.586 427.734  c
461.586 428.262 l
463.214 428.262 l
463.214 429.346 l
461.586 429.346 l
461.586 434.695 l
h
469.882 434.479 m
469.058 434.721 468.277 434.842 467.539 434.842  c
466.464 434.842 465.617 434.537 464.996 433.928  c
464.375 433.318 464.064 432.486 464.064 431.432  c
464.064 430.436 464.348 429.634 464.917 429.026  c
465.485 428.419 466.236 428.115 467.169 428.115  c
468.111 428.115 468.798 428.412 469.232 429.006  c
469.666 429.600 469.882 430.539 469.882 431.824  c
465.892 431.824 l
466.009 433.051 466.683 433.664 467.914 433.664  c
468.496 433.664 469.152 433.529 469.882 433.260  c
h
465.869 430.846 m
468.177 430.846 l
468.177 429.748 467.824 429.199 467.117 429.199  c
466.398 429.199 465.982 429.748 465.869 430.846  c
h
471.675 434.695 m
471.675 428.262 l
473.410 428.262 l
473.410 429.475 l
473.976 428.568 474.707 428.115 475.601 428.115  c
476.175 428.115 476.628 428.297 476.961 428.660  c
477.293 429.023 477.459 429.520 477.459 430.148  c
477.459 434.695 l
475.724 434.695 l
475.724 430.576 l
475.724 429.846 475.482 429.480 474.998 429.480  c
474.447 429.480 473.918 429.869 473.410 430.646  c
473.410 434.695 l
h
479.386 434.490 m
479.386 433.219 l
480.246 433.578 480.980 433.758 481.589 433.758  c
482.300 433.758 482.656 433.516 482.656 433.031  c
482.656 432.719 482.363 432.445 481.777 432.211  c
481.191 431.977 l
480.554 431.719 480.099 431.441 479.826 431.145  c
479.552 430.848 479.416 430.480 479.416 430.043  c
479.416 429.434 479.648 428.960 480.113 428.622  c
480.578 428.284 481.228 428.115 482.064 428.115  c
482.587 428.115 483.211 428.191 483.933 428.344  c
483.933 429.562 l
483.238 429.320 482.662 429.199 482.205 429.199  c
481.486 429.199 481.127 429.422 481.127 429.867  c
481.127 430.160 481.392 430.408 481.923 430.611  c
482.427 430.805 l
483.181 431.090 483.706 431.379 484.001 431.672  c
484.295 431.965 484.443 432.342 484.443 432.803  c
484.443 433.408 484.192 433.899 483.690 434.276  c
483.188 434.653 482.535 434.842 481.730 434.842  c
480.957 434.842 480.175 434.725 479.386 434.490  c
h
486.341 434.695 m
486.341 428.262 l
488.076 428.262 l
488.076 434.695 l
h
486.341 427.178 m
486.341 425.730 l
488.076 425.730 l
488.076 427.178 l
h
491.832 434.695 m
489.377 428.262 l
491.205 428.262 l
493.003 432.902 l
494.791 428.262 l
496.044 428.262 l
493.566 434.695 l
h
502.601 434.479 m
501.777 434.721 500.996 434.842 500.257 434.842  c
499.183 434.842 498.336 434.537 497.714 433.928  c
497.093 433.318 496.783 432.486 496.783 431.432  c
496.783 430.436 497.067 429.634 497.635 429.026  c
498.204 428.419 498.955 428.115 499.888 428.115  c
500.830 428.115 501.517 428.412 501.951 429.006  c
502.384 429.600 502.601 430.539 502.601 431.824  c
498.611 431.824 l
498.728 433.051 499.402 433.664 500.632 433.664  c
501.214 433.664 501.871 433.529 502.601 433.260  c
h
498.587 430.846 m
500.896 430.846 l
500.896 429.748 500.543 429.199 499.836 429.199  c
499.117 429.199 498.701 429.748 498.587 430.846  c
h
f
1.00000 0.00000 0.00000 RG
2 J
10.0000 M
0.00000 0.00000 0.00000 RG
Q
[ 1.00000 0.00000 0.00000 1.00000 0.00000 0.00000 ] defaultmatrix matrix concatmatrix setmatrix
cliprestore

%%Trailer
%%EOF
