%!PS-Adobe-3.0 EPSF-3.0
%%BoundingBox: 0 0 915 445
%%Creator: yExport 1.5
%%Producer: org.freehep.graphicsio.ps.EPSGraphics2D Revision: 12753 
%%For: 
%%Title: 
%%CreationDate: Sunday, March 5, 2017 1:13:42 AM GMT
%%LanguageLevel: 3
%%EndComments
%%BeginProlog
100 dict dup begin

%
% File: org/freehep/graphicsio.ps/PSProlog.txt
% Author: Charles Loomis
%

% Redefinitions which save some space in the output file.  These are also
% the same as the PDF operators.
/q {gsave} def
/Q {grestore} def

/n {newpath} def
/m {moveto} def
/l {lineto} def
/c {curveto} def
/h {closepath} def

/re {4 -2 roll moveto
     dup 0 exch rlineto exch 0 rlineto
     neg 0 exch rlineto closepath} def

/f {fill} def
/f* {eofill} def
/F {gsave vg&FC fill grestore} def
/F* {gsave vg&FC eofill grestore} def

/s {closepath stroke} def
/S {stroke} def

/b {closepath gsave vg&FC fill grestore
    gsave stroke grestore newpath} def
/B {gsave vg&FC fill grestore gsave stroke grestore newpath} def
/b* {closepath gsave vg&FC eofill grestore
    gsave stroke grestore newpath} def
/B* {gsave vg&FC eofill grestore gsave stroke grestore newpath} def

/g {1 array astore /vg&fcolor exch def} def
/G {setgray} def
/k {4 array astore /vg&fcolor exch def} def
/K {setcmykcolor} def
/rg {3 array astore /vg&fcolor exch def} def
/RG {setrgbcolor} def

% Initialize the fill color.
0 0 0 rg

/vg&FC {mark vg&fcolor aload pop
        counttomark 1 eq {G} if
        counttomark 3 eq {RG} if
        counttomark 4 eq {K} if
        cleartomark } def

/vg&DFC {/vg&fcolor exch def} def

/vg&C {mark exch aload pop
       counttomark 1 eq {G} if
       counttomark 3 eq {RG} if
       counttomark 4 eq {K} if
       cleartomark } def

/w {setlinewidth} def
/j {setlinejoin} def
/J {setlinecap} def
/M {setmiterlimit} def
/d {setdash} def
/i {setflat} def

/W {clip} def
/W* {eoclip} def

% Setup the default graphics state.
% (black; 1 pt. linewidth; miter join; butt-ends; solid)
/defaultGraphicsState {0 g 1 w 0 j 0 J [] 0 d} def

% Emulation of the rectangle operators for PostScript implementations
% which do not implement all Level 2 features.  This is an INCOMPLETE
% emulation; only the "x y width height rect..." form is emulated.
/*rf {gsave newpath re fill grestore} def
/*rs {gsave newpath re stroke grestore} def
/*rc {newpath re clip} def
/rf  /rectfill where {pop /rectfill}{/*rf} ifelse load def
/rs  /rectstroke where {pop /rectstroke}{/*rs} ifelse load def
/rc  /rectclip where {pop /rectclip}{/*rc} ifelse load def

% Emulation of the selectfont operator.  This includes a 20% increase in
% the fontsize which is necessary to get sizes similar to the Java fonts.
/*sf {exch findfont exch
      dup type /arraytype eq {makefont}{scalefont} ifelse setfont} bind def
/sf /selectfont where {pop {1.2 mul selectfont}}{{1.2 mul *sf}} ifelse def

% Special version of stroke which allows the dash pattern to continue
% across path segments.  (This may be needed for PostScript although
% modern printers seem to do this correctly.)
/vg&stroke {
  currentdash pop length 0 eq
  {stroke}
  {
    currentdash /vg&doffset exch def pop
    flattenpath
    {m vg&resetdash}
    {2 copy
     currentpoint
     3 -1 roll sub dup mul
     3 1 roll sub dup mul
     add sqrt
     3 1 roll l
     currentdash 3 -1 roll add setdash}
     {}
     {h vg&resetdash}
     pathforall
     stroke
     vg&resetdash
  } ifelse
} def
/vg&resetdash {currentdash pop vg&doffset setdash} def

% Initialize variables for safety.
/delta 0 def
/xv 0 def  /yv 0 def  /width 0 def  /height 0 def

% Initialize to portrait INTERNATIONAL (Letter-height, A4-width) page.
/pw 595 def  /ph 791  def  /po true def /ftp false def

% Initialize margins to 20 points.
/ml 20 def  /mr 20 def  /mt 20 def  /mb 20 def

% Temporary matrices.
/smatrix 0 def  /nmatrix 0 def

% set page size (usage: <page width><page height> setpagesize)
/setpagesize {/ph exch def /pw exch def} def

% set page orientation (usage: portrait or landscape)
/portrait {/po true def} def
/landscape {/po false def} def

% force natural size for image (usage: naturalsize)
/naturalsize {/ftp false def} def

% resize image to fill page (usage: fittopage)
/fittopage {/ftp true def} def

% set margins of the page (usage: <left><bottom><top><right> setmargins)
/setmargins {/mr exch def /mt exch def /mb exch def /ml exch def} def

% set the graphic's size (usage: <width><height> setsize)
/setsize {/gh exch def /gw exch def} def

% set the graphic's origin (usage: <x0><y0> setorigin)
/setorigin {/gy exch def /gx exch def} def

% calculate image center
/imagecenter {pw ml sub mr sub 2 div ml add
              ph mt sub mb sub 2 div mb add} def

% calculate the necessary scaling
/imagescale {po {gw}{gh} ifelse pw ml sub mr sub div
             po {gh}{gw} ifelse ph mt sub mb sub div
             2 copy lt {exch} if pop
             ftp not {1 2 copy lt {exch} if pop} if
             1 exch div /sfactor exch def
             /gw gw sfactor mul def /gh gh sfactor mul def} def

% calculate image origin
/imageorigin {pw ml sub mr sub 2 div ml add
              po {gw}{gh} ifelse 2 div sub
              ph mt sub mb sub 2 div mb add
              po {gh}{gw} ifelse 2 div po {add}{sub} ifelse} def

% calculate the clipping origin
/cliporigin  {pw ml sub mr sub 2 div ml add
              po {gw}{gh} ifelse 2 div sub floor
              ph mt sub mb sub 2 div mb add
              po {gh}{gw} ifelse 2 div sub floor} def

% Set the clipping region to the bounding box.
/cliptobounds {cliporigin po {gw}{gh} ifelse 1 add
                          po {gh}{gw} ifelse 1 add rc} def

% set the base transformation matrix (usage: setbasematrix)
/setbasematrix {imageorigin translate
                po {0}{90} ifelse rotate
                sfactor sfactor neg scale
                /defaultmatrix matrix currentmatrix def} def

% The lower-right bias in drawing 1 pt. wide lines.
/bias  {q 0.5 0.5 translate} def
/unbias {Q} def

% Define the composite fonts used to print Unicode strings.
% Undefine particular values in an encoding array.
/vg&undef { {exch dup 3 -1 roll /.notdef put} forall } def
/vg&redef { {3 -1 roll dup 4 2 roll put} forall } def

% usage: key encoding basefontname vg&newbasefont font
/vg&newbasefont {
findfont dup length dict copy
  begin
    currentdict /FID undef
    /Encoding exch def
    dup /FontName exch def
    currentdict
  end
definefont
} def

% usage: key encoding basefontname vg&newskewedbasefont font
/vg&newskewedbasefont {
findfont dup length dict copy
  begin
    currentdict /FID undef
    /Encoding exch def
    dup /FontName exch def
    exch FontMatrix exch matrix concatmatrix /FontMatrix exch def
    currentdict
  end
definefont
} def

% usage: basekey suffix vg&nconcat name
/vg&nconcat {
  2 {dup length string cvs exch} repeat
  dup length 3 -1 roll dup length 3 -1 roll add string
  dup 0 4 -1 roll dup length 5 1 roll putinterval
  dup 4 -2 roll exch putinterval cvn
} def

%usage: fontname vg&skewmatrix matrix
/vg&skewmatrix {
findfont dup /FontInfo known
  {
    /FontInfo get dup /ItalicAngle known
    {
      [ 1 0 4 -1 roll /ItalicAngle get neg dup sin exch cos div 1 0 0 ]
    }
    {pop matrix} ifelse
  }
  {pop matrix} ifelse
} def

% usage: newfontname basefontname vg&newcompositefont --
/vg&newcompositefont {
/vg&fstyle exch def
/vg&bfont exch def
/vg&fname exch def
<<
/FontStyleBits vg&fstyle
/FontType 0
/FontMatrix matrix
/FontName vg&fname
/FMapType 2
/Encoding [ 0 1 255 {pop 6} for ]
          dup 16#00 0 put % Latin
          dup 16#03 1 put % Greek
          dup 16#20 2 put % Punctuation
          dup 16#21 3 put % Arrows
          dup 16#22 4 put % MathOps
          dup 16#27 5 put % Dingbats

/FDepVector [
vg&bfont /-UC-Latin vg&nconcat UCLatinEncoding
vg&bfont vg&newbasefont

vg&bfont vg&skewmatrix
vg&bfont /-UC-Greek vg&nconcat UCGreekEncoding
/Symbol vg&newskewedbasefont

vg&bfont /-UC-Punctuation vg&nconcat UCPunctuationEncoding
vg&bfont vg&newbasefont

/Arrows-UC findfont
/MathOps-UC findfont
/Dingbats-UC findfont
/Undefined-UC findfont ]
>>
vg&fname exch definefont pop
} def

% Null encoding vector (all elements set to .notdef)
/NullEncoding [ 256 {/.notdef} repeat ] def

% Unicode Latin encoding (unicode codes \u0000-\u00ff)
/UCLatinEncoding
  ISOLatin1Encoding dup length array copy
  dup 16#60 /grave put
  [ 16#90 16#91 16#92 16#93 16#94 16#95 16#96
    16#97 16#98 16#9a 16#9b 16#9d 16#9e 16#9f
  ] vg&undef
  def

% Unicode Greek encoding (unicode codes \u0370-\u03ff)
/UCGreekEncoding
  NullEncoding dup length array copy
  << 16#91 /Alpha    16#92 /Beta      16#93 /Gamma    16#94 /Delta
     16#95 /Epsilon  16#96 /Zeta      16#97 /Eta      16#98 /Theta
     16#99 /Iota     16#9a /Kappa     16#9b /Lambda   16#9c /Mu
     16#9d /Nu       16#9e /Xi        16#9f /Omicron  16#a0 /Pi
     16#a1 /Rho      16#a3 /Sigma     16#a4 /Tau      16#a5 /Upsilon
     16#a6 /Phi      16#a7 /Chi       16#a8 /Psi      16#a9 /Omega
     16#b1 /alpha    16#b2 /beta      16#b3 /gamma    16#b4 /delta
     16#b5 /epsilon  16#b6 /zeta      16#b7 /eta      16#b8 /theta
     16#b9 /iota     16#ba /kappa     16#bb /lambda   16#bc /mu
     16#bd /nu       16#be /xi        16#bf /omicron  16#c0 /pi
     16#c1 /rho      16#c2 /sigma1    16#c3 /sigma    16#c4 /tau
     16#c5 /upsilon  16#c6 /phi1      16#c7 /chi      16#c8 /psi
     16#c9 /omega    16#7e /semicolon 16#87 /dotmath  16#d1 /theta1
     16#d2 /Upsilon1 16#d5 /phi       16#d6 /omega1
  >> vg&redef
  def

% Unicode punctuation encoding (unicode codes \u2000-\u206f)
/UCPunctuationEncoding
  NullEncoding dup length array copy
  << 16#10 /hyphen          16#11 /hyphen              16#12 /endash
     16#13 /emdash          16#18 /quoteleft           16#19 /quoteright
     16#1a /quotesinglbase  16#1b /quotesingle         16#1c /quotedblleft
     16#1d /quotedblright   16#1e /quotedblbase        16#1f /quotedbl
     16#20 /dagger          16#21 /daggerdbl           16#22 /bullet
     16#24 /period          16#26 /ellipsis            16#27 /periodcentered
     16#30 /perthousand     16#44 /fraction
     16#70 /zerosuperior    16#74 /foursuperior        16#75 /fivesuperior
     16#76 /sixsuperior     16#77 /sevensuperior       16#78 /eightsuperior
     16#79 /ninesuperior    16#7b /hyphensuperior      16#7d /parenleftsuperior
     16#7e /parenrightsuperior
     16#80 /zeroinferior    16#84 /fourinferior        16#85 /fiveinferior
     16#81 /oneinferior     16#82 /twoinferior         16#83 /threeinferior
     16#86 /sixinferior     16#87 /seveninferior       16#88 /eightinferior
     16#89 /nineinferior    16#8b /hypheninferior      16#8d /parenleftinferior
     16#8e /parenrightinferior
  >> vg&redef
  def

% Unicode mathematical operators encoding (unicode codes \u2200-\u22ff)
/UCMathOpsEncoding
  NullEncoding dup length array copy
  << 16#00 /universal       16#02 /partialdiff         16#03 /existential
     16#05 /emptyset        16#06 /Delta               16#07 /gradient
     16#08 /element         16#09 /notelement          16#0b /suchthat
     16#0f /product         16#11 /summation           16#12 /minus
     16#15 /fraction        16#17 /asteriskmath        16#19 /bullet
     16#1a /radical         16#1d /proportional        16#1e /infinity
     16#20 /angle           16#23 /bar                 16#27 /logicaland
     16#28 /logicalor       16#29 /intersection        16#2a /union
     16#2b /integral        16#34 /therefore           16#36 /colon
     16#3c /similar         16#45 /congruent           16#48 /approxequal
     16#60 /notequal        16#61 /equivalence         16#64 /lessequal
     16#65 /greaterequal    16#82 /propersubset        16#83 /propersuperset
     16#86 /reflexsubset    16#87 /reflexsuperset      16#95 /circleplus
     16#97 /circlemultiply  16#a5 /perpendicular       16#03 /existential
     16#c0 /logicaland      16#c1 /logicalor           16#c2 /intersection
     16#c3 /union           16#c4 /diamond             16#c5 /dotmath
  >> vg&redef
  def

% Unicode arrows encoding (unicode codes \u2190-\u21ff)
% Also includes those "Letterlike" unicode characters
% which are available in the symbol font. (unicode codes \u2100-\u214f)
/UCArrowsEncoding
  NullEncoding dup length array copy
  << 16#11 /Ifraktur        16#1c /Rfraktur            16#22 /trademarkserif
     16#35 /aleph
     16#90 /arrowleft       16#91 /arrowup             16#92 /arrowright
     16#93 /arrowdown       16#94 /arrowboth           16#d0 /arrowdblleft
     16#d1 /arrowdblup      16#d2 /arrowdblright       16#d3 /arrowdbldown
     16#d4 /arrowdblboth
  >> vg&redef
  def

/ZapfDingbats findfont /Encoding get
dup length array copy /UCDingbatsEncoding exch def
16#20 1 16#7f {
  dup 16#20 sub exch
  UCDingbatsEncoding exch get
  UCDingbatsEncoding 3 1 roll put
} for
16#a0 1 16#ff {
  dup 16#40 sub exch
  UCDingbatsEncoding exch get
  UCDingbatsEncoding 3 1 roll put
} for
UCDingbatsEncoding [ 16#c0 1 16#ff {} for ] vg&undef
[ 16#00  16#05 16#0a 16#0b  16#28 16#4c 16#4e  16#53 16#54 16#55  16#57 16#5f
  16#60  16#68 16#69 16#6a  16#6b 16#6c 16#6d  16#6e 16#6f 16#70  16#71 16#72
  16#73  16#74 16#75 16#95  16#96 16#97 16#b0  16#bf
] vg&undef pop

% Define the base fonts which don't change.
/Undefined-UC NullEncoding       /Helvetica    vg&newbasefont pop
/MathOps-UC   UCMathOpsEncoding  /Symbol       vg&newbasefont pop
/Arrows-UC    UCArrowsEncoding   /Symbol       vg&newbasefont pop
/Dingbats-UC  UCDingbatsEncoding /ZapfDingbats vg&newbasefont pop

% Make the SansSerif composite fonts.
/SansSerif /Helvetica 16#00 vg&newcompositefont
/SansSerif-Bold /Helvetica-Bold 16#01 vg&newcompositefont
/SansSerif-Italic /Helvetica-Oblique 16#02 vg&newcompositefont
/SansSerif-BoldItalic /Helvetica-BoldOblique 16#03 vg&newcompositefont

% Make the Serif composite fonts.
/Serif /Times-Roman 16#00 vg&newcompositefont
/Serif-Bold /Times-Bold 16#01 vg&newcompositefont
/Serif-Italic /Times-Italic 16#02 vg&newcompositefont
/Serif-BoldItalic /Times-BoldItalic 16#03 vg&newcompositefont

% Make the Monospaced composite fonts.
/Monospaced /Courier 16#00 vg&newcompositefont
/Monospaced-Bold /Courier-Bold 16#01 vg&newcompositefont
/Monospaced-Italic /Courier-Oblique 16#02 vg&newcompositefont
/Monospaced-BoldItalic /Courier-BoldOblique 16#03 vg&newcompositefont

% Make the Dialog composite fonts.
/Dialog /Helvetica 16#00 vg&newcompositefont
/Dialog-Bold /Helvetica-Bold 16#01 vg&newcompositefont
/Dialog-Italic /Helvetica-Oblique 16#02 vg&newcompositefont
/Dialog-BoldItalic /Helvetica-BoldOblique 16#03 vg&newcompositefont

% Make the DialogInput composite fonts.
/DialogInput /Courier 16#00 vg&newcompositefont
/DialogInput-Bold /Courier-Bold 16#01 vg&newcompositefont
/DialogInput-Italic /Courier-Oblique 16#02 vg&newcompositefont
/DialogInput-BoldItalic /Courier-BoldOblique 16#03 vg&newcompositefont

% Make the Typewriter composite fonts (JDK 1.1 only).
/Typewriter /Courier 16#00 vg&newcompositefont
/Typewriter-Bold /Courier-Bold 16#01 vg&newcompositefont
/Typewriter-Italic /Courier-Oblique 16#02 vg&newcompositefont
/Typewriter-BoldItalic /Courier-BoldOblique 16#03 vg&newcompositefont


/cfontH {
 dup /fontsize exch def /SansSerif exch sf
 /vg&fontstyles [{cfontH} {cfontHB} {cfontHI} {cfontHBI}] def
} def
/cfontHB {
  dup /fontsize exch def /SansSerif-Bold exch sf
 /vg&fontstyles [{cfontH} {cfontHB} {cfontHI} {cfontHBI}] def
} def
/cfontHI {
 dup /fontsize exch def /SansSerif-Italic exch sf
 /vg&fontstyles [{cfontH} {cfontHB} {cfontHI} {cfontHBI}] def
} def
/cfontHBI {
 dup /fontsize exch def /SansSerif-BoldItalic exch sf
 /vg&fontstyles [{cfontH} {cfontHB} {cfontHI} {cfontHBI}] def
} def

/cfontT {
 dup /fontsize exch def /Serif exch sf
 /vg&fontstyles [{cfontT} {cfontTB} {cfontTI} {cfontTBI}] def
} def
/cfontTB {
 dup /fontsize exch def /Serif-Bold exch sf
 /vg&fontstyles [{cfontT} {cfontTB} {cfontTI} {cfontTBI}] def
} def
/cfontTI {
 dup /fontsize exch def /Serif-Italic exch sf
 /vg&fontstyles [{cfontT} {cfontTB} {cfontTI} {cfontTBI}] def
} def
/cfontTBI {
 dup /fontsize exch def /Serif-BoldItalic exch sf
 /vg&fontstyles [{cfontT} {cfontTB} {cfontTI} {cfontTBI}] def
} def

/cfontC {
 dup /fontsize exch def /Typewriter exch sf
 /vg&fontstyles [{cfontC} {cfontCB} {cfontCI} {cfontCBI}] def
} def
/cfontCB {
 dup /fontsize exch def /Typewriter-Bold exch sf
 /vg&fontstyles [{cfontC} {cfontCB} {cfontCI} {cfontCBI}] def
} def
/cfontCI {
 dup /fontsize exch def /Typewriter-Italic exch sf
 /vg&fontstyles [{cfontC} {cfontCB} {cfontCI} {cfontCBI}] def
} def
/cfontCBI {
 dup /fontsize exch def /Typewriter-BoldItalic exch sf
 /vg&fontstyles [{cfontC} {cfontCB} {cfontCI} {cfontCBI}] def
} def

% Darken or lighten the current color.
/darken {0.7 exch exp 3 copy
         q 4 -1 roll vg&C
         currentrgbcolor 3 {4 -2 roll mul} repeat
         3 array astore Q} def

/displayColorMap
<< /Cr   [1.00 0.00 0.00]       /Cg     [0.00 1.00 0.00]
   /Cb   [0.00 0.00 1.00]       /Cc     [1.00 0.00 0.00 0.00]
   /Cm   [0.00 1.00 0.00 0.00]  /Cy     [0.00 0.00 1.00 0.00]
   /Co   [1.00 0.78 0.00]       /Cp     [1.00 0.67 0.67]
   /Cw   [1   ]                 /Cgrl   [0.75]
   /Cgr  [0.50]                 /Cgrd   [0.25]
   /Ck   [0   ]
   /CGr  [1.00 0.00 0.00]       /CGg    [0.00 1.00 0.00]
   /CGb  [0.00 0.00 1.00]       /CGc    [1.00 0.00 0.00 0.00]
   /CGm  [0.00 1.00 0.00 0.00]  /CGy    [0.00 0.00 1.00 0.00]
   /CGo  [1.00 0.78 0.00]       /CGp    [1.00 0.67 0.67]
   /CGw  [1   ]                 /CGgrl  [0.75]
   /CGgr [0.50]                 /CGgrd  [0.25]
   /CGk  [0   ]
   /CIr  [1.00 0.00 0.00]       /CIg    [0.00 1.00 0.00]
   /CIb  [0.00 0.00 1.00]       /CIc    [1.00 0.00 0.00 0.00]
   /CIm  [0.00 1.00 0.00 0.00]  /CIy    [0.00 0.00 1.00 0.00]
   /CIo  [1.00 0.78 0.00]       /CIp    [1.00 0.67 0.67]
   /CIw  [1   ]                 /CIgrl  [0.75]
   /CIgr [0.50]                 /CIgrd  [0.25]
   /CIk  [0   ]
>> def

/printColorMap
<< /Cr   [1.00 0.33 0.33]       /Cg     [0.33 1.00 0.33]
   /Cb   [0.33 0.33 1.00]       /Cc     [1.00 0.00 0.00 0.00]
   /Cm   [0.00 1.00 0.00 0.00]  /Cy     [0.00 0.00 1.00 0.00]
   /Co   [1.00 0.78 0.00]       /Cp     [1.00 0.67 0.67]
   /Cw   [1   ]                 /Cgrl   [0.75]
   /Cgr  [0.50]                 /Cgrd   [0.25]
   /Ck   [0   ]
   /CGr  [1.00 0.33 0.33]       /CGg    [0.33 1.00 0.33]
   /CGb  [0.33 0.33 1.00]       /CGc    [1.00 0.00 0.00 0.00]
   /CGm  [0.00 1.00 0.00 0.00]  /CGy    [0.00 0.00 1.00 0.00]
   /CGo  [1.00 0.78 0.00]       /CGp    [1.00 0.67 0.67]
   /CGw  [1   ]                 /CGgrl  [0.75]
   /CGgr [0.50]                 /CGgrd  [0.25]
   /CGk  [0   ]
   /CIr  [1.00 0.33 0.33]       /CIg    [0.33 1.00 0.33]
   /CIb  [0.33 0.33 1.00]       /CIc    [1.00 0.00 0.00 0.00]
   /CIm  [0.00 1.00 0.00 0.00]  /CIy    [0.00 0.00 1.00 0.00]
   /CIo  [1.00 0.78 0.00]       /CIp    [1.00 0.67 0.67]
   /CIw  [1   ]                 /CIgrl  [0.75]
   /CIgr [0.50]                 /CIgrd  [0.25]
   /CIk  [0   ]
>> def

/grayColorMap
<< /Cr   [0   ]                 /Cg     [0   ]
   /Cb   [0   ]                 /Cc     [0   ]
   /Cm   [0   ]                 /Cy     [0   ]
   /Co   [0   ]                 /Cp     [0   ]
   /Cw   [0   ]                 /Cgrl   [0   ]
   /Cgr  [0   ]                 /Cgrd   [0   ]
   /Ck   [0   ]
   /CGr  [0.75]                 /CGg    [1   ]
   /CGb  [0.50]                 /CGc    [0.75]
   /CGm  [0.50]                 /CGy    [1   ]
   /CGo  [0.75]                 /CGp    [1   ]
   /CGw  [0   ]                 /CGgrl  [0.25]
   /CGgr [0.50]                 /CGgrd  [0.75]
   /CGk  [1   ]
   /CIr  [1   ]                 /CIg    [1   ]
   /CIb  [1   ]                 /CIc    [1   ]
   /CIm  [1   ]                 /CIy    [1   ]
   /CIo  [1   ]                 /CIp    [1   ]
   /CIw  [1   ]                 /CIgrl  [1   ]
   /CIgr [1   ]                 /CIgrd  [1   ]
   /CIk  [1   ]
>> def

/bwColorMap
<< /Cr   [0   ]                 /Cg     [0   ]
   /Cb   [0   ]                 /Cc     [0   ]
   /Cm   [0   ]                 /Cy     [0   ]
   /Co   [0   ]                 /Cp     [0   ]
   /Cw   [0   ]                 /Cgrl   [0   ]
   /Cgr  [0   ]                 /Cgrd   [0   ]
   /Ck   [0   ]
   /CGr  [1   ]                 /CGg    [1   ]
   /CGb  [1   ]                 /CGc    [1   ]
   /CGm  [1   ]                 /CGy    [1   ]
   /CGo  [1   ]                 /CGp    [1   ]
   /CGw  [0   ]                 /CGgrl  [1   ]
   /CGgr [1   ]                 /CGgrd  [1   ]
   /CGk  [1   ]
   /CIr  [1   ]                 /CIg    [1   ]
   /CIb  [1   ]                 /CIc    [1   ]
   /CIm  [1   ]                 /CIy    [1   ]
   /CIo  [1   ]                 /CIp    [1   ]
   /CIw  [1   ]                 /CIgrl  [1   ]
   /CIgr [1   ]                 /CIgrd  [1   ]
   /CIk  [1   ]
>> def

%
% The following routines handle the alignment of and printing of
% tagged strings.
%

% Predefine the bounding box values.
/bbllx 0 def /bblly 0 def /bburx 0 def /bbury 0 def

% This routine pops the first unicode character off of a string and returns
% the remainder of the string, the character code of first character,
% and a "true" if the string was non-zero length.
% <string>      popfirst <remaining string> <true>
% <null string> popfirst <false>
/popfirst {
  dup length 1 gt
    {dup 0 get /vg&fbyte exch def
     dup 1 get /vg&cbyte exch def
     dup length 2 sub 2 exch getinterval true}
    {pop false} ifelse
} def

% This routine shows a single unicode character given the font and
% character codes.
% <font code> <char code> unicharshow --
/unicharshow {
  2 string
  dup 0 5 -1 roll put
  dup 1 4 -1 roll put
  internalshow
} def

% This is an internal routine to alternate between determining the
% bounding box for stringsize and showing the string for recshow.
% <string> internalshow --
/internalshow {show} def

% This is an internal routine to alternate between determining the
% bounding box for stringsize and stroking various ornaments.
% <string> internalstroke --
/internalstroke {S} def

% Sets up internalshow to use the null device to determine string size.
% -- nullinternalshow --
/nullinternalshow {/internalshow {false charpath flattenpath
                                  pathbbox updatebbox} def} def

% Sets up internalstroke to use the null device to determine string size.
% -- nullinternalstroke --
/nullinternalstroke {
 /internalstroke {flattenpath pathbbox updatebbox} def} def

% This routine tests to see if the character code matches the first
% character of a string.
% <char code> <string> testchar <char code> <true or false>
/testchar {exch dup 3 -1 roll 0 get eq} def

% Raise the text baseline for superscripts.
% -- raise --
/raise {
  0 fontsize 2 div rmoveto
  /fontsize fontsize 2 mul 3 div def
  currentfont /FontName get fontsize sf
} def

% Un-raise the text baseline for superscripts.
% -- unraise --
/unraise {
  /fontsize fontsize 1.5 mul def
  0 fontsize 2 div neg rmoveto
} def

% Lower the text baseline for subscripts.
% -- lower --
/lower {
  0 fontsize 3 div neg rmoveto
  /fontsize fontsize 2 mul 3 div def
  currentfont /FontName get fontsize sf
} def

% Un-lower the text baseline for subscripts.
% -- unlower --
/unlower {
  /fontsize fontsize 1.5 mul def
  0 fontsize 3 div rmoveto
} def

% Compare the top two elements on the stack and leave only the
% larger one.
/maxval {2 copy gt {pop} {exch pop} ifelse} def

% Tokenize a string.  Do not use the usual PostScript token because
% parentheses will not be interpreted correctly because of rescanning
% of the string.
/vg&token {/vg&string exch def /vg&index -1 def /vg&level 0 def
0 2 vg&string length 2 sub {
  dup dup 1 add exch vg&string exch get 8 bitshift vg&string 3 -1 roll get or
  dup 16#f0fe eq {pop 1}{16#f0ff eq {-1}{0} ifelse} ifelse
  /vg&level exch vg&level add def
  vg&level 0 eq {/vg&index exch def exit} if pop
} for
vg&index 0 ge {
  vg&string vg&index 2 add dup vg&string length exch sub getinterval
  vg&index 2 gt {vg&string 2 vg&index 2 sub getinterval}{()} ifelse
  true}
{false} ifelse
} bind def

% Recursively show an unicode string.
% <string> recshow --
/recshow {
  popfirst
  {
    % Test to see if this is a string attribute.
    vg&fbyte 16#f0 and 16#e0 eq
    {
      q

      % Font style.
      currentfont dup /FontStyleBits known {/FontStyleBits get}{pop 0} ifelse
      vg&cbyte or vg&fontstyles exch get fontsize exch exec

      vg&token pop recshow currentpoint Q m recshow
    }
    {
      vg&fbyte 16#F8 and 16#F0 eq {

        % Superscript and/or subscript.
        vg&cbyte 16#00 eq {
          vg&token pop exch vg&token pop 3 -1 roll
          q raise recshow unraise currentpoint pop Q exch
          q lower recshow unlower currentpoint pop Q
          maxval currentpoint exch pop m recshow } if

        % Strikeout.
        vg&cbyte 16#01 eq {
          vg&token pop currentpoint 3 -1 roll recshow
          q 0 J vg&underline vg&uthick w
          currentpoint 4 -2 roll fontsize 3 div add moveto
          fontsize 3 div add lineto internalstroke Q
          recshow} if

        % Underline.
        vg&cbyte 16#02 eq {
          vg&token pop currentpoint 3 -1 roll recshow
          q 0 J vg&underline vg&uthick w
          currentpoint 4 -2 roll vg&uoffset add moveto
          vg&uoffset add lineto internalstroke Q
          recshow} if

        % Dashed underline.
        vg&cbyte 16#03 eq {
          vg&token pop currentpoint 3 -1 roll recshow
          q 0 J [ vg&uthick 5 mul vg&uthick 2 mul] 0 d
          vg&underline vg&uthick w
          currentpoint 4 -2 roll vg&uoffset add moveto
          vg&uoffset add lineto internalstroke Q
          recshow} if

        % Dotted underline.
        vg&cbyte 16#04 eq {
          vg&token pop currentpoint 3 -1 roll recshow
          q 1 J [ 0 vg&uthick 3 mul] 0 d
          vg&underline vg&uthick w
          currentpoint 4 -2 roll vg&uoffset add moveto
          vg&uoffset add lineto internalstroke Q
          recshow} if

        % Thick underline.
        vg&cbyte 16#05 eq {
          vg&token pop currentpoint 3 -1 roll recshow
          q 0 J vg&underline vg&uthick 2 mul w
          currentpoint 4 -2 roll vg&uoffset vg&uthick 2 div sub add moveto
          vg&uoffset vg&uthick 2 div sub add lineto internalstroke Q
          recshow} if

        % Gray thick underline.
        vg&cbyte 16#06 eq {
          vg&token pop currentpoint 3 -1 roll recshow
          q 0 J vg&underline vg&uthick 2 mul w 0.5 setgray
          currentpoint 4 -2 roll vg&uoffset vg&uthick 2 div sub add moveto
          vg&uoffset vg&uthick 2 div sub add lineto internalstroke Q
          recshow} if

        % Overbar.
        vg&cbyte 16#07 eq {
          vg&token pop dup stringsize relative 4 1 roll pop pop exch
          3 -1 roll recshow
          q 0 J vg&underline vg&uthick w
          vg&uoffset neg add dup currentpoint pop exch m l internalstroke Q
          recshow} if
      }
      {
        vg&fbyte vg&cbyte unicharshow recshow
      } ifelse
    } ifelse
  } if
} def

% Get the underline position and thickness from the current font.
/vg&underline {

currentfont dup /FontType get 0 eq {/FDepVector get 0 get} if
dup dup /FontInfo known {
  /FontInfo get dup
  dup /UnderlinePosition known {
    /UnderlinePosition get /vg&uoffset exch def
  }
  {
    pop /vg&uoffset 0 def
  } ifelse
  dup /UnderlineThickness known {
    /UnderlineThickness get /vg&uthick exch def
  }
  {
    pop /vg&uthick 0 def
  } ifelse
}
{
  pop /vg&uoffset 0 def /vg&uthick 0 def
} ifelse
/FontMatrix get
currentfont dup /FontType get 0 eq
{/FontMatrix get matrix concatmatrix}{pop} ifelse
dup 0 vg&uoffset 3 -1 roll transform /vg&uoffset exch def pop
0 vg&uthick 3 -1 roll transform /vg&uthick exch def pop
} def

% Make a frame with the coordinates on the stack.
% <llx> <lly> <urx> <ury> frame --
/frame {4 copy m 3 1 roll exch l 4 -2 roll l l h} def

% Resets the accumulated bounding box to a degenerate box at the
% current point.
% -- resetbbox --
/resetbbox {
  currentpoint 2 copy
  /bbury exch def
  /bburx exch def
  /bblly exch def
  /bbllx exch def
} def

% Update the accumulated bounding box.
% <llx'> <lly'> <urx'> <ury'> updatebbox --
/updatebbox {
  dup bbury gt {/bbury exch def} {pop} ifelse
  dup bburx gt {/bburx exch def} {pop} ifelse
  dup bblly lt {/bblly exch def} {pop} ifelse
  dup bbllx lt {/bbllx exch def} {pop} ifelse
} def

% Set the bounding box to the values on the stack.
% <llx'> <lly'> <urx'> <ury'> updatebbox --
/restorebbox {
  /bbury exch def /bburx exch def /bblly exch def /bbllx exch def
} def

% Push the accumulated bounding box onto the stack.
% -- pushbbox <llx> <lly> <urx> <ury>
/pushbbox {bbllx bblly bburx bbury} def

% Make the relative bounding box relative to the currentpoint.
% <llx'> <lly'> <urx'> <ury'> inflate <llx> <lly> <urx> <ury>
/inflate {
  2 {fontsize 0.2 mul add 4 1 roll} repeat
  2 {fontsize 0.2 mul sub 4 1 roll} repeat
} def

% Make the relative bounding box relative to the currentpoint.
% <llx'> <lly'> <urx'> <ury'> relative <llx> <lly> <urx> <ury>
/relative {
  currentpoint 3 -1 roll add 3 1 roll add exch 4 2 roll
  currentpoint 3 -1 roll add 3 1 roll add exch 4 2 roll
} def

% Returns the size of a string appropriate for recshow.
% <string> stringsize <llx> <lly> <urx> <ury>
/stringsize {
  pushbbox /internalshow load /internalstroke load 7 -1 roll
  q
  nulldevice 0 0 m
  nullinternalshow nullinternalstroke
  resetbbox
  recshow
  /internalstroke exch def /internalshow exch def
  pushbbox 8 -4 roll restorebbox
  Q
} def

% Calculate values for string positioning.
/calcval {4 copy
  3 -1 roll sub /widy exch def sub neg /widx exch def
  pop pop /dy exch def /dx exch def} def

% Utilities to position a string.
% First letter (U=upper, C=center, B=baseline, L=lower)
% Second letter (L=left, C=center, R=right)
/align [
{calcval dx neg widy dy add neg rmoveto} % UL
{calcval dx neg widy 2 div dy add neg rmoveto} % CL
{calcval dx neg 0 rmoveto} % BL
{calcval dx neg dy neg rmoveto} % LL
{calcval widx dx add neg widy dy add neg rmoveto} % UR
{calcval widx dx add neg widy 2 div dy add neg rmoveto} % CR
{calcval widx dx add neg 0 rmoveto} % BR
{calcval widx dx add neg dy neg rmoveto} % LR
{calcval widx 2 div dx add neg widy dy add neg rmoveto} % UC
{calcval widx 2 div dx add neg widy 2 div dy add neg rmoveto} % CC
{calcval widx 2 div dx add neg 0 rmoveto} % BC
{calcval widx 2 div dx add neg dy neg rmoveto} % LC
] def

/vg&str {m q 1 -1 scale dup stringsize 4 copy align 11 -1 roll get exec
         q inflate relative frame exch exec Q recshow Q} def

end /procDict exch def
%%EndProlog

%%BeginSetup
save
procDict begin
printColorMap begin
915 445 setpagesize
0 0 0 0 setmargins
0 0 setorigin
915 445 setsize
naturalsize
portrait
imagescale
cliptobounds
setbasematrix
/Helvetica 10 sf
defaultGraphicsState
%%EndSetup

0.00000 0.00000 0.00000 RG
[ 1.00000 0.00000 0.00000 1.00000 0.00000 0.00000 ] defaultmatrix matrix concatmatrix setmatrix
cliprestore
1.00000 1.00000 1.00000 RG
newpath
0.00000 0.00000 m
915.000 0.00000 l
915.000 445.000 l
0.00000 445.000 l
0.00000 0.00000 l
h
f
0.00000 0.00000 0.00000 RG
0.00000 0.00000 0.00000 RG
[ 1.00000 0.00000 0.00000 1.00000 0.00000 0.00000 ] defaultmatrix matrix concatmatrix setmatrix
cliprestore
1.00000 1.00000 1.00000 RG
newpath
0.00000 0.00000 m
915.000 0.00000 l
915.000 445.000 l
0.00000 445.000 l
0.00000 0.00000 l
h
f
0.00000 0.00000 0.00000 RG
0 0 915 445 rc
q
[ 1.00000 0.00000 0.00000 1.00000 0.00000 0.00000 ] concat
[ 1.00000 0.00000 0.00000 1.00000 15.0000 15.0000 ] concat
1.00000 1.00000 1.00000 RG
newpath
-15.0000 -15.0000 m
900.000 -15.0000 l
900.000 430.000 l
-15.0000 430.000 l
-15.0000 -15.0000 l
h
f
0.00000 0.00000 0.00000 RG
[ 1.00000 0.00000 0.00000 1.00000 15.0000 15.0000 ] defaultmatrix matrix concatmatrix setmatrix
[ 1.00000 0.00000 0.00000 1.00000 15.0000 15.0000 ] defaultmatrix matrix concatmatrix setmatrix
[ 1.00000 0.00000 0.00000 1.00000 0.00000 0.00000 ] defaultmatrix matrix concatmatrix setmatrix
[ 1.00000 0.00000 0.00000 1.00000 15.0000 15.0000 ] defaultmatrix matrix concatmatrix setmatrix
1.00000 .800000 0.00000 RG
newpath
0.00000 192.399 m
66.1719 192.399 l
66.1719 222.399 l
0.00000 222.399 l
0.00000 192.399 l
h
f
0 J
1.45000 M
0.00000 0.00000 0.00000 RG
newpath
0.00000 192.399 m
66.1719 192.399 l
66.1719 222.399 l
0.00000 222.399 l
0.00000 192.399 l
h
S
2 J
10.0000 M
0 J
1.45000 M
newpath
5.11914 211.934 m
5.11914 203.262 l
6.82422 203.262 l
9.22656 209.971 l
11.6992 203.262 l
13.2227 203.262 l
13.2227 211.934 l
12.0742 211.934 l
12.0742 204.880 l
9.68359 211.354 l
8.49414 211.354 l
6.17383 204.862 l
6.17383 211.934 l
h
15.5137 214.049 m
15.6484 213.048 l
16.3164 213.364 16.9746 213.522 17.6230 213.522  c
18.9238 213.522 19.5742 212.833 19.5742 211.454  c
19.5742 210.452 l
19.1484 211.342 18.4492 211.788 17.4766 211.788  c
16.7148 211.788 16.1094 211.510 15.6602 210.956  c
15.2109 210.401 14.9863 209.653 14.9863 208.712  c
14.9863 207.743 15.2422 206.954 15.7539 206.344  c
16.2656 205.735 16.9277 205.430 17.7402 205.430  c
18.4512 205.430 19.0625 205.719 19.5742 206.298  c
19.5742 205.571 l
20.7344 205.571 l
20.7344 210.200 l
20.7344 211.196 20.6826 211.933 20.5791 212.412  c
20.4756 212.890 20.2812 213.282 19.9961 213.587  c
19.4922 214.122 18.7090 214.389 17.6465 214.389  c
16.9043 214.389 16.1934 214.276 15.5137 214.049  c
h
19.5742 209.731 m
19.5742 207.089 l
19.0664 206.561 18.5137 206.298 17.9160 206.298  c
17.3848 206.298 16.9688 206.510 16.6680 206.936  c
16.3672 207.362 16.2168 207.946 16.2168 208.688  c
16.2168 210.083 16.7070 210.780 17.6875 210.780  c
18.3555 210.780 18.9844 210.430 19.5742 209.731  c
h
24.8828 212.081 m
24.2969 212.081 23.8398 211.913 23.5117 211.577  c
23.1836 211.241 23.0195 210.774 23.0195 210.176  c
23.0195 206.438 l
22.2227 206.438 l
22.2227 205.571 l
23.0195 205.571 l
23.0195 204.417 l
24.1738 204.305 l
24.1738 205.571 l
25.8379 205.571 l
25.8379 206.438 l
24.1738 206.438 l
24.1738 209.965 l
24.1738 210.798 24.5332 211.214 25.2520 211.214  c
25.4043 211.214 25.5898 211.188 25.8086 211.137  c
25.8086 211.934 l
25.4531 212.032 25.1445 212.081 24.8828 212.081  c
h
29.1250 212.151 m
28.5430 212.151 27.7988 212.024 26.8926 211.770  c
26.8926 210.551 l
27.8691 211.005 28.6719 211.231 29.3008 211.231  c
29.7852 211.231 30.1748 211.104 30.4697 210.850  c
30.7646 210.596 30.9121 210.262 30.9121 209.848  c
30.9121 209.508 30.8154 209.219 30.6221 208.981  c
30.4287 208.743 30.0723 208.477 29.5527 208.184  c
28.9551 207.839 l
28.2168 207.417 27.6963 207.019 27.3936 206.646  c
27.0908 206.273 26.9395 205.839 26.9395 205.342  c
26.9395 204.674 27.1816 204.125 27.6660 203.693  c
28.1504 203.261 28.7676 203.046 29.5176 203.046  c
30.1855 203.046 30.8906 203.157 31.6328 203.380  c
31.6328 204.505 l
30.7188 204.145 30.0371 203.965 29.5879 203.965  c
29.1621 203.965 28.8105 204.079 28.5332 204.305  c
28.2559 204.532 28.1172 204.817 28.1172 205.161  c
28.1172 205.450 28.2188 205.706 28.4219 205.928  c
28.6250 206.151 28.9961 206.417 29.5352 206.725  c
30.1562 207.077 l
30.9062 207.503 31.4297 207.905 31.7266 208.284  c
32.0234 208.663 32.1719 209.118 32.1719 209.649  c
32.1719 210.403 31.8936 211.008 31.3369 211.465  c
30.7803 211.923 30.0430 212.151 29.1250 212.151  c
h
38.5879 211.729 m
37.8145 211.964 37.1523 212.081 36.6016 212.081  c
35.6641 212.081 34.8994 211.769 34.3076 211.146  c
33.7158 210.523 33.4199 209.715 33.4199 208.723  c
33.4199 207.758 33.6807 206.967 34.2021 206.350  c
34.7236 205.733 35.3906 205.424 36.2031 205.424  c
36.9727 205.424 37.5674 205.698 37.9873 206.245  c
38.4072 206.792 38.6172 207.569 38.6172 208.577  c
38.6113 208.934 l
34.5977 208.934 l
34.7656 210.446 35.5059 211.202 36.8184 211.202  c
37.2988 211.202 37.8887 211.073 38.5879 210.815  c
h
34.6504 208.067 m
37.4570 208.067 l
37.4570 206.883 37.0156 206.292 36.1328 206.292  c
35.2461 206.292 34.7520 206.883 34.6504 208.067  c
h
40.6094 211.934 m
40.6094 205.571 l
41.7637 205.571 l
41.7637 206.766 l
42.2207 205.876 42.8848 205.430 43.7559 205.430  c
43.8730 205.430 43.9961 205.440 44.1250 205.460  c
44.1250 206.538 l
43.9258 206.471 43.7500 206.438 43.5977 206.438  c
42.8672 206.438 42.2559 206.872 41.7637 207.739  c
41.7637 211.934 l
h
46.8379 211.934 m
44.4707 205.571 l
45.6250 205.571 l
47.4766 210.522 l
49.4277 205.571 l
50.5059 205.571 l
47.9922 211.934 l
h
56.3945 211.729 m
55.6211 211.964 54.9590 212.081 54.4082 212.081  c
53.4707 212.081 52.7061 211.769 52.1143 211.146  c
51.5225 210.523 51.2266 209.715 51.2266 208.723  c
51.2266 207.758 51.4873 206.967 52.0088 206.350  c
52.5303 205.733 53.1973 205.424 54.0098 205.424  c
54.7793 205.424 55.3740 205.698 55.7939 206.245  c
56.2139 206.792 56.4238 207.569 56.4238 208.577  c
56.4180 208.934 l
52.4043 208.934 l
52.5723 210.446 53.3125 211.202 54.6250 211.202  c
55.1055 211.202 55.6953 211.073 56.3945 210.815  c
h
52.4570 208.067 m
55.2637 208.067 l
55.2637 206.883 54.8223 206.292 53.9395 206.292  c
53.0527 206.292 52.5586 206.883 52.4570 208.067  c
h
58.4160 211.934 m
58.4160 205.571 l
59.5703 205.571 l
59.5703 206.766 l
60.0273 205.876 60.6914 205.430 61.5625 205.430  c
61.6797 205.430 61.8027 205.440 61.9316 205.460  c
61.9316 206.538 l
61.7324 206.471 61.5566 206.438 61.4043 206.438  c
60.6738 206.438 60.0625 206.872 59.5703 207.739  c
59.5703 211.934 l
h
f
2 J
10.0000 M
1.00000 .800000 0.00000 RG
newpath
265.529 384.479 m
345.008 384.479 l
345.008 414.479 l
265.529 414.479 l
265.529 384.479 l
h
f
0 J
1.45000 M
0.00000 0.00000 0.00000 RG
newpath
265.529 384.479 m
345.008 384.479 l
345.008 414.479 l
265.529 414.479 l
265.529 384.479 l
h
S
2 J
10.0000 M
0 J
1.45000 M
newpath
272.711 404.014 m
272.711 396.262 l
269.634 396.262 l
269.634 395.342 l
277.017 395.342 l
277.017 396.262 l
273.941 396.262 l
273.941 404.014 l
h
282.935 403.809 m
282.162 404.044 281.500 404.161 280.949 404.161  c
280.011 404.161 279.247 403.849 278.655 403.226  c
278.063 402.603 277.767 401.796 277.767 400.803  c
277.767 399.839 278.028 399.048 278.550 398.430  c
279.071 397.813 279.738 397.505 280.551 397.505  c
281.320 397.505 281.915 397.778 282.335 398.325  c
282.755 398.872 282.965 399.649 282.965 400.657  c
282.959 401.014 l
278.945 401.014 l
279.113 402.526 279.853 403.282 281.166 403.282  c
281.646 403.282 282.236 403.153 282.935 402.895  c
h
278.998 400.147 m
281.804 400.147 l
281.804 398.964 281.363 398.372 280.480 398.372  c
279.593 398.372 279.099 398.964 278.998 400.147  c
h
288.238 403.206 m
287.547 403.842 286.881 404.161 286.240 404.161  c
285.713 404.161 285.275 403.996 284.927 403.666  c
284.580 403.336 284.406 402.919 284.406 402.415  c
284.406 401.719 284.698 401.185 285.282 400.812  c
285.866 400.439 286.703 400.253 287.793 400.253  c
288.068 400.253 l
288.068 399.485 l
288.068 398.747 287.689 398.378 286.931 398.378  c
286.322 398.378 285.664 398.565 284.957 398.940  c
284.957 397.985 l
285.734 397.669 286.463 397.510 287.142 397.510  c
287.853 397.510 288.378 397.671 288.716 397.991  c
289.053 398.311 289.222 398.809 289.222 399.485  c
289.222 402.368 l
289.222 403.028 289.426 403.358 289.832 403.358  c
289.883 403.358 289.957 403.350 290.054 403.335  c
290.136 403.973 l
289.875 404.098 289.586 404.161 289.269 404.161  c
288.730 404.161 288.386 403.842 288.238 403.206  c
h
288.068 402.579 m
288.068 400.932 l
287.681 400.921 l
287.049 400.921 286.537 401.041 286.146 401.281  c
285.756 401.521 285.560 401.837 285.560 402.227  c
285.560 402.505 285.658 402.739 285.853 402.930  c
286.049 403.122 286.287 403.217 286.568 403.217  c
287.049 403.217 287.549 403.005 288.068 402.579  c
h
291.584 404.014 m
291.584 397.651 l
292.738 397.651 l
292.738 398.846 l
293.301 397.956 294.023 397.510 294.906 397.510  c
295.758 397.510 296.338 397.956 296.646 398.846  c
297.193 397.952 297.904 397.505 298.779 397.505  c
299.342 397.505 299.777 397.670 300.086 398.000  c
300.394 398.330 300.549 398.792 300.549 399.385  c
300.549 404.014 l
299.388 404.014 l
299.388 399.567 l
299.388 398.841 299.101 398.477 298.527 398.477  c
297.929 398.477 297.302 398.901 296.646 399.749  c
296.646 404.014 l
295.486 404.014 l
295.486 399.567 l
295.486 398.837 295.193 398.471 294.607 398.471  c
294.025 398.471 293.402 398.897 292.738 399.749  c
292.738 404.014 l
h
306.549 404.014 m
306.549 395.342 l
308.799 395.342 l
309.666 395.342 310.331 395.507 310.794 395.835  c
311.257 396.163 311.488 396.635 311.488 397.253  c
311.488 398.303 310.894 399.051 309.707 399.497  c
311.125 399.930 311.834 400.714 311.834 401.846  c
311.834 402.550 311.599 403.087 311.131 403.458  c
310.662 403.829 309.986 404.014 309.103 404.014  c
h
307.767 403.094 m
308.019 403.094 l
308.922 403.094 309.506 403.038 309.771 402.925  c
310.279 402.710 310.533 402.311 310.533 401.729  c
310.533 401.214 310.302 400.785 309.842 400.443  c
309.381 400.101 308.804 399.930 308.113 399.930  c
307.767 399.930 l
h
307.767 399.151 m
308.160 399.151 l
308.816 399.151 309.325 399.010 309.686 398.729  c
310.048 398.448 310.228 398.051 310.228 397.540  c
310.228 396.688 309.568 396.262 308.248 396.262  c
307.767 396.262 l
h
313.199 400.979 m
313.199 400.112 l
318.402 400.112 l
318.402 400.979 l
h
323.711 403.206 m
323.019 403.842 322.353 404.161 321.713 404.161  c
321.185 404.161 320.748 403.996 320.400 403.666  c
320.052 403.336 319.879 402.919 319.879 402.415  c
319.879 401.719 320.171 401.185 320.755 400.812  c
321.339 400.439 322.176 400.253 323.265 400.253  c
323.541 400.253 l
323.541 399.485 l
323.541 398.747 323.162 398.378 322.404 398.378  c
321.795 398.378 321.136 398.565 320.429 398.940  c
320.429 397.985 l
321.207 397.669 321.935 397.510 322.615 397.510  c
323.326 397.510 323.850 397.671 324.188 397.991  c
324.526 398.311 324.695 398.809 324.695 399.485  c
324.695 402.368 l
324.695 403.028 324.898 403.358 325.304 403.358  c
325.355 403.358 325.429 403.350 325.527 403.335  c
325.609 403.973 l
325.347 404.098 325.058 404.161 324.742 404.161  c
324.203 404.161 323.859 403.842 323.711 403.206  c
h
323.541 402.579 m
323.541 400.932 l
323.154 400.921 l
322.521 400.921 322.009 401.041 321.619 401.281  c
321.228 401.521 321.033 401.837 321.033 402.227  c
321.033 402.505 321.131 402.739 321.326 402.930  c
321.521 403.122 321.759 403.217 322.041 403.217  c
322.521 403.217 323.021 403.005 323.541 402.579  c
h
327.056 406.329 m
327.056 397.651 l
328.211 397.651 l
328.211 398.846 l
328.683 397.956 329.392 397.510 330.338 397.510  c
331.103 397.510 331.706 397.790 332.145 398.348  c
332.585 398.907 332.804 399.671 332.804 400.639  c
332.804 401.694 332.555 402.545 332.057 403.191  c
331.559 403.838 330.904 404.161 330.092 404.161  c
329.338 404.161 328.711 403.872 328.211 403.294  c
328.211 406.329 l
h
328.211 402.497 m
328.804 403.028 329.371 403.294 329.910 403.294  c
331.019 403.294 331.574 402.448 331.574 400.757  c
331.574 399.264 331.082 398.518 330.097 398.518  c
329.453 398.518 328.824 398.868 328.211 399.567  c
h
334.609 406.329 m
334.609 397.651 l
335.763 397.651 l
335.763 398.846 l
336.236 397.956 336.945 397.510 337.890 397.510  c
338.656 397.510 339.259 397.790 339.698 398.348  c
340.137 398.907 340.357 399.671 340.357 400.639  c
340.357 401.694 340.108 402.545 339.610 403.191  c
339.112 403.838 338.457 404.161 337.644 404.161  c
336.890 404.161 336.263 403.872 335.763 403.294  c
335.763 406.329 l
h
335.763 402.497 m
336.357 403.028 336.924 403.294 337.463 403.294  c
338.572 403.294 339.127 402.448 339.127 400.757  c
339.127 399.264 338.634 398.518 337.650 398.518  c
337.006 398.518 336.377 398.868 335.763 399.567  c
h
f
2 J
10.0000 M
1.00000 .800000 0.00000 RG
newpath
267.257 0.00000 m
348.112 0.00000 l
348.112 30.0000 l
267.257 30.0000 l
267.257 0.00000 l
h
f
0 J
1.45000 M
0.00000 0.00000 0.00000 RG
newpath
267.257 0.00000 m
348.112 0.00000 l
348.112 30.0000 l
267.257 30.0000 l
267.257 0.00000 l
h
S
2 J
10.0000 M
0 J
1.45000 M
newpath
274.438 19.5352 m
274.438 11.7832 l
271.362 11.7832 l
271.362 10.8633 l
278.745 10.8633 l
278.745 11.7832 l
275.669 11.7832 l
275.669 19.5352 l
h
284.663 19.3301 m
283.890 19.5645 283.227 19.6816 282.677 19.6816  c
281.739 19.6816 280.974 19.3701 280.383 18.7471  c
279.791 18.1240 279.495 17.3164 279.495 16.3242  c
279.495 15.3594 279.756 14.5684 280.277 13.9512  c
280.799 13.3340 281.466 13.0254 282.278 13.0254  c
283.048 13.0254 283.642 13.2988 284.062 13.8457  c
284.482 14.3926 284.692 15.1699 284.692 16.1777  c
284.686 16.5352 l
280.673 16.5352 l
280.841 18.0469 281.581 18.8027 282.893 18.8027  c
283.374 18.8027 283.964 18.6738 284.663 18.4160  c
h
280.725 15.6680 m
283.532 15.6680 l
283.532 14.4844 283.091 13.8926 282.208 13.8926  c
281.321 13.8926 280.827 14.4844 280.725 15.6680  c
h
289.966 18.7266 m
289.274 19.3633 288.608 19.6816 287.968 19.6816  c
287.440 19.6816 287.003 19.5166 286.655 19.1865  c
286.307 18.8564 286.134 18.4395 286.134 17.9355  c
286.134 17.2402 286.426 16.7061 287.010 16.3330  c
287.594 15.9600 288.431 15.7734 289.520 15.7734  c
289.796 15.7734 l
289.796 15.0059 l
289.796 14.2676 289.417 13.8984 288.659 13.8984  c
288.050 13.8984 287.391 14.0859 286.684 14.4609  c
286.684 13.5059 l
287.462 13.1895 288.190 13.0312 288.870 13.0312  c
289.581 13.0312 290.105 13.1914 290.443 13.5117  c
290.781 13.8320 290.950 14.3301 290.950 15.0059  c
290.950 17.8887 l
290.950 18.5488 291.153 18.8789 291.559 18.8789  c
291.610 18.8789 291.684 18.8711 291.782 18.8555  c
291.864 19.4941 l
291.602 19.6191 291.313 19.6816 290.997 19.6816  c
290.458 19.6816 290.114 19.3633 289.966 18.7266  c
h
289.796 18.0996 m
289.796 16.4531 l
289.409 16.4414 l
288.776 16.4414 288.265 16.5615 287.874 16.8018  c
287.483 17.0420 287.288 17.3574 287.288 17.7480  c
287.288 18.0254 287.386 18.2598 287.581 18.4512  c
287.776 18.6426 288.015 18.7383 288.296 18.7383  c
288.776 18.7383 289.276 18.5254 289.796 18.0996  c
h
293.311 19.5352 m
293.311 13.1719 l
294.466 13.1719 l
294.466 14.3672 l
295.028 13.4766 295.751 13.0312 296.634 13.0312  c
297.485 13.0312 298.065 13.4766 298.374 14.3672  c
298.921 13.4727 299.632 13.0254 300.507 13.0254  c
301.069 13.0254 301.505 13.1904 301.813 13.5205  c
302.122 13.8506 302.276 14.3125 302.276 14.9062  c
302.276 19.5352 l
301.116 19.5352 l
301.116 15.0879 l
301.116 14.3613 300.829 13.9980 300.255 13.9980  c
299.657 13.9980 299.030 14.4219 298.374 15.2695  c
298.374 19.5352 l
297.214 19.5352 l
297.214 15.0879 l
297.214 14.3574 296.921 13.9922 296.335 13.9922  c
295.753 13.9922 295.130 14.4180 294.466 15.2695  c
294.466 19.5352 l
h
312.671 16.2188 m
311.194 12.4805 l
309.712 16.2188 l
h
313.972 19.5352 m
313.028 17.1328 l
309.354 17.1328 l
308.399 19.5352 l
307.257 19.5352 l
310.696 10.8633 l
311.915 10.8633 l
315.302 19.5352 l
h
316.304 16.5000 m
316.304 15.6328 l
321.507 15.6328 l
321.507 16.5000 l
h
326.815 18.7266 m
326.124 19.3633 325.458 19.6816 324.817 19.6816  c
324.290 19.6816 323.852 19.5166 323.505 19.1865  c
323.157 18.8564 322.983 18.4395 322.983 17.9355  c
322.983 17.2402 323.275 16.7061 323.859 16.3330  c
324.443 15.9600 325.280 15.7734 326.370 15.7734  c
326.645 15.7734 l
326.645 15.0059 l
326.645 14.2676 326.266 13.8984 325.509 13.8984  c
324.899 13.8984 324.241 14.0859 323.534 14.4609  c
323.534 13.5059 l
324.311 13.1895 325.040 13.0312 325.720 13.0312  c
326.431 13.0312 326.955 13.1914 327.293 13.5117  c
327.631 13.8320 327.800 14.3301 327.800 15.0059  c
327.800 17.8887 l
327.800 18.5488 328.003 18.8789 328.409 18.8789  c
328.460 18.8789 328.534 18.8711 328.632 18.8555  c
328.714 19.4941 l
328.452 19.6191 328.163 19.6816 327.847 19.6816  c
327.307 19.6816 326.964 19.3633 326.815 18.7266  c
h
326.645 18.0996 m
326.645 16.4531 l
326.259 16.4414 l
325.626 16.4414 325.114 16.5615 324.724 16.8018  c
324.333 17.0420 324.138 17.3574 324.138 17.7480  c
324.138 18.0254 324.235 18.2598 324.431 18.4512  c
324.626 18.6426 324.864 18.7383 325.145 18.7383  c
325.626 18.7383 326.126 18.5254 326.645 18.0996  c
h
330.161 21.8496 m
330.161 13.1719 l
331.315 13.1719 l
331.315 14.3672 l
331.788 13.4766 332.497 13.0312 333.442 13.0312  c
334.208 13.0312 334.810 13.3105 335.250 13.8691  c
335.689 14.4277 335.909 15.1914 335.909 16.1602  c
335.909 17.2148 335.660 18.0654 335.162 18.7119  c
334.664 19.3584 334.009 19.6816 333.196 19.6816  c
332.442 19.6816 331.815 19.3926 331.315 18.8145  c
331.315 21.8496 l
h
331.315 18.0176 m
331.909 18.5488 332.475 18.8145 333.015 18.8145  c
334.124 18.8145 334.679 17.9688 334.679 16.2773  c
334.679 14.7852 334.186 14.0391 333.202 14.0391  c
332.557 14.0391 331.929 14.3887 331.315 15.0879  c
h
337.714 21.8496 m
337.714 13.1719 l
338.868 13.1719 l
338.868 14.3672 l
339.341 13.4766 340.050 13.0312 340.995 13.0312  c
341.761 13.0312 342.363 13.3105 342.803 13.8691  c
343.242 14.4277 343.462 15.1914 343.462 16.1602  c
343.462 17.2148 343.213 18.0654 342.715 18.7119  c
342.217 19.3584 341.561 19.6816 340.749 19.6816  c
339.995 19.6816 339.368 19.3926 338.868 18.8145  c
338.868 21.8496 l
h
338.868 18.0176 m
339.462 18.5488 340.028 18.8145 340.567 18.8145  c
341.677 18.8145 342.231 17.9688 342.231 16.2773  c
342.231 14.7852 341.739 14.0391 340.755 14.0391  c
340.110 14.0391 339.481 14.3887 338.868 15.0879  c
h
f
2 J
10.0000 M
1.00000 .800000 0.00000 RG
newpath
348.920 106.098 m
415.631 106.098 l
415.631 136.098 l
348.920 136.098 l
348.920 106.098 l
h
f
0 J
1.45000 M
0.00000 0.00000 0.00000 RG
newpath
348.920 106.098 m
415.631 106.098 l
415.631 136.098 l
348.920 136.098 l
348.920 106.098 l
h
S
2 J
10.0000 M
0 J
1.45000 M
newpath
356.101 125.633 m
356.101 117.881 l
353.025 117.881 l
353.025 116.961 l
360.408 116.961 l
360.408 117.881 l
357.332 117.881 l
357.332 125.633 l
h
366.326 125.428 m
365.553 125.662 364.891 125.779 364.340 125.779  c
363.402 125.779 362.638 125.468 362.046 124.845  c
361.454 124.222 361.158 123.414 361.158 122.422  c
361.158 121.457 361.419 120.666 361.940 120.049  c
362.462 119.432 363.129 119.123 363.941 119.123  c
364.711 119.123 365.306 119.396 365.725 119.943  c
366.145 120.490 366.355 121.268 366.355 122.275  c
366.349 122.633 l
362.336 122.633 l
362.504 124.144 363.244 124.900 364.557 124.900  c
365.037 124.900 365.627 124.771 366.326 124.514  c
h
362.389 121.766 m
365.195 121.766 l
365.195 120.582 364.754 119.990 363.871 119.990  c
362.984 119.990 362.490 120.582 362.389 121.766  c
h
371.629 124.824 m
370.937 125.461 370.271 125.779 369.631 125.779  c
369.103 125.779 368.666 125.614 368.318 125.284  c
367.971 124.954 367.797 124.537 367.797 124.033  c
367.797 123.338 368.089 122.804 368.673 122.431  c
369.257 122.058 370.094 121.871 371.183 121.871  c
371.459 121.871 l
371.459 121.103 l
371.459 120.365 371.080 119.996 370.322 119.996  c
369.713 119.996 369.055 120.184 368.348 120.559  c
368.348 119.603 l
369.125 119.287 369.853 119.129 370.533 119.129  c
371.244 119.129 371.768 119.289 372.106 119.609  c
372.444 119.930 372.613 120.428 372.613 121.103  c
372.613 123.986 l
372.613 124.646 372.816 124.976 373.223 124.976  c
373.273 124.976 373.348 124.969 373.445 124.953  c
373.527 125.592 l
373.266 125.717 372.976 125.779 372.660 125.779  c
372.121 125.779 371.777 125.461 371.629 124.824  c
h
371.459 124.197 m
371.459 122.551 l
371.072 122.539 l
370.439 122.539 369.928 122.659 369.537 122.899  c
369.146 123.140 368.951 123.455 368.951 123.846  c
368.951 124.123 369.049 124.357 369.244 124.549  c
369.439 124.740 369.678 124.836 369.959 124.836  c
370.439 124.836 370.939 124.623 371.459 124.197  c
h
374.974 125.633 m
374.974 119.269 l
376.129 119.269 l
376.129 120.465 l
376.691 119.574 377.414 119.129 378.297 119.129  c
379.148 119.129 379.728 119.574 380.037 120.465  c
380.584 119.570 381.295 119.123 382.170 119.123  c
382.732 119.123 383.168 119.288 383.476 119.618  c
383.785 119.948 383.939 120.410 383.939 121.004  c
383.939 125.633 l
382.779 125.633 l
382.779 121.185 l
382.779 120.459 382.492 120.096 381.918 120.096  c
381.320 120.096 380.693 120.519 380.037 121.367  c
380.037 125.633 l
378.877 125.633 l
378.877 121.185 l
378.877 120.455 378.584 120.090 377.998 120.090  c
377.416 120.090 376.793 120.516 376.129 121.367  c
376.129 125.633 l
h
394.334 122.316 m
392.857 118.578 l
391.375 122.316 l
h
395.635 125.633 m
394.691 123.230 l
391.017 123.230 l
390.062 125.633 l
388.920 125.633 l
392.359 116.961 l
393.578 116.961 l
396.965 125.633 l
h
397.967 122.598 m
397.967 121.730 l
403.170 121.730 l
403.170 122.598 l
h
405.162 125.633 m
405.162 116.961 l
407.787 116.961 l
408.619 116.961 409.257 117.144 409.700 117.512  c
410.143 117.879 410.365 118.412 410.365 119.111  c
410.365 120.268 409.781 121.088 408.613 121.572  c
411.508 125.633 l
409.996 125.633 l
407.529 121.965 l
406.381 121.965 l
406.381 125.633 l
h
406.381 121.045 m
406.779 121.045 l
408.326 121.045 409.099 120.437 409.099 119.223  c
409.099 118.328 408.451 117.881 407.154 117.881  c
406.381 117.881 l
h
f
2 J
10.0000 M
1.00000 .800000 0.00000 RG
newpath
122.541 192.621 m
191.338 192.621 l
191.338 222.621 l
122.541 222.621 l
122.541 192.621 l
h
f
0 J
1.45000 M
0.00000 0.00000 0.00000 RG
newpath
122.541 192.621 m
191.338 192.621 l
191.338 222.621 l
122.541 222.621 l
122.541 192.621 l
h
S
2 J
10.0000 M
0 J
1.45000 M
newpath
127.661 212.156 m
127.661 203.484 l
129.366 203.484 l
131.768 210.193 l
134.241 203.484 l
135.764 203.484 l
135.764 212.156 l
134.616 212.156 l
134.616 205.101 l
132.225 211.576 l
131.036 211.576 l
128.715 205.084 l
128.715 212.156 l
h
138.055 214.271 m
138.190 213.269 l
138.858 213.586 139.516 213.744 140.164 213.744  c
141.465 213.744 142.116 213.054 142.116 211.676  c
142.116 210.674 l
141.690 211.564 140.991 212.010 140.018 212.010  c
139.256 212.010 138.651 211.732 138.202 211.177  c
137.752 210.623 137.528 209.875 137.528 208.933  c
137.528 207.965 137.784 207.176 138.295 206.566  c
138.807 205.957 139.469 205.652 140.282 205.652  c
140.993 205.652 141.604 205.941 142.116 206.519  c
142.116 205.793 l
143.276 205.793 l
143.276 210.422 l
143.276 211.418 143.224 212.155 143.120 212.634  c
143.017 213.112 142.823 213.504 142.537 213.808  c
142.034 214.344 141.250 214.611 140.188 214.611  c
139.446 214.611 138.735 214.498 138.055 214.271  c
h
142.116 209.953 m
142.116 207.310 l
141.608 206.783 141.055 206.519 140.457 206.519  c
139.926 206.519 139.510 206.732 139.209 207.158  c
138.909 207.584 138.758 208.168 138.758 208.910  c
138.758 210.304 139.248 211.002 140.229 211.002  c
140.897 211.002 141.526 210.652 142.116 209.953  c
h
147.424 212.302 m
146.838 212.302 146.381 212.135 146.053 211.799  c
145.725 211.463 145.561 210.996 145.561 210.398  c
145.561 206.660 l
144.764 206.660 l
144.764 205.793 l
145.561 205.793 l
145.561 204.638 l
146.715 204.527 l
146.715 205.793 l
148.379 205.793 l
148.379 206.660 l
146.715 206.660 l
146.715 210.187 l
146.715 211.019 147.075 211.435 147.793 211.435  c
147.946 211.435 148.131 211.410 148.350 211.359  c
148.350 212.156 l
147.995 212.254 147.686 212.302 147.424 212.302  c
h
149.967 212.156 m
149.967 203.484 l
152.592 203.484 l
153.424 203.484 154.062 203.668 154.505 204.035  c
154.949 204.402 155.170 204.935 155.170 205.635  c
155.170 206.791 154.586 207.611 153.418 208.095  c
156.313 212.156 l
154.801 212.156 l
152.334 208.488 l
151.186 208.488 l
151.186 212.156 l
h
151.186 207.568 m
151.584 207.568 l
153.131 207.568 153.905 206.961 153.905 205.746  c
153.905 204.851 153.256 204.404 151.959 204.404  c
151.186 204.404 l
h
160.080 212.302 m
159.170 212.302 158.444 212.001 157.901 211.397  c
157.358 210.794 157.086 209.986 157.086 208.974  c
157.086 207.951 157.359 207.141 157.904 206.546  c
158.449 205.950 159.188 205.652 160.121 205.652  c
161.055 205.652 161.794 205.950 162.339 206.546  c
162.884 207.141 163.157 207.947 163.157 208.963  c
163.157 210.002 162.883 210.818 162.336 211.412  c
161.789 212.006 161.037 212.302 160.080 212.302  c
h
160.098 211.435 m
161.321 211.435 161.932 210.611 161.932 208.963  c
161.932 207.334 161.328 206.519 160.121 206.519  c
158.918 206.519 158.317 207.338 158.317 208.974  c
158.317 210.615 158.911 211.435 160.098 211.435  c
h
168.940 212.156 m
168.940 210.961 l
168.327 211.855 167.582 212.302 166.707 212.302  c
166.153 212.302 165.711 212.128 165.383 211.778  c
165.055 211.428 164.891 210.957 164.891 210.363  c
164.891 205.793 l
166.045 205.793 l
166.045 209.988 l
166.045 210.465 166.115 210.803 166.253 211.005  c
166.392 211.206 166.623 211.306 166.948 211.306  c
167.651 211.306 168.315 210.844 168.940 209.918  c
168.940 205.793 l
170.094 205.793 l
170.094 212.156 l
h
174.319 212.302 m
173.733 212.302 173.276 212.135 172.948 211.799  c
172.620 211.463 172.455 210.996 172.455 210.398  c
172.455 206.660 l
171.659 206.660 l
171.659 205.793 l
172.455 205.793 l
172.455 204.638 l
173.610 204.527 l
173.610 205.793 l
175.274 205.793 l
175.274 206.660 l
173.610 206.660 l
173.610 210.187 l
173.610 211.019 173.969 211.435 174.688 211.435  c
174.840 211.435 175.026 211.410 175.245 211.359  c
175.245 212.156 l
174.889 212.254 174.580 212.302 174.319 212.302  c
h
181.561 211.951 m
180.787 212.185 180.125 212.302 179.575 212.302  c
178.637 212.302 177.872 211.991 177.281 211.368  c
176.689 210.745 176.393 209.937 176.393 208.945  c
176.393 207.980 176.654 207.189 177.175 206.572  c
177.697 205.955 178.364 205.646 179.176 205.646  c
179.946 205.646 180.540 205.920 180.960 206.467  c
181.380 207.013 181.590 207.791 181.590 208.799  c
181.584 209.156 l
177.571 209.156 l
177.739 210.668 178.479 211.424 179.791 211.424  c
180.272 211.424 180.862 211.295 181.561 211.037  c
h
177.623 208.289 m
180.430 208.289 l
180.430 207.105 179.989 206.513 179.106 206.513  c
178.219 206.513 177.725 207.105 177.623 208.289  c
h
183.582 212.156 m
183.582 205.793 l
184.737 205.793 l
184.737 206.988 l
185.194 206.097 185.858 205.652 186.729 205.652  c
186.846 205.652 186.969 205.662 187.098 205.681  c
187.098 206.760 l
186.899 206.693 186.723 206.660 186.571 206.660  c
185.840 206.660 185.229 207.094 184.737 207.961  c
184.737 212.156 l
h
f
2 J
10.0000 M
1.00000 .800000 0.00000 RG
newpath
611.770 197.460 m
702.247 197.460 l
702.247 227.460 l
611.770 227.460 l
611.770 197.460 l
h
f
0 J
1.45000 M
0.00000 0.00000 0.00000 RG
newpath
611.770 197.460 m
702.247 197.460 l
702.247 227.460 l
611.770 227.460 l
611.770 197.460 l
h
S
2 J
10.0000 M
0 J
1.45000 M
newpath
621.284 213.679 m
619.807 209.941 l
618.325 213.679 l
h
622.584 216.995 m
621.641 214.593 l
617.967 214.593 l
617.012 216.995 l
615.870 216.995 l
619.309 208.324 l
620.528 208.324 l
623.914 216.995 l
h
627.114 217.142 m
626.528 217.142 626.071 216.974 625.743 216.638  c
625.414 216.302 625.250 215.835 625.250 215.238  c
625.250 211.499 l
624.454 211.499 l
624.454 210.632 l
625.250 210.632 l
625.250 209.478 l
626.405 209.367 l
626.405 210.632 l
628.069 210.632 l
628.069 211.499 l
626.405 211.499 l
626.405 215.027 l
626.405 215.859 626.764 216.275 627.483 216.275  c
627.635 216.275 627.821 216.249 628.039 216.199  c
628.039 216.995 l
627.684 217.093 627.375 217.142 627.114 217.142  c
h
631.602 217.142 m
631.016 217.142 630.559 216.974 630.231 216.638  c
629.903 216.302 629.739 215.835 629.739 215.238  c
629.739 211.499 l
628.942 211.499 l
628.942 210.632 l
629.739 210.632 l
629.739 209.478 l
630.893 209.367 l
630.893 210.632 l
632.557 210.632 l
632.557 211.499 l
630.893 211.499 l
630.893 215.027 l
630.893 215.859 631.252 216.275 631.971 216.275  c
632.123 216.275 632.309 216.249 632.528 216.199  c
632.528 216.995 l
632.172 217.093 631.864 217.142 631.602 217.142  c
h
637.461 216.187 m
636.770 216.824 636.104 217.142 635.463 217.142  c
634.936 217.142 634.498 216.977 634.151 216.647  c
633.803 216.317 633.629 215.900 633.629 215.396  c
633.629 214.701 633.921 214.166 634.505 213.793  c
635.089 213.420 635.926 213.234 637.016 213.234  c
637.291 213.234 l
637.291 212.466 l
637.291 211.728 636.913 211.359 636.155 211.359  c
635.545 211.359 634.887 211.546 634.180 211.921  c
634.180 210.966 l
634.957 210.650 635.686 210.492 636.366 210.492  c
637.077 210.492 637.601 210.652 637.939 210.972  c
638.277 211.292 638.446 211.790 638.446 212.466  c
638.446 215.349 l
638.446 216.009 638.649 216.339 639.055 216.339  c
639.106 216.339 639.180 216.331 639.278 216.316  c
639.360 216.954 l
639.098 217.079 638.809 217.142 638.493 217.142  c
637.954 217.142 637.610 216.824 637.461 216.187  c
h
637.291 215.560 m
637.291 213.913 l
636.905 213.902 l
636.272 213.902 635.760 214.022 635.370 214.262  c
634.979 214.502 634.784 214.818 634.784 215.208  c
634.784 215.486 634.881 215.720 635.077 215.911  c
635.272 216.103 635.510 216.199 635.791 216.199  c
636.272 216.199 636.772 215.986 637.291 215.560  c
h
643.291 217.142 m
642.432 217.142 641.719 216.824 641.153 216.187  c
640.586 215.550 640.303 214.747 640.303 213.779  c
640.303 212.744 640.583 211.937 641.144 211.359  c
641.705 210.781 642.487 210.492 643.491 210.492  c
643.987 210.492 644.541 210.560 645.155 210.697  c
645.155 211.663 l
644.502 211.472 643.971 211.376 643.561 211.376  c
642.971 211.376 642.497 211.598 642.140 212.041  c
641.783 212.485 641.604 213.076 641.604 213.814  c
641.604 214.529 641.788 215.107 642.155 215.548  c
642.522 215.990 643.002 216.210 643.596 216.210  c
644.123 216.210 644.666 216.076 645.225 215.806  c
645.225 216.802 l
644.479 217.029 643.834 217.142 643.291 217.142  c
h
646.954 216.995 m
646.954 207.744 l
648.108 207.744 l
648.108 213.720 l
650.803 210.632 l
652.045 210.632 l
649.473 213.603 l
652.579 216.995 l
651.102 216.995 l
648.108 213.732 l
648.108 216.995 l
h
653.680 213.960 m
653.680 213.093 l
658.883 213.093 l
658.883 213.960 l
h
660.875 216.995 m
660.875 208.324 l
663.500 208.324 l
664.332 208.324 664.970 208.507 665.414 208.874  c
665.857 209.242 666.079 209.775 666.079 210.474  c
666.079 211.630 665.495 212.451 664.327 212.935  c
667.221 216.995 l
665.709 216.995 l
663.243 213.327 l
662.094 213.327 l
662.094 216.995 l
h
662.094 212.408 m
662.493 212.408 l
664.039 212.408 664.813 211.800 664.813 210.585  c
664.813 209.691 664.164 209.244 662.868 209.244  c
662.094 209.244 l
h
670.989 217.142 m
670.079 217.142 669.352 216.840 668.809 216.237  c
668.266 215.633 667.995 214.826 667.995 213.814  c
667.995 212.790 668.267 211.981 668.812 211.385  c
669.357 210.789 670.096 210.492 671.030 210.492  c
671.963 210.492 672.703 210.789 673.247 211.385  c
673.792 211.981 674.065 212.786 674.065 213.802  c
674.065 214.841 673.791 215.658 673.245 216.251  c
672.698 216.845 671.946 217.142 670.989 217.142  c
h
671.006 216.275 m
672.229 216.275 672.840 215.451 672.840 213.802  c
672.840 212.173 672.237 211.359 671.030 211.359  c
669.827 211.359 669.225 212.177 669.225 213.814  c
669.225 215.454 669.819 216.275 671.006 216.275  c
h
679.848 216.995 m
679.848 215.800 l
679.235 216.695 678.491 217.142 677.616 217.142  c
677.061 217.142 676.620 216.967 676.291 216.618  c
675.963 216.268 675.799 215.796 675.799 215.202  c
675.799 210.632 l
676.954 210.632 l
676.954 214.827 l
676.954 215.304 677.023 215.643 677.162 215.844  c
677.300 216.045 677.532 216.146 677.856 216.146  c
678.559 216.146 679.223 215.683 679.848 214.757  c
679.848 210.632 l
681.002 210.632 l
681.002 216.995 l
h
685.227 217.142 m
684.641 217.142 684.184 216.974 683.856 216.638  c
683.528 216.302 683.364 215.835 683.364 215.238  c
683.364 211.499 l
682.567 211.499 l
682.567 210.632 l
683.364 210.632 l
683.364 209.478 l
684.518 209.367 l
684.518 210.632 l
686.182 210.632 l
686.182 211.499 l
684.518 211.499 l
684.518 215.027 l
684.518 215.859 684.877 216.275 685.596 216.275  c
685.748 216.275 685.934 216.249 686.153 216.199  c
686.153 216.995 l
685.797 217.093 685.489 217.142 685.227 217.142  c
h
692.469 216.790 m
691.696 217.025 691.034 217.142 690.483 217.142  c
689.545 217.142 688.781 216.830 688.189 216.207  c
687.597 215.584 687.301 214.777 687.301 213.785  c
687.301 212.820 687.562 212.029 688.083 211.411  c
688.605 210.794 689.272 210.486 690.084 210.486  c
690.854 210.486 691.449 210.759 691.869 211.306  c
692.289 211.853 692.498 212.630 692.498 213.638  c
692.493 213.995 l
688.479 213.995 l
688.647 215.507 689.387 216.263 690.700 216.263  c
691.180 216.263 691.770 216.134 692.469 215.876  c
h
688.532 213.128 m
691.338 213.128 l
691.338 211.945 690.897 211.353 690.014 211.353  c
689.127 211.353 688.633 211.945 688.532 213.128  c
h
694.491 216.995 m
694.491 210.632 l
695.645 210.632 l
695.645 211.827 l
696.102 210.937 696.766 210.492 697.637 210.492  c
697.754 210.492 697.877 210.501 698.006 210.521  c
698.006 211.599 l
697.807 211.533 697.631 211.499 697.479 211.499  c
696.748 211.499 696.137 211.933 695.645 212.800  c
695.645 216.995 l
h
f
2 J
10.0000 M
1.00000 .800000 0.00000 RG
newpath
535.811 336.723 m
645.131 336.723 l
645.131 366.723 l
535.811 366.723 l
535.811 336.723 l
h
f
0 J
1.45000 M
0.00000 0.00000 0.00000 RG
newpath
535.811 336.723 m
645.131 336.723 l
645.131 366.723 l
535.811 366.723 l
535.811 336.723 l
h
S
2 J
10.0000 M
0 J
1.45000 M
newpath
542.993 356.258 m
542.993 348.506 l
539.916 348.506 l
539.916 347.586 l
547.299 347.586 l
547.299 348.506 l
544.223 348.506 l
544.223 356.258 l
h
553.217 356.053 m
552.444 356.287 551.782 356.404 551.231 356.404  c
550.293 356.404 549.529 356.093 548.937 355.470  c
548.345 354.847 548.049 354.039 548.049 353.047  c
548.049 352.082 548.310 351.291 548.831 350.674  c
549.353 350.057 550.020 349.748 550.832 349.748  c
551.602 349.748 552.197 350.022 552.617 350.568  c
553.036 351.115 553.246 351.893 553.246 352.901  c
553.241 353.258 l
549.227 353.258 l
549.395 354.770 550.135 355.526 551.448 355.526  c
551.928 355.526 552.518 355.397 553.217 355.139  c
h
549.280 352.391 m
552.086 352.391 l
552.086 351.207 551.645 350.615 550.762 350.615  c
549.875 350.615 549.381 351.207 549.280 352.391  c
h
558.520 355.449 m
557.828 356.086 557.162 356.404 556.522 356.404  c
555.995 356.404 555.557 356.239 555.209 355.909  c
554.862 355.579 554.688 355.162 554.688 354.658  c
554.688 353.963 554.980 353.429 555.564 353.056  c
556.148 352.683 556.985 352.496 558.075 352.496  c
558.350 352.496 l
558.350 351.729 l
558.350 350.990 557.971 350.621 557.213 350.621  c
556.604 350.621 555.946 350.809 555.239 351.184  c
555.239 350.229 l
556.016 349.912 556.745 349.754 557.424 349.754  c
558.135 349.754 558.660 349.914 558.997 350.234  c
559.335 350.555 559.504 351.053 559.504 351.729  c
559.504 354.611 l
559.504 355.272 559.707 355.602 560.114 355.602  c
560.164 355.602 560.239 355.594 560.336 355.578  c
560.418 356.217 l
560.157 356.342 559.868 356.404 559.551 356.404  c
559.012 356.404 558.668 356.086 558.520 355.449  c
h
558.350 354.822 m
558.350 353.176 l
557.963 353.164 l
557.330 353.164 556.819 353.284 556.428 353.525  c
556.037 353.765 555.842 354.080 555.842 354.471  c
555.842 354.748 555.940 354.983 556.135 355.174  c
556.330 355.365 556.569 355.461 556.850 355.461  c
557.330 355.461 557.830 355.248 558.350 354.822  c
h
561.866 356.258 m
561.866 349.895 l
563.020 349.895 l
563.020 351.090 l
563.582 350.199 564.305 349.754 565.188 349.754  c
566.039 349.754 566.620 350.199 566.928 351.090  c
567.475 350.195 568.186 349.748 569.061 349.748  c
569.623 349.748 570.059 349.913 570.368 350.243  c
570.676 350.573 570.830 351.035 570.830 351.629  c
570.830 356.258 l
569.670 356.258 l
569.670 351.811 l
569.670 351.084 569.383 350.721 568.809 350.721  c
568.211 350.721 567.584 351.145 566.928 351.992  c
566.928 356.258 l
565.768 356.258 l
565.768 351.811 l
565.768 351.080 565.475 350.715 564.889 350.715  c
564.307 350.715 563.684 351.141 563.020 351.992  c
563.020 356.258 l
h
576.830 356.258 m
576.830 347.586 l
579.080 347.586 l
579.948 347.586 580.613 347.750 581.076 348.078  c
581.538 348.406 581.770 348.879 581.770 349.496  c
581.770 350.547 581.176 351.295 579.989 351.740  c
581.407 352.174 582.116 352.957 582.116 354.090  c
582.116 354.793 581.881 355.330 581.412 355.701  c
580.944 356.072 580.268 356.258 579.385 356.258  c
h
578.049 355.338 m
578.301 355.338 l
579.203 355.338 579.787 355.281 580.053 355.168  c
580.561 354.953 580.815 354.555 580.815 353.973  c
580.815 353.457 580.584 353.028 580.123 352.687  c
579.662 352.345 579.086 352.174 578.395 352.174  c
578.049 352.174 l
h
578.049 351.395 m
578.442 351.395 l
579.098 351.395 579.607 351.254 579.968 350.973  c
580.329 350.692 580.510 350.295 580.510 349.783  c
580.510 348.932 579.850 348.506 578.530 348.506  c
578.049 348.506 l
h
583.481 353.223 m
583.481 352.356 l
588.684 352.356 l
588.684 353.223 l
h
595.071 352.942 m
593.594 349.203 l
592.112 352.942 l
h
596.371 356.258 m
595.428 353.856 l
591.754 353.856 l
590.799 356.258 l
589.657 356.258 l
593.096 347.586 l
594.315 347.586 l
597.702 356.258 l
h
600.901 356.404 m
600.315 356.404 599.858 356.236 599.530 355.901  c
599.202 355.565 599.037 355.098 599.037 354.500  c
599.037 350.762 l
598.241 350.762 l
598.241 349.895 l
599.037 349.895 l
599.037 348.740 l
600.192 348.629 l
600.192 349.895 l
601.856 349.895 l
601.856 350.762 l
600.192 350.762 l
600.192 354.289 l
600.192 355.121 600.551 355.537 601.270 355.537  c
601.422 355.537 601.608 355.512 601.827 355.461  c
601.827 356.258 l
601.471 356.356 601.162 356.404 600.901 356.404  c
h
605.389 356.404 m
604.803 356.404 604.346 356.236 604.018 355.901  c
603.690 355.565 603.526 355.098 603.526 354.500  c
603.526 350.762 l
602.729 350.762 l
602.729 349.895 l
603.526 349.895 l
603.526 348.740 l
604.680 348.629 l
604.680 349.895 l
606.344 349.895 l
606.344 350.762 l
604.680 350.762 l
604.680 354.289 l
604.680 355.121 605.039 355.537 605.758 355.537  c
605.911 355.537 606.096 355.512 606.315 355.461  c
606.315 356.258 l
605.959 356.356 605.651 356.404 605.389 356.404  c
h
611.248 355.449 m
610.557 356.086 609.891 356.404 609.250 356.404  c
608.723 356.404 608.286 356.239 607.938 355.909  c
607.590 355.579 607.416 355.162 607.416 354.658  c
607.416 353.963 607.708 353.429 608.292 353.056  c
608.876 352.683 609.713 352.496 610.803 352.496  c
611.078 352.496 l
611.078 351.729 l
611.078 350.990 610.700 350.621 609.942 350.621  c
609.332 350.621 608.674 350.809 607.967 351.184  c
607.967 350.229 l
608.745 349.912 609.473 349.754 610.153 349.754  c
610.864 349.754 611.388 349.914 611.726 350.234  c
612.064 350.555 612.233 351.053 612.233 351.729  c
612.233 354.611 l
612.233 355.272 612.436 355.602 612.842 355.602  c
612.893 355.602 612.967 355.594 613.065 355.578  c
613.147 356.217 l
612.885 356.342 612.596 356.404 612.280 356.404  c
611.741 356.404 611.397 356.086 611.248 355.449  c
h
611.078 354.822 m
611.078 353.176 l
610.692 353.164 l
610.059 353.164 609.547 353.284 609.157 353.525  c
608.766 353.765 608.571 354.080 608.571 354.471  c
608.571 354.748 608.668 354.983 608.864 355.174  c
609.059 355.365 609.297 355.461 609.578 355.461  c
610.059 355.461 610.559 355.248 611.078 354.822  c
h
617.078 356.404 m
616.219 356.404 615.506 356.086 614.940 355.449  c
614.373 354.813 614.090 354.010 614.090 353.041  c
614.090 352.006 614.370 351.199 614.931 350.621  c
615.492 350.043 616.274 349.754 617.278 349.754  c
617.774 349.754 618.328 349.822 618.942 349.959  c
618.942 350.926 l
618.289 350.734 617.758 350.639 617.348 350.639  c
616.758 350.639 616.285 350.860 615.927 351.304  c
615.570 351.747 615.391 352.338 615.391 353.076  c
615.391 353.791 615.575 354.369 615.942 354.811  c
616.309 355.252 616.789 355.473 617.383 355.473  c
617.911 355.473 618.453 355.338 619.012 355.068  c
619.012 356.065 l
618.266 356.291 617.621 356.404 617.078 356.404  c
h
620.741 356.258 m
620.741 347.006 l
621.895 347.006 l
621.895 352.983 l
624.590 349.895 l
625.832 349.895 l
623.260 352.865 l
626.366 356.258 l
624.889 356.258 l
621.895 352.994 l
621.895 356.258 l
h
627.467 353.223 m
627.467 352.356 l
632.670 352.356 l
632.670 353.223 l
h
635.348 356.258 m
635.348 355.391 l
637.082 355.391 l
637.082 348.547 l
635.348 348.981 l
635.348 348.090 l
638.243 347.369 l
638.243 355.391 l
639.977 355.391 l
639.977 356.258 l
h
f
2 J
10.0000 M
1.00000 .800000 0.00000 RG
newpath
348.373 280.793 m
413.707 280.793 l
413.707 310.793 l
348.373 310.793 l
348.373 280.793 l
h
f
0 J
1.45000 M
0.00000 0.00000 0.00000 RG
newpath
348.373 280.793 m
413.707 280.793 l
413.707 310.793 l
348.373 310.793 l
348.373 280.793 l
h
S
2 J
10.0000 M
0 J
1.45000 M
newpath
355.555 300.328 m
355.555 292.576 l
352.479 292.576 l
352.479 291.656 l
359.861 291.656 l
359.861 292.576 l
356.785 292.576 l
356.785 300.328 l
h
365.779 300.123 m
365.006 300.357 364.344 300.474 363.793 300.474  c
362.855 300.474 362.091 300.163 361.499 299.540  c
360.907 298.917 360.611 298.109 360.611 297.117  c
360.611 296.152 360.872 295.361 361.394 294.744  c
361.915 294.127 362.582 293.818 363.395 293.818  c
364.164 293.818 364.759 294.091 365.179 294.638  c
365.599 295.185 365.809 295.963 365.809 296.970  c
365.803 297.328 l
361.789 297.328 l
361.957 298.840 362.697 299.595 364.010 299.595  c
364.490 299.595 365.080 299.466 365.779 299.209  c
h
361.842 296.461 m
364.648 296.461 l
364.648 295.277 364.207 294.685 363.324 294.685  c
362.438 294.685 361.943 295.277 361.842 296.461  c
h
371.082 299.519 m
370.391 300.156 369.725 300.474 369.084 300.474  c
368.557 300.474 368.119 300.309 367.772 299.979  c
367.424 299.649 367.250 299.232 367.250 298.728  c
367.250 298.033 367.542 297.499 368.126 297.126  c
368.710 296.753 369.547 296.566 370.637 296.566  c
370.912 296.566 l
370.912 295.799 l
370.912 295.060 370.533 294.691 369.775 294.691  c
369.166 294.691 368.508 294.879 367.801 295.254  c
367.801 294.299 l
368.578 293.982 369.307 293.824 369.986 293.824  c
370.697 293.824 371.222 293.984 371.560 294.304  c
371.897 294.625 372.066 295.123 372.066 295.799  c
372.066 298.681 l
372.066 299.341 372.270 299.672 372.676 299.672  c
372.727 299.672 372.801 299.664 372.898 299.648  c
372.980 300.287 l
372.719 300.412 372.430 300.474 372.113 300.474  c
371.574 300.474 371.230 300.156 371.082 299.519  c
h
370.912 298.892 m
370.912 297.246 l
370.525 297.234 l
369.893 297.234 369.381 297.354 368.990 297.594  c
368.600 297.835 368.404 298.150 368.404 298.541  c
368.404 298.818 368.502 299.052 368.697 299.244  c
368.893 299.435 369.131 299.531 369.412 299.531  c
369.893 299.531 370.393 299.318 370.912 298.892  c
h
374.428 300.328 m
374.428 293.965 l
375.582 293.965 l
375.582 295.160 l
376.145 294.269 376.867 293.824 377.750 293.824  c
378.602 293.824 379.182 294.269 379.490 295.160  c
380.037 294.265 380.748 293.818 381.623 293.818  c
382.186 293.818 382.621 293.983 382.930 294.313  c
383.238 294.643 383.393 295.105 383.393 295.699  c
383.393 300.328 l
382.232 300.328 l
382.232 295.881 l
382.232 295.154 381.945 294.791 381.371 294.791  c
380.773 294.791 380.147 295.215 379.490 296.062  c
379.490 300.328 l
378.330 300.328 l
378.330 295.881 l
378.330 295.150 378.037 294.785 377.451 294.785  c
376.869 294.785 376.246 295.211 375.582 296.062  c
375.582 300.328 l
h
389.393 300.328 m
389.393 291.656 l
391.643 291.656 l
392.510 291.656 393.175 291.820 393.638 292.148  c
394.101 292.476 394.332 292.949 394.332 293.566  c
394.332 294.617 393.738 295.365 392.551 295.810  c
393.969 296.244 394.678 297.027 394.678 298.160  c
394.678 298.863 394.443 299.400 393.975 299.771  c
393.506 300.142 392.830 300.328 391.947 300.328  c
h
390.611 299.408 m
390.863 299.408 l
391.766 299.408 392.350 299.351 392.615 299.238  c
393.123 299.023 393.377 298.625 393.377 298.043  c
393.377 297.527 393.147 297.098 392.686 296.757  c
392.225 296.415 391.648 296.244 390.957 296.244  c
390.611 296.244 l
h
390.611 295.465 m
391.004 295.465 l
391.660 295.465 392.169 295.324 392.530 295.043  c
392.892 294.761 393.072 294.365 393.072 293.853  c
393.072 293.002 392.412 292.576 391.092 292.576  c
390.611 292.576 l
h
396.043 297.293 m
396.043 296.425 l
401.246 296.425 l
401.246 297.293 l
h
403.238 300.328 m
403.238 291.656 l
405.863 291.656 l
406.695 291.656 407.333 291.840 407.776 292.207  c
408.220 292.574 408.441 293.107 408.441 293.806  c
408.441 294.963 407.857 295.783 406.689 296.267  c
409.584 300.328 l
408.072 300.328 l
405.605 296.660 l
404.457 296.660 l
404.457 300.328 l
h
404.457 295.740 m
404.855 295.740 l
406.402 295.740 407.176 295.133 407.176 293.918  c
407.176 293.023 406.527 292.576 405.230 292.576  c
404.457 292.576 l
h
f
2 J
10.0000 M
1.00000 .800000 0.00000 RG
newpath
539.758 55.3515 m
650.456 55.3515 l
650.456 85.3515 l
539.758 85.3515 l
539.758 55.3515 l
h
f
0 J
1.45000 M
0.00000 0.00000 0.00000 RG
newpath
539.758 55.3515 m
650.456 55.3515 l
650.456 85.3515 l
539.758 85.3515 l
539.758 55.3515 l
h
S
2 J
10.0000 M
0 J
1.45000 M
newpath
546.940 74.8867 m
546.940 67.1347 l
543.864 67.1347 l
543.864 66.2148 l
551.247 66.2148 l
551.247 67.1347 l
548.170 67.1347 l
548.170 74.8867 l
h
557.164 74.6816 m
556.391 74.9159 555.729 75.0331 555.178 75.0331  c
554.241 75.0331 553.476 74.7216 552.884 74.0986  c
552.292 73.4755 551.997 72.6679 551.997 71.6757  c
551.997 70.7109 552.257 69.9199 552.779 69.3027  c
553.300 68.6855 553.967 68.3769 554.780 68.3769  c
555.549 68.3769 556.144 68.6503 556.564 69.1972  c
556.984 69.7441 557.194 70.5214 557.194 71.5292  c
557.188 71.8867 l
553.174 71.8867 l
553.342 73.3984 554.082 74.1542 555.395 74.1542  c
555.875 74.1542 556.465 74.0253 557.164 73.7675  c
h
553.227 71.0195 m
556.034 71.0195 l
556.034 69.8359 555.592 69.2441 554.709 69.2441  c
553.823 69.2441 553.329 69.8359 553.227 71.0195  c
h
562.467 74.0781 m
561.776 74.7148 561.110 75.0331 560.469 75.0331  c
559.942 75.0331 559.504 74.8681 559.157 74.5380  c
558.809 74.2079 558.635 73.7909 558.635 73.2870  c
558.635 72.5917 558.927 72.0575 559.511 71.6845  c
560.095 71.3115 560.932 71.1249 562.022 71.1249  c
562.297 71.1249 l
562.297 70.3574 l
562.297 69.6191 561.918 69.2499 561.161 69.2499  c
560.551 69.2499 559.893 69.4374 559.186 69.8124  c
559.186 68.8574 l
559.963 68.5409 560.692 68.3827 561.372 68.3827  c
562.082 68.3827 562.607 68.5429 562.945 68.8632  c
563.283 69.1835 563.452 69.6816 563.452 70.3574  c
563.452 73.2402 l
563.452 73.9003 563.655 74.2304 564.061 74.2304  c
564.112 74.2304 564.186 74.2226 564.284 74.2070  c
564.366 74.8456 l
564.104 74.9706 563.815 75.0331 563.498 75.0331  c
562.959 75.0331 562.616 74.7148 562.467 74.0781  c
h
562.297 73.4511 m
562.297 71.8046 l
561.911 71.7929 l
561.278 71.7929 560.766 71.9130 560.375 72.1533  c
559.985 72.3935 559.789 72.7089 559.789 73.0995  c
559.789 73.3769 559.887 73.6113 560.082 73.8027  c
560.278 73.9941 560.516 74.0898 560.797 74.0898  c
561.278 74.0898 561.778 73.8769 562.297 73.4511  c
h
565.813 74.8867 m
565.813 68.5234 l
566.967 68.5234 l
566.967 69.7187 l
567.530 68.8281 568.252 68.3827 569.135 68.3827  c
569.987 68.3827 570.567 68.8281 570.875 69.7187  c
571.422 68.8242 572.133 68.3769 573.008 68.3769  c
573.571 68.3769 574.006 68.5419 574.315 68.8720  c
574.623 69.2021 574.778 69.6640 574.778 70.2577  c
574.778 74.8867 l
573.618 74.8867 l
573.618 70.4394 l
573.618 69.7128 573.331 69.3495 572.756 69.3495  c
572.159 69.3495 571.532 69.7734 570.875 70.6210  c
570.875 74.8867 l
569.715 74.8867 l
569.715 70.4394 l
569.715 69.7089 569.422 69.3437 568.836 69.3437  c
568.254 69.3437 567.631 69.7695 566.967 70.6210  c
566.967 74.8867 l
h
585.172 71.5702 m
583.696 67.8320 l
582.213 71.5702 l
h
586.473 74.8867 m
585.530 72.4843 l
581.856 72.4843 l
580.901 74.8867 l
579.758 74.8867 l
583.198 66.2148 l
584.416 66.2148 l
587.803 74.8867 l
h
588.805 71.8515 m
588.805 70.9843 l
594.008 70.9843 l
594.008 71.8515 l
h
600.395 71.5702 m
598.918 67.8320 l
597.436 71.5702 l
h
601.696 74.8867 m
600.752 72.4843 l
597.079 72.4843 l
596.123 74.8867 l
594.981 74.8867 l
598.420 66.2148 l
599.639 66.2148 l
603.026 74.8867 l
h
606.225 75.0331 m
605.639 75.0331 605.182 74.8652 604.854 74.5292  c
604.526 74.1933 604.362 73.7265 604.362 73.1288  c
604.362 69.3906 l
603.565 69.3906 l
603.565 68.5234 l
604.362 68.5234 l
604.362 67.3691 l
605.516 67.2577 l
605.516 68.5234 l
607.180 68.5234 l
607.180 69.3906 l
605.516 69.3906 l
605.516 72.9179 l
605.516 73.7499 605.875 74.1659 606.594 74.1659  c
606.747 74.1659 606.932 74.1406 607.151 74.0898  c
607.151 74.8867 l
606.795 74.9843 606.487 75.0331 606.225 75.0331  c
h
610.713 75.0331 m
610.127 75.0331 609.670 74.8652 609.342 74.5292  c
609.014 74.1933 608.850 73.7265 608.850 73.1288  c
608.850 69.3906 l
608.053 69.3906 l
608.053 68.5234 l
608.850 68.5234 l
608.850 67.3691 l
610.004 67.2577 l
610.004 68.5234 l
611.668 68.5234 l
611.668 69.3906 l
610.004 69.3906 l
610.004 72.9179 l
610.004 73.7499 610.364 74.1659 611.082 74.1659  c
611.235 74.1659 611.420 74.1406 611.639 74.0898  c
611.639 74.8867 l
611.284 74.9843 610.975 75.0331 610.713 75.0331  c
h
616.573 74.0781 m
615.881 74.7148 615.215 75.0331 614.575 75.0331  c
614.047 75.0331 613.610 74.8681 613.262 74.5380  c
612.914 74.2079 612.741 73.7909 612.741 73.2870  c
612.741 72.5917 613.033 72.0575 613.617 71.6845  c
614.201 71.3115 615.038 71.1249 616.127 71.1249  c
616.403 71.1249 l
616.403 70.3574 l
616.403 69.6191 616.024 69.2499 615.266 69.2499  c
614.657 69.2499 613.998 69.4374 613.291 69.8124  c
613.291 68.8574 l
614.069 68.5409 614.797 68.3827 615.477 68.3827  c
616.188 68.3827 616.712 68.5429 617.050 68.8632  c
617.388 69.1835 617.557 69.6816 617.557 70.3574  c
617.557 73.2402 l
617.557 73.9003 617.760 74.2304 618.166 74.2304  c
618.217 74.2304 618.291 74.2226 618.389 74.2070  c
618.471 74.8456 l
618.209 74.9706 617.920 75.0331 617.604 75.0331  c
617.065 75.0331 616.721 74.7148 616.573 74.0781  c
h
616.403 73.4511 m
616.403 71.8046 l
616.016 71.7929 l
615.383 71.7929 614.872 71.9130 614.481 72.1533  c
614.090 72.3935 613.895 72.7089 613.895 73.0995  c
613.895 73.3769 613.993 73.6113 614.188 73.8027  c
614.383 73.9941 614.622 74.0898 614.903 74.0898  c
615.383 74.0898 615.883 73.8769 616.403 73.4511  c
h
622.403 75.0331 m
621.543 75.0331 620.831 74.7148 620.264 74.0781  c
619.698 73.4413 619.414 72.6386 619.414 71.6699  c
619.414 70.6347 619.695 69.8281 620.255 69.2499  c
620.816 68.6718 621.598 68.3827 622.602 68.3827  c
623.098 68.3827 623.653 68.4511 624.266 68.5878  c
624.266 69.5546 l
623.614 69.3632 623.082 69.2675 622.672 69.2675  c
622.082 69.2675 621.609 69.4892 621.251 69.9325  c
620.894 70.3759 620.715 70.9667 620.715 71.7050  c
620.715 72.4199 620.899 72.9980 621.266 73.4394  c
621.633 73.8808 622.114 74.1015 622.707 74.1015  c
623.235 74.1015 623.778 73.9667 624.336 73.6972  c
624.336 74.6933 l
623.590 74.9199 622.946 75.0331 622.403 75.0331  c
h
626.065 74.8867 m
626.065 65.6347 l
627.219 65.6347 l
627.219 71.6113 l
629.914 68.5234 l
631.157 68.5234 l
628.584 71.4941 l
631.690 74.8867 l
630.213 74.8867 l
627.219 71.6230 l
627.219 74.8867 l
h
632.791 71.8515 m
632.791 70.9843 l
637.995 70.9843 l
637.995 71.8515 l
h
640.672 74.8867 m
640.672 74.0195 l
642.407 74.0195 l
642.407 67.1757 l
640.672 67.6093 l
640.672 66.7187 l
643.567 65.9980 l
643.567 74.0195 l
645.301 74.0195 l
645.301 74.8867 l
h
f
2 J
10.0000 M
1.00000 .800000 0.00000 RG
newpath
429.266 194.273 m
459.266 194.273 l
459.266 224.273 l
429.266 224.273 l
429.266 194.273 l
h
f
0 J
1.45000 M
0.00000 0.00000 0.00000 RG
newpath
429.266 194.273 m
459.266 194.273 l
459.266 224.273 l
429.266 224.273 l
429.266 194.273 l
h
S
2 J
10.0000 M
0 J
1.45000 M
newpath
438.003 213.955 m
437.143 213.955 436.430 213.637 435.864 213.000  c
435.298 212.363 435.014 211.561 435.014 210.592  c
435.014 209.557 435.295 208.750 435.855 208.172  c
436.416 207.594 437.198 207.305 438.202 207.305  c
438.698 207.305 439.253 207.373 439.866 207.510  c
439.866 208.477 l
439.214 208.285 438.682 208.189 438.272 208.189  c
437.682 208.189 437.209 208.411 436.851 208.854  c
436.494 209.298 436.315 209.889 436.315 210.627  c
436.315 211.342 436.499 211.920 436.866 212.361  c
437.233 212.803 437.714 213.023 438.307 213.023  c
438.835 213.023 439.378 212.889 439.936 212.619  c
439.936 213.615 l
439.190 213.842 438.546 213.955 438.003 213.955  c
h
443.042 208.312 m
443.042 213.809 l
441.882 213.809 l
441.882 208.312 l
440.979 208.312 l
440.979 207.445 l
441.882 207.445 l
441.882 206.684 l
441.882 205.168 442.573 204.410 443.956 204.410  c
444.343 204.410 444.782 204.475 445.274 204.603  c
445.274 205.518 l
444.755 205.357 444.339 205.277 444.026 205.277  c
443.647 205.277 443.388 205.368 443.250 205.550  c
443.111 205.731 443.042 206.068 443.042 206.561  c
443.042 207.445 l
444.630 207.445 l
444.630 208.312 l
h
446.815 213.809 m
444.993 207.445 l
446.124 207.445 l
447.518 212.373 l
449.024 207.445 l
450.178 207.445 l
451.497 212.373 l
453.096 207.445 l
454.087 207.445 l
452.012 213.809 l
450.852 213.809 l
449.505 208.881 l
447.981 213.809 l
h
f
2 J
10.0000 M
1.00000 .800000 0.00000 RG
newpath
756.367 200.719 m
884.619 200.719 l
884.619 230.719 l
756.367 230.719 l
756.367 200.719 l
h
f
0 J
1.45000 M
0.00000 0.00000 0.00000 RG
newpath
756.367 200.719 m
884.619 200.719 l
884.619 230.719 l
756.367 230.719 l
756.367 200.719 l
h
S
2 J
10.0000 M
0 J
1.45000 M
newpath
761.486 220.254 m
761.486 211.582 l
764.111 211.582 l
764.943 211.582 765.581 211.766 766.024 212.133  c
766.468 212.500 766.689 213.033 766.689 213.733  c
766.689 214.889 766.105 215.709 764.937 216.194  c
767.832 220.254 l
766.320 220.254 l
763.853 216.586 l
762.705 216.586 l
762.705 220.254 l
h
762.705 215.666 m
763.103 215.666 l
764.650 215.666 765.424 215.059 765.424 213.844  c
765.424 212.949 764.775 212.502 763.478 212.502  c
762.705 212.502 l
h
771.137 220.254 m
771.137 212.502 l
768.060 212.502 l
768.060 211.582 l
775.443 211.582 l
775.443 212.502 l
772.367 212.502 l
772.367 220.254 l
h
776.410 217.219 m
776.410 216.352 l
781.613 216.352 l
781.613 217.219 l
h
785.668 220.254 m
785.668 212.502 l
782.592 212.502 l
782.592 211.582 l
789.974 211.582 l
789.974 212.502 l
786.898 212.502 l
786.898 220.254 l
h
795.892 220.049 m
795.119 220.283 794.457 220.401 793.906 220.401  c
792.969 220.401 792.204 220.089 791.612 219.466  c
791.020 218.843 790.724 218.035 790.724 217.043  c
790.724 216.078 790.985 215.287 791.507 214.670  c
792.028 214.053 792.695 213.744 793.508 213.744  c
794.277 213.744 794.872 214.018 795.292 214.565  c
795.712 215.112 795.922 215.889 795.922 216.897  c
795.916 217.254 l
791.902 217.254 l
792.070 218.766 792.810 219.522 794.123 219.522  c
794.603 219.522 795.193 219.393 795.892 219.135  c
h
791.955 216.387 m
794.762 216.387 l
794.762 215.203 794.320 214.612 793.437 214.612  c
792.551 214.612 792.056 215.203 791.955 216.387  c
h
801.195 219.446 m
800.504 220.082 799.838 220.401 799.197 220.401  c
798.670 220.401 798.232 220.236 797.885 219.906  c
797.537 219.575 797.363 219.158 797.363 218.655  c
797.363 217.959 797.655 217.425 798.239 217.052  c
798.823 216.679 799.660 216.492 800.750 216.492  c
801.025 216.492 l
801.025 215.725 l
801.025 214.987 800.646 214.617 799.888 214.617  c
799.279 214.617 798.621 214.805 797.914 215.180  c
797.914 214.225 l
798.691 213.908 799.420 213.750 800.099 213.750  c
800.810 213.750 801.335 213.910 801.673 214.231  c
802.011 214.551 802.180 215.049 802.180 215.725  c
802.180 218.608 l
802.180 219.268 802.383 219.598 802.789 219.598  c
802.840 219.598 802.914 219.590 803.012 219.574  c
803.094 220.213 l
802.832 220.338 802.543 220.401 802.226 220.401  c
801.687 220.401 801.344 220.082 801.195 219.446  c
h
801.025 218.819 m
801.025 217.172 l
800.638 217.160 l
800.006 217.160 799.494 217.281 799.103 217.521  c
798.713 217.761 798.517 218.076 798.517 218.467  c
798.517 218.744 798.615 218.979 798.810 219.170  c
799.006 219.362 799.244 219.457 799.525 219.457  c
800.006 219.457 800.506 219.244 801.025 218.819  c
h
804.541 220.254 m
804.541 213.891 l
805.695 213.891 l
805.695 215.086 l
806.258 214.196 806.980 213.750 807.863 213.750  c
808.715 213.750 809.295 214.196 809.603 215.086  c
810.150 214.192 810.861 213.744 811.736 213.744  c
812.299 213.744 812.734 213.909 813.043 214.239  c
813.351 214.570 813.506 215.031 813.506 215.625  c
813.506 220.254 l
812.346 220.254 l
812.346 215.807 l
812.346 215.080 812.058 214.717 811.484 214.717  c
810.887 214.717 810.260 215.141 809.603 215.989  c
809.603 220.254 l
808.443 220.254 l
808.443 215.807 l
808.443 215.076 808.150 214.711 807.564 214.711  c
806.982 214.711 806.359 215.137 805.695 215.989  c
805.695 220.254 l
h
814.683 220.254 m
817.560 215.901 l
814.824 211.582 l
816.277 211.582 l
818.363 214.852 l
820.555 211.582 l
821.715 211.582 l
818.943 215.772 l
821.785 220.254 l
820.332 220.254 l
818.129 216.815 l
815.849 220.254 l
h
822.969 217.219 m
822.969 216.352 l
828.172 216.352 l
828.172 217.219 l
h
834.558 216.938 m
833.082 213.199 l
831.599 216.938 l
h
835.859 220.254 m
834.916 217.852 l
831.242 217.852 l
830.287 220.254 l
829.144 220.254 l
832.584 211.582 l
833.803 211.582 l
837.189 220.254 l
h
840.388 220.401 m
839.803 220.401 839.346 220.233 839.017 219.897  c
838.689 219.561 838.525 219.094 838.525 218.496  c
838.525 214.758 l
837.728 214.758 l
837.728 213.891 l
838.525 213.891 l
838.525 212.737 l
839.680 212.625 l
839.680 213.891 l
841.344 213.891 l
841.344 214.758 l
839.680 214.758 l
839.680 218.285 l
839.680 219.117 840.039 219.533 840.758 219.533  c
840.910 219.533 841.096 219.508 841.314 219.457  c
841.314 220.254 l
840.959 220.352 840.650 220.401 840.388 220.401  c
h
844.877 220.401 m
844.291 220.401 843.834 220.233 843.506 219.897  c
843.178 219.561 843.013 219.094 843.013 218.496  c
843.013 214.758 l
842.217 214.758 l
842.217 213.891 l
843.013 213.891 l
843.013 212.737 l
844.168 212.625 l
844.168 213.891 l
845.832 213.891 l
845.832 214.758 l
844.168 214.758 l
844.168 218.285 l
844.168 219.117 844.527 219.533 845.246 219.533  c
845.398 219.533 845.584 219.508 845.803 219.457  c
845.803 220.254 l
845.447 220.352 845.138 220.401 844.877 220.401  c
h
850.736 219.446 m
850.045 220.082 849.379 220.401 848.738 220.401  c
848.211 220.401 847.773 220.236 847.426 219.906  c
847.078 219.575 846.904 219.158 846.904 218.655  c
846.904 217.959 847.196 217.425 847.780 217.052  c
848.364 216.679 849.201 216.492 850.291 216.492  c
850.566 216.492 l
850.566 215.725 l
850.566 214.987 850.187 214.617 849.430 214.617  c
848.820 214.617 848.162 214.805 847.455 215.180  c
847.455 214.225 l
848.232 213.908 848.961 213.750 849.640 213.750  c
850.351 213.750 850.876 213.910 851.214 214.231  c
851.552 214.551 851.721 215.049 851.721 215.725  c
851.721 218.608 l
851.721 219.268 851.924 219.598 852.330 219.598  c
852.381 219.598 852.455 219.590 852.553 219.574  c
852.635 220.213 l
852.373 220.338 852.084 220.401 851.767 220.401  c
851.228 220.401 850.885 220.082 850.736 219.446  c
h
850.566 218.819 m
850.566 217.172 l
850.180 217.160 l
849.547 217.160 849.035 217.281 848.644 217.521  c
848.254 217.761 848.058 218.076 848.058 218.467  c
848.058 218.744 848.156 218.979 848.351 219.170  c
848.547 219.362 848.785 219.457 849.066 219.457  c
849.547 219.457 850.047 219.244 850.566 218.819  c
h
856.566 220.401 m
855.707 220.401 854.994 220.082 854.428 219.446  c
853.861 218.809 853.578 218.006 853.578 217.037  c
853.578 216.002 853.858 215.196 854.419 214.617  c
854.979 214.039 855.762 213.750 856.765 213.750  c
857.262 213.750 857.816 213.819 858.430 213.955  c
858.430 214.922 l
857.777 214.731 857.246 214.635 856.836 214.635  c
856.246 214.635 855.772 214.857 855.415 215.300  c
855.057 215.743 854.879 216.334 854.879 217.072  c
854.879 217.787 855.062 218.365 855.430 218.807  c
855.797 219.248 856.277 219.469 856.871 219.469  c
857.398 219.469 857.941 219.334 858.500 219.065  c
858.500 220.061 l
857.754 220.287 857.109 220.401 856.566 220.401  c
h
860.228 220.254 m
860.228 211.002 l
861.383 211.002 l
861.383 216.979 l
864.078 213.891 l
865.320 213.891 l
862.748 216.862 l
865.853 220.254 l
864.377 220.254 l
861.383 216.990 l
861.383 220.254 l
h
866.955 217.219 m
866.955 216.352 l
872.158 216.352 l
872.158 217.219 l
h
874.836 220.254 m
874.836 219.387 l
876.570 219.387 l
876.570 212.543 l
874.836 212.977 l
874.836 212.086 l
877.730 211.365 l
877.730 219.387 l
879.465 219.387 l
879.465 220.254 l
h
f
2 J
10.0000 M
0 J
1.45000 M
newpath
318.230 30.0000 m
367.129 99.5531 l
S
newpath
371.730 106.098 m
368.918 93.4052 l
366.554 98.7350 l
360.738 99.1565 l
h
f
2 J
10.0000 M
0 J
1.45000 M
newpath
66.1719 207.458 m
114.541 207.545 l
S
newpath
122.541 207.559 m
110.550 202.538 l
113.541 207.543 l
110.532 212.538 l
h
f
2 J
10.0000 M
0 J
1.45000 M
newpath
649.841 227.460 m
601.087 329.504 l
S
newpath
597.638 336.723 m
607.323 328.051 l
601.518 328.602 l
598.300 323.740 l
h
f
2 J
10.0000 M
0 J
1.45000 M
newpath
316.230 384.479 m
365.358 317.252 l
S
newpath
370.078 310.793 m
358.961 317.531 l
364.768 318.059 l
367.035 323.431 l
h
f
2 J
10.0000 M
0 J
1.45000 M
newpath
650.474 197.460 m
604.836 92.6859 l
S
newpath
601.641 85.3515 m
601.849 98.3498 l
605.235 93.6027 l
611.017 94.3564 l
h
f
2 J
10.0000 M
0 J
1.45000 M
newpath
392.821 136.098 m
429.120 187.729 l
S
newpath
433.721 194.273 m
430.910 181.581 l
428.545 186.911 l
422.729 187.332 l
h
f
2 J
10.0000 M
0 J
1.45000 M
newpath
191.338 207.819 m
421.267 209.141 l
S
newpath
429.266 209.187 m
417.295 204.118 l
420.267 209.135 l
417.238 214.118 l
h
f
2 J
10.0000 M
0 J
1.45000 M
newpath
611.770 211.783 m
467.266 209.618 l
S
newpath
459.266 209.498 m
471.190 214.677 l
468.265 209.633 l
471.340 204.678 l
h
f
2 J
10.0000 M
0 J
1.45000 M
newpath
392.002 280.793 m
428.585 230.733 l
S
newpath
433.305 224.273 m
422.188 231.012 l
427.995 231.540 l
430.261 236.912 l
h
f
2 J
10.0000 M
0 J
1.45000 M
newpath
702.247 213.362 m
748.369 214.281 l
S
newpath
756.367 214.441 m
744.469 209.203 l
747.369 214.261 l
744.270 219.201 l
h
f
2 J
10.0000 M
Q
[ 1.00000 0.00000 0.00000 1.00000 0.00000 0.00000 ] defaultmatrix matrix concatmatrix setmatrix
cliprestore

%%Trailer
%%EOF
