%!PS-Adobe-3.0 EPSF-3.0
%%BoundingBox: 0 0 457 384
%%Creator: yExport 1.5
%%Producer: org.freehep.graphicsio.ps.EPSGraphics2D Revision: 12753 
%%For: 
%%Title: 
%%CreationDate: Thursday, October 19, 2017 3:35:10 PM BST
%%LanguageLevel: 3
%%EndComments
%%BeginProlog
100 dict dup begin

%
% File: org/freehep/graphicsio.ps/PSProlog.txt
% Author: Charles Loomis
%

% Redefinitions which save some space in the output file.  These are also
% the same as the PDF operators.
/q {gsave} def
/Q {grestore} def

/n {newpath} def
/m {moveto} def
/l {lineto} def
/c {curveto} def
/h {closepath} def

/re {4 -2 roll moveto
     dup 0 exch rlineto exch 0 rlineto
     neg 0 exch rlineto closepath} def

/f {fill} def
/f* {eofill} def
/F {gsave vg&FC fill grestore} def
/F* {gsave vg&FC eofill grestore} def

/s {closepath stroke} def
/S {stroke} def

/b {closepath gsave vg&FC fill grestore
    gsave stroke grestore newpath} def
/B {gsave vg&FC fill grestore gsave stroke grestore newpath} def
/b* {closepath gsave vg&FC eofill grestore
    gsave stroke grestore newpath} def
/B* {gsave vg&FC eofill grestore gsave stroke grestore newpath} def

/g {1 array astore /vg&fcolor exch def} def
/G {setgray} def
/k {4 array astore /vg&fcolor exch def} def
/K {setcmykcolor} def
/rg {3 array astore /vg&fcolor exch def} def
/RG {setrgbcolor} def

% Initialize the fill color.
0 0 0 rg

/vg&FC {mark vg&fcolor aload pop
        counttomark 1 eq {G} if
        counttomark 3 eq {RG} if
        counttomark 4 eq {K} if
        cleartomark } def

/vg&DFC {/vg&fcolor exch def} def

/vg&C {mark exch aload pop
       counttomark 1 eq {G} if
       counttomark 3 eq {RG} if
       counttomark 4 eq {K} if
       cleartomark } def

/w {setlinewidth} def
/j {setlinejoin} def
/J {setlinecap} def
/M {setmiterlimit} def
/d {setdash} def
/i {setflat} def

/W {clip} def
/W* {eoclip} def

% Setup the default graphics state.
% (black; 1 pt. linewidth; miter join; butt-ends; solid)
/defaultGraphicsState {0 g 1 w 0 j 0 J [] 0 d} def

% Emulation of the rectangle operators for PostScript implementations
% which do not implement all Level 2 features.  This is an INCOMPLETE
% emulation; only the "x y width height rect..." form is emulated.
/*rf {gsave newpath re fill grestore} def
/*rs {gsave newpath re stroke grestore} def
/*rc {newpath re clip} def
/rf  /rectfill where {pop /rectfill}{/*rf} ifelse load def
/rs  /rectstroke where {pop /rectstroke}{/*rs} ifelse load def
/rc  /rectclip where {pop /rectclip}{/*rc} ifelse load def

% Emulation of the selectfont operator.  This includes a 20% increase in
% the fontsize which is necessary to get sizes similar to the Java fonts.
/*sf {exch findfont exch
      dup type /arraytype eq {makefont}{scalefont} ifelse setfont} bind def
/sf /selectfont where {pop {1.2 mul selectfont}}{{1.2 mul *sf}} ifelse def

% Special version of stroke which allows the dash pattern to continue
% across path segments.  (This may be needed for PostScript although
% modern printers seem to do this correctly.)
/vg&stroke {
  currentdash pop length 0 eq
  {stroke}
  {
    currentdash /vg&doffset exch def pop
    flattenpath
    {m vg&resetdash}
    {2 copy
     currentpoint
     3 -1 roll sub dup mul
     3 1 roll sub dup mul
     add sqrt
     3 1 roll l
     currentdash 3 -1 roll add setdash}
     {}
     {h vg&resetdash}
     pathforall
     stroke
     vg&resetdash
  } ifelse
} def
/vg&resetdash {currentdash pop vg&doffset setdash} def

% Initialize variables for safety.
/delta 0 def
/xv 0 def  /yv 0 def  /width 0 def  /height 0 def

% Initialize to portrait INTERNATIONAL (Letter-height, A4-width) page.
/pw 595 def  /ph 791  def  /po true def /ftp false def

% Initialize margins to 20 points.
/ml 20 def  /mr 20 def  /mt 20 def  /mb 20 def

% Temporary matrices.
/smatrix 0 def  /nmatrix 0 def

% set page size (usage: <page width><page height> setpagesize)
/setpagesize {/ph exch def /pw exch def} def

% set page orientation (usage: portrait or landscape)
/portrait {/po true def} def
/landscape {/po false def} def

% force natural size for image (usage: naturalsize)
/naturalsize {/ftp false def} def

% resize image to fill page (usage: fittopage)
/fittopage {/ftp true def} def

% set margins of the page (usage: <left><bottom><top><right> setmargins)
/setmargins {/mr exch def /mt exch def /mb exch def /ml exch def} def

% set the graphic's size (usage: <width><height> setsize)
/setsize {/gh exch def /gw exch def} def

% set the graphic's origin (usage: <x0><y0> setorigin)
/setorigin {/gy exch def /gx exch def} def

% calculate image center
/imagecenter {pw ml sub mr sub 2 div ml add
              ph mt sub mb sub 2 div mb add} def

% calculate the necessary scaling
/imagescale {po {gw}{gh} ifelse pw ml sub mr sub div
             po {gh}{gw} ifelse ph mt sub mb sub div
             2 copy lt {exch} if pop
             ftp not {1 2 copy lt {exch} if pop} if
             1 exch div /sfactor exch def
             /gw gw sfactor mul def /gh gh sfactor mul def} def

% calculate image origin
/imageorigin {pw ml sub mr sub 2 div ml add
              po {gw}{gh} ifelse 2 div sub
              ph mt sub mb sub 2 div mb add
              po {gh}{gw} ifelse 2 div po {add}{sub} ifelse} def

% calculate the clipping origin
/cliporigin  {pw ml sub mr sub 2 div ml add
              po {gw}{gh} ifelse 2 div sub floor
              ph mt sub mb sub 2 div mb add
              po {gh}{gw} ifelse 2 div sub floor} def

% Set the clipping region to the bounding box.
/cliptobounds {cliporigin po {gw}{gh} ifelse 1 add
                          po {gh}{gw} ifelse 1 add rc} def

% set the base transformation matrix (usage: setbasematrix)
/setbasematrix {imageorigin translate
                po {0}{90} ifelse rotate
                sfactor sfactor neg scale
                /defaultmatrix matrix currentmatrix def} def

% The lower-right bias in drawing 1 pt. wide lines.
/bias  {q 0.5 0.5 translate} def
/unbias {Q} def

% Define the composite fonts used to print Unicode strings.
% Undefine particular values in an encoding array.
/vg&undef { {exch dup 3 -1 roll /.notdef put} forall } def
/vg&redef { {3 -1 roll dup 4 2 roll put} forall } def

% usage: key encoding basefontname vg&newbasefont font
/vg&newbasefont {
findfont dup length dict copy
  begin
    currentdict /FID undef
    /Encoding exch def
    dup /FontName exch def
    currentdict
  end
definefont
} def

% usage: key encoding basefontname vg&newskewedbasefont font
/vg&newskewedbasefont {
findfont dup length dict copy
  begin
    currentdict /FID undef
    /Encoding exch def
    dup /FontName exch def
    exch FontMatrix exch matrix concatmatrix /FontMatrix exch def
    currentdict
  end
definefont
} def

% usage: basekey suffix vg&nconcat name
/vg&nconcat {
  2 {dup length string cvs exch} repeat
  dup length 3 -1 roll dup length 3 -1 roll add string
  dup 0 4 -1 roll dup length 5 1 roll putinterval
  dup 4 -2 roll exch putinterval cvn
} def

%usage: fontname vg&skewmatrix matrix
/vg&skewmatrix {
findfont dup /FontInfo known
  {
    /FontInfo get dup /ItalicAngle known
    {
      [ 1 0 4 -1 roll /ItalicAngle get neg dup sin exch cos div 1 0 0 ]
    }
    {pop matrix} ifelse
  }
  {pop matrix} ifelse
} def

% usage: newfontname basefontname vg&newcompositefont --
/vg&newcompositefont {
/vg&fstyle exch def
/vg&bfont exch def
/vg&fname exch def
<<
/FontStyleBits vg&fstyle
/FontType 0
/FontMatrix matrix
/FontName vg&fname
/FMapType 2
/Encoding [ 0 1 255 {pop 6} for ]
          dup 16#00 0 put % Latin
          dup 16#03 1 put % Greek
          dup 16#20 2 put % Punctuation
          dup 16#21 3 put % Arrows
          dup 16#22 4 put % MathOps
          dup 16#27 5 put % Dingbats

/FDepVector [
vg&bfont /-UC-Latin vg&nconcat UCLatinEncoding
vg&bfont vg&newbasefont

vg&bfont vg&skewmatrix
vg&bfont /-UC-Greek vg&nconcat UCGreekEncoding
/Symbol vg&newskewedbasefont

vg&bfont /-UC-Punctuation vg&nconcat UCPunctuationEncoding
vg&bfont vg&newbasefont

/Arrows-UC findfont
/MathOps-UC findfont
/Dingbats-UC findfont
/Undefined-UC findfont ]
>>
vg&fname exch definefont pop
} def

% Null encoding vector (all elements set to .notdef)
/NullEncoding [ 256 {/.notdef} repeat ] def

% Unicode Latin encoding (unicode codes \u0000-\u00ff)
/UCLatinEncoding
  ISOLatin1Encoding dup length array copy
  dup 16#60 /grave put
  [ 16#90 16#91 16#92 16#93 16#94 16#95 16#96
    16#97 16#98 16#9a 16#9b 16#9d 16#9e 16#9f
  ] vg&undef
  def

% Unicode Greek encoding (unicode codes \u0370-\u03ff)
/UCGreekEncoding
  NullEncoding dup length array copy
  << 16#91 /Alpha    16#92 /Beta      16#93 /Gamma    16#94 /Delta
     16#95 /Epsilon  16#96 /Zeta      16#97 /Eta      16#98 /Theta
     16#99 /Iota     16#9a /Kappa     16#9b /Lambda   16#9c /Mu
     16#9d /Nu       16#9e /Xi        16#9f /Omicron  16#a0 /Pi
     16#a1 /Rho      16#a3 /Sigma     16#a4 /Tau      16#a5 /Upsilon
     16#a6 /Phi      16#a7 /Chi       16#a8 /Psi      16#a9 /Omega
     16#b1 /alpha    16#b2 /beta      16#b3 /gamma    16#b4 /delta
     16#b5 /epsilon  16#b6 /zeta      16#b7 /eta      16#b8 /theta
     16#b9 /iota     16#ba /kappa     16#bb /lambda   16#bc /mu
     16#bd /nu       16#be /xi        16#bf /omicron  16#c0 /pi
     16#c1 /rho      16#c2 /sigma1    16#c3 /sigma    16#c4 /tau
     16#c5 /upsilon  16#c6 /phi1      16#c7 /chi      16#c8 /psi
     16#c9 /omega    16#7e /semicolon 16#87 /dotmath  16#d1 /theta1
     16#d2 /Upsilon1 16#d5 /phi       16#d6 /omega1
  >> vg&redef
  def

% Unicode punctuation encoding (unicode codes \u2000-\u206f)
/UCPunctuationEncoding
  NullEncoding dup length array copy
  << 16#10 /hyphen          16#11 /hyphen              16#12 /endash
     16#13 /emdash          16#18 /quoteleft           16#19 /quoteright
     16#1a /quotesinglbase  16#1b /quotesingle         16#1c /quotedblleft
     16#1d /quotedblright   16#1e /quotedblbase        16#1f /quotedbl
     16#20 /dagger          16#21 /daggerdbl           16#22 /bullet
     16#24 /period          16#26 /ellipsis            16#27 /periodcentered
     16#30 /perthousand     16#44 /fraction
     16#70 /zerosuperior    16#74 /foursuperior        16#75 /fivesuperior
     16#76 /sixsuperior     16#77 /sevensuperior       16#78 /eightsuperior
     16#79 /ninesuperior    16#7b /hyphensuperior      16#7d /parenleftsuperior
     16#7e /parenrightsuperior
     16#80 /zeroinferior    16#84 /fourinferior        16#85 /fiveinferior
     16#81 /oneinferior     16#82 /twoinferior         16#83 /threeinferior
     16#86 /sixinferior     16#87 /seveninferior       16#88 /eightinferior
     16#89 /nineinferior    16#8b /hypheninferior      16#8d /parenleftinferior
     16#8e /parenrightinferior
  >> vg&redef
  def

% Unicode mathematical operators encoding (unicode codes \u2200-\u22ff)
/UCMathOpsEncoding
  NullEncoding dup length array copy
  << 16#00 /universal       16#02 /partialdiff         16#03 /existential
     16#05 /emptyset        16#06 /Delta               16#07 /gradient
     16#08 /element         16#09 /notelement          16#0b /suchthat
     16#0f /product         16#11 /summation           16#12 /minus
     16#15 /fraction        16#17 /asteriskmath        16#19 /bullet
     16#1a /radical         16#1d /proportional        16#1e /infinity
     16#20 /angle           16#23 /bar                 16#27 /logicaland
     16#28 /logicalor       16#29 /intersection        16#2a /union
     16#2b /integral        16#34 /therefore           16#36 /colon
     16#3c /similar         16#45 /congruent           16#48 /approxequal
     16#60 /notequal        16#61 /equivalence         16#64 /lessequal
     16#65 /greaterequal    16#82 /propersubset        16#83 /propersuperset
     16#86 /reflexsubset    16#87 /reflexsuperset      16#95 /circleplus
     16#97 /circlemultiply  16#a5 /perpendicular       16#03 /existential
     16#c0 /logicaland      16#c1 /logicalor           16#c2 /intersection
     16#c3 /union           16#c4 /diamond             16#c5 /dotmath
  >> vg&redef
  def

% Unicode arrows encoding (unicode codes \u2190-\u21ff)
% Also includes those "Letterlike" unicode characters
% which are available in the symbol font. (unicode codes \u2100-\u214f)
/UCArrowsEncoding
  NullEncoding dup length array copy
  << 16#11 /Ifraktur        16#1c /Rfraktur            16#22 /trademarkserif
     16#35 /aleph
     16#90 /arrowleft       16#91 /arrowup             16#92 /arrowright
     16#93 /arrowdown       16#94 /arrowboth           16#d0 /arrowdblleft
     16#d1 /arrowdblup      16#d2 /arrowdblright       16#d3 /arrowdbldown
     16#d4 /arrowdblboth
  >> vg&redef
  def

/ZapfDingbats findfont /Encoding get
dup length array copy /UCDingbatsEncoding exch def
16#20 1 16#7f {
  dup 16#20 sub exch
  UCDingbatsEncoding exch get
  UCDingbatsEncoding 3 1 roll put
} for
16#a0 1 16#ff {
  dup 16#40 sub exch
  UCDingbatsEncoding exch get
  UCDingbatsEncoding 3 1 roll put
} for
UCDingbatsEncoding [ 16#c0 1 16#ff {} for ] vg&undef
[ 16#00  16#05 16#0a 16#0b  16#28 16#4c 16#4e  16#53 16#54 16#55  16#57 16#5f
  16#60  16#68 16#69 16#6a  16#6b 16#6c 16#6d  16#6e 16#6f 16#70  16#71 16#72
  16#73  16#74 16#75 16#95  16#96 16#97 16#b0  16#bf
] vg&undef pop

% Define the base fonts which don't change.
/Undefined-UC NullEncoding       /Helvetica    vg&newbasefont pop
/MathOps-UC   UCMathOpsEncoding  /Symbol       vg&newbasefont pop
/Arrows-UC    UCArrowsEncoding   /Symbol       vg&newbasefont pop
/Dingbats-UC  UCDingbatsEncoding /ZapfDingbats vg&newbasefont pop

% Make the SansSerif composite fonts.
/SansSerif /Helvetica 16#00 vg&newcompositefont
/SansSerif-Bold /Helvetica-Bold 16#01 vg&newcompositefont
/SansSerif-Italic /Helvetica-Oblique 16#02 vg&newcompositefont
/SansSerif-BoldItalic /Helvetica-BoldOblique 16#03 vg&newcompositefont

% Make the Serif composite fonts.
/Serif /Times-Roman 16#00 vg&newcompositefont
/Serif-Bold /Times-Bold 16#01 vg&newcompositefont
/Serif-Italic /Times-Italic 16#02 vg&newcompositefont
/Serif-BoldItalic /Times-BoldItalic 16#03 vg&newcompositefont

% Make the Monospaced composite fonts.
/Monospaced /Courier 16#00 vg&newcompositefont
/Monospaced-Bold /Courier-Bold 16#01 vg&newcompositefont
/Monospaced-Italic /Courier-Oblique 16#02 vg&newcompositefont
/Monospaced-BoldItalic /Courier-BoldOblique 16#03 vg&newcompositefont

% Make the Dialog composite fonts.
/Dialog /Helvetica 16#00 vg&newcompositefont
/Dialog-Bold /Helvetica-Bold 16#01 vg&newcompositefont
/Dialog-Italic /Helvetica-Oblique 16#02 vg&newcompositefont
/Dialog-BoldItalic /Helvetica-BoldOblique 16#03 vg&newcompositefont

% Make the DialogInput composite fonts.
/DialogInput /Courier 16#00 vg&newcompositefont
/DialogInput-Bold /Courier-Bold 16#01 vg&newcompositefont
/DialogInput-Italic /Courier-Oblique 16#02 vg&newcompositefont
/DialogInput-BoldItalic /Courier-BoldOblique 16#03 vg&newcompositefont

% Make the Typewriter composite fonts (JDK 1.1 only).
/Typewriter /Courier 16#00 vg&newcompositefont
/Typewriter-Bold /Courier-Bold 16#01 vg&newcompositefont
/Typewriter-Italic /Courier-Oblique 16#02 vg&newcompositefont
/Typewriter-BoldItalic /Courier-BoldOblique 16#03 vg&newcompositefont


/cfontH {
 dup /fontsize exch def /SansSerif exch sf
 /vg&fontstyles [{cfontH} {cfontHB} {cfontHI} {cfontHBI}] def
} def
/cfontHB {
  dup /fontsize exch def /SansSerif-Bold exch sf
 /vg&fontstyles [{cfontH} {cfontHB} {cfontHI} {cfontHBI}] def
} def
/cfontHI {
 dup /fontsize exch def /SansSerif-Italic exch sf
 /vg&fontstyles [{cfontH} {cfontHB} {cfontHI} {cfontHBI}] def
} def
/cfontHBI {
 dup /fontsize exch def /SansSerif-BoldItalic exch sf
 /vg&fontstyles [{cfontH} {cfontHB} {cfontHI} {cfontHBI}] def
} def

/cfontT {
 dup /fontsize exch def /Serif exch sf
 /vg&fontstyles [{cfontT} {cfontTB} {cfontTI} {cfontTBI}] def
} def
/cfontTB {
 dup /fontsize exch def /Serif-Bold exch sf
 /vg&fontstyles [{cfontT} {cfontTB} {cfontTI} {cfontTBI}] def
} def
/cfontTI {
 dup /fontsize exch def /Serif-Italic exch sf
 /vg&fontstyles [{cfontT} {cfontTB} {cfontTI} {cfontTBI}] def
} def
/cfontTBI {
 dup /fontsize exch def /Serif-BoldItalic exch sf
 /vg&fontstyles [{cfontT} {cfontTB} {cfontTI} {cfontTBI}] def
} def

/cfontC {
 dup /fontsize exch def /Typewriter exch sf
 /vg&fontstyles [{cfontC} {cfontCB} {cfontCI} {cfontCBI}] def
} def
/cfontCB {
 dup /fontsize exch def /Typewriter-Bold exch sf
 /vg&fontstyles [{cfontC} {cfontCB} {cfontCI} {cfontCBI}] def
} def
/cfontCI {
 dup /fontsize exch def /Typewriter-Italic exch sf
 /vg&fontstyles [{cfontC} {cfontCB} {cfontCI} {cfontCBI}] def
} def
/cfontCBI {
 dup /fontsize exch def /Typewriter-BoldItalic exch sf
 /vg&fontstyles [{cfontC} {cfontCB} {cfontCI} {cfontCBI}] def
} def

% Darken or lighten the current color.
/darken {0.7 exch exp 3 copy
         q 4 -1 roll vg&C
         currentrgbcolor 3 {4 -2 roll mul} repeat
         3 array astore Q} def

/displayColorMap
<< /Cr   [1.00 0.00 0.00]       /Cg     [0.00 1.00 0.00]
   /Cb   [0.00 0.00 1.00]       /Cc     [1.00 0.00 0.00 0.00]
   /Cm   [0.00 1.00 0.00 0.00]  /Cy     [0.00 0.00 1.00 0.00]
   /Co   [1.00 0.78 0.00]       /Cp     [1.00 0.67 0.67]
   /Cw   [1   ]                 /Cgrl   [0.75]
   /Cgr  [0.50]                 /Cgrd   [0.25]
   /Ck   [0   ]
   /CGr  [1.00 0.00 0.00]       /CGg    [0.00 1.00 0.00]
   /CGb  [0.00 0.00 1.00]       /CGc    [1.00 0.00 0.00 0.00]
   /CGm  [0.00 1.00 0.00 0.00]  /CGy    [0.00 0.00 1.00 0.00]
   /CGo  [1.00 0.78 0.00]       /CGp    [1.00 0.67 0.67]
   /CGw  [1   ]                 /CGgrl  [0.75]
   /CGgr [0.50]                 /CGgrd  [0.25]
   /CGk  [0   ]
   /CIr  [1.00 0.00 0.00]       /CIg    [0.00 1.00 0.00]
   /CIb  [0.00 0.00 1.00]       /CIc    [1.00 0.00 0.00 0.00]
   /CIm  [0.00 1.00 0.00 0.00]  /CIy    [0.00 0.00 1.00 0.00]
   /CIo  [1.00 0.78 0.00]       /CIp    [1.00 0.67 0.67]
   /CIw  [1   ]                 /CIgrl  [0.75]
   /CIgr [0.50]                 /CIgrd  [0.25]
   /CIk  [0   ]
>> def

/printColorMap
<< /Cr   [1.00 0.33 0.33]       /Cg     [0.33 1.00 0.33]
   /Cb   [0.33 0.33 1.00]       /Cc     [1.00 0.00 0.00 0.00]
   /Cm   [0.00 1.00 0.00 0.00]  /Cy     [0.00 0.00 1.00 0.00]
   /Co   [1.00 0.78 0.00]       /Cp     [1.00 0.67 0.67]
   /Cw   [1   ]                 /Cgrl   [0.75]
   /Cgr  [0.50]                 /Cgrd   [0.25]
   /Ck   [0   ]
   /CGr  [1.00 0.33 0.33]       /CGg    [0.33 1.00 0.33]
   /CGb  [0.33 0.33 1.00]       /CGc    [1.00 0.00 0.00 0.00]
   /CGm  [0.00 1.00 0.00 0.00]  /CGy    [0.00 0.00 1.00 0.00]
   /CGo  [1.00 0.78 0.00]       /CGp    [1.00 0.67 0.67]
   /CGw  [1   ]                 /CGgrl  [0.75]
   /CGgr [0.50]                 /CGgrd  [0.25]
   /CGk  [0   ]
   /CIr  [1.00 0.33 0.33]       /CIg    [0.33 1.00 0.33]
   /CIb  [0.33 0.33 1.00]       /CIc    [1.00 0.00 0.00 0.00]
   /CIm  [0.00 1.00 0.00 0.00]  /CIy    [0.00 0.00 1.00 0.00]
   /CIo  [1.00 0.78 0.00]       /CIp    [1.00 0.67 0.67]
   /CIw  [1   ]                 /CIgrl  [0.75]
   /CIgr [0.50]                 /CIgrd  [0.25]
   /CIk  [0   ]
>> def

/grayColorMap
<< /Cr   [0   ]                 /Cg     [0   ]
   /Cb   [0   ]                 /Cc     [0   ]
   /Cm   [0   ]                 /Cy     [0   ]
   /Co   [0   ]                 /Cp     [0   ]
   /Cw   [0   ]                 /Cgrl   [0   ]
   /Cgr  [0   ]                 /Cgrd   [0   ]
   /Ck   [0   ]
   /CGr  [0.75]                 /CGg    [1   ]
   /CGb  [0.50]                 /CGc    [0.75]
   /CGm  [0.50]                 /CGy    [1   ]
   /CGo  [0.75]                 /CGp    [1   ]
   /CGw  [0   ]                 /CGgrl  [0.25]
   /CGgr [0.50]                 /CGgrd  [0.75]
   /CGk  [1   ]
   /CIr  [1   ]                 /CIg    [1   ]
   /CIb  [1   ]                 /CIc    [1   ]
   /CIm  [1   ]                 /CIy    [1   ]
   /CIo  [1   ]                 /CIp    [1   ]
   /CIw  [1   ]                 /CIgrl  [1   ]
   /CIgr [1   ]                 /CIgrd  [1   ]
   /CIk  [1   ]
>> def

/bwColorMap
<< /Cr   [0   ]                 /Cg     [0   ]
   /Cb   [0   ]                 /Cc     [0   ]
   /Cm   [0   ]                 /Cy     [0   ]
   /Co   [0   ]                 /Cp     [0   ]
   /Cw   [0   ]                 /Cgrl   [0   ]
   /Cgr  [0   ]                 /Cgrd   [0   ]
   /Ck   [0   ]
   /CGr  [1   ]                 /CGg    [1   ]
   /CGb  [1   ]                 /CGc    [1   ]
   /CGm  [1   ]                 /CGy    [1   ]
   /CGo  [1   ]                 /CGp    [1   ]
   /CGw  [0   ]                 /CGgrl  [1   ]
   /CGgr [1   ]                 /CGgrd  [1   ]
   /CGk  [1   ]
   /CIr  [1   ]                 /CIg    [1   ]
   /CIb  [1   ]                 /CIc    [1   ]
   /CIm  [1   ]                 /CIy    [1   ]
   /CIo  [1   ]                 /CIp    [1   ]
   /CIw  [1   ]                 /CIgrl  [1   ]
   /CIgr [1   ]                 /CIgrd  [1   ]
   /CIk  [1   ]
>> def

%
% The following routines handle the alignment of and printing of
% tagged strings.
%

% Predefine the bounding box values.
/bbllx 0 def /bblly 0 def /bburx 0 def /bbury 0 def

% This routine pops the first unicode character off of a string and returns
% the remainder of the string, the character code of first character,
% and a "true" if the string was non-zero length.
% <string>      popfirst <remaining string> <true>
% <null string> popfirst <false>
/popfirst {
  dup length 1 gt
    {dup 0 get /vg&fbyte exch def
     dup 1 get /vg&cbyte exch def
     dup length 2 sub 2 exch getinterval true}
    {pop false} ifelse
} def

% This routine shows a single unicode character given the font and
% character codes.
% <font code> <char code> unicharshow --
/unicharshow {
  2 string
  dup 0 5 -1 roll put
  dup 1 4 -1 roll put
  internalshow
} def

% This is an internal routine to alternate between determining the
% bounding box for stringsize and showing the string for recshow.
% <string> internalshow --
/internalshow {show} def

% This is an internal routine to alternate between determining the
% bounding box for stringsize and stroking various ornaments.
% <string> internalstroke --
/internalstroke {S} def

% Sets up internalshow to use the null device to determine string size.
% -- nullinternalshow --
/nullinternalshow {/internalshow {false charpath flattenpath
                                  pathbbox updatebbox} def} def

% Sets up internalstroke to use the null device to determine string size.
% -- nullinternalstroke --
/nullinternalstroke {
 /internalstroke {flattenpath pathbbox updatebbox} def} def

% This routine tests to see if the character code matches the first
% character of a string.
% <char code> <string> testchar <char code> <true or false>
/testchar {exch dup 3 -1 roll 0 get eq} def

% Raise the text baseline for superscripts.
% -- raise --
/raise {
  0 fontsize 2 div rmoveto
  /fontsize fontsize 2 mul 3 div def
  currentfont /FontName get fontsize sf
} def

% Un-raise the text baseline for superscripts.
% -- unraise --
/unraise {
  /fontsize fontsize 1.5 mul def
  0 fontsize 2 div neg rmoveto
} def

% Lower the text baseline for subscripts.
% -- lower --
/lower {
  0 fontsize 3 div neg rmoveto
  /fontsize fontsize 2 mul 3 div def
  currentfont /FontName get fontsize sf
} def

% Un-lower the text baseline for subscripts.
% -- unlower --
/unlower {
  /fontsize fontsize 1.5 mul def
  0 fontsize 3 div rmoveto
} def

% Compare the top two elements on the stack and leave only the
% larger one.
/maxval {2 copy gt {pop} {exch pop} ifelse} def

% Tokenize a string.  Do not use the usual PostScript token because
% parentheses will not be interpreted correctly because of rescanning
% of the string.
/vg&token {/vg&string exch def /vg&index -1 def /vg&level 0 def
0 2 vg&string length 2 sub {
  dup dup 1 add exch vg&string exch get 8 bitshift vg&string 3 -1 roll get or
  dup 16#f0fe eq {pop 1}{16#f0ff eq {-1}{0} ifelse} ifelse
  /vg&level exch vg&level add def
  vg&level 0 eq {/vg&index exch def exit} if pop
} for
vg&index 0 ge {
  vg&string vg&index 2 add dup vg&string length exch sub getinterval
  vg&index 2 gt {vg&string 2 vg&index 2 sub getinterval}{()} ifelse
  true}
{false} ifelse
} bind def

% Recursively show an unicode string.
% <string> recshow --
/recshow {
  popfirst
  {
    % Test to see if this is a string attribute.
    vg&fbyte 16#f0 and 16#e0 eq
    {
      q

      % Font style.
      currentfont dup /FontStyleBits known {/FontStyleBits get}{pop 0} ifelse
      vg&cbyte or vg&fontstyles exch get fontsize exch exec

      vg&token pop recshow currentpoint Q m recshow
    }
    {
      vg&fbyte 16#F8 and 16#F0 eq {

        % Superscript and/or subscript.
        vg&cbyte 16#00 eq {
          vg&token pop exch vg&token pop 3 -1 roll
          q raise recshow unraise currentpoint pop Q exch
          q lower recshow unlower currentpoint pop Q
          maxval currentpoint exch pop m recshow } if

        % Strikeout.
        vg&cbyte 16#01 eq {
          vg&token pop currentpoint 3 -1 roll recshow
          q 0 J vg&underline vg&uthick w
          currentpoint 4 -2 roll fontsize 3 div add moveto
          fontsize 3 div add lineto internalstroke Q
          recshow} if

        % Underline.
        vg&cbyte 16#02 eq {
          vg&token pop currentpoint 3 -1 roll recshow
          q 0 J vg&underline vg&uthick w
          currentpoint 4 -2 roll vg&uoffset add moveto
          vg&uoffset add lineto internalstroke Q
          recshow} if

        % Dashed underline.
        vg&cbyte 16#03 eq {
          vg&token pop currentpoint 3 -1 roll recshow
          q 0 J [ vg&uthick 5 mul vg&uthick 2 mul] 0 d
          vg&underline vg&uthick w
          currentpoint 4 -2 roll vg&uoffset add moveto
          vg&uoffset add lineto internalstroke Q
          recshow} if

        % Dotted underline.
        vg&cbyte 16#04 eq {
          vg&token pop currentpoint 3 -1 roll recshow
          q 1 J [ 0 vg&uthick 3 mul] 0 d
          vg&underline vg&uthick w
          currentpoint 4 -2 roll vg&uoffset add moveto
          vg&uoffset add lineto internalstroke Q
          recshow} if

        % Thick underline.
        vg&cbyte 16#05 eq {
          vg&token pop currentpoint 3 -1 roll recshow
          q 0 J vg&underline vg&uthick 2 mul w
          currentpoint 4 -2 roll vg&uoffset vg&uthick 2 div sub add moveto
          vg&uoffset vg&uthick 2 div sub add lineto internalstroke Q
          recshow} if

        % Gray thick underline.
        vg&cbyte 16#06 eq {
          vg&token pop currentpoint 3 -1 roll recshow
          q 0 J vg&underline vg&uthick 2 mul w 0.5 setgray
          currentpoint 4 -2 roll vg&uoffset vg&uthick 2 div sub add moveto
          vg&uoffset vg&uthick 2 div sub add lineto internalstroke Q
          recshow} if

        % Overbar.
        vg&cbyte 16#07 eq {
          vg&token pop dup stringsize relative 4 1 roll pop pop exch
          3 -1 roll recshow
          q 0 J vg&underline vg&uthick w
          vg&uoffset neg add dup currentpoint pop exch m l internalstroke Q
          recshow} if
      }
      {
        vg&fbyte vg&cbyte unicharshow recshow
      } ifelse
    } ifelse
  } if
} def

% Get the underline position and thickness from the current font.
/vg&underline {

currentfont dup /FontType get 0 eq {/FDepVector get 0 get} if
dup dup /FontInfo known {
  /FontInfo get dup
  dup /UnderlinePosition known {
    /UnderlinePosition get /vg&uoffset exch def
  }
  {
    pop /vg&uoffset 0 def
  } ifelse
  dup /UnderlineThickness known {
    /UnderlineThickness get /vg&uthick exch def
  }
  {
    pop /vg&uthick 0 def
  } ifelse
}
{
  pop /vg&uoffset 0 def /vg&uthick 0 def
} ifelse
/FontMatrix get
currentfont dup /FontType get 0 eq
{/FontMatrix get matrix concatmatrix}{pop} ifelse
dup 0 vg&uoffset 3 -1 roll transform /vg&uoffset exch def pop
0 vg&uthick 3 -1 roll transform /vg&uthick exch def pop
} def

% Make a frame with the coordinates on the stack.
% <llx> <lly> <urx> <ury> frame --
/frame {4 copy m 3 1 roll exch l 4 -2 roll l l h} def

% Resets the accumulated bounding box to a degenerate box at the
% current point.
% -- resetbbox --
/resetbbox {
  currentpoint 2 copy
  /bbury exch def
  /bburx exch def
  /bblly exch def
  /bbllx exch def
} def

% Update the accumulated bounding box.
% <llx'> <lly'> <urx'> <ury'> updatebbox --
/updatebbox {
  dup bbury gt {/bbury exch def} {pop} ifelse
  dup bburx gt {/bburx exch def} {pop} ifelse
  dup bblly lt {/bblly exch def} {pop} ifelse
  dup bbllx lt {/bbllx exch def} {pop} ifelse
} def

% Set the bounding box to the values on the stack.
% <llx'> <lly'> <urx'> <ury'> updatebbox --
/restorebbox {
  /bbury exch def /bburx exch def /bblly exch def /bbllx exch def
} def

% Push the accumulated bounding box onto the stack.
% -- pushbbox <llx> <lly> <urx> <ury>
/pushbbox {bbllx bblly bburx bbury} def

% Make the relative bounding box relative to the currentpoint.
% <llx'> <lly'> <urx'> <ury'> inflate <llx> <lly> <urx> <ury>
/inflate {
  2 {fontsize 0.2 mul add 4 1 roll} repeat
  2 {fontsize 0.2 mul sub 4 1 roll} repeat
} def

% Make the relative bounding box relative to the currentpoint.
% <llx'> <lly'> <urx'> <ury'> relative <llx> <lly> <urx> <ury>
/relative {
  currentpoint 3 -1 roll add 3 1 roll add exch 4 2 roll
  currentpoint 3 -1 roll add 3 1 roll add exch 4 2 roll
} def

% Returns the size of a string appropriate for recshow.
% <string> stringsize <llx> <lly> <urx> <ury>
/stringsize {
  pushbbox /internalshow load /internalstroke load 7 -1 roll
  q
  nulldevice 0 0 m
  nullinternalshow nullinternalstroke
  resetbbox
  recshow
  /internalstroke exch def /internalshow exch def
  pushbbox 8 -4 roll restorebbox
  Q
} def

% Calculate values for string positioning.
/calcval {4 copy
  3 -1 roll sub /widy exch def sub neg /widx exch def
  pop pop /dy exch def /dx exch def} def

% Utilities to position a string.
% First letter (U=upper, C=center, B=baseline, L=lower)
% Second letter (L=left, C=center, R=right)
/align [
{calcval dx neg widy dy add neg rmoveto} % UL
{calcval dx neg widy 2 div dy add neg rmoveto} % CL
{calcval dx neg 0 rmoveto} % BL
{calcval dx neg dy neg rmoveto} % LL
{calcval widx dx add neg widy dy add neg rmoveto} % UR
{calcval widx dx add neg widy 2 div dy add neg rmoveto} % CR
{calcval widx dx add neg 0 rmoveto} % BR
{calcval widx dx add neg dy neg rmoveto} % LR
{calcval widx 2 div dx add neg widy dy add neg rmoveto} % UC
{calcval widx 2 div dx add neg widy 2 div dy add neg rmoveto} % CC
{calcval widx 2 div dx add neg 0 rmoveto} % BC
{calcval widx 2 div dx add neg dy neg rmoveto} % LC
] def

/vg&str {m q 1 -1 scale dup stringsize 4 copy align 11 -1 roll get exec
         q inflate relative frame exch exec Q recshow Q} def

end /procDict exch def
%%EndProlog

%%BeginSetup
save
procDict begin
printColorMap begin
457 384 setpagesize
0 0 0 0 setmargins
0 0 setorigin
457 384 setsize
naturalsize
portrait
imagescale
cliptobounds
setbasematrix
/Helvetica 10 sf
defaultGraphicsState
%%EndSetup

0.00000 0.00000 0.00000 RG
[ 1.00000 0.00000 0.00000 1.00000 0.00000 0.00000 ] defaultmatrix matrix concatmatrix setmatrix
cliprestore
1.00000 1.00000 1.00000 RG
newpath
0.00000 0.00000 m
457.000 0.00000 l
457.000 384.000 l
0.00000 384.000 l
0.00000 0.00000 l
h
f
0.00000 0.00000 0.00000 RG
0.00000 0.00000 0.00000 RG
[ 1.00000 0.00000 0.00000 1.00000 0.00000 0.00000 ] defaultmatrix matrix concatmatrix setmatrix
cliprestore
1.00000 1.00000 1.00000 RG
newpath
0.00000 0.00000 m
457.000 0.00000 l
457.000 384.000 l
0.00000 384.000 l
0.00000 0.00000 l
h
f
0.00000 0.00000 0.00000 RG
0 0 457 384 rc
q
[ 1.00000 0.00000 0.00000 1.00000 0.00000 0.00000 ] concat
[ 1.00000 0.00000 0.00000 1.00000 -58.0000 -47.0000 ] concat
1.00000 1.00000 1.00000 RG
newpath
58.0000 47.0000 m
515.000 47.0000 l
515.000 431.000 l
58.0000 431.000 l
58.0000 47.0000 l
h
f
0.00000 0.00000 0.00000 RG
[ 1.00000 0.00000 0.00000 1.00000 -58.0000 -47.0000 ] defaultmatrix matrix concatmatrix setmatrix
[ 1.00000 0.00000 0.00000 1.00000 -58.0000 -47.0000 ] defaultmatrix matrix concatmatrix setmatrix
[ 1.00000 0.00000 0.00000 1.00000 0.00000 0.00000 ] defaultmatrix matrix concatmatrix setmatrix
[ 1.00000 0.00000 0.00000 1.00000 -58.0000 -47.0000 ] defaultmatrix matrix concatmatrix setmatrix
.792157 .925490 1.00000 RG
newpath
73.4619 303.000 m
73.4619 412.000 l
73.4619 414.209 75.2528 416.000 77.4619 416.000  c
179.000 416.000 l
181.209 416.000 183.000 414.209 183.000 412.000  c
183.000 303.000 l
183.000 300.791 181.209 299.000 179.000 299.000  c
77.4619 299.000 l
75.2528 299.000 73.4619 300.791 73.4619 303.000  c
h
f
.600000 .800000 1.00000 RG
newpath
73.4619 299.000 m
183.000 299.000 l
183.000 320.666 l
73.4619 320.666 l
73.4619 299.000 l
h
f
.792157 .925490 1.00000 RG
0.00000 0.00000 0.00000 RG
0 J
1.45000 M
newpath
153.314 315.502 m
153.314 305.812 l
149.469 305.812 l
149.469 304.662 l
158.698 304.662 l
158.698 305.812 l
154.853 305.812 l
154.853 315.502 l
h
164.367 314.491 m
163.502 315.287 162.670 315.685 161.869 315.685  c
161.210 315.685 160.663 315.479 160.229 315.066  c
159.794 314.654 159.577 314.132 159.577 313.502  c
159.577 312.633 159.942 311.966 160.672 311.499  c
161.402 311.033 162.448 310.800 163.810 310.800  c
164.154 310.800 l
164.154 309.840 l
164.154 308.917 163.681 308.456 162.733 308.456  c
161.972 308.456 161.149 308.690 160.265 309.159  c
160.265 307.965 l
161.237 307.570 162.147 307.372 162.997 307.372  c
163.886 307.372 164.541 307.572 164.964 307.973  c
165.386 308.373 165.597 308.996 165.597 309.840  c
165.597 313.444 l
165.597 314.269 165.851 314.682 166.359 314.682  c
166.422 314.682 166.515 314.672 166.637 314.652  c
166.740 315.451 l
166.413 315.607 166.051 315.685 165.656 315.685  c
164.982 315.685 164.552 315.287 164.367 314.491  c
h
164.154 313.708 m
164.154 311.649 l
163.671 311.635 l
162.880 311.635 162.240 311.785 161.752 312.085  c
161.264 312.385 161.020 312.780 161.020 313.268  c
161.020 313.615 161.142 313.908 161.386 314.147  c
161.630 314.386 161.928 314.506 162.279 314.506  c
162.880 314.506 163.505 314.240 164.154 313.708  c
h
170.937 315.685 m
170.204 315.685 169.633 315.475 169.223 315.055  c
168.812 314.635 168.607 314.052 168.607 313.305  c
168.607 308.632 l
167.611 308.632 l
167.611 307.548 l
168.607 307.548 l
168.607 306.105 l
170.050 305.966 l
170.050 307.548 l
172.130 307.548 l
172.130 308.632 l
170.050 308.632 l
170.050 313.041 l
170.050 314.081 170.500 314.601 171.398 314.601  c
171.588 314.601 171.820 314.569 172.094 314.506  c
172.094 315.502 l
171.649 315.624 171.264 315.685 170.937 315.685  c
h
178.261 314.491 m
177.396 315.287 176.564 315.685 175.763 315.685  c
175.104 315.685 174.557 315.479 174.123 315.066  c
173.688 314.654 173.471 314.132 173.471 313.502  c
173.471 312.633 173.836 311.966 174.566 311.499  c
175.296 311.033 176.342 310.800 177.704 310.800  c
178.048 310.800 l
178.048 309.840 l
178.048 308.917 177.575 308.456 176.627 308.456  c
175.866 308.456 175.043 308.690 174.159 309.159  c
174.159 307.965 l
175.131 307.570 176.042 307.372 176.891 307.372  c
177.780 307.372 178.435 307.572 178.858 307.973  c
179.280 308.373 179.491 308.996 179.491 309.840  c
179.491 313.444 l
179.491 314.269 179.745 314.682 180.253 314.682  c
180.316 314.682 180.409 314.672 180.531 314.652  c
180.634 315.451 l
180.307 315.607 179.945 315.685 179.550 315.685  c
178.876 315.685 178.446 315.287 178.261 314.491  c
h
178.048 313.708 m
178.048 311.649 l
177.565 311.635 l
176.774 311.635 176.134 311.785 175.646 312.085  c
175.158 312.385 174.914 312.780 174.914 313.268  c
174.914 313.615 175.036 313.908 175.280 314.147  c
175.524 314.386 175.822 314.506 176.173 314.506  c
176.774 314.506 177.399 314.240 178.048 313.708  c
h
f
2 J
10.0000 M
.792157 .925490 1.00000 RG
1 J
1.45000 M
[ 0.00000 4.00000 ] 2.00000 d
.400000 .400000 .600000 RG
newpath
73.4619 303.000 m
73.4619 412.000 l
73.4619 414.209 75.2528 416.000 77.4619 416.000  c
179.000 416.000 l
181.209 416.000 183.000 414.209 183.000 412.000  c
183.000 303.000 l
183.000 300.791 181.209 299.000 179.000 299.000  c
77.4619 299.000 l
75.2528 299.000 73.4619 300.791 73.4619 303.000  c
h
S
2 J
10.0000 M
[ ] 0.00000 d
0.00000 0.00000 0.00000 RG
1.00000 .800000 0.00000 RG
newpath
110.000 344.666 m
168.000 344.666 l
168.000 374.666 l
110.000 374.666 l
110.000 344.666 l
h
f
0 J
1.45000 M
0.00000 0.00000 0.00000 RG
newpath
110.000 344.666 m
168.000 344.666 l
168.000 374.666 l
110.000 374.666 l
110.000 344.666 l
h
S
2 J
10.0000 M
0 J
1.45000 M
newpath
119.644 364.201 m
119.644 356.449 l
116.567 356.449 l
116.567 355.529 l
123.950 355.529 l
123.950 356.449 l
120.874 356.449 l
120.874 364.201 l
h
125.204 364.201 m
125.204 357.838 l
126.358 357.838 l
126.358 359.033 l
126.815 358.143 127.479 357.697 128.351 357.697  c
128.468 357.697 128.591 357.707 128.720 357.727  c
128.720 358.805 l
128.521 358.738 128.345 358.705 128.192 358.705  c
127.462 358.705 126.851 359.139 126.358 360.006  c
126.358 364.201 l
h
133.396 363.393 m
132.704 364.029 132.038 364.348 131.397 364.348  c
130.870 364.348 130.433 364.183 130.085 363.853  c
129.737 363.522 129.563 363.105 129.563 362.602  c
129.563 361.906 129.855 361.372 130.439 360.999  c
131.023 360.626 131.860 360.439 132.950 360.439  c
133.226 360.439 l
133.226 359.672 l
133.226 358.934 132.847 358.564 132.089 358.564  c
131.479 358.564 130.821 358.752 130.114 359.127  c
130.114 358.172 l
130.892 357.855 131.620 357.697 132.300 357.697  c
133.011 357.697 133.535 357.857 133.873 358.178  c
134.211 358.498 134.380 358.996 134.380 359.672  c
134.380 362.555 l
134.380 363.215 134.583 363.545 134.989 363.545  c
135.040 363.545 135.114 363.537 135.212 363.521  c
135.294 364.160 l
135.032 364.285 134.743 364.348 134.427 364.348  c
133.888 364.348 133.544 364.029 133.396 363.393  c
h
133.226 362.766 m
133.226 361.119 l
132.839 361.107 l
132.206 361.107 131.694 361.228 131.304 361.468  c
130.913 361.708 130.718 362.023 130.718 362.414  c
130.718 362.691 130.815 362.926 131.011 363.117  c
131.206 363.309 131.444 363.404 131.726 363.404  c
132.206 363.404 132.706 363.191 133.226 362.766  c
h
140.825 364.201 m
140.825 363.006 l
140.356 363.900 139.649 364.348 138.704 364.348  c
137.938 364.348 137.336 364.068 136.896 363.510  c
136.457 362.951 136.237 362.188 136.237 361.219  c
136.237 360.160 136.486 359.309 136.984 358.664  c
137.482 358.020 138.138 357.697 138.950 357.697  c
139.704 357.697 140.329 357.986 140.825 358.564  c
140.825 354.949 l
141.985 354.949 l
141.985 364.201 l
h
140.825 359.355 m
140.228 358.828 139.661 358.564 139.126 358.564  c
138.021 358.564 137.468 359.410 137.468 361.102  c
137.468 362.590 137.960 363.334 138.944 363.334  c
139.585 363.334 140.212 362.984 140.825 362.285  c
h
144.294 364.201 m
144.294 357.838 l
145.448 357.838 l
145.448 364.201 l
h
144.294 356.684 m
144.294 355.529 l
145.448 355.529 l
145.448 356.684 l
h
147.763 364.201 m
147.763 357.838 l
148.917 357.838 l
148.917 359.033 l
149.526 358.143 150.272 357.697 151.155 357.697  c
151.706 357.697 152.146 357.872 152.474 358.222  c
152.802 358.571 152.966 359.041 152.966 359.631  c
152.966 364.201 l
151.812 364.201 l
151.812 360.006 l
151.812 359.533 151.742 359.196 151.604 358.995  c
151.465 358.794 151.235 358.693 150.915 358.693  c
150.208 358.693 149.542 359.156 148.917 360.082  c
148.917 364.201 l
h
155.233 366.316 m
155.368 365.314 l
156.036 365.631 156.694 365.789 157.343 365.789  c
158.644 365.789 159.294 365.100 159.294 363.721  c
159.294 362.719 l
158.868 363.609 158.169 364.055 157.196 364.055  c
156.435 364.055 155.829 363.777 155.380 363.223  c
154.931 362.668 154.706 361.920 154.706 360.979  c
154.706 360.010 154.962 359.221 155.474 358.611  c
155.985 358.002 156.647 357.697 157.460 357.697  c
158.171 357.697 158.782 357.986 159.294 358.564  c
159.294 357.838 l
160.454 357.838 l
160.454 362.467 l
160.454 363.463 160.402 364.200 160.299 364.679  c
160.195 365.157 160.001 365.549 159.716 365.854  c
159.212 366.389 158.429 366.656 157.366 366.656  c
156.624 366.656 155.913 366.543 155.233 366.316  c
h
159.294 361.998 m
159.294 359.355 l
158.786 358.828 158.233 358.564 157.636 358.564  c
157.104 358.564 156.688 358.777 156.388 359.203  c
156.087 359.629 155.937 360.213 155.937 360.955  c
155.937 362.350 156.427 363.047 157.407 363.047  c
158.075 363.047 158.704 362.697 159.294 361.998  c
h
f
2 J
10.0000 M
.792157 .925490 1.00000 RG
newpath
390.462 303.000 m
390.462 412.000 l
390.462 414.209 392.253 416.000 394.462 416.000  c
496.000 416.000 l
498.209 416.000 500.000 414.209 500.000 412.000  c
500.000 303.000 l
500.000 300.791 498.209 299.000 496.000 299.000  c
394.462 299.000 l
392.253 299.000 390.462 300.791 390.462 303.000  c
h
f
.600000 .800000 1.00000 RG
newpath
390.462 299.000 m
500.000 299.000 l
500.000 320.666 l
390.462 320.666 l
390.462 299.000 l
h
f
.792157 .925490 1.00000 RG
0.00000 0.00000 0.00000 RG
0 J
1.45000 M
newpath
458.610 315.773 m
457.883 315.773 456.953 315.614 455.820 315.297  c
455.820 313.773 l
457.041 314.340 458.044 314.623 458.830 314.623  c
459.436 314.623 459.923 314.464 460.291 314.147  c
460.660 313.830 460.844 313.412 460.844 312.895  c
460.844 312.470 460.723 312.108 460.482 311.811  c
460.240 311.513 459.794 311.181 459.145 310.814  c
458.398 310.382 l
457.475 309.855 456.824 309.358 456.446 308.892  c
456.068 308.426 455.878 307.882 455.878 307.262  c
455.878 306.427 456.181 305.740 456.787 305.200  c
457.392 304.661 458.164 304.391 459.101 304.391  c
459.936 304.391 460.817 304.530 461.745 304.809  c
461.745 306.215 l
460.603 305.766 459.750 305.541 459.189 305.541  c
458.657 305.541 458.217 305.683 457.871 305.966  c
457.524 306.249 457.351 306.605 457.351 307.035  c
457.351 307.396 457.478 307.716 457.731 307.995  c
457.985 308.273 458.449 308.605 459.123 308.991  c
459.899 309.430 l
460.837 309.962 461.491 310.465 461.862 310.939  c
462.233 311.413 462.419 311.981 462.419 312.646  c
462.419 313.588 462.071 314.345 461.375 314.916  c
460.679 315.487 459.758 315.773 458.610 315.773  c
h
464.609 318.395 m
464.609 307.548 l
466.052 307.548 l
466.052 309.042 l
466.643 307.929 467.529 307.372 468.710 307.372  c
469.667 307.372 470.421 307.721 470.970 308.419  c
471.519 309.118 471.794 310.072 471.794 311.283  c
471.794 312.602 471.483 313.665 470.860 314.473  c
470.238 315.281 469.418 315.685 468.403 315.685  c
467.460 315.685 466.677 315.324 466.052 314.601  c
466.052 318.395 l
h
466.052 313.605 m
466.794 314.269 467.502 314.601 468.176 314.601  c
469.562 314.601 470.256 313.544 470.256 311.430  c
470.256 309.564 469.641 308.632 468.410 308.632  c
467.604 308.632 466.818 309.069 466.052 309.943  c
h
474.050 315.502 m
474.050 307.548 l
475.493 307.548 l
475.493 309.042 l
476.064 307.929 476.894 307.372 477.983 307.372  c
478.129 307.372 478.283 307.384 478.444 307.409  c
478.444 308.756 l
478.195 308.673 477.976 308.632 477.785 308.632  c
476.872 308.632 476.108 309.174 475.493 310.258  c
475.493 315.502 l
h
480.188 315.502 m
480.188 307.548 l
481.630 307.548 l
481.630 315.502 l
h
480.188 306.105 m
480.188 304.662 l
481.630 304.662 l
481.630 306.105 l
h
484.523 315.502 m
484.523 307.548 l
485.966 307.548 l
485.966 309.042 l
486.728 307.929 487.661 307.372 488.764 307.372  c
489.453 307.372 490.002 307.591 490.412 308.028  c
490.822 308.465 491.027 309.052 491.027 309.789  c
491.027 315.502 l
489.584 315.502 l
489.584 310.258 l
489.584 309.667 489.498 309.246 489.324 308.994  c
489.151 308.743 488.864 308.617 488.464 308.617  c
487.580 308.617 486.748 309.196 485.966 310.353  c
485.966 315.502 l
h
496.220 315.685 m
495.488 315.685 494.917 315.475 494.506 315.055  c
494.096 314.635 493.891 314.052 493.891 313.305  c
493.891 308.632 l
492.895 308.632 l
492.895 307.548 l
493.891 307.548 l
493.891 306.105 l
495.334 305.966 l
495.334 307.548 l
497.414 307.548 l
497.414 308.632 l
495.334 308.632 l
495.334 313.041 l
495.334 314.081 495.783 314.601 496.682 314.601  c
496.872 314.601 497.104 314.569 497.377 314.506  c
497.377 315.502 l
496.933 315.624 496.547 315.685 496.220 315.685  c
h
f
2 J
10.0000 M
.792157 .925490 1.00000 RG
1 J
1.45000 M
[ 0.00000 4.00000 ] 2.00000 d
.400000 .400000 .600000 RG
newpath
390.462 303.000 m
390.462 412.000 l
390.462 414.209 392.253 416.000 394.462 416.000  c
496.000 416.000 l
498.209 416.000 500.000 414.209 500.000 412.000  c
500.000 303.000 l
500.000 300.791 498.209 299.000 496.000 299.000  c
394.462 299.000 l
392.253 299.000 390.462 300.791 390.462 303.000  c
h
S
2 J
10.0000 M
[ ] 0.00000 d
0.00000 0.00000 0.00000 RG
1.00000 .800000 0.00000 RG
newpath
405.462 335.666 m
463.462 335.666 l
463.462 365.666 l
405.462 365.666 l
405.462 335.666 l
h
f
0 J
1.45000 M
0.00000 0.00000 0.00000 RG
newpath
405.462 335.666 m
463.462 335.666 l
463.462 365.666 l
405.462 365.666 l
405.462 335.666 l
h
S
2 J
10.0000 M
0 J
1.45000 M
newpath
415.105 355.201 m
415.105 347.449 l
412.029 347.449 l
412.029 346.529 l
419.412 346.529 l
419.412 347.449 l
416.336 347.449 l
416.336 355.201 l
h
420.666 355.201 m
420.666 348.838 l
421.820 348.838 l
421.820 350.033 l
422.277 349.143 422.941 348.697 423.812 348.697  c
423.930 348.697 424.053 348.707 424.182 348.727  c
424.182 349.805 l
423.982 349.738 423.807 349.705 423.654 349.705  c
422.924 349.705 422.312 350.139 421.820 351.006  c
421.820 355.201 l
h
428.857 354.393 m
428.166 355.029 427.500 355.348 426.859 355.348  c
426.332 355.348 425.895 355.183 425.547 354.853  c
425.199 354.522 425.025 354.105 425.025 353.602  c
425.025 352.906 425.317 352.372 425.901 351.999  c
426.485 351.626 427.322 351.439 428.412 351.439  c
428.688 351.439 l
428.688 350.672 l
428.688 349.934 428.309 349.564 427.551 349.564  c
426.941 349.564 426.283 349.752 425.576 350.127  c
425.576 349.172 l
426.354 348.855 427.082 348.697 427.762 348.697  c
428.473 348.697 428.997 348.857 429.335 349.178  c
429.673 349.498 429.842 349.996 429.842 350.672  c
429.842 353.555 l
429.842 354.215 430.045 354.545 430.451 354.545  c
430.502 354.545 430.576 354.537 430.674 354.521  c
430.756 355.160 l
430.494 355.285 430.205 355.348 429.889 355.348  c
429.350 355.348 429.006 355.029 428.857 354.393  c
h
428.688 353.766 m
428.688 352.119 l
428.301 352.107 l
427.668 352.107 427.156 352.228 426.766 352.468  c
426.375 352.708 426.180 353.023 426.180 353.414  c
426.180 353.691 426.277 353.926 426.473 354.117  c
426.668 354.309 426.906 354.404 427.188 354.404  c
427.668 354.404 428.168 354.191 428.688 353.766  c
h
436.287 355.201 m
436.287 354.006 l
435.818 354.900 435.111 355.348 434.166 355.348  c
433.400 355.348 432.798 355.068 432.358 354.510  c
431.919 353.951 431.699 353.188 431.699 352.219  c
431.699 351.160 431.948 350.309 432.446 349.664  c
432.944 349.020 433.600 348.697 434.412 348.697  c
435.166 348.697 435.791 348.986 436.287 349.564  c
436.287 345.949 l
437.447 345.949 l
437.447 355.201 l
h
436.287 350.355 m
435.689 349.828 435.123 349.564 434.588 349.564  c
433.482 349.564 432.930 350.410 432.930 352.102  c
432.930 353.590 433.422 354.334 434.406 354.334  c
435.047 354.334 435.674 353.984 436.287 353.285  c
h
439.756 355.201 m
439.756 348.838 l
440.910 348.838 l
440.910 355.201 l
h
439.756 347.684 m
439.756 346.529 l
440.910 346.529 l
440.910 347.684 l
h
443.225 355.201 m
443.225 348.838 l
444.379 348.838 l
444.379 350.033 l
444.988 349.143 445.734 348.697 446.617 348.697  c
447.168 348.697 447.607 348.872 447.936 349.222  c
448.264 349.571 448.428 350.041 448.428 350.631  c
448.428 355.201 l
447.273 355.201 l
447.273 351.006 l
447.273 350.533 447.204 350.196 447.065 349.995  c
446.927 349.794 446.697 349.693 446.377 349.693  c
445.670 349.693 445.004 350.156 444.379 351.082  c
444.379 355.201 l
h
450.695 357.316 m
450.830 356.314 l
451.498 356.631 452.156 356.789 452.805 356.789  c
454.105 356.789 454.756 356.100 454.756 354.721  c
454.756 353.719 l
454.330 354.609 453.631 355.055 452.658 355.055  c
451.896 355.055 451.291 354.777 450.842 354.223  c
450.393 353.668 450.168 352.920 450.168 351.979  c
450.168 351.010 450.424 350.221 450.936 349.611  c
451.447 349.002 452.109 348.697 452.922 348.697  c
453.633 348.697 454.244 348.986 454.756 349.564  c
454.756 348.838 l
455.916 348.838 l
455.916 353.467 l
455.916 354.463 455.864 355.200 455.761 355.679  c
455.657 356.157 455.463 356.549 455.178 356.854  c
454.674 357.389 453.891 357.656 452.828 357.656  c
452.086 357.656 451.375 357.543 450.695 357.316  c
h
454.756 352.998 m
454.756 350.355 l
454.248 349.828 453.695 349.564 453.098 349.564  c
452.566 349.564 452.150 349.777 451.850 350.203  c
451.549 350.629 451.398 351.213 451.398 351.955  c
451.398 353.350 451.889 354.047 452.869 354.047  c
453.537 354.047 454.166 353.697 454.756 352.998  c
h
f
2 J
10.0000 M
0 J
1.45000 M
newpath
182.986 357.500 m
390.458 357.500 l
S
newpath
f
newpath
274.968 371.416 m
274.968 362.738 l
276.123 362.738 l
276.123 363.934 l
276.595 363.043 277.304 362.598 278.250 362.598  c
279.015 362.598 279.618 362.877 280.057 363.436  c
280.497 363.994 280.716 364.758 280.716 365.727  c
280.716 366.781 280.467 367.632 279.969 368.278  c
279.471 368.925 278.816 369.248 278.003 369.248  c
277.250 369.248 276.623 368.959 276.123 368.381  c
276.123 371.416 l
h
276.123 367.584 m
276.716 368.115 277.283 368.381 277.822 368.381  c
278.931 368.381 279.486 367.535 279.486 365.844  c
279.486 364.352 278.994 363.605 278.009 363.605  c
277.365 363.605 276.736 363.955 276.123 364.654  c
h
287.185 368.896 m
286.412 369.131 285.750 369.248 285.199 369.248  c
284.261 369.248 283.497 368.937 282.905 368.313  c
282.313 367.690 282.017 366.883 282.017 365.891  c
282.017 364.926 282.278 364.135 282.799 363.518  c
283.321 362.900 283.988 362.592 284.800 362.592  c
285.570 362.592 286.165 362.865 286.584 363.412  c
287.004 363.959 287.214 364.736 287.214 365.744  c
287.208 366.102 l
283.195 366.102 l
283.363 367.613 284.103 368.369 285.416 368.369  c
285.896 368.369 286.486 368.240 287.185 367.982  c
h
283.248 365.234 m
286.054 365.234 l
286.054 364.051 285.613 363.459 284.730 363.459  c
283.843 363.459 283.349 364.051 283.248 365.234  c
h
293.871 368.896 m
293.097 369.131 292.435 369.248 291.884 369.248  c
290.947 369.248 290.182 368.937 289.590 368.313  c
288.999 367.690 288.703 366.883 288.703 365.891  c
288.703 364.926 288.963 364.135 289.485 363.518  c
290.006 362.900 290.673 362.592 291.486 362.592  c
292.255 362.592 292.850 362.865 293.270 363.412  c
293.690 363.959 293.900 364.736 293.900 365.744  c
293.894 366.102 l
289.880 366.102 l
290.048 367.613 290.789 368.369 292.101 368.369  c
292.582 368.369 293.171 368.240 293.871 367.982  c
h
289.933 365.234 m
292.740 365.234 l
292.740 364.051 292.298 363.459 291.416 363.459  c
290.529 363.459 290.035 364.051 289.933 365.234  c
h
295.892 369.102 m
295.892 362.738 l
297.046 362.738 l
297.046 363.934 l
297.503 363.043 298.167 362.598 299.039 362.598  c
299.156 362.598 299.279 362.607 299.408 362.627  c
299.408 363.705 l
299.208 363.639 299.033 363.605 298.880 363.605  c
298.150 363.605 297.539 364.039 297.046 364.906  c
297.046 369.102 l
h
f
2 J
10.0000 M
0 J
1.45000 M
newpath
166.688 292.094 m
233.782 177.984 l
S
newpath
162.633 298.991 m
173.025 291.181 l
167.195 291.232 l
164.405 286.112 l
h
f
newpath
174.729 245.850 m
174.729 237.172 l
175.884 237.172 l
175.884 238.367 l
176.356 237.477 177.065 237.031 178.011 237.031  c
178.776 237.031 179.379 237.311 179.818 237.869  c
180.258 238.428 180.477 239.191 180.477 240.160  c
180.477 241.215 180.228 242.065 179.730 242.712  c
179.232 243.358 178.577 243.682 177.765 243.682  c
177.011 243.682 176.384 243.393 175.884 242.814  c
175.884 245.850 l
h
175.884 242.018 m
176.477 242.549 177.044 242.814 177.583 242.814  c
178.692 242.814 179.247 241.969 179.247 240.277  c
179.247 238.785 178.755 238.039 177.770 238.039  c
177.126 238.039 176.497 238.389 175.884 239.088  c
h
182.282 243.535 m
182.282 237.172 l
183.436 237.172 l
183.436 238.367 l
183.893 237.477 184.558 237.031 185.429 237.031  c
185.546 237.031 185.669 237.041 185.798 237.061  c
185.798 238.139 l
185.599 238.072 185.423 238.039 185.270 238.039  c
184.540 238.039 183.929 238.473 183.436 239.340  c
183.436 243.535 l
h
189.683 243.682 m
188.772 243.682 188.046 243.380 187.503 242.776  c
186.960 242.173 186.688 241.365 186.688 240.354  c
186.688 239.330 186.961 238.521 187.506 237.925  c
188.051 237.329 188.790 237.031 189.724 237.031  c
190.657 237.031 191.396 237.329 191.941 237.925  c
192.486 238.521 192.759 239.326 192.759 240.342  c
192.759 241.381 192.485 242.197 191.938 242.791  c
191.392 243.385 190.640 243.682 189.683 243.682  c
h
189.700 242.814 m
190.923 242.814 191.534 241.990 191.534 240.342  c
191.534 238.713 190.931 237.898 189.724 237.898  c
188.520 237.898 187.919 238.717 187.919 240.354  c
187.919 241.994 188.513 242.814 189.700 242.814  c
h
195.882 243.535 m
193.515 237.172 l
194.669 237.172 l
196.520 242.123 l
198.472 237.172 l
199.550 237.172 l
197.036 243.535 l
h
200.774 243.535 m
200.774 237.172 l
201.929 237.172 l
201.929 243.535 l
h
200.774 236.018 m
200.774 234.863 l
201.929 234.863 l
201.929 236.018 l
h
208.327 243.535 m
208.327 242.340 l
207.858 243.234 207.151 243.682 206.206 243.682  c
205.440 243.682 204.838 243.402 204.398 242.844  c
203.959 242.285 203.739 241.521 203.739 240.553  c
203.739 239.494 203.988 238.643 204.486 237.998  c
204.984 237.354 205.640 237.031 206.452 237.031  c
207.206 237.031 207.831 237.320 208.327 237.898  c
208.327 234.283 l
209.487 234.283 l
209.487 243.535 l
h
208.327 238.689 m
207.729 238.162 207.163 237.898 206.628 237.898  c
205.522 237.898 204.970 238.744 204.970 240.436  c
204.970 241.924 205.462 242.668 206.446 242.668  c
207.087 242.668 207.714 242.318 208.327 241.619  c
h
216.460 243.330 m
215.686 243.564 215.024 243.682 214.474 243.682  c
213.536 243.682 212.771 243.370 212.180 242.747  c
211.588 242.124 211.292 241.316 211.292 240.324  c
211.292 239.359 211.553 238.568 212.074 237.951  c
212.596 237.334 213.263 237.025 214.075 237.025  c
214.845 237.025 215.439 237.299 215.859 237.846  c
216.279 238.393 216.489 239.170 216.489 240.178  c
216.483 240.535 l
212.470 240.535 l
212.638 242.047 213.378 242.803 214.690 242.803  c
215.171 242.803 215.761 242.674 216.460 242.416  c
h
212.522 239.668 m
215.329 239.668 l
215.329 238.484 214.888 237.893 214.005 237.893  c
213.118 237.893 212.624 238.484 212.522 239.668  c
h
218.481 243.535 m
218.481 237.172 l
219.636 237.172 l
219.636 238.367 l
220.093 237.477 220.757 237.031 221.628 237.031  c
221.745 237.031 221.868 237.041 221.997 237.061  c
221.997 238.139 l
221.798 238.072 221.622 238.039 221.470 238.039  c
220.739 238.039 220.128 238.473 219.636 239.340  c
219.636 243.535 l
h
f
2 J
10.0000 M
0 J
1.45000 M
newpath
411.601 298.990 m
345.449 183.896 l
S
newpath
341.463 176.960 m
343.108 189.855 l
345.948 184.763 l
351.778 184.872 l
h
f
newpath
353.575 243.682 m
352.716 243.682 352.003 243.363 351.437 242.727  c
350.870 242.090 350.587 241.287 350.587 240.318  c
350.587 239.283 350.867 238.477 351.428 237.898  c
351.988 237.320 352.771 237.031 353.775 237.031  c
354.271 237.031 354.825 237.100 355.439 237.236  c
355.439 238.203 l
354.786 238.012 354.255 237.916 353.845 237.916  c
353.255 237.916 352.781 238.138 352.424 238.581  c
352.067 239.024 351.888 239.615 351.888 240.354  c
351.888 241.068 352.072 241.646 352.439 242.088  c
352.806 242.529 353.286 242.750 353.880 242.750  c
354.407 242.750 354.950 242.615 355.509 242.346  c
355.509 243.342 l
354.763 243.568 354.118 243.682 353.575 243.682  c
h
361.216 243.535 m
361.216 242.340 l
360.603 243.234 359.859 243.682 358.984 243.682  c
358.429 243.682 357.988 243.507 357.659 243.157  c
357.331 242.808 357.167 242.336 357.167 241.742  c
357.167 237.172 l
358.322 237.172 l
358.322 241.367 l
358.322 241.844 358.391 242.183 358.530 242.384  c
358.668 242.585 358.900 242.686 359.224 242.686  c
359.927 242.686 360.591 242.223 361.216 241.297  c
361.216 237.172 l
362.370 237.172 l
362.370 243.535 l
h
366.372 243.682 m
365.845 243.682 365.204 243.559 364.450 243.312  c
364.450 242.252 l
365.204 242.627 365.861 242.814 366.419 242.814  c
366.751 242.814 367.027 242.725 367.245 242.545  c
367.464 242.365 367.573 242.141 367.573 241.871  c
367.573 241.477 367.267 241.150 366.654 240.893  c
365.980 240.605 l
364.984 240.191 364.486 239.596 364.486 238.818  c
364.486 238.264 364.682 237.827 365.074 237.509  c
365.467 237.190 366.005 237.031 366.689 237.031  c
367.044 237.031 367.484 237.080 368.007 237.178  c
368.247 237.225 l
368.247 238.186 l
367.603 237.994 367.091 237.898 366.712 237.898  c
365.970 237.898 365.599 238.168 365.599 238.707  c
365.599 239.055 365.880 239.348 366.443 239.586  c
366.999 239.820 l
367.628 240.086 368.073 240.366 368.335 240.661  c
368.597 240.956 368.728 241.324 368.728 241.766  c
368.728 242.324 368.507 242.783 368.066 243.143  c
367.624 243.502 367.060 243.682 366.372 243.682  c
h
372.712 243.682 m
372.126 243.682 371.669 243.514 371.341 243.178  c
371.013 242.842 370.849 242.375 370.849 241.777  c
370.849 238.039 l
370.052 238.039 l
370.052 237.172 l
370.849 237.172 l
370.849 236.018 l
372.003 235.906 l
372.003 237.172 l
373.667 237.172 l
373.667 238.039 l
372.003 238.039 l
372.003 241.566 l
372.003 242.398 372.363 242.814 373.081 242.814  c
373.234 242.814 373.419 242.789 373.638 242.738  c
373.638 243.535 l
373.282 243.633 372.974 243.682 372.712 243.682  c
h
377.780 243.682 m
376.870 243.682 376.144 243.380 375.601 242.776  c
375.058 242.173 374.786 241.365 374.786 240.354  c
374.786 239.330 375.059 238.521 375.604 237.925  c
376.149 237.329 376.888 237.031 377.822 237.031  c
378.755 237.031 379.494 237.329 380.039 237.925  c
380.584 238.521 380.857 239.326 380.857 240.342  c
380.857 241.381 380.583 242.197 380.036 242.791  c
379.489 243.385 378.738 243.682 377.780 243.682  c
h
377.798 242.814 m
379.021 242.814 379.632 241.990 379.632 240.342  c
379.632 238.713 379.029 237.898 377.822 237.898  c
376.618 237.898 376.017 238.717 376.017 240.354  c
376.017 241.994 376.611 242.814 377.798 242.814  c
h
382.661 243.535 m
382.661 237.172 l
383.816 237.172 l
383.816 238.367 l
384.378 237.477 385.101 237.031 385.984 237.031  c
386.835 237.031 387.415 237.477 387.724 238.367  c
388.271 237.473 388.982 237.025 389.857 237.025  c
390.419 237.025 390.855 237.190 391.163 237.521  c
391.472 237.851 391.626 238.312 391.626 238.906  c
391.626 243.535 l
390.466 243.535 l
390.466 239.088 l
390.466 238.361 390.179 237.998 389.605 237.998  c
389.007 237.998 388.380 238.422 387.724 239.270  c
387.724 243.535 l
386.564 243.535 l
386.564 239.088 l
386.564 238.357 386.271 237.992 385.685 237.992  c
385.103 237.992 384.480 238.418 383.816 239.270  c
383.816 243.535 l
h
398.529 243.330 m
397.755 243.564 397.093 243.682 396.542 243.682  c
395.605 243.682 394.840 243.370 394.248 242.747  c
393.656 242.124 393.361 241.316 393.361 240.324  c
393.361 239.359 393.621 238.568 394.143 237.951  c
394.664 237.334 395.331 237.025 396.144 237.025  c
396.913 237.025 397.508 237.299 397.928 237.846  c
398.348 238.393 398.558 239.170 398.558 240.178  c
398.552 240.535 l
394.538 240.535 l
394.706 242.047 395.447 242.803 396.759 242.803  c
397.239 242.803 397.829 242.674 398.529 242.416  c
h
394.591 239.668 m
397.398 239.668 l
397.398 238.484 396.956 237.893 396.073 237.893  c
395.187 237.893 394.693 238.484 394.591 239.668  c
h
400.550 243.535 m
400.550 237.172 l
401.704 237.172 l
401.704 238.367 l
402.161 237.477 402.825 237.031 403.697 237.031  c
403.814 237.031 403.937 237.041 404.066 237.061  c
404.066 238.139 l
403.866 238.072 403.691 238.039 403.538 238.039  c
402.808 238.039 402.197 238.473 401.704 239.340  c
401.704 243.535 l
h
f
2 J
10.0000 M
.792157 .925490 1.00000 RG
newpath
232.462 66.0000 m
232.462 175.000 l
232.462 177.209 234.253 179.000 236.462 179.000  c
338.000 179.000 l
340.209 179.000 342.000 177.209 342.000 175.000  c
342.000 66.0000 l
342.000 63.7909 340.209 62.0000 338.000 62.0000  c
236.462 62.0000 l
234.253 62.0000 232.462 63.7909 232.462 66.0000  c
h
f
.600000 .800000 1.00000 RG
newpath
232.462 62.0000 m
342.000 62.0000 l
342.000 83.6660 l
232.462 83.6660 l
232.462 62.0000 l
h
f
.792157 .925490 1.00000 RG
0.00000 0.00000 0.00000 RG
0 J
1.45000 M
newpath
301.079 78.5020 m
296.985 67.6621 l
298.523 67.6621 l
301.877 76.5391 l
305.115 67.6621 l
306.462 67.6621 l
302.529 78.5020 l
h
307.971 78.5020 m
307.971 70.5479 l
309.414 70.5479 l
309.414 78.5020 l
h
307.971 69.1050 m
307.971 67.6621 l
309.414 67.6621 l
309.414 69.1050 l
h
312.307 78.5020 m
312.307 70.5479 l
313.750 70.5479 l
313.750 72.0420 l
314.321 70.9287 315.151 70.3721 316.240 70.3721  c
316.387 70.3721 316.541 70.3843 316.702 70.4087  c
316.702 71.7563 l
316.453 71.6733 316.233 71.6318 316.042 71.6318  c
315.129 71.6318 314.365 72.1738 313.750 73.2578  c
313.750 78.5020 l
h
318.474 81.1460 m
318.643 79.8936 l
319.478 80.2891 320.300 80.4868 321.111 80.4868  c
322.737 80.4868 323.550 79.6250 323.550 77.9014  c
323.550 76.6489 l
323.018 77.7622 322.144 78.3188 320.928 78.3188  c
319.976 78.3188 319.219 77.9722 318.657 77.2788  c
318.096 76.5854 317.815 75.6504 317.815 74.4736  c
317.815 73.2627 318.135 72.2764 318.774 71.5146  c
319.414 70.7529 320.242 70.3721 321.257 70.3721  c
322.146 70.3721 322.910 70.7334 323.550 71.4561  c
323.550 70.5479 l
325.000 70.5479 l
325.000 76.3340 l
325.000 77.5791 324.935 78.5007 324.806 79.0989  c
324.677 79.6970 324.434 80.1865 324.077 80.5674  c
323.447 81.2363 322.468 81.5708 321.140 81.5708  c
320.212 81.5708 319.324 81.4292 318.474 81.1460  c
h
323.550 75.7480 m
323.550 72.4448 l
322.915 71.7856 322.224 71.4561 321.477 71.4561  c
320.813 71.4561 320.293 71.7222 319.917 72.2544  c
319.541 72.7866 319.353 73.5166 319.353 74.4443  c
319.353 76.1875 319.966 77.0591 321.191 77.0591  c
322.026 77.0591 322.812 76.6221 323.550 75.7480  c
h
327.798 78.5020 m
327.798 70.5479 l
329.241 70.5479 l
329.241 78.5020 l
h
327.798 69.1050 m
327.798 67.6621 l
329.241 67.6621 l
329.241 69.1050 l
h
332.134 78.5020 m
332.134 70.5479 l
333.577 70.5479 l
333.577 72.0420 l
334.338 70.9287 335.271 70.3721 336.375 70.3721  c
337.063 70.3721 337.612 70.5906 338.022 71.0276  c
338.433 71.4646 338.638 72.0518 338.638 72.7891  c
338.638 78.5020 l
337.195 78.5020 l
337.195 73.2578 l
337.195 72.6670 337.108 72.2458 336.935 71.9944  c
336.761 71.7429 336.475 71.6172 336.074 71.6172  c
335.190 71.6172 334.358 72.1958 333.577 73.3530  c
333.577 78.5020 l
h
f
2 J
10.0000 M
.792157 .925490 1.00000 RG
1 J
1.45000 M
[ 0.00000 4.00000 ] 2.00000 d
.400000 .400000 .600000 RG
newpath
232.462 66.0000 m
232.462 175.000 l
232.462 177.209 234.253 179.000 236.462 179.000  c
338.000 179.000 l
340.209 179.000 342.000 177.209 342.000 175.000  c
342.000 66.0000 l
342.000 63.7909 340.209 62.0000 338.000 62.0000  c
236.462 62.0000 l
234.253 62.0000 232.462 63.7909 232.462 66.0000  c
h
S
2 J
10.0000 M
[ ] 0.00000 d
0.00000 0.00000 0.00000 RG
Q
[ 1.00000 0.00000 0.00000 1.00000 0.00000 0.00000 ] defaultmatrix matrix concatmatrix setmatrix
cliprestore

%%Trailer
%%EOF
