%!PS-Adobe-3.0 EPSF-3.0
%%BoundingBox: 0 0 297 298
%%Creator: yExport 1.5
%%Producer: org.freehep.graphicsio.ps.EPSGraphics2D Revision: 12753 
%%For: 
%%Title: 
%%CreationDate: Monday, October 23, 2017 9:13:57 AM BST
%%LanguageLevel: 3
%%EndComments
%%BeginProlog
100 dict dup begin

%
% File: org/freehep/graphicsio.ps/PSProlog.txt
% Author: Charles Loomis
%

% Redefinitions which save some space in the output file.  These are also
% the same as the PDF operators.
/q {gsave} def
/Q {grestore} def

/n {newpath} def
/m {moveto} def
/l {lineto} def
/c {curveto} def
/h {closepath} def

/re {4 -2 roll moveto
     dup 0 exch rlineto exch 0 rlineto
     neg 0 exch rlineto closepath} def

/f {fill} def
/f* {eofill} def
/F {gsave vg&FC fill grestore} def
/F* {gsave vg&FC eofill grestore} def

/s {closepath stroke} def
/S {stroke} def

/b {closepath gsave vg&FC fill grestore
    gsave stroke grestore newpath} def
/B {gsave vg&FC fill grestore gsave stroke grestore newpath} def
/b* {closepath gsave vg&FC eofill grestore
    gsave stroke grestore newpath} def
/B* {gsave vg&FC eofill grestore gsave stroke grestore newpath} def

/g {1 array astore /vg&fcolor exch def} def
/G {setgray} def
/k {4 array astore /vg&fcolor exch def} def
/K {setcmykcolor} def
/rg {3 array astore /vg&fcolor exch def} def
/RG {setrgbcolor} def

% Initialize the fill color.
0 0 0 rg

/vg&FC {mark vg&fcolor aload pop
        counttomark 1 eq {G} if
        counttomark 3 eq {RG} if
        counttomark 4 eq {K} if
        cleartomark } def

/vg&DFC {/vg&fcolor exch def} def

/vg&C {mark exch aload pop
       counttomark 1 eq {G} if
       counttomark 3 eq {RG} if
       counttomark 4 eq {K} if
       cleartomark } def

/w {setlinewidth} def
/j {setlinejoin} def
/J {setlinecap} def
/M {setmiterlimit} def
/d {setdash} def
/i {setflat} def

/W {clip} def
/W* {eoclip} def

% Setup the default graphics state.
% (black; 1 pt. linewidth; miter join; butt-ends; solid)
/defaultGraphicsState {0 g 1 w 0 j 0 J [] 0 d} def

% Emulation of the rectangle operators for PostScript implementations
% which do not implement all Level 2 features.  This is an INCOMPLETE
% emulation; only the "x y width height rect..." form is emulated.
/*rf {gsave newpath re fill grestore} def
/*rs {gsave newpath re stroke grestore} def
/*rc {newpath re clip} def
/rf  /rectfill where {pop /rectfill}{/*rf} ifelse load def
/rs  /rectstroke where {pop /rectstroke}{/*rs} ifelse load def
/rc  /rectclip where {pop /rectclip}{/*rc} ifelse load def

% Emulation of the selectfont operator.  This includes a 20% increase in
% the fontsize which is necessary to get sizes similar to the Java fonts.
/*sf {exch findfont exch
      dup type /arraytype eq {makefont}{scalefont} ifelse setfont} bind def
/sf /selectfont where {pop {1.2 mul selectfont}}{{1.2 mul *sf}} ifelse def

% Special version of stroke which allows the dash pattern to continue
% across path segments.  (This may be needed for PostScript although
% modern printers seem to do this correctly.)
/vg&stroke {
  currentdash pop length 0 eq
  {stroke}
  {
    currentdash /vg&doffset exch def pop
    flattenpath
    {m vg&resetdash}
    {2 copy
     currentpoint
     3 -1 roll sub dup mul
     3 1 roll sub dup mul
     add sqrt
     3 1 roll l
     currentdash 3 -1 roll add setdash}
     {}
     {h vg&resetdash}
     pathforall
     stroke
     vg&resetdash
  } ifelse
} def
/vg&resetdash {currentdash pop vg&doffset setdash} def

% Initialize variables for safety.
/delta 0 def
/xv 0 def  /yv 0 def  /width 0 def  /height 0 def

% Initialize to portrait INTERNATIONAL (Letter-height, A4-width) page.
/pw 595 def  /ph 791  def  /po true def /ftp false def

% Initialize margins to 20 points.
/ml 20 def  /mr 20 def  /mt 20 def  /mb 20 def

% Temporary matrices.
/smatrix 0 def  /nmatrix 0 def

% set page size (usage: <page width><page height> setpagesize)
/setpagesize {/ph exch def /pw exch def} def

% set page orientation (usage: portrait or landscape)
/portrait {/po true def} def
/landscape {/po false def} def

% force natural size for image (usage: naturalsize)
/naturalsize {/ftp false def} def

% resize image to fill page (usage: fittopage)
/fittopage {/ftp true def} def

% set margins of the page (usage: <left><bottom><top><right> setmargins)
/setmargins {/mr exch def /mt exch def /mb exch def /ml exch def} def

% set the graphic's size (usage: <width><height> setsize)
/setsize {/gh exch def /gw exch def} def

% set the graphic's origin (usage: <x0><y0> setorigin)
/setorigin {/gy exch def /gx exch def} def

% calculate image center
/imagecenter {pw ml sub mr sub 2 div ml add
              ph mt sub mb sub 2 div mb add} def

% calculate the necessary scaling
/imagescale {po {gw}{gh} ifelse pw ml sub mr sub div
             po {gh}{gw} ifelse ph mt sub mb sub div
             2 copy lt {exch} if pop
             ftp not {1 2 copy lt {exch} if pop} if
             1 exch div /sfactor exch def
             /gw gw sfactor mul def /gh gh sfactor mul def} def

% calculate image origin
/imageorigin {pw ml sub mr sub 2 div ml add
              po {gw}{gh} ifelse 2 div sub
              ph mt sub mb sub 2 div mb add
              po {gh}{gw} ifelse 2 div po {add}{sub} ifelse} def

% calculate the clipping origin
/cliporigin  {pw ml sub mr sub 2 div ml add
              po {gw}{gh} ifelse 2 div sub floor
              ph mt sub mb sub 2 div mb add
              po {gh}{gw} ifelse 2 div sub floor} def

% Set the clipping region to the bounding box.
/cliptobounds {cliporigin po {gw}{gh} ifelse 1 add
                          po {gh}{gw} ifelse 1 add rc} def

% set the base transformation matrix (usage: setbasematrix)
/setbasematrix {imageorigin translate
                po {0}{90} ifelse rotate
                sfactor sfactor neg scale
                /defaultmatrix matrix currentmatrix def} def

% The lower-right bias in drawing 1 pt. wide lines.
/bias  {q 0.5 0.5 translate} def
/unbias {Q} def

% Define the composite fonts used to print Unicode strings.
% Undefine particular values in an encoding array.
/vg&undef { {exch dup 3 -1 roll /.notdef put} forall } def
/vg&redef { {3 -1 roll dup 4 2 roll put} forall } def

% usage: key encoding basefontname vg&newbasefont font
/vg&newbasefont {
findfont dup length dict copy
  begin
    currentdict /FID undef
    /Encoding exch def
    dup /FontName exch def
    currentdict
  end
definefont
} def

% usage: key encoding basefontname vg&newskewedbasefont font
/vg&newskewedbasefont {
findfont dup length dict copy
  begin
    currentdict /FID undef
    /Encoding exch def
    dup /FontName exch def
    exch FontMatrix exch matrix concatmatrix /FontMatrix exch def
    currentdict
  end
definefont
} def

% usage: basekey suffix vg&nconcat name
/vg&nconcat {
  2 {dup length string cvs exch} repeat
  dup length 3 -1 roll dup length 3 -1 roll add string
  dup 0 4 -1 roll dup length 5 1 roll putinterval
  dup 4 -2 roll exch putinterval cvn
} def

%usage: fontname vg&skewmatrix matrix
/vg&skewmatrix {
findfont dup /FontInfo known
  {
    /FontInfo get dup /ItalicAngle known
    {
      [ 1 0 4 -1 roll /ItalicAngle get neg dup sin exch cos div 1 0 0 ]
    }
    {pop matrix} ifelse
  }
  {pop matrix} ifelse
} def

% usage: newfontname basefontname vg&newcompositefont --
/vg&newcompositefont {
/vg&fstyle exch def
/vg&bfont exch def
/vg&fname exch def
<<
/FontStyleBits vg&fstyle
/FontType 0
/FontMatrix matrix
/FontName vg&fname
/FMapType 2
/Encoding [ 0 1 255 {pop 6} for ]
          dup 16#00 0 put % Latin
          dup 16#03 1 put % Greek
          dup 16#20 2 put % Punctuation
          dup 16#21 3 put % Arrows
          dup 16#22 4 put % MathOps
          dup 16#27 5 put % Dingbats

/FDepVector [
vg&bfont /-UC-Latin vg&nconcat UCLatinEncoding
vg&bfont vg&newbasefont

vg&bfont vg&skewmatrix
vg&bfont /-UC-Greek vg&nconcat UCGreekEncoding
/Symbol vg&newskewedbasefont

vg&bfont /-UC-Punctuation vg&nconcat UCPunctuationEncoding
vg&bfont vg&newbasefont

/Arrows-UC findfont
/MathOps-UC findfont
/Dingbats-UC findfont
/Undefined-UC findfont ]
>>
vg&fname exch definefont pop
} def

% Null encoding vector (all elements set to .notdef)
/NullEncoding [ 256 {/.notdef} repeat ] def

% Unicode Latin encoding (unicode codes \u0000-\u00ff)
/UCLatinEncoding
  ISOLatin1Encoding dup length array copy
  dup 16#60 /grave put
  [ 16#90 16#91 16#92 16#93 16#94 16#95 16#96
    16#97 16#98 16#9a 16#9b 16#9d 16#9e 16#9f
  ] vg&undef
  def

% Unicode Greek encoding (unicode codes \u0370-\u03ff)
/UCGreekEncoding
  NullEncoding dup length array copy
  << 16#91 /Alpha    16#92 /Beta      16#93 /Gamma    16#94 /Delta
     16#95 /Epsilon  16#96 /Zeta      16#97 /Eta      16#98 /Theta
     16#99 /Iota     16#9a /Kappa     16#9b /Lambda   16#9c /Mu
     16#9d /Nu       16#9e /Xi        16#9f /Omicron  16#a0 /Pi
     16#a1 /Rho      16#a3 /Sigma     16#a4 /Tau      16#a5 /Upsilon
     16#a6 /Phi      16#a7 /Chi       16#a8 /Psi      16#a9 /Omega
     16#b1 /alpha    16#b2 /beta      16#b3 /gamma    16#b4 /delta
     16#b5 /epsilon  16#b6 /zeta      16#b7 /eta      16#b8 /theta
     16#b9 /iota     16#ba /kappa     16#bb /lambda   16#bc /mu
     16#bd /nu       16#be /xi        16#bf /omicron  16#c0 /pi
     16#c1 /rho      16#c2 /sigma1    16#c3 /sigma    16#c4 /tau
     16#c5 /upsilon  16#c6 /phi1      16#c7 /chi      16#c8 /psi
     16#c9 /omega    16#7e /semicolon 16#87 /dotmath  16#d1 /theta1
     16#d2 /Upsilon1 16#d5 /phi       16#d6 /omega1
  >> vg&redef
  def

% Unicode punctuation encoding (unicode codes \u2000-\u206f)
/UCPunctuationEncoding
  NullEncoding dup length array copy
  << 16#10 /hyphen          16#11 /hyphen              16#12 /endash
     16#13 /emdash          16#18 /quoteleft           16#19 /quoteright
     16#1a /quotesinglbase  16#1b /quotesingle         16#1c /quotedblleft
     16#1d /quotedblright   16#1e /quotedblbase        16#1f /quotedbl
     16#20 /dagger          16#21 /daggerdbl           16#22 /bullet
     16#24 /period          16#26 /ellipsis            16#27 /periodcentered
     16#30 /perthousand     16#44 /fraction
     16#70 /zerosuperior    16#74 /foursuperior        16#75 /fivesuperior
     16#76 /sixsuperior     16#77 /sevensuperior       16#78 /eightsuperior
     16#79 /ninesuperior    16#7b /hyphensuperior      16#7d /parenleftsuperior
     16#7e /parenrightsuperior
     16#80 /zeroinferior    16#84 /fourinferior        16#85 /fiveinferior
     16#81 /oneinferior     16#82 /twoinferior         16#83 /threeinferior
     16#86 /sixinferior     16#87 /seveninferior       16#88 /eightinferior
     16#89 /nineinferior    16#8b /hypheninferior      16#8d /parenleftinferior
     16#8e /parenrightinferior
  >> vg&redef
  def

% Unicode mathematical operators encoding (unicode codes \u2200-\u22ff)
/UCMathOpsEncoding
  NullEncoding dup length array copy
  << 16#00 /universal       16#02 /partialdiff         16#03 /existential
     16#05 /emptyset        16#06 /Delta               16#07 /gradient
     16#08 /element         16#09 /notelement          16#0b /suchthat
     16#0f /product         16#11 /summation           16#12 /minus
     16#15 /fraction        16#17 /asteriskmath        16#19 /bullet
     16#1a /radical         16#1d /proportional        16#1e /infinity
     16#20 /angle           16#23 /bar                 16#27 /logicaland
     16#28 /logicalor       16#29 /intersection        16#2a /union
     16#2b /integral        16#34 /therefore           16#36 /colon
     16#3c /similar         16#45 /congruent           16#48 /approxequal
     16#60 /notequal        16#61 /equivalence         16#64 /lessequal
     16#65 /greaterequal    16#82 /propersubset        16#83 /propersuperset
     16#86 /reflexsubset    16#87 /reflexsuperset      16#95 /circleplus
     16#97 /circlemultiply  16#a5 /perpendicular       16#03 /existential
     16#c0 /logicaland      16#c1 /logicalor           16#c2 /intersection
     16#c3 /union           16#c4 /diamond             16#c5 /dotmath
  >> vg&redef
  def

% Unicode arrows encoding (unicode codes \u2190-\u21ff)
% Also includes those "Letterlike" unicode characters
% which are available in the symbol font. (unicode codes \u2100-\u214f)
/UCArrowsEncoding
  NullEncoding dup length array copy
  << 16#11 /Ifraktur        16#1c /Rfraktur            16#22 /trademarkserif
     16#35 /aleph
     16#90 /arrowleft       16#91 /arrowup             16#92 /arrowright
     16#93 /arrowdown       16#94 /arrowboth           16#d0 /arrowdblleft
     16#d1 /arrowdblup      16#d2 /arrowdblright       16#d3 /arrowdbldown
     16#d4 /arrowdblboth
  >> vg&redef
  def

/ZapfDingbats findfont /Encoding get
dup length array copy /UCDingbatsEncoding exch def
16#20 1 16#7f {
  dup 16#20 sub exch
  UCDingbatsEncoding exch get
  UCDingbatsEncoding 3 1 roll put
} for
16#a0 1 16#ff {
  dup 16#40 sub exch
  UCDingbatsEncoding exch get
  UCDingbatsEncoding 3 1 roll put
} for
UCDingbatsEncoding [ 16#c0 1 16#ff {} for ] vg&undef
[ 16#00  16#05 16#0a 16#0b  16#28 16#4c 16#4e  16#53 16#54 16#55  16#57 16#5f
  16#60  16#68 16#69 16#6a  16#6b 16#6c 16#6d  16#6e 16#6f 16#70  16#71 16#72
  16#73  16#74 16#75 16#95  16#96 16#97 16#b0  16#bf
] vg&undef pop

% Define the base fonts which don't change.
/Undefined-UC NullEncoding       /Helvetica    vg&newbasefont pop
/MathOps-UC   UCMathOpsEncoding  /Symbol       vg&newbasefont pop
/Arrows-UC    UCArrowsEncoding   /Symbol       vg&newbasefont pop
/Dingbats-UC  UCDingbatsEncoding /ZapfDingbats vg&newbasefont pop

% Make the SansSerif composite fonts.
/SansSerif /Helvetica 16#00 vg&newcompositefont
/SansSerif-Bold /Helvetica-Bold 16#01 vg&newcompositefont
/SansSerif-Italic /Helvetica-Oblique 16#02 vg&newcompositefont
/SansSerif-BoldItalic /Helvetica-BoldOblique 16#03 vg&newcompositefont

% Make the Serif composite fonts.
/Serif /Times-Roman 16#00 vg&newcompositefont
/Serif-Bold /Times-Bold 16#01 vg&newcompositefont
/Serif-Italic /Times-Italic 16#02 vg&newcompositefont
/Serif-BoldItalic /Times-BoldItalic 16#03 vg&newcompositefont

% Make the Monospaced composite fonts.
/Monospaced /Courier 16#00 vg&newcompositefont
/Monospaced-Bold /Courier-Bold 16#01 vg&newcompositefont
/Monospaced-Italic /Courier-Oblique 16#02 vg&newcompositefont
/Monospaced-BoldItalic /Courier-BoldOblique 16#03 vg&newcompositefont

% Make the Dialog composite fonts.
/Dialog /Helvetica 16#00 vg&newcompositefont
/Dialog-Bold /Helvetica-Bold 16#01 vg&newcompositefont
/Dialog-Italic /Helvetica-Oblique 16#02 vg&newcompositefont
/Dialog-BoldItalic /Helvetica-BoldOblique 16#03 vg&newcompositefont

% Make the DialogInput composite fonts.
/DialogInput /Courier 16#00 vg&newcompositefont
/DialogInput-Bold /Courier-Bold 16#01 vg&newcompositefont
/DialogInput-Italic /Courier-Oblique 16#02 vg&newcompositefont
/DialogInput-BoldItalic /Courier-BoldOblique 16#03 vg&newcompositefont

% Make the Typewriter composite fonts (JDK 1.1 only).
/Typewriter /Courier 16#00 vg&newcompositefont
/Typewriter-Bold /Courier-Bold 16#01 vg&newcompositefont
/Typewriter-Italic /Courier-Oblique 16#02 vg&newcompositefont
/Typewriter-BoldItalic /Courier-BoldOblique 16#03 vg&newcompositefont


/cfontH {
 dup /fontsize exch def /SansSerif exch sf
 /vg&fontstyles [{cfontH} {cfontHB} {cfontHI} {cfontHBI}] def
} def
/cfontHB {
  dup /fontsize exch def /SansSerif-Bold exch sf
 /vg&fontstyles [{cfontH} {cfontHB} {cfontHI} {cfontHBI}] def
} def
/cfontHI {
 dup /fontsize exch def /SansSerif-Italic exch sf
 /vg&fontstyles [{cfontH} {cfontHB} {cfontHI} {cfontHBI}] def
} def
/cfontHBI {
 dup /fontsize exch def /SansSerif-BoldItalic exch sf
 /vg&fontstyles [{cfontH} {cfontHB} {cfontHI} {cfontHBI}] def
} def

/cfontT {
 dup /fontsize exch def /Serif exch sf
 /vg&fontstyles [{cfontT} {cfontTB} {cfontTI} {cfontTBI}] def
} def
/cfontTB {
 dup /fontsize exch def /Serif-Bold exch sf
 /vg&fontstyles [{cfontT} {cfontTB} {cfontTI} {cfontTBI}] def
} def
/cfontTI {
 dup /fontsize exch def /Serif-Italic exch sf
 /vg&fontstyles [{cfontT} {cfontTB} {cfontTI} {cfontTBI}] def
} def
/cfontTBI {
 dup /fontsize exch def /Serif-BoldItalic exch sf
 /vg&fontstyles [{cfontT} {cfontTB} {cfontTI} {cfontTBI}] def
} def

/cfontC {
 dup /fontsize exch def /Typewriter exch sf
 /vg&fontstyles [{cfontC} {cfontCB} {cfontCI} {cfontCBI}] def
} def
/cfontCB {
 dup /fontsize exch def /Typewriter-Bold exch sf
 /vg&fontstyles [{cfontC} {cfontCB} {cfontCI} {cfontCBI}] def
} def
/cfontCI {
 dup /fontsize exch def /Typewriter-Italic exch sf
 /vg&fontstyles [{cfontC} {cfontCB} {cfontCI} {cfontCBI}] def
} def
/cfontCBI {
 dup /fontsize exch def /Typewriter-BoldItalic exch sf
 /vg&fontstyles [{cfontC} {cfontCB} {cfontCI} {cfontCBI}] def
} def

% Darken or lighten the current color.
/darken {0.7 exch exp 3 copy
         q 4 -1 roll vg&C
         currentrgbcolor 3 {4 -2 roll mul} repeat
         3 array astore Q} def

/displayColorMap
<< /Cr   [1.00 0.00 0.00]       /Cg     [0.00 1.00 0.00]
   /Cb   [0.00 0.00 1.00]       /Cc     [1.00 0.00 0.00 0.00]
   /Cm   [0.00 1.00 0.00 0.00]  /Cy     [0.00 0.00 1.00 0.00]
   /Co   [1.00 0.78 0.00]       /Cp     [1.00 0.67 0.67]
   /Cw   [1   ]                 /Cgrl   [0.75]
   /Cgr  [0.50]                 /Cgrd   [0.25]
   /Ck   [0   ]
   /CGr  [1.00 0.00 0.00]       /CGg    [0.00 1.00 0.00]
   /CGb  [0.00 0.00 1.00]       /CGc    [1.00 0.00 0.00 0.00]
   /CGm  [0.00 1.00 0.00 0.00]  /CGy    [0.00 0.00 1.00 0.00]
   /CGo  [1.00 0.78 0.00]       /CGp    [1.00 0.67 0.67]
   /CGw  [1   ]                 /CGgrl  [0.75]
   /CGgr [0.50]                 /CGgrd  [0.25]
   /CGk  [0   ]
   /CIr  [1.00 0.00 0.00]       /CIg    [0.00 1.00 0.00]
   /CIb  [0.00 0.00 1.00]       /CIc    [1.00 0.00 0.00 0.00]
   /CIm  [0.00 1.00 0.00 0.00]  /CIy    [0.00 0.00 1.00 0.00]
   /CIo  [1.00 0.78 0.00]       /CIp    [1.00 0.67 0.67]
   /CIw  [1   ]                 /CIgrl  [0.75]
   /CIgr [0.50]                 /CIgrd  [0.25]
   /CIk  [0   ]
>> def

/printColorMap
<< /Cr   [1.00 0.33 0.33]       /Cg     [0.33 1.00 0.33]
   /Cb   [0.33 0.33 1.00]       /Cc     [1.00 0.00 0.00 0.00]
   /Cm   [0.00 1.00 0.00 0.00]  /Cy     [0.00 0.00 1.00 0.00]
   /Co   [1.00 0.78 0.00]       /Cp     [1.00 0.67 0.67]
   /Cw   [1   ]                 /Cgrl   [0.75]
   /Cgr  [0.50]                 /Cgrd   [0.25]
   /Ck   [0   ]
   /CGr  [1.00 0.33 0.33]       /CGg    [0.33 1.00 0.33]
   /CGb  [0.33 0.33 1.00]       /CGc    [1.00 0.00 0.00 0.00]
   /CGm  [0.00 1.00 0.00 0.00]  /CGy    [0.00 0.00 1.00 0.00]
   /CGo  [1.00 0.78 0.00]       /CGp    [1.00 0.67 0.67]
   /CGw  [1   ]                 /CGgrl  [0.75]
   /CGgr [0.50]                 /CGgrd  [0.25]
   /CGk  [0   ]
   /CIr  [1.00 0.33 0.33]       /CIg    [0.33 1.00 0.33]
   /CIb  [0.33 0.33 1.00]       /CIc    [1.00 0.00 0.00 0.00]
   /CIm  [0.00 1.00 0.00 0.00]  /CIy    [0.00 0.00 1.00 0.00]
   /CIo  [1.00 0.78 0.00]       /CIp    [1.00 0.67 0.67]
   /CIw  [1   ]                 /CIgrl  [0.75]
   /CIgr [0.50]                 /CIgrd  [0.25]
   /CIk  [0   ]
>> def

/grayColorMap
<< /Cr   [0   ]                 /Cg     [0   ]
   /Cb   [0   ]                 /Cc     [0   ]
   /Cm   [0   ]                 /Cy     [0   ]
   /Co   [0   ]                 /Cp     [0   ]
   /Cw   [0   ]                 /Cgrl   [0   ]
   /Cgr  [0   ]                 /Cgrd   [0   ]
   /Ck   [0   ]
   /CGr  [0.75]                 /CGg    [1   ]
   /CGb  [0.50]                 /CGc    [0.75]
   /CGm  [0.50]                 /CGy    [1   ]
   /CGo  [0.75]                 /CGp    [1   ]
   /CGw  [0   ]                 /CGgrl  [0.25]
   /CGgr [0.50]                 /CGgrd  [0.75]
   /CGk  [1   ]
   /CIr  [1   ]                 /CIg    [1   ]
   /CIb  [1   ]                 /CIc    [1   ]
   /CIm  [1   ]                 /CIy    [1   ]
   /CIo  [1   ]                 /CIp    [1   ]
   /CIw  [1   ]                 /CIgrl  [1   ]
   /CIgr [1   ]                 /CIgrd  [1   ]
   /CIk  [1   ]
>> def

/bwColorMap
<< /Cr   [0   ]                 /Cg     [0   ]
   /Cb   [0   ]                 /Cc     [0   ]
   /Cm   [0   ]                 /Cy     [0   ]
   /Co   [0   ]                 /Cp     [0   ]
   /Cw   [0   ]                 /Cgrl   [0   ]
   /Cgr  [0   ]                 /Cgrd   [0   ]
   /Ck   [0   ]
   /CGr  [1   ]                 /CGg    [1   ]
   /CGb  [1   ]                 /CGc    [1   ]
   /CGm  [1   ]                 /CGy    [1   ]
   /CGo  [1   ]                 /CGp    [1   ]
   /CGw  [0   ]                 /CGgrl  [1   ]
   /CGgr [1   ]                 /CGgrd  [1   ]
   /CGk  [1   ]
   /CIr  [1   ]                 /CIg    [1   ]
   /CIb  [1   ]                 /CIc    [1   ]
   /CIm  [1   ]                 /CIy    [1   ]
   /CIo  [1   ]                 /CIp    [1   ]
   /CIw  [1   ]                 /CIgrl  [1   ]
   /CIgr [1   ]                 /CIgrd  [1   ]
   /CIk  [1   ]
>> def

%
% The following routines handle the alignment of and printing of
% tagged strings.
%

% Predefine the bounding box values.
/bbllx 0 def /bblly 0 def /bburx 0 def /bbury 0 def

% This routine pops the first unicode character off of a string and returns
% the remainder of the string, the character code of first character,
% and a "true" if the string was non-zero length.
% <string>      popfirst <remaining string> <true>
% <null string> popfirst <false>
/popfirst {
  dup length 1 gt
    {dup 0 get /vg&fbyte exch def
     dup 1 get /vg&cbyte exch def
     dup length 2 sub 2 exch getinterval true}
    {pop false} ifelse
} def

% This routine shows a single unicode character given the font and
% character codes.
% <font code> <char code> unicharshow --
/unicharshow {
  2 string
  dup 0 5 -1 roll put
  dup 1 4 -1 roll put
  internalshow
} def

% This is an internal routine to alternate between determining the
% bounding box for stringsize and showing the string for recshow.
% <string> internalshow --
/internalshow {show} def

% This is an internal routine to alternate between determining the
% bounding box for stringsize and stroking various ornaments.
% <string> internalstroke --
/internalstroke {S} def

% Sets up internalshow to use the null device to determine string size.
% -- nullinternalshow --
/nullinternalshow {/internalshow {false charpath flattenpath
                                  pathbbox updatebbox} def} def

% Sets up internalstroke to use the null device to determine string size.
% -- nullinternalstroke --
/nullinternalstroke {
 /internalstroke {flattenpath pathbbox updatebbox} def} def

% This routine tests to see if the character code matches the first
% character of a string.
% <char code> <string> testchar <char code> <true or false>
/testchar {exch dup 3 -1 roll 0 get eq} def

% Raise the text baseline for superscripts.
% -- raise --
/raise {
  0 fontsize 2 div rmoveto
  /fontsize fontsize 2 mul 3 div def
  currentfont /FontName get fontsize sf
} def

% Un-raise the text baseline for superscripts.
% -- unraise --
/unraise {
  /fontsize fontsize 1.5 mul def
  0 fontsize 2 div neg rmoveto
} def

% Lower the text baseline for subscripts.
% -- lower --
/lower {
  0 fontsize 3 div neg rmoveto
  /fontsize fontsize 2 mul 3 div def
  currentfont /FontName get fontsize sf
} def

% Un-lower the text baseline for subscripts.
% -- unlower --
/unlower {
  /fontsize fontsize 1.5 mul def
  0 fontsize 3 div rmoveto
} def

% Compare the top two elements on the stack and leave only the
% larger one.
/maxval {2 copy gt {pop} {exch pop} ifelse} def

% Tokenize a string.  Do not use the usual PostScript token because
% parentheses will not be interpreted correctly because of rescanning
% of the string.
/vg&token {/vg&string exch def /vg&index -1 def /vg&level 0 def
0 2 vg&string length 2 sub {
  dup dup 1 add exch vg&string exch get 8 bitshift vg&string 3 -1 roll get or
  dup 16#f0fe eq {pop 1}{16#f0ff eq {-1}{0} ifelse} ifelse
  /vg&level exch vg&level add def
  vg&level 0 eq {/vg&index exch def exit} if pop
} for
vg&index 0 ge {
  vg&string vg&index 2 add dup vg&string length exch sub getinterval
  vg&index 2 gt {vg&string 2 vg&index 2 sub getinterval}{()} ifelse
  true}
{false} ifelse
} bind def

% Recursively show an unicode string.
% <string> recshow --
/recshow {
  popfirst
  {
    % Test to see if this is a string attribute.
    vg&fbyte 16#f0 and 16#e0 eq
    {
      q

      % Font style.
      currentfont dup /FontStyleBits known {/FontStyleBits get}{pop 0} ifelse
      vg&cbyte or vg&fontstyles exch get fontsize exch exec

      vg&token pop recshow currentpoint Q m recshow
    }
    {
      vg&fbyte 16#F8 and 16#F0 eq {

        % Superscript and/or subscript.
        vg&cbyte 16#00 eq {
          vg&token pop exch vg&token pop 3 -1 roll
          q raise recshow unraise currentpoint pop Q exch
          q lower recshow unlower currentpoint pop Q
          maxval currentpoint exch pop m recshow } if

        % Strikeout.
        vg&cbyte 16#01 eq {
          vg&token pop currentpoint 3 -1 roll recshow
          q 0 J vg&underline vg&uthick w
          currentpoint 4 -2 roll fontsize 3 div add moveto
          fontsize 3 div add lineto internalstroke Q
          recshow} if

        % Underline.
        vg&cbyte 16#02 eq {
          vg&token pop currentpoint 3 -1 roll recshow
          q 0 J vg&underline vg&uthick w
          currentpoint 4 -2 roll vg&uoffset add moveto
          vg&uoffset add lineto internalstroke Q
          recshow} if

        % Dashed underline.
        vg&cbyte 16#03 eq {
          vg&token pop currentpoint 3 -1 roll recshow
          q 0 J [ vg&uthick 5 mul vg&uthick 2 mul] 0 d
          vg&underline vg&uthick w
          currentpoint 4 -2 roll vg&uoffset add moveto
          vg&uoffset add lineto internalstroke Q
          recshow} if

        % Dotted underline.
        vg&cbyte 16#04 eq {
          vg&token pop currentpoint 3 -1 roll recshow
          q 1 J [ 0 vg&uthick 3 mul] 0 d
          vg&underline vg&uthick w
          currentpoint 4 -2 roll vg&uoffset add moveto
          vg&uoffset add lineto internalstroke Q
          recshow} if

        % Thick underline.
        vg&cbyte 16#05 eq {
          vg&token pop currentpoint 3 -1 roll recshow
          q 0 J vg&underline vg&uthick 2 mul w
          currentpoint 4 -2 roll vg&uoffset vg&uthick 2 div sub add moveto
          vg&uoffset vg&uthick 2 div sub add lineto internalstroke Q
          recshow} if

        % Gray thick underline.
        vg&cbyte 16#06 eq {
          vg&token pop currentpoint 3 -1 roll recshow
          q 0 J vg&underline vg&uthick 2 mul w 0.5 setgray
          currentpoint 4 -2 roll vg&uoffset vg&uthick 2 div sub add moveto
          vg&uoffset vg&uthick 2 div sub add lineto internalstroke Q
          recshow} if

        % Overbar.
        vg&cbyte 16#07 eq {
          vg&token pop dup stringsize relative 4 1 roll pop pop exch
          3 -1 roll recshow
          q 0 J vg&underline vg&uthick w
          vg&uoffset neg add dup currentpoint pop exch m l internalstroke Q
          recshow} if
      }
      {
        vg&fbyte vg&cbyte unicharshow recshow
      } ifelse
    } ifelse
  } if
} def

% Get the underline position and thickness from the current font.
/vg&underline {

currentfont dup /FontType get 0 eq {/FDepVector get 0 get} if
dup dup /FontInfo known {
  /FontInfo get dup
  dup /UnderlinePosition known {
    /UnderlinePosition get /vg&uoffset exch def
  }
  {
    pop /vg&uoffset 0 def
  } ifelse
  dup /UnderlineThickness known {
    /UnderlineThickness get /vg&uthick exch def
  }
  {
    pop /vg&uthick 0 def
  } ifelse
}
{
  pop /vg&uoffset 0 def /vg&uthick 0 def
} ifelse
/FontMatrix get
currentfont dup /FontType get 0 eq
{/FontMatrix get matrix concatmatrix}{pop} ifelse
dup 0 vg&uoffset 3 -1 roll transform /vg&uoffset exch def pop
0 vg&uthick 3 -1 roll transform /vg&uthick exch def pop
} def

% Make a frame with the coordinates on the stack.
% <llx> <lly> <urx> <ury> frame --
/frame {4 copy m 3 1 roll exch l 4 -2 roll l l h} def

% Resets the accumulated bounding box to a degenerate box at the
% current point.
% -- resetbbox --
/resetbbox {
  currentpoint 2 copy
  /bbury exch def
  /bburx exch def
  /bblly exch def
  /bbllx exch def
} def

% Update the accumulated bounding box.
% <llx'> <lly'> <urx'> <ury'> updatebbox --
/updatebbox {
  dup bbury gt {/bbury exch def} {pop} ifelse
  dup bburx gt {/bburx exch def} {pop} ifelse
  dup bblly lt {/bblly exch def} {pop} ifelse
  dup bbllx lt {/bbllx exch def} {pop} ifelse
} def

% Set the bounding box to the values on the stack.
% <llx'> <lly'> <urx'> <ury'> updatebbox --
/restorebbox {
  /bbury exch def /bburx exch def /bblly exch def /bbllx exch def
} def

% Push the accumulated bounding box onto the stack.
% -- pushbbox <llx> <lly> <urx> <ury>
/pushbbox {bbllx bblly bburx bbury} def

% Make the relative bounding box relative to the currentpoint.
% <llx'> <lly'> <urx'> <ury'> inflate <llx> <lly> <urx> <ury>
/inflate {
  2 {fontsize 0.2 mul add 4 1 roll} repeat
  2 {fontsize 0.2 mul sub 4 1 roll} repeat
} def

% Make the relative bounding box relative to the currentpoint.
% <llx'> <lly'> <urx'> <ury'> relative <llx> <lly> <urx> <ury>
/relative {
  currentpoint 3 -1 roll add 3 1 roll add exch 4 2 roll
  currentpoint 3 -1 roll add 3 1 roll add exch 4 2 roll
} def

% Returns the size of a string appropriate for recshow.
% <string> stringsize <llx> <lly> <urx> <ury>
/stringsize {
  pushbbox /internalshow load /internalstroke load 7 -1 roll
  q
  nulldevice 0 0 m
  nullinternalshow nullinternalstroke
  resetbbox
  recshow
  /internalstroke exch def /internalshow exch def
  pushbbox 8 -4 roll restorebbox
  Q
} def

% Calculate values for string positioning.
/calcval {4 copy
  3 -1 roll sub /widy exch def sub neg /widx exch def
  pop pop /dy exch def /dx exch def} def

% Utilities to position a string.
% First letter (U=upper, C=center, B=baseline, L=lower)
% Second letter (L=left, C=center, R=right)
/align [
{calcval dx neg widy dy add neg rmoveto} % UL
{calcval dx neg widy 2 div dy add neg rmoveto} % CL
{calcval dx neg 0 rmoveto} % BL
{calcval dx neg dy neg rmoveto} % LL
{calcval widx dx add neg widy dy add neg rmoveto} % UR
{calcval widx dx add neg widy 2 div dy add neg rmoveto} % CR
{calcval widx dx add neg 0 rmoveto} % BR
{calcval widx dx add neg dy neg rmoveto} % LR
{calcval widx 2 div dx add neg widy dy add neg rmoveto} % UC
{calcval widx 2 div dx add neg widy 2 div dy add neg rmoveto} % CC
{calcval widx 2 div dx add neg 0 rmoveto} % BC
{calcval widx 2 div dx add neg dy neg rmoveto} % LC
] def

/vg&str {m q 1 -1 scale dup stringsize 4 copy align 11 -1 roll get exec
         q inflate relative frame exch exec Q recshow Q} def

end /procDict exch def
%%EndProlog

%%BeginSetup
save
procDict begin
printColorMap begin
297 298 setpagesize
0 0 0 0 setmargins
0 0 setorigin
297 298 setsize
naturalsize
portrait
imagescale
cliptobounds
setbasematrix
/Helvetica 10 sf
defaultGraphicsState
%%EndSetup

0.00000 0.00000 0.00000 RG
[ 1.00000 0.00000 0.00000 1.00000 0.00000 0.00000 ] defaultmatrix matrix concatmatrix setmatrix
cliprestore
1.00000 1.00000 1.00000 RG
newpath
0.00000 0.00000 m
297.000 0.00000 l
297.000 298.000 l
0.00000 298.000 l
0.00000 0.00000 l
h
f
0.00000 0.00000 0.00000 RG
0.00000 0.00000 0.00000 RG
[ 1.00000 0.00000 0.00000 1.00000 0.00000 0.00000 ] defaultmatrix matrix concatmatrix setmatrix
cliprestore
1.00000 1.00000 1.00000 RG
newpath
0.00000 0.00000 m
297.000 0.00000 l
297.000 298.000 l
0.00000 298.000 l
0.00000 0.00000 l
h
f
0.00000 0.00000 0.00000 RG
0 0 297 298 rc
q
[ 1.00000 0.00000 0.00000 1.00000 0.00000 0.00000 ] concat
[ 1.00000 0.00000 0.00000 1.00000 -58.0000 -92.0000 ] concat
1.00000 1.00000 1.00000 RG
newpath
58.0000 92.0000 m
355.000 92.0000 l
355.000 390.000 l
58.0000 390.000 l
58.0000 92.0000 l
h
f
0.00000 0.00000 0.00000 RG
[ 1.00000 0.00000 0.00000 1.00000 -58.0000 -92.0000 ] defaultmatrix matrix concatmatrix setmatrix
[ 1.00000 0.00000 0.00000 1.00000 -58.0000 -92.0000 ] defaultmatrix matrix concatmatrix setmatrix
[ 1.00000 0.00000 0.00000 1.00000 0.00000 0.00000 ] defaultmatrix matrix concatmatrix setmatrix
[ 1.00000 0.00000 0.00000 1.00000 -58.0000 -92.0000 ] defaultmatrix matrix concatmatrix setmatrix
1.00000 .800000 0.00000 RG
newpath
73.0000 185.000 m
103.000 185.000 l
103.000 215.000 l
73.0000 215.000 l
73.0000 185.000 l
h
f
0 J
1.45000 M
0.00000 0.00000 0.00000 RG
newpath
73.0000 185.000 m
103.000 185.000 l
103.000 215.000 l
73.0000 215.000 l
73.0000 185.000 l
h
S
2 J
10.0000 M
0 J
1.45000 M
newpath
83.7930 204.752 m
83.2109 204.752 82.4668 204.625 81.5605 204.371  c
81.5605 203.152 l
82.5371 203.605 83.3398 203.832 83.9688 203.832  c
84.4531 203.832 84.8428 203.705 85.1377 203.451  c
85.4326 203.197 85.5801 202.863 85.5801 202.449  c
85.5801 202.109 85.4834 201.820 85.2900 201.582  c
85.0967 201.344 84.7402 201.078 84.2207 200.785  c
83.6230 200.439 l
82.8848 200.018 82.3643 199.620 82.0615 199.247  c
81.7588 198.874 81.6074 198.439 81.6074 197.943  c
81.6074 197.275 81.8496 196.726 82.3340 196.294  c
82.8184 195.862 83.4355 195.646 84.1855 195.646  c
84.8535 195.646 85.5586 195.758 86.3008 195.980  c
86.3008 197.105 l
85.3867 196.746 84.7051 196.566 84.2559 196.566  c
83.8301 196.566 83.4785 196.680 83.2012 196.906  c
82.9238 197.133 82.7852 197.418 82.7852 197.762  c
82.7852 198.051 82.8867 198.307 83.0898 198.529  c
83.2930 198.752 83.6641 199.018 84.2031 199.326  c
84.8242 199.678 l
85.5742 200.104 86.0977 200.506 86.3945 200.885  c
86.6914 201.264 86.8398 201.719 86.8398 202.250  c
86.8398 203.004 86.5615 203.609 86.0049 204.066  c
85.4482 204.523 84.7109 204.752 83.7930 204.752  c
h
89.2422 204.535 m
89.2422 203.668 l
90.9766 203.668 l
90.9766 196.824 l
89.2422 197.258 l
89.2422 196.367 l
92.1367 195.646 l
92.1367 203.668 l
93.8711 203.668 l
93.8711 204.535 l
h
f
2 J
10.0000 M
1.00000 .800000 0.00000 RG
newpath
73.0000 234.000 m
103.000 234.000 l
103.000 264.000 l
73.0000 264.000 l
73.0000 234.000 l
h
f
0 J
1.45000 M
0.00000 0.00000 0.00000 RG
newpath
73.0000 234.000 m
103.000 234.000 l
103.000 264.000 l
73.0000 264.000 l
73.0000 234.000 l
h
S
2 J
10.0000 M
0 J
1.45000 M
newpath
83.7930 253.752 m
83.2109 253.752 82.4668 253.625 81.5605 253.371  c
81.5605 252.152 l
82.5371 252.605 83.3398 252.832 83.9688 252.832  c
84.4531 252.832 84.8428 252.705 85.1377 252.451  c
85.4326 252.197 85.5801 251.863 85.5801 251.449  c
85.5801 251.109 85.4834 250.820 85.2900 250.582  c
85.0967 250.344 84.7402 250.078 84.2207 249.785  c
83.6230 249.439 l
82.8848 249.018 82.3643 248.620 82.0615 248.247  c
81.7588 247.874 81.6074 247.439 81.6074 246.943  c
81.6074 246.275 81.8496 245.726 82.3340 245.294  c
82.8184 244.862 83.4355 244.646 84.1855 244.646  c
84.8535 244.646 85.5586 244.758 86.3008 244.980  c
86.3008 246.105 l
85.3867 245.746 84.7051 245.566 84.2559 245.566  c
83.8301 245.566 83.4785 245.680 83.2012 245.906  c
82.9238 246.133 82.7852 246.418 82.7852 246.762  c
82.7852 247.051 82.8867 247.307 83.0898 247.529  c
83.2930 247.752 83.6641 248.018 84.2031 248.326  c
84.8242 248.678 l
85.5742 249.104 86.0977 249.506 86.3945 249.885  c
86.6914 250.264 86.8398 250.719 86.8398 251.250  c
86.8398 252.004 86.5615 252.609 86.0049 253.066  c
85.4482 253.523 84.7109 253.752 83.7930 253.752  c
h
88.4336 253.535 m
88.4336 252.521 l
88.7695 251.736 89.4492 250.881 90.4727 249.955  c
91.1348 249.363 l
91.9863 248.594 92.4121 247.830 92.4121 247.072  c
92.4121 246.588 92.2666 246.207 91.9756 245.930  c
91.6846 245.652 91.2852 245.514 90.7773 245.514  c
90.1758 245.514 89.4668 245.746 88.6504 246.211  c
88.6504 245.191 l
89.4199 244.828 90.1836 244.646 90.9414 244.646  c
91.7539 244.646 92.4062 244.865 92.8984 245.303  c
93.3906 245.740 93.6367 246.320 93.6367 247.043  c
93.6367 247.562 93.5127 248.023 93.2646 248.426  c
93.0166 248.828 92.5547 249.316 91.8789 249.891  c
91.4336 250.271 l
90.5078 251.057 89.9727 251.807 89.8281 252.521  c
93.5957 252.521 l
93.5957 253.535 l
h
f
2 J
10.0000 M
1.00000 .800000 0.00000 RG
newpath
73.0000 295.000 m
103.000 295.000 l
103.000 325.000 l
73.0000 325.000 l
73.0000 295.000 l
h
f
0 J
1.45000 M
0.00000 0.00000 0.00000 RG
newpath
73.0000 295.000 m
103.000 295.000 l
103.000 325.000 l
73.0000 325.000 l
73.0000 295.000 l
h
S
2 J
10.0000 M
0 J
1.45000 M
newpath
83.7930 314.752 m
83.2109 314.752 82.4668 314.625 81.5605 314.371  c
81.5605 313.152 l
82.5371 313.605 83.3398 313.832 83.9688 313.832  c
84.4531 313.832 84.8428 313.705 85.1377 313.451  c
85.4326 313.197 85.5801 312.863 85.5801 312.449  c
85.5801 312.109 85.4834 311.820 85.2900 311.582  c
85.0967 311.344 84.7402 311.078 84.2207 310.785  c
83.6230 310.439 l
82.8848 310.018 82.3643 309.620 82.0615 309.247  c
81.7588 308.874 81.6074 308.439 81.6074 307.943  c
81.6074 307.275 81.8496 306.726 82.3340 306.294  c
82.8184 305.862 83.4355 305.646 84.1855 305.646  c
84.8535 305.646 85.5586 305.758 86.3008 305.980  c
86.3008 307.105 l
85.3867 306.746 84.7051 306.566 84.2559 306.566  c
83.8301 306.566 83.4785 306.680 83.2012 306.906  c
82.9238 307.133 82.7852 307.418 82.7852 307.762  c
82.7852 308.051 82.8867 308.307 83.0898 308.529  c
83.2930 308.752 83.6641 309.018 84.2031 309.326  c
84.8242 309.678 l
85.5742 310.104 86.0977 310.506 86.3945 310.885  c
86.6914 311.264 86.8398 311.719 86.8398 312.250  c
86.8398 313.004 86.5615 313.609 86.0049 314.066  c
85.4482 314.523 84.7109 314.752 83.7930 314.752  c
h
88.6562 314.471 m
88.6562 313.393 l
89.4844 313.721 90.1367 313.885 90.6133 313.885  c
91.1641 313.885 91.6123 313.724 91.9580 313.401  c
92.3037 313.079 92.4766 312.662 92.4766 312.150  c
92.4766 310.932 91.6230 310.322 89.9160 310.322  c
89.4590 310.322 l
89.4590 309.543 l
89.8633 309.537 l
91.4648 309.537 92.2656 308.973 92.2656 307.844  c
92.2656 306.957 91.7383 306.514 90.6836 306.514  c
90.1055 306.514 89.4688 306.676 88.7734 307.000  c
88.7734 305.992 l
89.4570 305.762 90.1211 305.646 90.7656 305.646  c
92.5391 305.646 93.4258 306.316 93.4258 307.656  c
93.4258 308.676 92.8223 309.402 91.6152 309.836  c
93.0137 310.160 93.7129 310.926 93.7129 312.133  c
93.7129 312.949 93.4434 313.590 92.9043 314.055  c
92.3652 314.520 91.6250 314.752 90.6836 314.752  c
90.1484 314.752 89.4727 314.658 88.6562 314.471  c
h
f
2 J
10.0000 M
1.00000 .800000 0.00000 RG
newpath
160.000 319.000 m
190.000 319.000 l
190.000 349.000 l
160.000 349.000 l
160.000 319.000 l
h
f
0 J
1.45000 M
0.00000 0.00000 0.00000 RG
newpath
160.000 319.000 m
190.000 319.000 l
190.000 349.000 l
160.000 349.000 l
160.000 319.000 l
h
S
2 J
10.0000 M
0 J
1.45000 M
newpath
168.531 338.535 m
168.531 329.863 l
171.156 329.863 l
171.988 329.863 172.626 330.047 173.069 330.414  c
173.513 330.781 173.734 331.314 173.734 332.014  c
173.734 333.170 173.150 333.990 171.982 334.475  c
174.877 338.535 l
173.365 338.535 l
170.898 334.867 l
169.750 334.867 l
169.750 338.535 l
h
169.750 333.947 m
170.148 333.947 l
171.695 333.947 172.469 333.340 172.469 332.125  c
172.469 331.230 171.820 330.783 170.523 330.783  c
169.750 330.783 l
h
176.805 338.535 m
176.805 337.668 l
178.539 337.668 l
178.539 330.824 l
176.805 331.258 l
176.805 330.367 l
179.699 329.646 l
179.699 337.668 l
181.434 337.668 l
181.434 338.535 l
h
f
2 J
10.0000 M
1.00000 .800000 0.00000 RG
newpath
220.000 345.000 m
250.000 345.000 l
250.000 375.000 l
220.000 375.000 l
220.000 345.000 l
h
f
0 J
1.45000 M
0.00000 0.00000 0.00000 RG
newpath
220.000 345.000 m
250.000 345.000 l
250.000 375.000 l
220.000 375.000 l
220.000 345.000 l
h
S
2 J
10.0000 M
0 J
1.45000 M
newpath
228.531 364.535 m
228.531 355.863 l
231.156 355.863 l
231.988 355.863 232.626 356.047 233.069 356.414  c
233.513 356.781 233.734 357.314 233.734 358.014  c
233.734 359.170 233.150 359.990 231.982 360.475  c
234.877 364.535 l
233.365 364.535 l
230.898 360.867 l
229.750 360.867 l
229.750 364.535 l
h
229.750 359.947 m
230.148 359.947 l
231.695 359.947 232.469 359.340 232.469 358.125  c
232.469 357.230 231.820 356.783 230.523 356.783  c
229.750 356.783 l
h
235.996 364.535 m
235.996 363.521 l
236.332 362.736 237.012 361.881 238.035 360.955  c
238.697 360.363 l
239.549 359.594 239.975 358.830 239.975 358.072  c
239.975 357.588 239.829 357.207 239.538 356.930  c
239.247 356.652 238.848 356.514 238.340 356.514  c
237.738 356.514 237.029 356.746 236.213 357.211  c
236.213 356.191 l
236.982 355.828 237.746 355.646 238.504 355.646  c
239.316 355.646 239.969 355.865 240.461 356.303  c
240.953 356.740 241.199 357.320 241.199 358.043  c
241.199 358.562 241.075 359.023 240.827 359.426  c
240.579 359.828 240.117 360.316 239.441 360.891  c
238.996 361.271 l
238.070 362.057 237.535 362.807 237.391 363.521  c
241.158 363.521 l
241.158 364.535 l
h
f
2 J
10.0000 M
1.00000 .800000 0.00000 RG
newpath
280.000 319.000 m
310.000 319.000 l
310.000 349.000 l
280.000 349.000 l
280.000 319.000 l
h
f
0 J
1.45000 M
0.00000 0.00000 0.00000 RG
newpath
280.000 319.000 m
310.000 319.000 l
310.000 349.000 l
280.000 349.000 l
280.000 319.000 l
h
S
2 J
10.0000 M
0 J
1.45000 M
newpath
288.531 338.535 m
288.531 329.863 l
291.156 329.863 l
291.988 329.863 292.626 330.047 293.069 330.414  c
293.513 330.781 293.734 331.314 293.734 332.014  c
293.734 333.170 293.150 333.990 291.982 334.475  c
294.877 338.535 l
293.365 338.535 l
290.898 334.867 l
289.750 334.867 l
289.750 338.535 l
h
289.750 333.947 m
290.148 333.947 l
291.695 333.947 292.469 333.340 292.469 332.125  c
292.469 331.230 291.820 330.783 290.523 330.783  c
289.750 330.783 l
h
296.219 338.471 m
296.219 337.393 l
297.047 337.721 297.699 337.885 298.176 337.885  c
298.727 337.885 299.175 337.724 299.521 337.401  c
299.866 337.079 300.039 336.662 300.039 336.150  c
300.039 334.932 299.186 334.322 297.479 334.322  c
297.021 334.322 l
297.021 333.543 l
297.426 333.537 l
299.027 333.537 299.828 332.973 299.828 331.844  c
299.828 330.957 299.301 330.514 298.246 330.514  c
297.668 330.514 297.031 330.676 296.336 331.000  c
296.336 329.992 l
297.020 329.762 297.684 329.646 298.328 329.646  c
300.102 329.646 300.988 330.316 300.988 331.656  c
300.988 332.676 300.385 333.402 299.178 333.836  c
300.576 334.160 301.275 334.926 301.275 336.133  c
301.275 336.949 301.006 337.590 300.467 338.055  c
299.928 338.520 299.188 338.752 298.246 338.752  c
297.711 338.752 297.035 338.658 296.219 338.471  c
h
f
2 J
10.0000 M
1.00000 .800000 0.00000 RG
newpath
170.000 252.000 m
170.000 260.284 163.284 267.000 155.000 267.000  c
146.716 267.000 140.000 260.284 140.000 252.000  c
140.000 243.716 146.716 237.000 155.000 237.000  c
163.284 237.000 170.000 243.716 170.000 252.000  c
h
f
0 J
1.45000 M
0.00000 0.00000 0.00000 RG
newpath
170.000 252.000 m
170.000 260.284 163.284 267.000 155.000 267.000  c
146.716 267.000 140.000 260.284 140.000 252.000  c
140.000 243.716 146.716 237.000 155.000 237.000  c
163.284 237.000 170.000 243.716 170.000 252.000  c
h
S
2 J
10.0000 M
0 J
1.45000 M
newpath
146.495 256.682 m
145.968 256.682 145.327 256.559 144.573 256.312  c
144.573 255.252 l
145.327 255.627 145.983 255.814 146.542 255.814  c
146.874 255.814 147.149 255.725 147.368 255.545  c
147.587 255.365 147.696 255.141 147.696 254.871  c
147.696 254.477 147.390 254.150 146.776 253.893  c
146.103 253.605 l
145.106 253.191 144.608 252.596 144.608 251.818  c
144.608 251.264 144.805 250.827 145.197 250.509  c
145.590 250.190 146.128 250.031 146.812 250.031  c
147.167 250.031 147.606 250.080 148.130 250.178  c
148.370 250.225 l
148.370 251.186 l
147.726 250.994 147.214 250.898 146.835 250.898  c
146.093 250.898 145.722 251.168 145.722 251.707  c
145.722 252.055 146.003 252.348 146.565 252.586  c
147.122 252.820 l
147.751 253.086 148.196 253.366 148.458 253.661  c
148.720 253.956 148.851 254.324 148.851 254.766  c
148.851 255.324 148.630 255.783 148.188 256.143  c
147.747 256.502 147.183 256.682 146.495 256.682  c
h
150.890 256.535 m
150.890 247.863 l
153.772 247.863 l
154.632 247.863 155.326 247.959 155.855 248.150  c
156.385 248.342 156.843 248.666 157.229 249.123  c
157.843 249.850 158.149 250.807 158.149 251.994  c
158.149 253.436 157.769 254.553 157.007 255.346  c
156.245 256.139 155.173 256.535 153.790 256.535  c
h
152.120 255.615 m
153.696 255.615 l
154.821 255.615 155.618 255.312 156.087 254.707  c
156.591 254.062 156.843 253.197 156.843 252.111  c
156.843 251.092 156.595 250.291 156.099 249.709  c
155.798 249.354 155.438 249.110 155.021 248.979  c
154.603 248.849 153.974 248.783 153.134 248.783  c
152.120 248.783 l
h
159.878 256.535 m
159.878 247.863 l
162.503 247.863 l
163.335 247.863 163.973 248.047 164.416 248.414  c
164.859 248.781 165.081 249.314 165.081 250.014  c
165.081 251.170 164.497 251.990 163.329 252.475  c
166.224 256.535 l
164.712 256.535 l
162.245 252.867 l
161.097 252.867 l
161.097 256.535 l
h
161.097 251.947 m
161.495 251.947 l
163.042 251.947 163.815 251.340 163.815 250.125  c
163.815 249.230 163.167 248.783 161.870 248.783  c
161.097 248.783 l
h
f
2 J
10.0000 M
1.00000 .800000 0.00000 RG
newpath
250.000 305.000 m
250.000 313.284 243.284 320.000 235.000 320.000  c
226.716 320.000 220.000 313.284 220.000 305.000  c
220.000 296.716 226.716 290.000 235.000 290.000  c
243.284 290.000 250.000 296.716 250.000 305.000  c
h
f
0 J
1.45000 M
0.00000 0.00000 0.00000 RG
newpath
250.000 305.000 m
250.000 313.284 243.284 320.000 235.000 320.000  c
226.716 320.000 220.000 313.284 220.000 305.000  c
220.000 296.716 226.716 290.000 235.000 290.000  c
243.284 290.000 250.000 296.716 250.000 305.000  c
h
S
2 J
10.0000 M
0 J
1.45000 M
newpath
225.411 309.535 m
225.411 303.172 l
226.565 303.172 l
226.565 304.367 l
227.022 303.477 227.687 303.031 228.558 303.031  c
228.675 303.031 228.798 303.041 228.927 303.061  c
228.927 304.139 l
228.728 304.072 228.552 304.039 228.399 304.039  c
227.669 304.039 227.058 304.473 226.565 305.340  c
226.565 309.535 l
h
230.286 309.535 m
230.286 300.863 l
233.169 300.863 l
234.028 300.863 234.723 300.959 235.252 301.150  c
235.781 301.342 236.239 301.666 236.626 302.123  c
237.239 302.850 237.546 303.807 237.546 304.994  c
237.546 306.436 237.165 307.553 236.403 308.346  c
235.642 309.139 234.569 309.535 233.187 309.535  c
h
231.517 308.615 m
233.093 308.615 l
234.218 308.615 235.015 308.312 235.483 307.707  c
235.987 307.062 236.239 306.197 236.239 305.111  c
236.239 304.092 235.991 303.291 235.495 302.709  c
235.194 302.354 234.835 302.110 234.417 301.979  c
233.999 301.849 233.370 301.783 232.530 301.783  c
231.517 301.783 l
h
239.274 309.535 m
239.274 300.863 l
241.899 300.863 l
242.731 300.863 243.369 301.047 243.812 301.414  c
244.256 301.781 244.478 302.314 244.478 303.014  c
244.478 304.170 243.894 304.990 242.726 305.475  c
245.620 309.535 l
244.108 309.535 l
241.642 305.867 l
240.493 305.867 l
240.493 309.535 l
h
240.493 304.947 m
240.892 304.947 l
242.438 304.947 243.212 304.340 243.212 303.125  c
243.212 302.230 242.563 301.783 241.267 301.783  c
240.493 301.783 l
h
f
2 J
10.0000 M
1.00000 .800000 0.00000 RG
newpath
340.000 252.000 m
340.000 260.284 333.284 267.000 325.000 267.000  c
316.716 267.000 310.000 260.284 310.000 252.000  c
310.000 243.716 316.716 237.000 325.000 237.000  c
333.284 237.000 340.000 243.716 340.000 252.000  c
h
f
0 J
1.45000 M
0.00000 0.00000 0.00000 RG
newpath
340.000 252.000 m
340.000 260.284 333.284 267.000 325.000 267.000  c
316.716 267.000 310.000 260.284 310.000 252.000  c
310.000 243.716 316.716 237.000 325.000 237.000  c
333.284 237.000 340.000 243.716 340.000 252.000  c
h
S
2 J
10.0000 M
0 J
1.45000 M
newpath
319.416 256.535 m
319.416 255.340 l
318.947 256.234 318.240 256.682 317.295 256.682  c
316.529 256.682 315.927 256.402 315.487 255.844  c
315.048 255.285 314.828 254.521 314.828 253.553  c
314.828 252.494 315.077 251.643 315.575 250.998  c
316.073 250.354 316.729 250.031 317.541 250.031  c
318.295 250.031 318.920 250.320 319.416 250.898  c
319.416 247.283 l
320.576 247.283 l
320.576 256.535 l
h
319.416 251.689 m
318.818 251.162 318.252 250.898 317.717 250.898  c
316.611 250.898 316.059 251.744 316.059 253.436  c
316.059 254.924 316.551 255.668 317.535 255.668  c
318.176 255.668 318.803 255.318 319.416 254.619  c
h
322.850 256.535 m
322.850 247.863 l
327.695 247.863 l
327.695 248.783 l
324.080 248.783 l
324.080 251.566 l
327.109 251.566 l
327.109 252.475 l
324.080 252.475 l
324.080 255.615 l
327.947 255.615 l
327.947 256.535 l
h
329.354 256.535 m
329.354 247.863 l
331.979 247.863 l
332.811 247.863 333.448 248.047 333.892 248.414  c
334.335 248.781 334.557 249.314 334.557 250.014  c
334.557 251.170 333.973 251.990 332.805 252.475  c
335.699 256.535 l
334.188 256.535 l
331.721 252.867 l
330.572 252.867 l
330.572 256.535 l
h
330.572 251.947 m
330.971 251.947 l
332.518 251.947 333.291 251.340 333.291 250.125  c
333.291 249.230 332.643 248.783 331.346 248.783  c
330.572 248.783 l
h
f
2 J
10.0000 M
1.00000 .800000 0.00000 RG
newpath
250.000 182.000 m
250.000 190.284 243.284 197.000 235.000 197.000  c
226.716 197.000 220.000 190.284 220.000 182.000  c
220.000 173.716 226.716 167.000 235.000 167.000  c
243.284 167.000 250.000 173.716 250.000 182.000  c
h
f
0 J
1.45000 M
0.00000 0.00000 0.00000 RG
newpath
250.000 182.000 m
250.000 190.284 243.284 197.000 235.000 197.000  c
226.716 197.000 220.000 190.284 220.000 182.000  c
220.000 173.716 226.716 167.000 235.000 167.000  c
243.284 167.000 250.000 173.716 250.000 182.000  c
h
S
2 J
10.0000 M
0 J
1.45000 M
newpath
226.132 186.535 m
226.132 177.283 l
227.286 177.283 l
227.286 186.535 l
h
229.565 186.535 m
229.565 177.863 l
232.448 177.863 l
233.308 177.863 234.002 177.959 234.531 178.150  c
235.061 178.342 235.519 178.666 235.905 179.123  c
236.519 179.850 236.825 180.807 236.825 181.994  c
236.825 183.436 236.444 184.553 235.683 185.346  c
234.921 186.139 233.849 186.535 232.466 186.535  c
h
230.796 185.615 m
232.372 185.615 l
233.497 185.615 234.294 185.312 234.763 184.707  c
235.267 184.062 235.519 183.197 235.519 182.111  c
235.519 181.092 235.271 180.291 234.774 179.709  c
234.474 179.354 234.114 179.110 233.696 178.979  c
233.278 178.849 232.649 178.783 231.810 178.783  c
230.796 178.783 l
h
238.554 186.535 m
238.554 177.863 l
241.179 177.863 l
242.011 177.863 242.648 178.047 243.092 178.414  c
243.535 178.781 243.757 179.314 243.757 180.014  c
243.757 181.170 243.173 181.990 242.005 182.475  c
244.899 186.535 l
243.388 186.535 l
240.921 182.867 l
239.772 182.867 l
239.772 186.535 l
h
239.772 181.947 m
240.171 181.947 l
241.718 181.947 242.491 181.340 242.491 180.125  c
242.491 179.230 241.843 178.783 240.546 178.783  c
239.772 178.783 l
h
f
2 J
10.0000 M
1.00000 .800000 0.00000 RG
newpath
235.000 269.500 m
240.250 261.093 l
250.155 260.750 l
245.500 252.000 l
250.155 243.250 l
240.250 242.907 l
235.000 234.500 l
229.750 242.907 l
219.845 243.250 l
224.500 252.000 l
219.845 260.750 l
229.750 261.093 l
h
f*
0 J
1.45000 M
0.00000 0.00000 0.00000 RG
newpath
235.000 269.500 m
240.250 261.093 l
250.155 260.750 l
245.500 252.000 l
250.155 243.250 l
240.250 242.907 l
235.000 234.500 l
229.750 242.907 l
219.845 243.250 l
224.500 252.000 l
219.845 260.750 l
229.750 261.093 l
h
S
2 J
10.0000 M
0 J
1.45000 M
newpath
229.633 256.535 m
229.633 255.340 l
229.164 256.234 228.457 256.682 227.512 256.682  c
226.746 256.682 226.144 256.402 225.704 255.844  c
225.265 255.285 225.045 254.521 225.045 253.553  c
225.045 252.494 225.294 251.643 225.792 250.998  c
226.290 250.354 226.945 250.031 227.758 250.031  c
228.512 250.031 229.137 250.320 229.633 250.898  c
229.633 247.283 l
230.793 247.283 l
230.793 256.535 l
h
229.633 251.689 m
229.035 251.162 228.469 250.898 227.934 250.898  c
226.828 250.898 226.275 251.744 226.275 253.436  c
226.275 254.924 226.768 255.668 227.752 255.668  c
228.393 255.668 229.020 255.318 229.633 254.619  c
h
234.479 251.039 m
234.479 256.535 l
233.318 256.535 l
233.318 251.039 l
232.416 251.039 l
232.416 250.172 l
233.318 250.172 l
233.318 249.410 l
233.318 247.895 234.010 247.137 235.393 247.137  c
235.779 247.137 236.219 247.201 236.711 247.330  c
236.711 248.244 l
236.191 248.084 235.775 248.004 235.463 248.004  c
235.084 248.004 234.825 248.095 234.687 248.276  c
234.548 248.458 234.479 248.795 234.479 249.287  c
234.479 250.172 l
236.066 250.172 l
236.066 251.039 l
h
238.252 256.535 m
236.430 250.172 l
237.561 250.172 l
238.955 255.100 l
240.461 250.172 l
241.615 250.172 l
242.934 255.100 l
244.533 250.172 l
245.523 250.172 l
243.449 256.535 l
242.289 256.535 l
240.941 251.607 l
239.418 256.535 l
h
f
2 J
10.0000 M
1.00000 .800000 0.00000 RG
newpath
220.000 107.000 m
250.000 107.000 l
250.000 137.000 l
220.000 137.000 l
220.000 107.000 l
h
f
0 J
1.45000 M
0.00000 0.00000 0.00000 RG
newpath
220.000 107.000 m
250.000 107.000 l
250.000 137.000 l
220.000 137.000 l
220.000 107.000 l
h
S
2 J
10.0000 M
0 J
1.45000 M
newpath
225.830 126.535 m
225.830 117.863 l
227.061 117.863 l
227.061 125.615 l
230.963 125.615 l
230.963 126.535 l
h
235.545 125.727 m
234.854 126.363 234.188 126.682 233.547 126.682  c
233.020 126.682 232.582 126.517 232.234 126.187  c
231.887 125.856 231.713 125.439 231.713 124.936  c
231.713 124.240 232.005 123.706 232.589 123.333  c
233.173 122.960 234.010 122.773 235.100 122.773  c
235.375 122.773 l
235.375 122.006 l
235.375 121.268 234.996 120.898 234.238 120.898  c
233.629 120.898 232.971 121.086 232.264 121.461  c
232.264 120.506 l
233.041 120.189 233.770 120.031 234.449 120.031  c
235.160 120.031 235.685 120.191 236.022 120.512  c
236.360 120.832 236.529 121.330 236.529 122.006  c
236.529 124.889 l
236.529 125.549 236.732 125.879 237.139 125.879  c
237.189 125.879 237.264 125.871 237.361 125.855  c
237.443 126.494 l
237.182 126.619 236.893 126.682 236.576 126.682  c
236.037 126.682 235.693 126.363 235.545 125.727  c
h
235.375 125.100 m
235.375 123.453 l
234.988 123.441 l
234.355 123.441 233.844 123.562 233.453 123.802  c
233.062 124.042 232.867 124.357 232.867 124.748  c
232.867 125.025 232.965 125.260 233.160 125.451  c
233.355 125.643 233.594 125.738 233.875 125.738  c
234.355 125.738 234.855 125.525 235.375 125.100  c
h
238.891 126.605 m
238.891 117.283 l
240.045 117.283 l
240.045 121.367 l
240.518 120.477 241.227 120.031 242.172 120.031  c
242.938 120.031 243.540 120.311 243.979 120.869  c
244.419 121.428 244.639 122.191 244.639 123.160  c
244.639 124.215 244.390 125.065 243.892 125.712  c
243.394 126.358 242.738 126.682 241.926 126.682  c
241.172 126.682 240.545 126.393 240.045 125.814  c
239.904 126.605 l
h
240.045 125.018 m
240.639 125.549 241.205 125.814 241.744 125.814  c
242.854 125.814 243.408 124.969 243.408 123.277  c
243.408 121.785 242.916 121.039 241.932 121.039  c
241.287 121.039 240.658 121.389 240.045 122.088  c
h
f
2 J
10.0000 M
1.00000 .800000 0.00000 RG
newpath
310.000 167.000 m
340.000 167.000 l
340.000 197.000 l
310.000 197.000 l
310.000 167.000 l
h
f
0 J
1.45000 M
0.00000 0.00000 0.00000 RG
newpath
310.000 167.000 m
340.000 167.000 l
340.000 197.000 l
310.000 197.000 l
310.000 167.000 l
h
S
2 J
10.0000 M
0 J
1.45000 M
newpath
321.552 186.330 m
320.778 186.564 320.116 186.682 319.565 186.682  c
318.628 186.682 317.863 186.370 317.271 185.747  c
316.680 185.124 316.384 184.316 316.384 183.324  c
316.384 182.359 316.645 181.568 317.166 180.951  c
317.688 180.334 318.354 180.025 319.167 180.025  c
319.937 180.025 320.531 180.299 320.951 180.846  c
321.371 181.393 321.581 182.170 321.581 183.178  c
321.575 183.535 l
317.562 183.535 l
317.729 185.047 318.470 185.803 319.782 185.803  c
320.263 185.803 320.853 185.674 321.552 185.416  c
h
317.614 182.668 m
320.421 182.668 l
320.421 181.484 319.979 180.893 319.097 180.893  c
318.210 180.893 317.716 181.484 317.614 182.668  c
h
322.935 186.535 m
325.354 183.248 l
323.005 180.172 l
324.376 180.172 l
326.233 182.621 l
327.915 180.172 l
329.040 180.172 l
326.837 183.400 l
329.233 186.535 l
327.862 186.535 l
325.946 184.016 l
324.095 186.535 l
h
332.843 186.682 m
332.257 186.682 331.800 186.514 331.472 186.178  c
331.144 185.842 330.979 185.375 330.979 184.777  c
330.979 181.039 l
330.183 181.039 l
330.183 180.172 l
330.979 180.172 l
330.979 179.018 l
332.134 178.906 l
332.134 180.172 l
333.798 180.172 l
333.798 181.039 l
332.134 181.039 l
332.134 184.566 l
332.134 185.398 332.493 185.814 333.212 185.814  c
333.364 185.814 333.550 185.789 333.769 185.738  c
333.769 186.535 l
333.413 186.633 333.104 186.682 332.843 186.682  c
h
f
2 J
10.0000 M
0 J
1.45000 M
newpath
143.150 242.803 m
103.000 211.642 l
S
2 J
10.0000 M
0 J
1.45000 M
newpath
140.015 251.329 m
103.000 249.672 l
S
2 J
10.0000 M
0 J
1.45000 M
newpath
143.659 261.818 m
103.000 297.015 l
S
2 J
10.0000 M
0 J
1.45000 M
newpath
221.495 311.528 m
190.000 326.750 l
S
2 J
10.0000 M
0 J
1.45000 M
newpath
235.000 320.000 m
235.000 345.000 l
S
2 J
10.0000 M
0 J
1.45000 M
newpath
248.505 311.528 m
280.000 326.750 l
S
2 J
10.0000 M
0 J
1.45000 M
newpath
235.000 197.000 m
235.000 234.517 l
S
2 J
10.0000 M
0 J
1.45000 M
newpath
170.000 252.000 m
224.495 252.000 l
S
2 J
10.0000 M
0 J
1.45000 M
newpath
235.000 269.520 m
235.000 290.000 l
S
2 J
10.0000 M
0 J
1.45000 M
newpath
245.503 252.000 m
310.000 252.000 l
S
2 J
10.0000 M
0 J
1.45000 M
newpath
235.000 137.000 m
235.000 167.000 l
S
2 J
10.0000 M
0 J
1.45000 M
newpath
325.000 197.000 m
325.000 237.000 l
S
2 J
10.0000 M
Q
[ 1.00000 0.00000 0.00000 1.00000 0.00000 0.00000 ] defaultmatrix matrix concatmatrix setmatrix
cliprestore

%%Trailer
%%EOF
