%!PS-Adobe-3.0 EPSF-3.0
%%BoundingBox: 0 0 593 327
%%Creator: yExport 1.5
%%Producer: org.freehep.graphicsio.ps.EPSGraphics2D Revision: 12753 
%%For: 
%%Title: 
%%CreationDate: Sunday, January 28, 2018 1:07:23 PM WAT
%%LanguageLevel: 3
%%EndComments
%%BeginProlog
100 dict dup begin

%
% File: org/freehep/graphicsio.ps/PSProlog.txt
% Author: Charles Loomis
%

% Redefinitions which save some space in the output file.  These are also
% the same as the PDF operators.
/q {gsave} def
/Q {grestore} def

/n {newpath} def
/m {moveto} def
/l {lineto} def
/c {curveto} def
/h {closepath} def

/re {4 -2 roll moveto
     dup 0 exch rlineto exch 0 rlineto
     neg 0 exch rlineto closepath} def

/f {fill} def
/f* {eofill} def
/F {gsave vg&FC fill grestore} def
/F* {gsave vg&FC eofill grestore} def

/s {closepath stroke} def
/S {stroke} def

/b {closepath gsave vg&FC fill grestore
    gsave stroke grestore newpath} def
/B {gsave vg&FC fill grestore gsave stroke grestore newpath} def
/b* {closepath gsave vg&FC eofill grestore
    gsave stroke grestore newpath} def
/B* {gsave vg&FC eofill grestore gsave stroke grestore newpath} def

/g {1 array astore /vg&fcolor exch def} def
/G {setgray} def
/k {4 array astore /vg&fcolor exch def} def
/K {setcmykcolor} def
/rg {3 array astore /vg&fcolor exch def} def
/RG {setrgbcolor} def

% Initialize the fill color.
0 0 0 rg

/vg&FC {mark vg&fcolor aload pop
        counttomark 1 eq {G} if
        counttomark 3 eq {RG} if
        counttomark 4 eq {K} if
        cleartomark } def

/vg&DFC {/vg&fcolor exch def} def

/vg&C {mark exch aload pop
       counttomark 1 eq {G} if
       counttomark 3 eq {RG} if
       counttomark 4 eq {K} if
       cleartomark } def

/w {setlinewidth} def
/j {setlinejoin} def
/J {setlinecap} def
/M {setmiterlimit} def
/d {setdash} def
/i {setflat} def

/W {clip} def
/W* {eoclip} def

% Setup the default graphics state.
% (black; 1 pt. linewidth; miter join; butt-ends; solid)
/defaultGraphicsState {0 g 1 w 0 j 0 J [] 0 d} def

% Emulation of the rectangle operators for PostScript implementations
% which do not implement all Level 2 features.  This is an INCOMPLETE
% emulation; only the "x y width height rect..." form is emulated.
/*rf {gsave newpath re fill grestore} def
/*rs {gsave newpath re stroke grestore} def
/*rc {newpath re clip} def
/rf  /rectfill where {pop /rectfill}{/*rf} ifelse load def
/rs  /rectstroke where {pop /rectstroke}{/*rs} ifelse load def
/rc  /rectclip where {pop /rectclip}{/*rc} ifelse load def

% Emulation of the selectfont operator.  This includes a 20% increase in
% the fontsize which is necessary to get sizes similar to the Java fonts.
/*sf {exch findfont exch
      dup type /arraytype eq {makefont}{scalefont} ifelse setfont} bind def
/sf /selectfont where {pop {1.2 mul selectfont}}{{1.2 mul *sf}} ifelse def

% Special version of stroke which allows the dash pattern to continue
% across path segments.  (This may be needed for PostScript although
% modern printers seem to do this correctly.)
/vg&stroke {
  currentdash pop length 0 eq
  {stroke}
  {
    currentdash /vg&doffset exch def pop
    flattenpath
    {m vg&resetdash}
    {2 copy
     currentpoint
     3 -1 roll sub dup mul
     3 1 roll sub dup mul
     add sqrt
     3 1 roll l
     currentdash 3 -1 roll add setdash}
     {}
     {h vg&resetdash}
     pathforall
     stroke
     vg&resetdash
  } ifelse
} def
/vg&resetdash {currentdash pop vg&doffset setdash} def

% Initialize variables for safety.
/delta 0 def
/xv 0 def  /yv 0 def  /width 0 def  /height 0 def

% Initialize to portrait INTERNATIONAL (Letter-height, A4-width) page.
/pw 595 def  /ph 791  def  /po true def /ftp false def

% Initialize margins to 20 points.
/ml 20 def  /mr 20 def  /mt 20 def  /mb 20 def

% Temporary matrices.
/smatrix 0 def  /nmatrix 0 def

% set page size (usage: <page width><page height> setpagesize)
/setpagesize {/ph exch def /pw exch def} def

% set page orientation (usage: portrait or landscape)
/portrait {/po true def} def
/landscape {/po false def} def

% force natural size for image (usage: naturalsize)
/naturalsize {/ftp false def} def

% resize image to fill page (usage: fittopage)
/fittopage {/ftp true def} def

% set margins of the page (usage: <left><bottom><top><right> setmargins)
/setmargins {/mr exch def /mt exch def /mb exch def /ml exch def} def

% set the graphic's size (usage: <width><height> setsize)
/setsize {/gh exch def /gw exch def} def

% set the graphic's origin (usage: <x0><y0> setorigin)
/setorigin {/gy exch def /gx exch def} def

% calculate image center
/imagecenter {pw ml sub mr sub 2 div ml add
              ph mt sub mb sub 2 div mb add} def

% calculate the necessary scaling
/imagescale {po {gw}{gh} ifelse pw ml sub mr sub div
             po {gh}{gw} ifelse ph mt sub mb sub div
             2 copy lt {exch} if pop
             ftp not {1 2 copy lt {exch} if pop} if
             1 exch div /sfactor exch def
             /gw gw sfactor mul def /gh gh sfactor mul def} def

% calculate image origin
/imageorigin {pw ml sub mr sub 2 div ml add
              po {gw}{gh} ifelse 2 div sub
              ph mt sub mb sub 2 div mb add
              po {gh}{gw} ifelse 2 div po {add}{sub} ifelse} def

% calculate the clipping origin
/cliporigin  {pw ml sub mr sub 2 div ml add
              po {gw}{gh} ifelse 2 div sub floor
              ph mt sub mb sub 2 div mb add
              po {gh}{gw} ifelse 2 div sub floor} def

% Set the clipping region to the bounding box.
/cliptobounds {cliporigin po {gw}{gh} ifelse 1 add
                          po {gh}{gw} ifelse 1 add rc} def

% set the base transformation matrix (usage: setbasematrix)
/setbasematrix {imageorigin translate
                po {0}{90} ifelse rotate
                sfactor sfactor neg scale
                /defaultmatrix matrix currentmatrix def} def

% The lower-right bias in drawing 1 pt. wide lines.
/bias  {q 0.5 0.5 translate} def
/unbias {Q} def

% Define the composite fonts used to print Unicode strings.
% Undefine particular values in an encoding array.
/vg&undef { {exch dup 3 -1 roll /.notdef put} forall } def
/vg&redef { {3 -1 roll dup 4 2 roll put} forall } def

% usage: key encoding basefontname vg&newbasefont font
/vg&newbasefont {
findfont dup length dict copy
  begin
    currentdict /FID undef
    /Encoding exch def
    dup /FontName exch def
    currentdict
  end
definefont
} def

% usage: key encoding basefontname vg&newskewedbasefont font
/vg&newskewedbasefont {
findfont dup length dict copy
  begin
    currentdict /FID undef
    /Encoding exch def
    dup /FontName exch def
    exch FontMatrix exch matrix concatmatrix /FontMatrix exch def
    currentdict
  end
definefont
} def

% usage: basekey suffix vg&nconcat name
/vg&nconcat {
  2 {dup length string cvs exch} repeat
  dup length 3 -1 roll dup length 3 -1 roll add string
  dup 0 4 -1 roll dup length 5 1 roll putinterval
  dup 4 -2 roll exch putinterval cvn
} def

%usage: fontname vg&skewmatrix matrix
/vg&skewmatrix {
findfont dup /FontInfo known
  {
    /FontInfo get dup /ItalicAngle known
    {
      [ 1 0 4 -1 roll /ItalicAngle get neg dup sin exch cos div 1 0 0 ]
    }
    {pop matrix} ifelse
  }
  {pop matrix} ifelse
} def

% usage: newfontname basefontname vg&newcompositefont --
/vg&newcompositefont {
/vg&fstyle exch def
/vg&bfont exch def
/vg&fname exch def
<<
/FontStyleBits vg&fstyle
/FontType 0
/FontMatrix matrix
/FontName vg&fname
/FMapType 2
/Encoding [ 0 1 255 {pop 6} for ]
          dup 16#00 0 put % Latin
          dup 16#03 1 put % Greek
          dup 16#20 2 put % Punctuation
          dup 16#21 3 put % Arrows
          dup 16#22 4 put % MathOps
          dup 16#27 5 put % Dingbats

/FDepVector [
vg&bfont /-UC-Latin vg&nconcat UCLatinEncoding
vg&bfont vg&newbasefont

vg&bfont vg&skewmatrix
vg&bfont /-UC-Greek vg&nconcat UCGreekEncoding
/Symbol vg&newskewedbasefont

vg&bfont /-UC-Punctuation vg&nconcat UCPunctuationEncoding
vg&bfont vg&newbasefont

/Arrows-UC findfont
/MathOps-UC findfont
/Dingbats-UC findfont
/Undefined-UC findfont ]
>>
vg&fname exch definefont pop
} def

% Null encoding vector (all elements set to .notdef)
/NullEncoding [ 256 {/.notdef} repeat ] def

% Unicode Latin encoding (unicode codes \u0000-\u00ff)
/UCLatinEncoding
  ISOLatin1Encoding dup length array copy
  dup 16#60 /grave put
  [ 16#90 16#91 16#92 16#93 16#94 16#95 16#96
    16#97 16#98 16#9a 16#9b 16#9d 16#9e 16#9f
  ] vg&undef
  def

% Unicode Greek encoding (unicode codes \u0370-\u03ff)
/UCGreekEncoding
  NullEncoding dup length array copy
  << 16#91 /Alpha    16#92 /Beta      16#93 /Gamma    16#94 /Delta
     16#95 /Epsilon  16#96 /Zeta      16#97 /Eta      16#98 /Theta
     16#99 /Iota     16#9a /Kappa     16#9b /Lambda   16#9c /Mu
     16#9d /Nu       16#9e /Xi        16#9f /Omicron  16#a0 /Pi
     16#a1 /Rho      16#a3 /Sigma     16#a4 /Tau      16#a5 /Upsilon
     16#a6 /Phi      16#a7 /Chi       16#a8 /Psi      16#a9 /Omega
     16#b1 /alpha    16#b2 /beta      16#b3 /gamma    16#b4 /delta
     16#b5 /epsilon  16#b6 /zeta      16#b7 /eta      16#b8 /theta
     16#b9 /iota     16#ba /kappa     16#bb /lambda   16#bc /mu
     16#bd /nu       16#be /xi        16#bf /omicron  16#c0 /pi
     16#c1 /rho      16#c2 /sigma1    16#c3 /sigma    16#c4 /tau
     16#c5 /upsilon  16#c6 /phi1      16#c7 /chi      16#c8 /psi
     16#c9 /omega    16#7e /semicolon 16#87 /dotmath  16#d1 /theta1
     16#d2 /Upsilon1 16#d5 /phi       16#d6 /omega1
  >> vg&redef
  def

% Unicode punctuation encoding (unicode codes \u2000-\u206f)
/UCPunctuationEncoding
  NullEncoding dup length array copy
  << 16#10 /hyphen          16#11 /hyphen              16#12 /endash
     16#13 /emdash          16#18 /quoteleft           16#19 /quoteright
     16#1a /quotesinglbase  16#1b /quotesingle         16#1c /quotedblleft
     16#1d /quotedblright   16#1e /quotedblbase        16#1f /quotedbl
     16#20 /dagger          16#21 /daggerdbl           16#22 /bullet
     16#24 /period          16#26 /ellipsis            16#27 /periodcentered
     16#30 /perthousand     16#44 /fraction
     16#70 /zerosuperior    16#74 /foursuperior        16#75 /fivesuperior
     16#76 /sixsuperior     16#77 /sevensuperior       16#78 /eightsuperior
     16#79 /ninesuperior    16#7b /hyphensuperior      16#7d /parenleftsuperior
     16#7e /parenrightsuperior
     16#80 /zeroinferior    16#84 /fourinferior        16#85 /fiveinferior
     16#81 /oneinferior     16#82 /twoinferior         16#83 /threeinferior
     16#86 /sixinferior     16#87 /seveninferior       16#88 /eightinferior
     16#89 /nineinferior    16#8b /hypheninferior      16#8d /parenleftinferior
     16#8e /parenrightinferior
  >> vg&redef
  def

% Unicode mathematical operators encoding (unicode codes \u2200-\u22ff)
/UCMathOpsEncoding
  NullEncoding dup length array copy
  << 16#00 /universal       16#02 /partialdiff         16#03 /existential
     16#05 /emptyset        16#06 /Delta               16#07 /gradient
     16#08 /element         16#09 /notelement          16#0b /suchthat
     16#0f /product         16#11 /summation           16#12 /minus
     16#15 /fraction        16#17 /asteriskmath        16#19 /bullet
     16#1a /radical         16#1d /proportional        16#1e /infinity
     16#20 /angle           16#23 /bar                 16#27 /logicaland
     16#28 /logicalor       16#29 /intersection        16#2a /union
     16#2b /integral        16#34 /therefore           16#36 /colon
     16#3c /similar         16#45 /congruent           16#48 /approxequal
     16#60 /notequal        16#61 /equivalence         16#64 /lessequal
     16#65 /greaterequal    16#82 /propersubset        16#83 /propersuperset
     16#86 /reflexsubset    16#87 /reflexsuperset      16#95 /circleplus
     16#97 /circlemultiply  16#a5 /perpendicular       16#03 /existential
     16#c0 /logicaland      16#c1 /logicalor           16#c2 /intersection
     16#c3 /union           16#c4 /diamond             16#c5 /dotmath
  >> vg&redef
  def

% Unicode arrows encoding (unicode codes \u2190-\u21ff)
% Also includes those "Letterlike" unicode characters
% which are available in the symbol font. (unicode codes \u2100-\u214f)
/UCArrowsEncoding
  NullEncoding dup length array copy
  << 16#11 /Ifraktur        16#1c /Rfraktur            16#22 /trademarkserif
     16#35 /aleph
     16#90 /arrowleft       16#91 /arrowup             16#92 /arrowright
     16#93 /arrowdown       16#94 /arrowboth           16#d0 /arrowdblleft
     16#d1 /arrowdblup      16#d2 /arrowdblright       16#d3 /arrowdbldown
     16#d4 /arrowdblboth
  >> vg&redef
  def

/ZapfDingbats findfont /Encoding get
dup length array copy /UCDingbatsEncoding exch def
16#20 1 16#7f {
  dup 16#20 sub exch
  UCDingbatsEncoding exch get
  UCDingbatsEncoding 3 1 roll put
} for
16#a0 1 16#ff {
  dup 16#40 sub exch
  UCDingbatsEncoding exch get
  UCDingbatsEncoding 3 1 roll put
} for
UCDingbatsEncoding [ 16#c0 1 16#ff {} for ] vg&undef
[ 16#00  16#05 16#0a 16#0b  16#28 16#4c 16#4e  16#53 16#54 16#55  16#57 16#5f
  16#60  16#68 16#69 16#6a  16#6b 16#6c 16#6d  16#6e 16#6f 16#70  16#71 16#72
  16#73  16#74 16#75 16#95  16#96 16#97 16#b0  16#bf
] vg&undef pop

% Define the base fonts which don't change.
/Undefined-UC NullEncoding       /Helvetica    vg&newbasefont pop
/MathOps-UC   UCMathOpsEncoding  /Symbol       vg&newbasefont pop
/Arrows-UC    UCArrowsEncoding   /Symbol       vg&newbasefont pop
/Dingbats-UC  UCDingbatsEncoding /ZapfDingbats vg&newbasefont pop

% Make the SansSerif composite fonts.
/SansSerif /Helvetica 16#00 vg&newcompositefont
/SansSerif-Bold /Helvetica-Bold 16#01 vg&newcompositefont
/SansSerif-Italic /Helvetica-Oblique 16#02 vg&newcompositefont
/SansSerif-BoldItalic /Helvetica-BoldOblique 16#03 vg&newcompositefont

% Make the Serif composite fonts.
/Serif /Times-Roman 16#00 vg&newcompositefont
/Serif-Bold /Times-Bold 16#01 vg&newcompositefont
/Serif-Italic /Times-Italic 16#02 vg&newcompositefont
/Serif-BoldItalic /Times-BoldItalic 16#03 vg&newcompositefont

% Make the Monospaced composite fonts.
/Monospaced /Courier 16#00 vg&newcompositefont
/Monospaced-Bold /Courier-Bold 16#01 vg&newcompositefont
/Monospaced-Italic /Courier-Oblique 16#02 vg&newcompositefont
/Monospaced-BoldItalic /Courier-BoldOblique 16#03 vg&newcompositefont

% Make the Dialog composite fonts.
/Dialog /Helvetica 16#00 vg&newcompositefont
/Dialog-Bold /Helvetica-Bold 16#01 vg&newcompositefont
/Dialog-Italic /Helvetica-Oblique 16#02 vg&newcompositefont
/Dialog-BoldItalic /Helvetica-BoldOblique 16#03 vg&newcompositefont

% Make the DialogInput composite fonts.
/DialogInput /Courier 16#00 vg&newcompositefont
/DialogInput-Bold /Courier-Bold 16#01 vg&newcompositefont
/DialogInput-Italic /Courier-Oblique 16#02 vg&newcompositefont
/DialogInput-BoldItalic /Courier-BoldOblique 16#03 vg&newcompositefont

% Make the Typewriter composite fonts (JDK 1.1 only).
/Typewriter /Courier 16#00 vg&newcompositefont
/Typewriter-Bold /Courier-Bold 16#01 vg&newcompositefont
/Typewriter-Italic /Courier-Oblique 16#02 vg&newcompositefont
/Typewriter-BoldItalic /Courier-BoldOblique 16#03 vg&newcompositefont


/cfontH {
 dup /fontsize exch def /SansSerif exch sf
 /vg&fontstyles [{cfontH} {cfontHB} {cfontHI} {cfontHBI}] def
} def
/cfontHB {
  dup /fontsize exch def /SansSerif-Bold exch sf
 /vg&fontstyles [{cfontH} {cfontHB} {cfontHI} {cfontHBI}] def
} def
/cfontHI {
 dup /fontsize exch def /SansSerif-Italic exch sf
 /vg&fontstyles [{cfontH} {cfontHB} {cfontHI} {cfontHBI}] def
} def
/cfontHBI {
 dup /fontsize exch def /SansSerif-BoldItalic exch sf
 /vg&fontstyles [{cfontH} {cfontHB} {cfontHI} {cfontHBI}] def
} def

/cfontT {
 dup /fontsize exch def /Serif exch sf
 /vg&fontstyles [{cfontT} {cfontTB} {cfontTI} {cfontTBI}] def
} def
/cfontTB {
 dup /fontsize exch def /Serif-Bold exch sf
 /vg&fontstyles [{cfontT} {cfontTB} {cfontTI} {cfontTBI}] def
} def
/cfontTI {
 dup /fontsize exch def /Serif-Italic exch sf
 /vg&fontstyles [{cfontT} {cfontTB} {cfontTI} {cfontTBI}] def
} def
/cfontTBI {
 dup /fontsize exch def /Serif-BoldItalic exch sf
 /vg&fontstyles [{cfontT} {cfontTB} {cfontTI} {cfontTBI}] def
} def

/cfontC {
 dup /fontsize exch def /Typewriter exch sf
 /vg&fontstyles [{cfontC} {cfontCB} {cfontCI} {cfontCBI}] def
} def
/cfontCB {
 dup /fontsize exch def /Typewriter-Bold exch sf
 /vg&fontstyles [{cfontC} {cfontCB} {cfontCI} {cfontCBI}] def
} def
/cfontCI {
 dup /fontsize exch def /Typewriter-Italic exch sf
 /vg&fontstyles [{cfontC} {cfontCB} {cfontCI} {cfontCBI}] def
} def
/cfontCBI {
 dup /fontsize exch def /Typewriter-BoldItalic exch sf
 /vg&fontstyles [{cfontC} {cfontCB} {cfontCI} {cfontCBI}] def
} def

% Darken or lighten the current color.
/darken {0.7 exch exp 3 copy
         q 4 -1 roll vg&C
         currentrgbcolor 3 {4 -2 roll mul} repeat
         3 array astore Q} def

/displayColorMap
<< /Cr   [1.00 0.00 0.00]       /Cg     [0.00 1.00 0.00]
   /Cb   [0.00 0.00 1.00]       /Cc     [1.00 0.00 0.00 0.00]
   /Cm   [0.00 1.00 0.00 0.00]  /Cy     [0.00 0.00 1.00 0.00]
   /Co   [1.00 0.78 0.00]       /Cp     [1.00 0.67 0.67]
   /Cw   [1   ]                 /Cgrl   [0.75]
   /Cgr  [0.50]                 /Cgrd   [0.25]
   /Ck   [0   ]
   /CGr  [1.00 0.00 0.00]       /CGg    [0.00 1.00 0.00]
   /CGb  [0.00 0.00 1.00]       /CGc    [1.00 0.00 0.00 0.00]
   /CGm  [0.00 1.00 0.00 0.00]  /CGy    [0.00 0.00 1.00 0.00]
   /CGo  [1.00 0.78 0.00]       /CGp    [1.00 0.67 0.67]
   /CGw  [1   ]                 /CGgrl  [0.75]
   /CGgr [0.50]                 /CGgrd  [0.25]
   /CGk  [0   ]
   /CIr  [1.00 0.00 0.00]       /CIg    [0.00 1.00 0.00]
   /CIb  [0.00 0.00 1.00]       /CIc    [1.00 0.00 0.00 0.00]
   /CIm  [0.00 1.00 0.00 0.00]  /CIy    [0.00 0.00 1.00 0.00]
   /CIo  [1.00 0.78 0.00]       /CIp    [1.00 0.67 0.67]
   /CIw  [1   ]                 /CIgrl  [0.75]
   /CIgr [0.50]                 /CIgrd  [0.25]
   /CIk  [0   ]
>> def

/printColorMap
<< /Cr   [1.00 0.33 0.33]       /Cg     [0.33 1.00 0.33]
   /Cb   [0.33 0.33 1.00]       /Cc     [1.00 0.00 0.00 0.00]
   /Cm   [0.00 1.00 0.00 0.00]  /Cy     [0.00 0.00 1.00 0.00]
   /Co   [1.00 0.78 0.00]       /Cp     [1.00 0.67 0.67]
   /Cw   [1   ]                 /Cgrl   [0.75]
   /Cgr  [0.50]                 /Cgrd   [0.25]
   /Ck   [0   ]
   /CGr  [1.00 0.33 0.33]       /CGg    [0.33 1.00 0.33]
   /CGb  [0.33 0.33 1.00]       /CGc    [1.00 0.00 0.00 0.00]
   /CGm  [0.00 1.00 0.00 0.00]  /CGy    [0.00 0.00 1.00 0.00]
   /CGo  [1.00 0.78 0.00]       /CGp    [1.00 0.67 0.67]
   /CGw  [1   ]                 /CGgrl  [0.75]
   /CGgr [0.50]                 /CGgrd  [0.25]
   /CGk  [0   ]
   /CIr  [1.00 0.33 0.33]       /CIg    [0.33 1.00 0.33]
   /CIb  [0.33 0.33 1.00]       /CIc    [1.00 0.00 0.00 0.00]
   /CIm  [0.00 1.00 0.00 0.00]  /CIy    [0.00 0.00 1.00 0.00]
   /CIo  [1.00 0.78 0.00]       /CIp    [1.00 0.67 0.67]
   /CIw  [1   ]                 /CIgrl  [0.75]
   /CIgr [0.50]                 /CIgrd  [0.25]
   /CIk  [0   ]
>> def

/grayColorMap
<< /Cr   [0   ]                 /Cg     [0   ]
   /Cb   [0   ]                 /Cc     [0   ]
   /Cm   [0   ]                 /Cy     [0   ]
   /Co   [0   ]                 /Cp     [0   ]
   /Cw   [0   ]                 /Cgrl   [0   ]
   /Cgr  [0   ]                 /Cgrd   [0   ]
   /Ck   [0   ]
   /CGr  [0.75]                 /CGg    [1   ]
   /CGb  [0.50]                 /CGc    [0.75]
   /CGm  [0.50]                 /CGy    [1   ]
   /CGo  [0.75]                 /CGp    [1   ]
   /CGw  [0   ]                 /CGgrl  [0.25]
   /CGgr [0.50]                 /CGgrd  [0.75]
   /CGk  [1   ]
   /CIr  [1   ]                 /CIg    [1   ]
   /CIb  [1   ]                 /CIc    [1   ]
   /CIm  [1   ]                 /CIy    [1   ]
   /CIo  [1   ]                 /CIp    [1   ]
   /CIw  [1   ]                 /CIgrl  [1   ]
   /CIgr [1   ]                 /CIgrd  [1   ]
   /CIk  [1   ]
>> def

/bwColorMap
<< /Cr   [0   ]                 /Cg     [0   ]
   /Cb   [0   ]                 /Cc     [0   ]
   /Cm   [0   ]                 /Cy     [0   ]
   /Co   [0   ]                 /Cp     [0   ]
   /Cw   [0   ]                 /Cgrl   [0   ]
   /Cgr  [0   ]                 /Cgrd   [0   ]
   /Ck   [0   ]
   /CGr  [1   ]                 /CGg    [1   ]
   /CGb  [1   ]                 /CGc    [1   ]
   /CGm  [1   ]                 /CGy    [1   ]
   /CGo  [1   ]                 /CGp    [1   ]
   /CGw  [0   ]                 /CGgrl  [1   ]
   /CGgr [1   ]                 /CGgrd  [1   ]
   /CGk  [1   ]
   /CIr  [1   ]                 /CIg    [1   ]
   /CIb  [1   ]                 /CIc    [1   ]
   /CIm  [1   ]                 /CIy    [1   ]
   /CIo  [1   ]                 /CIp    [1   ]
   /CIw  [1   ]                 /CIgrl  [1   ]
   /CIgr [1   ]                 /CIgrd  [1   ]
   /CIk  [1   ]
>> def

%
% The following routines handle the alignment of and printing of
% tagged strings.
%

% Predefine the bounding box values.
/bbllx 0 def /bblly 0 def /bburx 0 def /bbury 0 def

% This routine pops the first unicode character off of a string and returns
% the remainder of the string, the character code of first character,
% and a "true" if the string was non-zero length.
% <string>      popfirst <remaining string> <true>
% <null string> popfirst <false>
/popfirst {
  dup length 1 gt
    {dup 0 get /vg&fbyte exch def
     dup 1 get /vg&cbyte exch def
     dup length 2 sub 2 exch getinterval true}
    {pop false} ifelse
} def

% This routine shows a single unicode character given the font and
% character codes.
% <font code> <char code> unicharshow --
/unicharshow {
  2 string
  dup 0 5 -1 roll put
  dup 1 4 -1 roll put
  internalshow
} def

% This is an internal routine to alternate between determining the
% bounding box for stringsize and showing the string for recshow.
% <string> internalshow --
/internalshow {show} def

% This is an internal routine to alternate between determining the
% bounding box for stringsize and stroking various ornaments.
% <string> internalstroke --
/internalstroke {S} def

% Sets up internalshow to use the null device to determine string size.
% -- nullinternalshow --
/nullinternalshow {/internalshow {false charpath flattenpath
                                  pathbbox updatebbox} def} def

% Sets up internalstroke to use the null device to determine string size.
% -- nullinternalstroke --
/nullinternalstroke {
 /internalstroke {flattenpath pathbbox updatebbox} def} def

% This routine tests to see if the character code matches the first
% character of a string.
% <char code> <string> testchar <char code> <true or false>
/testchar {exch dup 3 -1 roll 0 get eq} def

% Raise the text baseline for superscripts.
% -- raise --
/raise {
  0 fontsize 2 div rmoveto
  /fontsize fontsize 2 mul 3 div def
  currentfont /FontName get fontsize sf
} def

% Un-raise the text baseline for superscripts.
% -- unraise --
/unraise {
  /fontsize fontsize 1.5 mul def
  0 fontsize 2 div neg rmoveto
} def

% Lower the text baseline for subscripts.
% -- lower --
/lower {
  0 fontsize 3 div neg rmoveto
  /fontsize fontsize 2 mul 3 div def
  currentfont /FontName get fontsize sf
} def

% Un-lower the text baseline for subscripts.
% -- unlower --
/unlower {
  /fontsize fontsize 1.5 mul def
  0 fontsize 3 div rmoveto
} def

% Compare the top two elements on the stack and leave only the
% larger one.
/maxval {2 copy gt {pop} {exch pop} ifelse} def

% Tokenize a string.  Do not use the usual PostScript token because
% parentheses will not be interpreted correctly because of rescanning
% of the string.
/vg&token {/vg&string exch def /vg&index -1 def /vg&level 0 def
0 2 vg&string length 2 sub {
  dup dup 1 add exch vg&string exch get 8 bitshift vg&string 3 -1 roll get or
  dup 16#f0fe eq {pop 1}{16#f0ff eq {-1}{0} ifelse} ifelse
  /vg&level exch vg&level add def
  vg&level 0 eq {/vg&index exch def exit} if pop
} for
vg&index 0 ge {
  vg&string vg&index 2 add dup vg&string length exch sub getinterval
  vg&index 2 gt {vg&string 2 vg&index 2 sub getinterval}{()} ifelse
  true}
{false} ifelse
} bind def

% Recursively show an unicode string.
% <string> recshow --
/recshow {
  popfirst
  {
    % Test to see if this is a string attribute.
    vg&fbyte 16#f0 and 16#e0 eq
    {
      q

      % Font style.
      currentfont dup /FontStyleBits known {/FontStyleBits get}{pop 0} ifelse
      vg&cbyte or vg&fontstyles exch get fontsize exch exec

      vg&token pop recshow currentpoint Q m recshow
    }
    {
      vg&fbyte 16#F8 and 16#F0 eq {

        % Superscript and/or subscript.
        vg&cbyte 16#00 eq {
          vg&token pop exch vg&token pop 3 -1 roll
          q raise recshow unraise currentpoint pop Q exch
          q lower recshow unlower currentpoint pop Q
          maxval currentpoint exch pop m recshow } if

        % Strikeout.
        vg&cbyte 16#01 eq {
          vg&token pop currentpoint 3 -1 roll recshow
          q 0 J vg&underline vg&uthick w
          currentpoint 4 -2 roll fontsize 3 div add moveto
          fontsize 3 div add lineto internalstroke Q
          recshow} if

        % Underline.
        vg&cbyte 16#02 eq {
          vg&token pop currentpoint 3 -1 roll recshow
          q 0 J vg&underline vg&uthick w
          currentpoint 4 -2 roll vg&uoffset add moveto
          vg&uoffset add lineto internalstroke Q
          recshow} if

        % Dashed underline.
        vg&cbyte 16#03 eq {
          vg&token pop currentpoint 3 -1 roll recshow
          q 0 J [ vg&uthick 5 mul vg&uthick 2 mul] 0 d
          vg&underline vg&uthick w
          currentpoint 4 -2 roll vg&uoffset add moveto
          vg&uoffset add lineto internalstroke Q
          recshow} if

        % Dotted underline.
        vg&cbyte 16#04 eq {
          vg&token pop currentpoint 3 -1 roll recshow
          q 1 J [ 0 vg&uthick 3 mul] 0 d
          vg&underline vg&uthick w
          currentpoint 4 -2 roll vg&uoffset add moveto
          vg&uoffset add lineto internalstroke Q
          recshow} if

        % Thick underline.
        vg&cbyte 16#05 eq {
          vg&token pop currentpoint 3 -1 roll recshow
          q 0 J vg&underline vg&uthick 2 mul w
          currentpoint 4 -2 roll vg&uoffset vg&uthick 2 div sub add moveto
          vg&uoffset vg&uthick 2 div sub add lineto internalstroke Q
          recshow} if

        % Gray thick underline.
        vg&cbyte 16#06 eq {
          vg&token pop currentpoint 3 -1 roll recshow
          q 0 J vg&underline vg&uthick 2 mul w 0.5 setgray
          currentpoint 4 -2 roll vg&uoffset vg&uthick 2 div sub add moveto
          vg&uoffset vg&uthick 2 div sub add lineto internalstroke Q
          recshow} if

        % Overbar.
        vg&cbyte 16#07 eq {
          vg&token pop dup stringsize relative 4 1 roll pop pop exch
          3 -1 roll recshow
          q 0 J vg&underline vg&uthick w
          vg&uoffset neg add dup currentpoint pop exch m l internalstroke Q
          recshow} if
      }
      {
        vg&fbyte vg&cbyte unicharshow recshow
      } ifelse
    } ifelse
  } if
} def

% Get the underline position and thickness from the current font.
/vg&underline {

currentfont dup /FontType get 0 eq {/FDepVector get 0 get} if
dup dup /FontInfo known {
  /FontInfo get dup
  dup /UnderlinePosition known {
    /UnderlinePosition get /vg&uoffset exch def
  }
  {
    pop /vg&uoffset 0 def
  } ifelse
  dup /UnderlineThickness known {
    /UnderlineThickness get /vg&uthick exch def
  }
  {
    pop /vg&uthick 0 def
  } ifelse
}
{
  pop /vg&uoffset 0 def /vg&uthick 0 def
} ifelse
/FontMatrix get
currentfont dup /FontType get 0 eq
{/FontMatrix get matrix concatmatrix}{pop} ifelse
dup 0 vg&uoffset 3 -1 roll transform /vg&uoffset exch def pop
0 vg&uthick 3 -1 roll transform /vg&uthick exch def pop
} def

% Make a frame with the coordinates on the stack.
% <llx> <lly> <urx> <ury> frame --
/frame {4 copy m 3 1 roll exch l 4 -2 roll l l h} def

% Resets the accumulated bounding box to a degenerate box at the
% current point.
% -- resetbbox --
/resetbbox {
  currentpoint 2 copy
  /bbury exch def
  /bburx exch def
  /bblly exch def
  /bbllx exch def
} def

% Update the accumulated bounding box.
% <llx'> <lly'> <urx'> <ury'> updatebbox --
/updatebbox {
  dup bbury gt {/bbury exch def} {pop} ifelse
  dup bburx gt {/bburx exch def} {pop} ifelse
  dup bblly lt {/bblly exch def} {pop} ifelse
  dup bbllx lt {/bbllx exch def} {pop} ifelse
} def

% Set the bounding box to the values on the stack.
% <llx'> <lly'> <urx'> <ury'> updatebbox --
/restorebbox {
  /bbury exch def /bburx exch def /bblly exch def /bbllx exch def
} def

% Push the accumulated bounding box onto the stack.
% -- pushbbox <llx> <lly> <urx> <ury>
/pushbbox {bbllx bblly bburx bbury} def

% Make the relative bounding box relative to the currentpoint.
% <llx'> <lly'> <urx'> <ury'> inflate <llx> <lly> <urx> <ury>
/inflate {
  2 {fontsize 0.2 mul add 4 1 roll} repeat
  2 {fontsize 0.2 mul sub 4 1 roll} repeat
} def

% Make the relative bounding box relative to the currentpoint.
% <llx'> <lly'> <urx'> <ury'> relative <llx> <lly> <urx> <ury>
/relative {
  currentpoint 3 -1 roll add 3 1 roll add exch 4 2 roll
  currentpoint 3 -1 roll add 3 1 roll add exch 4 2 roll
} def

% Returns the size of a string appropriate for recshow.
% <string> stringsize <llx> <lly> <urx> <ury>
/stringsize {
  pushbbox /internalshow load /internalstroke load 7 -1 roll
  q
  nulldevice 0 0 m
  nullinternalshow nullinternalstroke
  resetbbox
  recshow
  /internalstroke exch def /internalshow exch def
  pushbbox 8 -4 roll restorebbox
  Q
} def

% Calculate values for string positioning.
/calcval {4 copy
  3 -1 roll sub /widy exch def sub neg /widx exch def
  pop pop /dy exch def /dx exch def} def

% Utilities to position a string.
% First letter (U=upper, C=center, B=baseline, L=lower)
% Second letter (L=left, C=center, R=right)
/align [
{calcval dx neg widy dy add neg rmoveto} % UL
{calcval dx neg widy 2 div dy add neg rmoveto} % CL
{calcval dx neg 0 rmoveto} % BL
{calcval dx neg dy neg rmoveto} % LL
{calcval widx dx add neg widy dy add neg rmoveto} % UR
{calcval widx dx add neg widy 2 div dy add neg rmoveto} % CR
{calcval widx dx add neg 0 rmoveto} % BR
{calcval widx dx add neg dy neg rmoveto} % LR
{calcval widx 2 div dx add neg widy dy add neg rmoveto} % UC
{calcval widx 2 div dx add neg widy 2 div dy add neg rmoveto} % CC
{calcval widx 2 div dx add neg 0 rmoveto} % BC
{calcval widx 2 div dx add neg dy neg rmoveto} % LC
] def

/vg&str {m q 1 -1 scale dup stringsize 4 copy align 11 -1 roll get exec
         q inflate relative frame exch exec Q recshow Q} def

end /procDict exch def
%%EndProlog

%%BeginSetup
save
procDict begin
printColorMap begin
593 327 setpagesize
0 0 0 0 setmargins
0 0 setorigin
593 327 setsize
naturalsize
portrait
imagescale
cliptobounds
setbasematrix
/Helvetica 10 sf
defaultGraphicsState
%%EndSetup

0.00000 0.00000 0.00000 RG
[ 1.00000 0.00000 0.00000 1.00000 0.00000 0.00000 ] defaultmatrix matrix concatmatrix setmatrix
cliprestore
1.00000 1.00000 1.00000 RG
newpath
0.00000 0.00000 m
593.000 0.00000 l
593.000 327.000 l
0.00000 327.000 l
0.00000 0.00000 l
h
f
0.00000 0.00000 0.00000 RG
0.00000 0.00000 0.00000 RG
[ 1.00000 0.00000 0.00000 1.00000 0.00000 0.00000 ] defaultmatrix matrix concatmatrix setmatrix
cliprestore
1.00000 1.00000 1.00000 RG
newpath
0.00000 0.00000 m
593.000 0.00000 l
593.000 327.000 l
0.00000 327.000 l
0.00000 0.00000 l
h
f
0.00000 0.00000 0.00000 RG
0 0 593 327 rc
q
[ 1.00000 0.00000 0.00000 1.00000 0.00000 0.00000 ] concat
[ 1.00000 0.00000 0.00000 1.00000 -4.00000 274.000 ] concat
1.00000 1.00000 1.00000 RG
newpath
4.00000 -274.000 m
597.000 -274.000 l
597.000 53.0000 l
4.00000 53.0000 l
4.00000 -274.000 l
h
f
0.00000 0.00000 0.00000 RG
[ 1.00000 0.00000 0.00000 1.00000 -4.00000 274.000 ] defaultmatrix matrix concatmatrix setmatrix
[ 1.00000 0.00000 0.00000 1.00000 -4.00000 274.000 ] defaultmatrix matrix concatmatrix setmatrix
[ 1.00000 0.00000 0.00000 1.00000 0.00000 0.00000 ] defaultmatrix matrix concatmatrix setmatrix
[ 1.00000 0.00000 0.00000 1.00000 -4.00000 274.000 ] defaultmatrix matrix concatmatrix setmatrix
1.00000 .800000 0.00000 RG
newpath
53.2546 7.79329 m
118.255 7.79329 l
118.255 37.7933 l
53.2546 37.7933 l
53.2546 7.79329 l
h
f
0 J
1.45000 M
0.00000 0.00000 0.00000 RG
newpath
53.2546 7.79329 m
118.255 7.79329 l
118.255 37.7933 l
53.2546 37.7933 l
53.2546 7.79329 l
h
S
2 J
10.0000 M
0 J
1.45000 M
newpath
61.2390 27.5452 m
59.8913 27.5452 58.8503 27.1497 58.1159 26.3587  c
57.3816 25.5677 57.0144 24.4476 57.0144 22.9984  c
57.0144 21.5531 57.3884 20.4320 58.1364 19.6351  c
58.8845 18.8382 59.9382 18.4398 61.2976 18.4398  c
62.0749 18.4398 62.9851 18.5667 64.0280 18.8206  c
64.0280 19.9749 l
62.8405 19.5648 61.9245 19.3597 61.2800 19.3597  c
60.3386 19.3597 59.6101 19.6781 59.0945 20.3148  c
58.5788 20.9515 58.3210 21.8499 58.3210 23.0101  c
58.3210 24.1156 58.5964 24.9876 59.1472 25.6263  c
59.6980 26.2650 60.4499 26.5843 61.4030 26.5843  c
62.2234 26.5843 63.1023 26.3324 64.0398 25.8284  c
64.0398 26.8831 l
63.1843 27.3245 62.2507 27.5452 61.2390 27.5452  c
h
66.5124 27.3284 m
66.5124 26.4613 l
68.2468 26.4613 l
68.2468 19.6175 l
66.5124 20.0511 l
66.5124 19.1605 l
69.4070 18.4398 l
69.4070 26.4613 l
71.1413 26.4613 l
71.1413 27.3284 l
h
73.1628 24.2933 m
73.1628 23.4261 l
78.3659 23.4261 l
78.3659 24.2933 l
h
82.0573 27.5452 m
81.4753 27.5452 80.7312 27.4183 79.8249 27.1644  c
79.8249 25.9456 l
80.8015 26.3988 81.6042 26.6253 82.2331 26.6253  c
82.7175 26.6253 83.1071 26.4984 83.4021 26.2445  c
83.6970 25.9906 83.8445 25.6566 83.8445 25.2425  c
83.8445 24.9027 83.7478 24.6136 83.5544 24.3753  c
83.3611 24.1370 83.0046 23.8714 82.4851 23.5784  c
81.8874 23.2327 l
81.1491 22.8109 80.6286 22.4134 80.3259 22.0404  c
80.0232 21.6673 79.8718 21.2327 79.8718 20.7367  c
79.8718 20.0687 80.1140 19.5189 80.5984 19.0872  c
81.0827 18.6556 81.6999 18.4398 82.4499 18.4398  c
83.1179 18.4398 83.8230 18.5511 84.5652 18.7738  c
84.5652 19.8988 l
83.6511 19.5394 82.9695 19.3597 82.5202 19.3597  c
82.0945 19.3597 81.7429 19.4730 81.4655 19.6995  c
81.1882 19.9261 81.0495 20.2113 81.0495 20.5550  c
81.0495 20.8441 81.1511 21.0999 81.3542 21.3226  c
81.5573 21.5452 81.9284 21.8109 82.4675 22.1195  c
83.0886 22.4710 l
83.8386 22.8968 84.3620 23.2992 84.6589 23.6781  c
84.9558 24.0570 85.1042 24.5120 85.1042 25.0433  c
85.1042 25.7972 84.8259 26.4027 84.2693 26.8597  c
83.7126 27.3167 82.9753 27.5452 82.0573 27.5452  c
h
91.5202 27.1234 m
90.7468 27.3577 90.0847 27.4749 89.5339 27.4749  c
88.5964 27.4749 87.8318 27.1634 87.2400 26.5404  c
86.6482 25.9173 86.3523 25.1097 86.3523 24.1175  c
86.3523 23.1527 86.6130 22.3617 87.1345 21.7445  c
87.6560 21.1273 88.3230 20.8187 89.1355 20.8187  c
89.9050 20.8187 90.4997 21.0921 90.9196 21.6390  c
91.3396 22.1859 91.5495 22.9632 91.5495 23.9710  c
91.5437 24.3284 l
87.5300 24.3284 l
87.6980 25.8402 88.4382 26.5960 89.7507 26.5960  c
90.2312 26.5960 90.8210 26.4671 91.5202 26.2093  c
h
87.5827 23.4613 m
90.3894 23.4613 l
90.3894 22.2777 89.9480 21.6859 89.0652 21.6859  c
88.1784 21.6859 87.6843 22.2777 87.5827 23.4613  c
h
93.5417 27.3284 m
93.5417 20.9652 l
94.6960 20.9652 l
94.6960 22.1605 l
95.1530 21.2699 95.8171 20.8245 96.6882 20.8245  c
96.8054 20.8245 96.9284 20.8343 97.0573 20.8538  c
97.0573 21.9320 l
96.8581 21.8656 96.6823 21.8324 96.5300 21.8324  c
95.7995 21.8324 95.1882 22.2659 94.6960 23.1331  c
94.6960 27.3284 l
h
99.7702 27.3284 m
97.4030 20.9652 l
98.5573 20.9652 l
100.409 25.9163 l
102.360 20.9652 l
103.438 20.9652 l
100.925 27.3284 l
h
109.327 27.1234 m
108.553 27.3577 107.891 27.4749 107.341 27.4749  c
106.403 27.4749 105.638 27.1634 105.047 26.5404  c
104.455 25.9173 104.159 25.1097 104.159 24.1175  c
104.159 23.1527 104.420 22.3617 104.941 21.7445  c
105.463 21.1273 106.130 20.8187 106.942 20.8187  c
107.712 20.8187 108.306 21.0921 108.726 21.6390  c
109.146 22.1859 109.356 22.9632 109.356 23.9710  c
109.350 24.3284 l
105.337 24.3284 l
105.505 25.8402 106.245 26.5960 107.557 26.5960  c
108.038 26.5960 108.628 26.4671 109.327 26.2093  c
h
105.389 23.4613 m
108.196 23.4613 l
108.196 22.2777 107.755 21.6859 106.872 21.6859  c
105.985 21.6859 105.491 22.2777 105.389 23.4613  c
h
111.348 27.3284 m
111.348 20.9652 l
112.503 20.9652 l
112.503 22.1605 l
112.960 21.2699 113.624 20.8245 114.495 20.8245  c
114.612 20.8245 114.735 20.8343 114.864 20.8538  c
114.864 21.9320 l
114.665 21.8656 114.489 21.8324 114.337 21.8324  c
113.606 21.8324 112.995 22.2659 112.503 23.1331  c
112.503 27.3284 l
h
f
2 J
10.0000 M
1.00000 .800000 0.00000 RG
newpath
463.149 7.79329 m
528.149 7.79329 l
528.149 37.7933 l
463.149 37.7933 l
463.149 7.79329 l
h
f
0 J
1.45000 M
0.00000 0.00000 0.00000 RG
newpath
463.149 7.79329 m
528.149 7.79329 l
528.149 37.7933 l
463.149 37.7933 l
463.149 7.79329 l
h
S
2 J
10.0000 M
0 J
1.45000 M
newpath
468.371 27.3284 m
468.371 18.6566 l
469.602 18.6566 l
469.602 26.4085 l
473.504 26.4085 l
473.504 27.3284 l
h
475.455 27.3284 m
475.455 26.4613 l
477.189 26.4613 l
477.189 19.6175 l
475.455 20.0511 l
475.455 19.1605 l
478.350 18.4398 l
478.350 26.4613 l
480.084 26.4613 l
480.084 27.3284 l
h
482.105 24.2933 m
482.105 23.4261 l
487.309 23.4261 l
487.309 24.2933 l
h
491.000 27.5452 m
490.418 27.5452 489.674 27.4183 488.768 27.1644  c
488.768 25.9456 l
489.744 26.3988 490.547 26.6253 491.176 26.6253  c
491.660 26.6253 492.050 26.4984 492.345 26.2445  c
492.640 25.9906 492.787 25.6566 492.787 25.2425  c
492.787 24.9027 492.690 24.6136 492.497 24.3753  c
492.304 24.1370 491.947 23.8714 491.428 23.5784  c
490.830 23.2327 l
490.092 22.8109 489.571 22.4134 489.269 22.0404  c
488.966 21.6673 488.814 21.2327 488.814 20.7367  c
488.814 20.0687 489.057 19.5189 489.541 19.0872  c
490.025 18.6556 490.643 18.4398 491.393 18.4398  c
492.061 18.4398 492.766 18.5511 493.508 18.7738  c
493.508 19.8988 l
492.594 19.5394 491.912 19.3597 491.463 19.3597  c
491.037 19.3597 490.686 19.4730 490.408 19.6995  c
490.131 19.9261 489.992 20.2113 489.992 20.5550  c
489.992 20.8441 490.094 21.0999 490.297 21.3226  c
490.500 21.5452 490.871 21.8109 491.410 22.1195  c
492.031 22.4710 l
492.781 22.8968 493.305 23.2992 493.602 23.6781  c
493.898 24.0570 494.047 24.5120 494.047 25.0433  c
494.047 25.7972 493.769 26.4027 493.212 26.8597  c
492.655 27.3167 491.918 27.5452 491.000 27.5452  c
h
500.463 27.1234 m
499.689 27.3577 499.027 27.4749 498.477 27.4749  c
497.539 27.4749 496.774 27.1634 496.183 26.5404  c
495.591 25.9173 495.295 25.1097 495.295 24.1175  c
495.295 23.1527 495.556 22.3617 496.077 21.7445  c
496.599 21.1273 497.266 20.8187 498.078 20.8187  c
498.848 20.8187 499.442 21.0921 499.862 21.6390  c
500.282 22.1859 500.492 22.9632 500.492 23.9710  c
500.486 24.3284 l
496.473 24.3284 l
496.641 25.8402 497.381 26.5960 498.693 26.5960  c
499.174 26.5960 499.764 26.4671 500.463 26.2093  c
h
496.525 23.4613 m
499.332 23.4613 l
499.332 22.2777 498.891 21.6859 498.008 21.6859  c
497.121 21.6859 496.627 22.2777 496.525 23.4613  c
h
502.484 27.3284 m
502.484 20.9652 l
503.639 20.9652 l
503.639 22.1605 l
504.096 21.2699 504.760 20.8245 505.631 20.8245  c
505.748 20.8245 505.871 20.8343 506.000 20.8538  c
506.000 21.9320 l
505.801 21.8656 505.625 21.8324 505.473 21.8324  c
504.742 21.8324 504.131 22.2659 503.639 23.1331  c
503.639 27.3284 l
h
508.713 27.3284 m
506.346 20.9652 l
507.500 20.9652 l
509.352 25.9163 l
511.303 20.9652 l
512.381 20.9652 l
509.867 27.3284 l
h
518.270 27.1234 m
517.496 27.3577 516.834 27.4749 516.283 27.4749  c
515.346 27.4749 514.581 27.1634 513.989 26.5404  c
513.397 25.9173 513.102 25.1097 513.102 24.1175  c
513.102 23.1527 513.362 22.3617 513.884 21.7445  c
514.405 21.1273 515.072 20.8187 515.885 20.8187  c
516.654 20.8187 517.249 21.0921 517.669 21.6390  c
518.089 22.1859 518.299 22.9632 518.299 23.9710  c
518.293 24.3284 l
514.279 24.3284 l
514.447 25.8402 515.188 26.5960 516.500 26.5960  c
516.980 26.5960 517.570 26.4671 518.270 26.2093  c
h
514.332 23.4613 m
517.139 23.4613 l
517.139 22.2777 516.697 21.6859 515.814 21.6859  c
514.928 21.6859 514.434 22.2777 514.332 23.4613  c
h
520.291 27.3284 m
520.291 20.9652 l
521.445 20.9652 l
521.445 22.1605 l
521.902 21.2699 522.566 20.8245 523.438 20.8245  c
523.555 20.8245 523.678 20.8343 523.807 20.8538  c
523.807 21.9320 l
523.607 21.8656 523.432 21.8324 523.279 21.8324  c
522.549 21.8324 521.938 22.2659 521.445 23.1331  c
521.445 27.3284 l
h
f
2 J
10.0000 M
1.00000 .800000 0.00000 RG
newpath
310.327 -111.192 m
310.327 -101.527 301.541 -93.6923 290.702 -93.6923  c
279.863 -93.6923 271.077 -101.527 271.077 -111.192  c
271.077 -120.857 279.863 -128.692 290.702 -128.692  c
301.541 -128.692 310.327 -120.857 310.327 -111.192  c
h
f
0 J
1.45000 M
0.00000 0.00000 0.00000 RG
newpath
310.327 -111.192 m
310.327 -101.527 301.541 -93.6923 290.702 -93.6923  c
279.863 -93.6923 271.077 -101.527 271.077 -111.192  c
271.077 -120.857 279.863 -128.692 290.702 -128.692  c
301.541 -128.692 310.327 -120.857 310.327 -111.192  c
h
S
2 J
10.0000 M
0 J
1.45000 M
newpath
282.859 -106.657 m
282.859 -107.852 l
282.246 -106.958 281.502 -106.511 280.627 -106.511  c
280.072 -106.511 279.631 -106.685 279.303 -107.035  c
278.974 -107.385 278.810 -107.856 278.810 -108.450  c
278.810 -113.020 l
279.965 -113.020 l
279.965 -108.825 l
279.965 -108.349 280.034 -108.010 280.173 -107.809  c
280.311 -107.607 280.543 -107.507 280.867 -107.507  c
281.570 -107.507 282.234 -107.970 282.859 -108.895  c
282.859 -113.020 l
284.014 -113.020 l
284.014 -106.657 l
h
286.328 -106.657 m
286.328 -113.020 l
287.482 -113.020 l
287.482 -111.825 l
288.092 -112.716 288.838 -113.161 289.721 -113.161  c
290.271 -113.161 290.711 -112.986 291.039 -112.637  c
291.367 -112.287 291.531 -111.817 291.531 -111.227  c
291.531 -106.657 l
290.377 -106.657 l
290.377 -110.852 l
290.377 -111.325 290.307 -111.662 290.169 -111.863  c
290.030 -112.064 289.801 -112.165 289.480 -112.165  c
288.773 -112.165 288.107 -111.702 287.482 -110.776  c
287.482 -106.657 l
h
293.775 -106.657 m
293.775 -113.020 l
294.930 -113.020 l
294.930 -106.657 l
h
293.775 -114.175 m
293.775 -115.329 l
294.930 -115.329 l
294.930 -114.175 l
h
297.209 -106.657 m
297.209 -115.329 l
299.834 -115.329 l
300.666 -115.329 301.304 -115.145 301.747 -114.778  c
302.190 -114.411 302.412 -113.878 302.412 -113.179  c
302.412 -112.022 301.828 -111.202 300.660 -110.718  c
303.555 -106.657 l
302.043 -106.657 l
299.576 -110.325 l
298.428 -110.325 l
298.428 -106.657 l
h
298.428 -111.245 m
298.826 -111.245 l
300.373 -111.245 301.146 -111.852 301.146 -113.067  c
301.146 -113.962 300.498 -114.409 299.201 -114.409  c
298.428 -114.409 l
h
f
2 J
10.0000 M
1.00000 .800000 0.00000 RG
newpath
563.169 -93.6923 m
568.538 -102.099 l
578.667 -102.442 l
573.906 -111.192 l
578.667 -119.942 l
568.538 -120.286 l
563.169 -128.692 l
557.801 -120.286 l
547.672 -119.942 l
552.432 -111.192 l
547.672 -102.442 l
557.801 -102.099 l
h
f*
0 J
1.45000 M
0.00000 0.00000 0.00000 RG
newpath
563.169 -93.6923 m
568.538 -102.099 l
578.667 -102.442 l
573.906 -111.192 l
578.667 -119.942 l
568.538 -120.286 l
563.169 -128.692 l
557.801 -120.286 l
547.672 -119.942 l
552.432 -111.192 l
547.672 -102.442 l
557.801 -102.099 l
h
S
2 J
10.0000 M
0 J
1.45000 M
newpath
555.078 -112.153 m
555.078 -106.657 l
553.917 -106.657 l
553.917 -112.153 l
553.015 -112.153 l
553.015 -113.020 l
553.917 -113.020 l
553.917 -113.782 l
553.917 -115.298 554.609 -116.056 555.992 -116.056  c
556.378 -116.056 556.818 -115.991 557.310 -115.862  c
557.310 -114.948 l
556.790 -115.108 556.374 -115.188 556.062 -115.188  c
555.683 -115.188 555.424 -115.098 555.286 -114.916  c
555.147 -114.734 555.078 -114.397 555.078 -113.905  c
555.078 -113.020 l
556.665 -113.020 l
556.665 -112.153 l
h
558.851 -106.657 m
557.029 -113.020 l
558.160 -113.020 l
559.554 -108.093 l
561.060 -113.020 l
562.214 -113.020 l
563.533 -108.093 l
565.132 -113.020 l
566.122 -113.020 l
564.048 -106.657 l
562.888 -106.657 l
561.540 -111.585 l
560.017 -106.657 l
h
567.201 -106.657 m
567.201 -107.671 l
567.536 -108.456 568.216 -109.311 569.240 -110.237  c
569.902 -110.829 l
570.753 -111.599 571.179 -112.362 571.179 -113.120  c
571.179 -113.604 571.034 -113.985 570.743 -114.263  c
570.452 -114.540 570.052 -114.679 569.544 -114.679  c
568.943 -114.679 568.234 -114.446 567.417 -113.981  c
567.417 -115.001 l
568.187 -115.364 568.951 -115.546 569.708 -115.546  c
570.521 -115.546 571.173 -115.327 571.665 -114.890  c
572.158 -114.452 572.404 -113.872 572.404 -113.149  c
572.404 -112.630 572.280 -112.169 572.032 -111.767  c
571.784 -111.364 571.322 -110.876 570.646 -110.302  c
570.201 -109.921 l
569.275 -109.136 568.740 -108.386 568.595 -107.671  c
572.363 -107.671 l
572.363 -106.657 l
h
f
2 J
10.0000 M
1.00000 .800000 0.00000 RG
newpath
515.274 -51.1923 m
515.274 -41.5273 506.488 -33.6923 495.649 -33.6923  c
484.811 -33.6923 476.024 -41.5273 476.024 -51.1923  c
476.024 -60.8573 484.811 -68.6923 495.649 -68.6923  c
506.488 -68.6923 515.274 -60.8573 515.274 -51.1923  c
h
f
0 J
1.45000 M
0.00000 0.00000 0.00000 RG
newpath
515.274 -51.1923 m
515.274 -41.5273 506.488 -33.6923 495.649 -33.6923  c
484.811 -33.6923 476.024 -41.5273 476.024 -51.1923  c
476.024 -60.8573 484.811 -68.6923 495.649 -68.6923  c
506.488 -68.6923 515.274 -60.8573 515.274 -51.1923  c
h
S
2 J
10.0000 M
0 J
1.45000 M
newpath
483.450 -46.6572 m
481.628 -53.0204 l
482.759 -53.0204 l
484.153 -48.0927 l
485.659 -53.0204 l
486.813 -53.0204 l
488.132 -48.0927 l
489.731 -53.0204 l
490.722 -53.0204 l
488.647 -46.6572 l
487.487 -46.6572 l
486.140 -51.5849 l
484.616 -46.6572 l
h
491.958 -46.6572 m
491.958 -53.0204 l
493.112 -53.0204 l
493.112 -46.6572 l
h
491.958 -54.1747 m
491.958 -55.3290 l
493.112 -55.3290 l
493.112 -54.1747 l
h
496.804 -52.1532 m
496.804 -46.6572 l
495.644 -46.6572 l
495.644 -52.1532 l
494.741 -52.1532 l
494.741 -53.0204 l
495.644 -53.0204 l
495.644 -53.7822 l
495.644 -55.2978 496.335 -56.0556 497.718 -56.0556  c
498.104 -56.0556 498.544 -55.9911 499.036 -55.8622  c
499.036 -54.9482 l
498.517 -55.1083 498.101 -55.1884 497.788 -55.1884  c
497.409 -55.1884 497.150 -55.0976 497.012 -54.9159  c
496.873 -54.7343 496.804 -54.3974 496.804 -53.9052  c
496.804 -53.0204 l
498.392 -53.0204 l
498.392 -52.1532 l
h
499.839 -46.6572 m
499.839 -53.0204 l
500.993 -53.0204 l
500.993 -46.6572 l
h
499.839 -54.1747 m
499.839 -55.3290 l
500.993 -55.3290 l
500.993 -54.1747 l
h
503.149 -46.6572 m
503.149 -47.6708 l
503.485 -48.4560 504.165 -49.3114 505.188 -50.2372  c
505.851 -50.8290 l
506.702 -51.5986 507.128 -52.3622 507.128 -53.1200  c
507.128 -53.6044 506.982 -53.9853 506.691 -54.2626  c
506.400 -54.5400 506.001 -54.6786 505.493 -54.6786  c
504.892 -54.6786 504.183 -54.4462 503.366 -53.9814  c
503.366 -55.0009 l
504.136 -55.3642 504.899 -55.5458 505.657 -55.5458  c
506.470 -55.5458 507.122 -55.3271 507.614 -54.8896  c
508.106 -54.4521 508.353 -53.8720 508.353 -53.1493  c
508.353 -52.6298 508.228 -52.1689 507.980 -51.7665  c
507.732 -51.3642 507.270 -50.8759 506.595 -50.3017  c
506.149 -49.9208 l
505.224 -49.1357 504.688 -48.3857 504.544 -47.6708  c
508.311 -47.6708 l
508.311 -46.6572 l
h
f
2 J
10.0000 M
1.00000 .800000 0.00000 RG
newpath
37.8551 -93.6923 m
43.2236 -102.099 l
53.3525 -102.442 l
48.5920 -111.192 l
53.3525 -119.942 l
43.2236 -120.286 l
37.8551 -128.692 l
32.4866 -120.286 l
22.3577 -119.942 l
27.1182 -111.192 l
22.3577 -102.442 l
32.4866 -102.099 l
h
f*
0 J
1.45000 M
0.00000 0.00000 0.00000 RG
newpath
37.8551 -93.6923 m
43.2236 -102.099 l
53.3525 -102.442 l
48.5920 -111.192 l
53.3525 -119.942 l
43.2236 -120.286 l
37.8551 -128.692 l
32.4866 -120.286 l
22.3577 -119.942 l
27.1182 -111.192 l
22.3577 -102.442 l
32.4866 -102.099 l
h
S
2 J
10.0000 M
0 J
1.45000 M
newpath
29.7633 -112.153 m
29.7633 -106.657 l
28.6031 -106.657 l
28.6031 -112.153 l
27.7008 -112.153 l
27.7008 -113.020 l
28.6031 -113.020 l
28.6031 -113.782 l
28.6031 -115.298 29.2946 -116.056 30.6774 -116.056  c
31.0641 -116.056 31.5035 -115.991 31.9957 -115.862  c
31.9957 -114.948 l
31.4762 -115.108 31.0602 -115.188 30.7477 -115.188  c
30.3688 -115.188 30.1100 -115.098 29.9713 -114.916  c
29.8326 -114.734 29.7633 -114.397 29.7633 -113.905  c
29.7633 -113.020 l
31.3512 -113.020 l
31.3512 -112.153 l
h
33.5367 -106.657 m
31.7145 -113.020 l
32.8453 -113.020 l
34.2399 -108.093 l
35.7457 -113.020 l
36.9000 -113.020 l
38.2184 -108.093 l
39.8180 -113.020 l
40.8082 -113.020 l
38.7340 -106.657 l
37.5738 -106.657 l
36.2262 -111.585 l
34.7028 -106.657 l
h
42.1090 -106.722 m
42.1090 -107.800 l
42.9371 -107.472 43.5895 -107.308 44.0660 -107.308  c
44.6168 -107.308 45.0651 -107.469 45.4108 -107.791  c
45.7565 -108.113 45.9293 -108.530 45.9293 -109.042  c
45.9293 -110.261 45.0758 -110.870 43.3688 -110.870  c
42.9117 -110.870 l
42.9117 -111.649 l
43.3160 -111.655 l
44.9176 -111.655 45.7184 -112.220 45.7184 -113.349  c
45.7184 -114.235 45.1910 -114.679 44.1363 -114.679  c
43.5582 -114.679 42.9215 -114.517 42.2262 -114.192  c
42.2262 -115.200 l
42.9098 -115.431 43.5738 -115.546 44.2184 -115.546  c
45.9918 -115.546 46.8785 -114.876 46.8785 -113.536  c
46.8785 -112.517 46.2750 -111.790 45.0680 -111.356  c
46.4664 -111.032 47.1656 -110.267 47.1656 -109.059  c
47.1656 -108.243 46.8961 -107.602 46.3571 -107.138  c
45.8180 -106.673 45.0778 -106.440 44.1363 -106.440  c
43.6012 -106.440 42.9254 -106.534 42.1090 -106.722  c
h
f
2 J
10.0000 M
1.00000 .800000 0.00000 RG
newpath
105.380 -51.1923 m
105.380 -41.5273 96.5932 -33.6923 85.7546 -33.6923  c
74.9160 -33.6923 66.1296 -41.5273 66.1296 -51.1923  c
66.1296 -60.8573 74.9160 -68.6923 85.7546 -68.6923  c
96.5932 -68.6923 105.380 -60.8573 105.380 -51.1923  c
h
f
0 J
1.45000 M
0.00000 0.00000 0.00000 RG
newpath
105.380 -51.1923 m
105.380 -41.5273 96.5932 -33.6923 85.7546 -33.6923  c
74.9160 -33.6923 66.1296 -41.5273 66.1296 -51.1923  c
66.1296 -60.8573 74.9160 -68.6923 85.7546 -68.6923  c
96.5932 -68.6923 105.380 -60.8573 105.380 -51.1923  c
h
S
2 J
10.0000 M
0 J
1.45000 M
newpath
73.5554 -46.6572 m
71.7331 -53.0204 l
72.8640 -53.0204 l
74.2585 -48.0927 l
75.7644 -53.0204 l
76.9187 -53.0204 l
78.2370 -48.0927 l
79.8366 -53.0204 l
80.8269 -53.0204 l
78.7527 -46.6572 l
77.5925 -46.6572 l
76.2448 -51.5849 l
74.7214 -46.6572 l
h
82.0632 -46.6572 m
82.0632 -53.0204 l
83.2175 -53.0204 l
83.2175 -46.6572 l
h
82.0632 -54.1747 m
82.0632 -55.3290 l
83.2175 -55.3290 l
83.2175 -54.1747 l
h
86.9089 -52.1532 m
86.9089 -46.6572 l
85.7487 -46.6572 l
85.7487 -52.1532 l
84.8464 -52.1532 l
84.8464 -53.0204 l
85.7487 -53.0204 l
85.7487 -53.7822 l
85.7487 -55.2978 86.4402 -56.0556 87.8230 -56.0556  c
88.2097 -56.0556 88.6491 -55.9911 89.1413 -55.8622  c
89.1413 -54.9482 l
88.6218 -55.1083 88.2058 -55.1884 87.8933 -55.1884  c
87.5144 -55.1884 87.2556 -55.0976 87.1169 -54.9159  c
86.9782 -54.7343 86.9089 -54.3974 86.9089 -53.9052  c
86.9089 -53.0204 l
88.4968 -53.0204 l
88.4968 -52.1532 l
h
89.9441 -46.6572 m
89.9441 -53.0204 l
91.0984 -53.0204 l
91.0984 -46.6572 l
h
89.9441 -54.1747 m
89.9441 -55.3290 l
91.0984 -55.3290 l
91.0984 -54.1747 l
h
94.0632 -46.6572 m
94.0632 -47.5243 l
95.7976 -47.5243 l
95.7976 -54.3681 l
94.0632 -53.9345 l
94.0632 -54.8251 l
96.9577 -55.5458 l
96.9577 -47.5243 l
98.6921 -47.5243 l
98.6921 -46.6572 l
h
f
2 J
10.0000 M
1.00000 .800000 0.00000 RG
newpath
290.702 -158.692 m
296.070 -167.099 l
306.199 -167.442 l
301.439 -176.192 l
306.199 -184.942 l
296.070 -185.286 l
290.702 -193.692 l
285.334 -185.286 l
275.205 -184.942 l
279.965 -176.192 l
275.205 -167.442 l
285.334 -167.099 l
h
f*
0 J
1.45000 M
0.00000 0.00000 0.00000 RG
newpath
290.702 -158.692 m
296.070 -167.099 l
306.199 -167.442 l
301.439 -176.192 l
306.199 -184.942 l
296.070 -185.286 l
290.702 -193.692 l
285.334 -185.286 l
275.205 -184.942 l
279.965 -176.192 l
275.205 -167.442 l
285.334 -167.099 l
h
S
2 J
10.0000 M
0 J
1.45000 M
newpath
286.404 -177.153 m
286.404 -171.657 l
285.244 -171.657 l
285.244 -177.153 l
284.342 -177.153 l
284.342 -178.020 l
285.244 -178.020 l
285.244 -178.782 l
285.244 -180.298 285.935 -181.056 287.318 -181.056  c
287.705 -181.056 288.144 -180.991 288.637 -180.862  c
288.637 -179.948 l
288.117 -180.108 287.701 -180.188 287.389 -180.188  c
287.010 -180.188 286.751 -180.098 286.612 -179.916  c
286.473 -179.734 286.404 -179.397 286.404 -178.905  c
286.404 -178.020 l
287.992 -178.020 l
287.992 -177.153 l
h
290.178 -171.657 m
288.355 -178.020 l
289.486 -178.020 l
290.881 -173.093 l
292.387 -178.020 l
293.541 -178.020 l
294.859 -173.093 l
296.459 -178.020 l
297.449 -178.020 l
295.375 -171.657 l
294.215 -171.657 l
292.867 -176.585 l
291.344 -171.657 l
h
f
2 J
10.0000 M
1.00000 .800000 0.00000 RG
newpath
275.702 -258.376 m
305.702 -258.376 l
305.702 -228.376 l
275.702 -228.376 l
275.702 -258.376 l
h
f
0 J
1.45000 M
0.00000 0.00000 0.00000 RG
newpath
275.702 -258.376 m
305.702 -258.376 l
305.702 -228.376 l
275.702 -228.376 l
275.702 -258.376 l
h
S
2 J
10.0000 M
0 J
1.45000 M
newpath
279.663 -238.841 m
279.663 -247.513 l
282.546 -247.513 l
283.405 -247.513 284.099 -247.417 284.629 -247.226  c
285.158 -247.034 285.616 -246.710 286.003 -246.253  c
286.616 -245.527 286.923 -244.570 286.923 -243.382  c
286.923 -241.941 286.542 -240.824 285.780 -240.031  c
285.018 -239.238 283.946 -238.841 282.563 -238.841  c
h
280.893 -239.761 m
282.470 -239.761 l
283.595 -239.761 284.391 -240.064 284.860 -240.669  c
285.364 -241.314 285.616 -242.179 285.616 -243.265  c
285.616 -244.284 285.368 -245.085 284.872 -245.667  c
284.571 -246.023 284.212 -246.266 283.794 -246.397  c
283.376 -246.528 282.747 -246.593 281.907 -246.593  c
280.893 -246.593 l
h
288.651 -238.841 m
288.651 -247.513 l
289.858 -247.513 l
294.223 -240.816 l
294.223 -247.513 l
295.278 -247.513 l
295.278 -238.841 l
294.077 -238.841 l
289.706 -245.538 l
289.706 -238.841 l
h
299.216 -238.624 m
298.634 -238.624 297.889 -238.751 296.983 -239.005  c
296.983 -240.224 l
297.960 -239.771 298.763 -239.544 299.391 -239.544  c
299.876 -239.544 300.265 -239.671 300.560 -239.925  c
300.855 -240.179 301.003 -240.513 301.003 -240.927  c
301.003 -241.267 300.906 -241.556 300.713 -241.794  c
300.519 -242.033 300.163 -242.298 299.643 -242.591  c
299.046 -242.937 l
298.307 -243.359 297.787 -243.756 297.484 -244.129  c
297.181 -244.502 297.030 -244.937 297.030 -245.433  c
297.030 -246.101 297.272 -246.651 297.757 -247.082  c
298.241 -247.514 298.858 -247.730 299.608 -247.730  c
300.276 -247.730 300.981 -247.618 301.723 -247.396  c
301.723 -246.271 l
300.809 -246.630 300.128 -246.810 299.679 -246.810  c
299.253 -246.810 298.901 -246.697 298.624 -246.470  c
298.347 -246.243 298.208 -245.958 298.208 -245.615  c
298.208 -245.326 298.309 -245.070 298.513 -244.847  c
298.716 -244.624 299.087 -244.359 299.626 -244.050  c
300.247 -243.699 l
300.997 -243.273 301.520 -242.870 301.817 -242.492  c
302.114 -242.113 302.263 -241.658 302.263 -241.126  c
302.263 -240.372 301.984 -239.767 301.428 -239.310  c
300.871 -238.853 300.134 -238.624 299.216 -238.624  c
h
f
2 J
10.0000 M
0 J
1.45000 M
newpath
310.327 -111.192 m
552.459 -111.192 l
S
2 J
10.0000 M
0 J
1.45000 M
newpath
553.114 -102.257 m
509.550 -63.5452 l
S
2 J
10.0000 M
0 J
1.45000 M
newpath
495.649 7.79329 m
495.649 -33.6923 l
S
2 J
10.0000 M
0 J
1.45000 M
newpath
271.077 -111.192 m
48.5881 -111.192 l
S
2 J
10.0000 M
0 J
1.45000 M
newpath
85.7546 7.79329 m
85.7546 -33.6923 l
S
2 J
10.0000 M
0 J
1.45000 M
newpath
74.3733 -65.4488 m
45.0767 -102.146 l
S
2 J
10.0000 M
0 J
1.45000 M
newpath
290.702 -158.705 m
290.702 -128.692 l
S
2 J
10.0000 M
0 J
1.45000 M
newpath
290.702 -228.376 m
290.702 -193.697 l
S
2 J
10.0000 M
Q
[ 1.00000 0.00000 0.00000 1.00000 0.00000 0.00000 ] defaultmatrix matrix concatmatrix setmatrix
cliprestore

%%Trailer
%%EOF
