%!PS-Adobe-3.0 EPSF-3.0
%%BoundingBox: 0 0 469 442
%%Creator: yExport 1.5
%%Producer: org.freehep.graphicsio.ps.EPSGraphics2D Revision: 12753 
%%For: 
%%Title: 
%%CreationDate: Monday, October 23, 2017 2:53:12 PM BST
%%LanguageLevel: 3
%%EndComments
%%BeginProlog
100 dict dup begin

%
% File: org/freehep/graphicsio.ps/PSProlog.txt
% Author: Charles Loomis
%

% Redefinitions which save some space in the output file.  These are also
% the same as the PDF operators.
/q {gsave} def
/Q {grestore} def

/n {newpath} def
/m {moveto} def
/l {lineto} def
/c {curveto} def
/h {closepath} def

/re {4 -2 roll moveto
     dup 0 exch rlineto exch 0 rlineto
     neg 0 exch rlineto closepath} def

/f {fill} def
/f* {eofill} def
/F {gsave vg&FC fill grestore} def
/F* {gsave vg&FC eofill grestore} def

/s {closepath stroke} def
/S {stroke} def

/b {closepath gsave vg&FC fill grestore
    gsave stroke grestore newpath} def
/B {gsave vg&FC fill grestore gsave stroke grestore newpath} def
/b* {closepath gsave vg&FC eofill grestore
    gsave stroke grestore newpath} def
/B* {gsave vg&FC eofill grestore gsave stroke grestore newpath} def

/g {1 array astore /vg&fcolor exch def} def
/G {setgray} def
/k {4 array astore /vg&fcolor exch def} def
/K {setcmykcolor} def
/rg {3 array astore /vg&fcolor exch def} def
/RG {setrgbcolor} def

% Initialize the fill color.
0 0 0 rg

/vg&FC {mark vg&fcolor aload pop
        counttomark 1 eq {G} if
        counttomark 3 eq {RG} if
        counttomark 4 eq {K} if
        cleartomark } def

/vg&DFC {/vg&fcolor exch def} def

/vg&C {mark exch aload pop
       counttomark 1 eq {G} if
       counttomark 3 eq {RG} if
       counttomark 4 eq {K} if
       cleartomark } def

/w {setlinewidth} def
/j {setlinejoin} def
/J {setlinecap} def
/M {setmiterlimit} def
/d {setdash} def
/i {setflat} def

/W {clip} def
/W* {eoclip} def

% Setup the default graphics state.
% (black; 1 pt. linewidth; miter join; butt-ends; solid)
/defaultGraphicsState {0 g 1 w 0 j 0 J [] 0 d} def

% Emulation of the rectangle operators for PostScript implementations
% which do not implement all Level 2 features.  This is an INCOMPLETE
% emulation; only the "x y width height rect..." form is emulated.
/*rf {gsave newpath re fill grestore} def
/*rs {gsave newpath re stroke grestore} def
/*rc {newpath re clip} def
/rf  /rectfill where {pop /rectfill}{/*rf} ifelse load def
/rs  /rectstroke where {pop /rectstroke}{/*rs} ifelse load def
/rc  /rectclip where {pop /rectclip}{/*rc} ifelse load def

% Emulation of the selectfont operator.  This includes a 20% increase in
% the fontsize which is necessary to get sizes similar to the Java fonts.
/*sf {exch findfont exch
      dup type /arraytype eq {makefont}{scalefont} ifelse setfont} bind def
/sf /selectfont where {pop {1.2 mul selectfont}}{{1.2 mul *sf}} ifelse def

% Special version of stroke which allows the dash pattern to continue
% across path segments.  (This may be needed for PostScript although
% modern printers seem to do this correctly.)
/vg&stroke {
  currentdash pop length 0 eq
  {stroke}
  {
    currentdash /vg&doffset exch def pop
    flattenpath
    {m vg&resetdash}
    {2 copy
     currentpoint
     3 -1 roll sub dup mul
     3 1 roll sub dup mul
     add sqrt
     3 1 roll l
     currentdash 3 -1 roll add setdash}
     {}
     {h vg&resetdash}
     pathforall
     stroke
     vg&resetdash
  } ifelse
} def
/vg&resetdash {currentdash pop vg&doffset setdash} def

% Initialize variables for safety.
/delta 0 def
/xv 0 def  /yv 0 def  /width 0 def  /height 0 def

% Initialize to portrait INTERNATIONAL (Letter-height, A4-width) page.
/pw 595 def  /ph 791  def  /po true def /ftp false def

% Initialize margins to 20 points.
/ml 20 def  /mr 20 def  /mt 20 def  /mb 20 def

% Temporary matrices.
/smatrix 0 def  /nmatrix 0 def

% set page size (usage: <page width><page height> setpagesize)
/setpagesize {/ph exch def /pw exch def} def

% set page orientation (usage: portrait or landscape)
/portrait {/po true def} def
/landscape {/po false def} def

% force natural size for image (usage: naturalsize)
/naturalsize {/ftp false def} def

% resize image to fill page (usage: fittopage)
/fittopage {/ftp true def} def

% set margins of the page (usage: <left><bottom><top><right> setmargins)
/setmargins {/mr exch def /mt exch def /mb exch def /ml exch def} def

% set the graphic's size (usage: <width><height> setsize)
/setsize {/gh exch def /gw exch def} def

% set the graphic's origin (usage: <x0><y0> setorigin)
/setorigin {/gy exch def /gx exch def} def

% calculate image center
/imagecenter {pw ml sub mr sub 2 div ml add
              ph mt sub mb sub 2 div mb add} def

% calculate the necessary scaling
/imagescale {po {gw}{gh} ifelse pw ml sub mr sub div
             po {gh}{gw} ifelse ph mt sub mb sub div
             2 copy lt {exch} if pop
             ftp not {1 2 copy lt {exch} if pop} if
             1 exch div /sfactor exch def
             /gw gw sfactor mul def /gh gh sfactor mul def} def

% calculate image origin
/imageorigin {pw ml sub mr sub 2 div ml add
              po {gw}{gh} ifelse 2 div sub
              ph mt sub mb sub 2 div mb add
              po {gh}{gw} ifelse 2 div po {add}{sub} ifelse} def

% calculate the clipping origin
/cliporigin  {pw ml sub mr sub 2 div ml add
              po {gw}{gh} ifelse 2 div sub floor
              ph mt sub mb sub 2 div mb add
              po {gh}{gw} ifelse 2 div sub floor} def

% Set the clipping region to the bounding box.
/cliptobounds {cliporigin po {gw}{gh} ifelse 1 add
                          po {gh}{gw} ifelse 1 add rc} def

% set the base transformation matrix (usage: setbasematrix)
/setbasematrix {imageorigin translate
                po {0}{90} ifelse rotate
                sfactor sfactor neg scale
                /defaultmatrix matrix currentmatrix def} def

% The lower-right bias in drawing 1 pt. wide lines.
/bias  {q 0.5 0.5 translate} def
/unbias {Q} def

% Define the composite fonts used to print Unicode strings.
% Undefine particular values in an encoding array.
/vg&undef { {exch dup 3 -1 roll /.notdef put} forall } def
/vg&redef { {3 -1 roll dup 4 2 roll put} forall } def

% usage: key encoding basefontname vg&newbasefont font
/vg&newbasefont {
findfont dup length dict copy
  begin
    currentdict /FID undef
    /Encoding exch def
    dup /FontName exch def
    currentdict
  end
definefont
} def

% usage: key encoding basefontname vg&newskewedbasefont font
/vg&newskewedbasefont {
findfont dup length dict copy
  begin
    currentdict /FID undef
    /Encoding exch def
    dup /FontName exch def
    exch FontMatrix exch matrix concatmatrix /FontMatrix exch def
    currentdict
  end
definefont
} def

% usage: basekey suffix vg&nconcat name
/vg&nconcat {
  2 {dup length string cvs exch} repeat
  dup length 3 -1 roll dup length 3 -1 roll add string
  dup 0 4 -1 roll dup length 5 1 roll putinterval
  dup 4 -2 roll exch putinterval cvn
} def

%usage: fontname vg&skewmatrix matrix
/vg&skewmatrix {
findfont dup /FontInfo known
  {
    /FontInfo get dup /ItalicAngle known
    {
      [ 1 0 4 -1 roll /ItalicAngle get neg dup sin exch cos div 1 0 0 ]
    }
    {pop matrix} ifelse
  }
  {pop matrix} ifelse
} def

% usage: newfontname basefontname vg&newcompositefont --
/vg&newcompositefont {
/vg&fstyle exch def
/vg&bfont exch def
/vg&fname exch def
<<
/FontStyleBits vg&fstyle
/FontType 0
/FontMatrix matrix
/FontName vg&fname
/FMapType 2
/Encoding [ 0 1 255 {pop 6} for ]
          dup 16#00 0 put % Latin
          dup 16#03 1 put % Greek
          dup 16#20 2 put % Punctuation
          dup 16#21 3 put % Arrows
          dup 16#22 4 put % MathOps
          dup 16#27 5 put % Dingbats

/FDepVector [
vg&bfont /-UC-Latin vg&nconcat UCLatinEncoding
vg&bfont vg&newbasefont

vg&bfont vg&skewmatrix
vg&bfont /-UC-Greek vg&nconcat UCGreekEncoding
/Symbol vg&newskewedbasefont

vg&bfont /-UC-Punctuation vg&nconcat UCPunctuationEncoding
vg&bfont vg&newbasefont

/Arrows-UC findfont
/MathOps-UC findfont
/Dingbats-UC findfont
/Undefined-UC findfont ]
>>
vg&fname exch definefont pop
} def

% Null encoding vector (all elements set to .notdef)
/NullEncoding [ 256 {/.notdef} repeat ] def

% Unicode Latin encoding (unicode codes \u0000-\u00ff)
/UCLatinEncoding
  ISOLatin1Encoding dup length array copy
  dup 16#60 /grave put
  [ 16#90 16#91 16#92 16#93 16#94 16#95 16#96
    16#97 16#98 16#9a 16#9b 16#9d 16#9e 16#9f
  ] vg&undef
  def

% Unicode Greek encoding (unicode codes \u0370-\u03ff)
/UCGreekEncoding
  NullEncoding dup length array copy
  << 16#91 /Alpha    16#92 /Beta      16#93 /Gamma    16#94 /Delta
     16#95 /Epsilon  16#96 /Zeta      16#97 /Eta      16#98 /Theta
     16#99 /Iota     16#9a /Kappa     16#9b /Lambda   16#9c /Mu
     16#9d /Nu       16#9e /Xi        16#9f /Omicron  16#a0 /Pi
     16#a1 /Rho      16#a3 /Sigma     16#a4 /Tau      16#a5 /Upsilon
     16#a6 /Phi      16#a7 /Chi       16#a8 /Psi      16#a9 /Omega
     16#b1 /alpha    16#b2 /beta      16#b3 /gamma    16#b4 /delta
     16#b5 /epsilon  16#b6 /zeta      16#b7 /eta      16#b8 /theta
     16#b9 /iota     16#ba /kappa     16#bb /lambda   16#bc /mu
     16#bd /nu       16#be /xi        16#bf /omicron  16#c0 /pi
     16#c1 /rho      16#c2 /sigma1    16#c3 /sigma    16#c4 /tau
     16#c5 /upsilon  16#c6 /phi1      16#c7 /chi      16#c8 /psi
     16#c9 /omega    16#7e /semicolon 16#87 /dotmath  16#d1 /theta1
     16#d2 /Upsilon1 16#d5 /phi       16#d6 /omega1
  >> vg&redef
  def

% Unicode punctuation encoding (unicode codes \u2000-\u206f)
/UCPunctuationEncoding
  NullEncoding dup length array copy
  << 16#10 /hyphen          16#11 /hyphen              16#12 /endash
     16#13 /emdash          16#18 /quoteleft           16#19 /quoteright
     16#1a /quotesinglbase  16#1b /quotesingle         16#1c /quotedblleft
     16#1d /quotedblright   16#1e /quotedblbase        16#1f /quotedbl
     16#20 /dagger          16#21 /daggerdbl           16#22 /bullet
     16#24 /period          16#26 /ellipsis            16#27 /periodcentered
     16#30 /perthousand     16#44 /fraction
     16#70 /zerosuperior    16#74 /foursuperior        16#75 /fivesuperior
     16#76 /sixsuperior     16#77 /sevensuperior       16#78 /eightsuperior
     16#79 /ninesuperior    16#7b /hyphensuperior      16#7d /parenleftsuperior
     16#7e /parenrightsuperior
     16#80 /zeroinferior    16#84 /fourinferior        16#85 /fiveinferior
     16#81 /oneinferior     16#82 /twoinferior         16#83 /threeinferior
     16#86 /sixinferior     16#87 /seveninferior       16#88 /eightinferior
     16#89 /nineinferior    16#8b /hypheninferior      16#8d /parenleftinferior
     16#8e /parenrightinferior
  >> vg&redef
  def

% Unicode mathematical operators encoding (unicode codes \u2200-\u22ff)
/UCMathOpsEncoding
  NullEncoding dup length array copy
  << 16#00 /universal       16#02 /partialdiff         16#03 /existential
     16#05 /emptyset        16#06 /Delta               16#07 /gradient
     16#08 /element         16#09 /notelement          16#0b /suchthat
     16#0f /product         16#11 /summation           16#12 /minus
     16#15 /fraction        16#17 /asteriskmath        16#19 /bullet
     16#1a /radical         16#1d /proportional        16#1e /infinity
     16#20 /angle           16#23 /bar                 16#27 /logicaland
     16#28 /logicalor       16#29 /intersection        16#2a /union
     16#2b /integral        16#34 /therefore           16#36 /colon
     16#3c /similar         16#45 /congruent           16#48 /approxequal
     16#60 /notequal        16#61 /equivalence         16#64 /lessequal
     16#65 /greaterequal    16#82 /propersubset        16#83 /propersuperset
     16#86 /reflexsubset    16#87 /reflexsuperset      16#95 /circleplus
     16#97 /circlemultiply  16#a5 /perpendicular       16#03 /existential
     16#c0 /logicaland      16#c1 /logicalor           16#c2 /intersection
     16#c3 /union           16#c4 /diamond             16#c5 /dotmath
  >> vg&redef
  def

% Unicode arrows encoding (unicode codes \u2190-\u21ff)
% Also includes those "Letterlike" unicode characters
% which are available in the symbol font. (unicode codes \u2100-\u214f)
/UCArrowsEncoding
  NullEncoding dup length array copy
  << 16#11 /Ifraktur        16#1c /Rfraktur            16#22 /trademarkserif
     16#35 /aleph
     16#90 /arrowleft       16#91 /arrowup             16#92 /arrowright
     16#93 /arrowdown       16#94 /arrowboth           16#d0 /arrowdblleft
     16#d1 /arrowdblup      16#d2 /arrowdblright       16#d3 /arrowdbldown
     16#d4 /arrowdblboth
  >> vg&redef
  def

/ZapfDingbats findfont /Encoding get
dup length array copy /UCDingbatsEncoding exch def
16#20 1 16#7f {
  dup 16#20 sub exch
  UCDingbatsEncoding exch get
  UCDingbatsEncoding 3 1 roll put
} for
16#a0 1 16#ff {
  dup 16#40 sub exch
  UCDingbatsEncoding exch get
  UCDingbatsEncoding 3 1 roll put
} for
UCDingbatsEncoding [ 16#c0 1 16#ff {} for ] vg&undef
[ 16#00  16#05 16#0a 16#0b  16#28 16#4c 16#4e  16#53 16#54 16#55  16#57 16#5f
  16#60  16#68 16#69 16#6a  16#6b 16#6c 16#6d  16#6e 16#6f 16#70  16#71 16#72
  16#73  16#74 16#75 16#95  16#96 16#97 16#b0  16#bf
] vg&undef pop

% Define the base fonts which don't change.
/Undefined-UC NullEncoding       /Helvetica    vg&newbasefont pop
/MathOps-UC   UCMathOpsEncoding  /Symbol       vg&newbasefont pop
/Arrows-UC    UCArrowsEncoding   /Symbol       vg&newbasefont pop
/Dingbats-UC  UCDingbatsEncoding /ZapfDingbats vg&newbasefont pop

% Make the SansSerif composite fonts.
/SansSerif /Helvetica 16#00 vg&newcompositefont
/SansSerif-Bold /Helvetica-Bold 16#01 vg&newcompositefont
/SansSerif-Italic /Helvetica-Oblique 16#02 vg&newcompositefont
/SansSerif-BoldItalic /Helvetica-BoldOblique 16#03 vg&newcompositefont

% Make the Serif composite fonts.
/Serif /Times-Roman 16#00 vg&newcompositefont
/Serif-Bold /Times-Bold 16#01 vg&newcompositefont
/Serif-Italic /Times-Italic 16#02 vg&newcompositefont
/Serif-BoldItalic /Times-BoldItalic 16#03 vg&newcompositefont

% Make the Monospaced composite fonts.
/Monospaced /Courier 16#00 vg&newcompositefont
/Monospaced-Bold /Courier-Bold 16#01 vg&newcompositefont
/Monospaced-Italic /Courier-Oblique 16#02 vg&newcompositefont
/Monospaced-BoldItalic /Courier-BoldOblique 16#03 vg&newcompositefont

% Make the Dialog composite fonts.
/Dialog /Helvetica 16#00 vg&newcompositefont
/Dialog-Bold /Helvetica-Bold 16#01 vg&newcompositefont
/Dialog-Italic /Helvetica-Oblique 16#02 vg&newcompositefont
/Dialog-BoldItalic /Helvetica-BoldOblique 16#03 vg&newcompositefont

% Make the DialogInput composite fonts.
/DialogInput /Courier 16#00 vg&newcompositefont
/DialogInput-Bold /Courier-Bold 16#01 vg&newcompositefont
/DialogInput-Italic /Courier-Oblique 16#02 vg&newcompositefont
/DialogInput-BoldItalic /Courier-BoldOblique 16#03 vg&newcompositefont

% Make the Typewriter composite fonts (JDK 1.1 only).
/Typewriter /Courier 16#00 vg&newcompositefont
/Typewriter-Bold /Courier-Bold 16#01 vg&newcompositefont
/Typewriter-Italic /Courier-Oblique 16#02 vg&newcompositefont
/Typewriter-BoldItalic /Courier-BoldOblique 16#03 vg&newcompositefont


/cfontH {
 dup /fontsize exch def /SansSerif exch sf
 /vg&fontstyles [{cfontH} {cfontHB} {cfontHI} {cfontHBI}] def
} def
/cfontHB {
  dup /fontsize exch def /SansSerif-Bold exch sf
 /vg&fontstyles [{cfontH} {cfontHB} {cfontHI} {cfontHBI}] def
} def
/cfontHI {
 dup /fontsize exch def /SansSerif-Italic exch sf
 /vg&fontstyles [{cfontH} {cfontHB} {cfontHI} {cfontHBI}] def
} def
/cfontHBI {
 dup /fontsize exch def /SansSerif-BoldItalic exch sf
 /vg&fontstyles [{cfontH} {cfontHB} {cfontHI} {cfontHBI}] def
} def

/cfontT {
 dup /fontsize exch def /Serif exch sf
 /vg&fontstyles [{cfontT} {cfontTB} {cfontTI} {cfontTBI}] def
} def
/cfontTB {
 dup /fontsize exch def /Serif-Bold exch sf
 /vg&fontstyles [{cfontT} {cfontTB} {cfontTI} {cfontTBI}] def
} def
/cfontTI {
 dup /fontsize exch def /Serif-Italic exch sf
 /vg&fontstyles [{cfontT} {cfontTB} {cfontTI} {cfontTBI}] def
} def
/cfontTBI {
 dup /fontsize exch def /Serif-BoldItalic exch sf
 /vg&fontstyles [{cfontT} {cfontTB} {cfontTI} {cfontTBI}] def
} def

/cfontC {
 dup /fontsize exch def /Typewriter exch sf
 /vg&fontstyles [{cfontC} {cfontCB} {cfontCI} {cfontCBI}] def
} def
/cfontCB {
 dup /fontsize exch def /Typewriter-Bold exch sf
 /vg&fontstyles [{cfontC} {cfontCB} {cfontCI} {cfontCBI}] def
} def
/cfontCI {
 dup /fontsize exch def /Typewriter-Italic exch sf
 /vg&fontstyles [{cfontC} {cfontCB} {cfontCI} {cfontCBI}] def
} def
/cfontCBI {
 dup /fontsize exch def /Typewriter-BoldItalic exch sf
 /vg&fontstyles [{cfontC} {cfontCB} {cfontCI} {cfontCBI}] def
} def

% Darken or lighten the current color.
/darken {0.7 exch exp 3 copy
         q 4 -1 roll vg&C
         currentrgbcolor 3 {4 -2 roll mul} repeat
         3 array astore Q} def

/displayColorMap
<< /Cr   [1.00 0.00 0.00]       /Cg     [0.00 1.00 0.00]
   /Cb   [0.00 0.00 1.00]       /Cc     [1.00 0.00 0.00 0.00]
   /Cm   [0.00 1.00 0.00 0.00]  /Cy     [0.00 0.00 1.00 0.00]
   /Co   [1.00 0.78 0.00]       /Cp     [1.00 0.67 0.67]
   /Cw   [1   ]                 /Cgrl   [0.75]
   /Cgr  [0.50]                 /Cgrd   [0.25]
   /Ck   [0   ]
   /CGr  [1.00 0.00 0.00]       /CGg    [0.00 1.00 0.00]
   /CGb  [0.00 0.00 1.00]       /CGc    [1.00 0.00 0.00 0.00]
   /CGm  [0.00 1.00 0.00 0.00]  /CGy    [0.00 0.00 1.00 0.00]
   /CGo  [1.00 0.78 0.00]       /CGp    [1.00 0.67 0.67]
   /CGw  [1   ]                 /CGgrl  [0.75]
   /CGgr [0.50]                 /CGgrd  [0.25]
   /CGk  [0   ]
   /CIr  [1.00 0.00 0.00]       /CIg    [0.00 1.00 0.00]
   /CIb  [0.00 0.00 1.00]       /CIc    [1.00 0.00 0.00 0.00]
   /CIm  [0.00 1.00 0.00 0.00]  /CIy    [0.00 0.00 1.00 0.00]
   /CIo  [1.00 0.78 0.00]       /CIp    [1.00 0.67 0.67]
   /CIw  [1   ]                 /CIgrl  [0.75]
   /CIgr [0.50]                 /CIgrd  [0.25]
   /CIk  [0   ]
>> def

/printColorMap
<< /Cr   [1.00 0.33 0.33]       /Cg     [0.33 1.00 0.33]
   /Cb   [0.33 0.33 1.00]       /Cc     [1.00 0.00 0.00 0.00]
   /Cm   [0.00 1.00 0.00 0.00]  /Cy     [0.00 0.00 1.00 0.00]
   /Co   [1.00 0.78 0.00]       /Cp     [1.00 0.67 0.67]
   /Cw   [1   ]                 /Cgrl   [0.75]
   /Cgr  [0.50]                 /Cgrd   [0.25]
   /Ck   [0   ]
   /CGr  [1.00 0.33 0.33]       /CGg    [0.33 1.00 0.33]
   /CGb  [0.33 0.33 1.00]       /CGc    [1.00 0.00 0.00 0.00]
   /CGm  [0.00 1.00 0.00 0.00]  /CGy    [0.00 0.00 1.00 0.00]
   /CGo  [1.00 0.78 0.00]       /CGp    [1.00 0.67 0.67]
   /CGw  [1   ]                 /CGgrl  [0.75]
   /CGgr [0.50]                 /CGgrd  [0.25]
   /CGk  [0   ]
   /CIr  [1.00 0.33 0.33]       /CIg    [0.33 1.00 0.33]
   /CIb  [0.33 0.33 1.00]       /CIc    [1.00 0.00 0.00 0.00]
   /CIm  [0.00 1.00 0.00 0.00]  /CIy    [0.00 0.00 1.00 0.00]
   /CIo  [1.00 0.78 0.00]       /CIp    [1.00 0.67 0.67]
   /CIw  [1   ]                 /CIgrl  [0.75]
   /CIgr [0.50]                 /CIgrd  [0.25]
   /CIk  [0   ]
>> def

/grayColorMap
<< /Cr   [0   ]                 /Cg     [0   ]
   /Cb   [0   ]                 /Cc     [0   ]
   /Cm   [0   ]                 /Cy     [0   ]
   /Co   [0   ]                 /Cp     [0   ]
   /Cw   [0   ]                 /Cgrl   [0   ]
   /Cgr  [0   ]                 /Cgrd   [0   ]
   /Ck   [0   ]
   /CGr  [0.75]                 /CGg    [1   ]
   /CGb  [0.50]                 /CGc    [0.75]
   /CGm  [0.50]                 /CGy    [1   ]
   /CGo  [0.75]                 /CGp    [1   ]
   /CGw  [0   ]                 /CGgrl  [0.25]
   /CGgr [0.50]                 /CGgrd  [0.75]
   /CGk  [1   ]
   /CIr  [1   ]                 /CIg    [1   ]
   /CIb  [1   ]                 /CIc    [1   ]
   /CIm  [1   ]                 /CIy    [1   ]
   /CIo  [1   ]                 /CIp    [1   ]
   /CIw  [1   ]                 /CIgrl  [1   ]
   /CIgr [1   ]                 /CIgrd  [1   ]
   /CIk  [1   ]
>> def

/bwColorMap
<< /Cr   [0   ]                 /Cg     [0   ]
   /Cb   [0   ]                 /Cc     [0   ]
   /Cm   [0   ]                 /Cy     [0   ]
   /Co   [0   ]                 /Cp     [0   ]
   /Cw   [0   ]                 /Cgrl   [0   ]
   /Cgr  [0   ]                 /Cgrd   [0   ]
   /Ck   [0   ]
   /CGr  [1   ]                 /CGg    [1   ]
   /CGb  [1   ]                 /CGc    [1   ]
   /CGm  [1   ]                 /CGy    [1   ]
   /CGo  [1   ]                 /CGp    [1   ]
   /CGw  [0   ]                 /CGgrl  [1   ]
   /CGgr [1   ]                 /CGgrd  [1   ]
   /CGk  [1   ]
   /CIr  [1   ]                 /CIg    [1   ]
   /CIb  [1   ]                 /CIc    [1   ]
   /CIm  [1   ]                 /CIy    [1   ]
   /CIo  [1   ]                 /CIp    [1   ]
   /CIw  [1   ]                 /CIgrl  [1   ]
   /CIgr [1   ]                 /CIgrd  [1   ]
   /CIk  [1   ]
>> def

%
% The following routines handle the alignment of and printing of
% tagged strings.
%

% Predefine the bounding box values.
/bbllx 0 def /bblly 0 def /bburx 0 def /bbury 0 def

% This routine pops the first unicode character off of a string and returns
% the remainder of the string, the character code of first character,
% and a "true" if the string was non-zero length.
% <string>      popfirst <remaining string> <true>
% <null string> popfirst <false>
/popfirst {
  dup length 1 gt
    {dup 0 get /vg&fbyte exch def
     dup 1 get /vg&cbyte exch def
     dup length 2 sub 2 exch getinterval true}
    {pop false} ifelse
} def

% This routine shows a single unicode character given the font and
% character codes.
% <font code> <char code> unicharshow --
/unicharshow {
  2 string
  dup 0 5 -1 roll put
  dup 1 4 -1 roll put
  internalshow
} def

% This is an internal routine to alternate between determining the
% bounding box for stringsize and showing the string for recshow.
% <string> internalshow --
/internalshow {show} def

% This is an internal routine to alternate between determining the
% bounding box for stringsize and stroking various ornaments.
% <string> internalstroke --
/internalstroke {S} def

% Sets up internalshow to use the null device to determine string size.
% -- nullinternalshow --
/nullinternalshow {/internalshow {false charpath flattenpath
                                  pathbbox updatebbox} def} def

% Sets up internalstroke to use the null device to determine string size.
% -- nullinternalstroke --
/nullinternalstroke {
 /internalstroke {flattenpath pathbbox updatebbox} def} def

% This routine tests to see if the character code matches the first
% character of a string.
% <char code> <string> testchar <char code> <true or false>
/testchar {exch dup 3 -1 roll 0 get eq} def

% Raise the text baseline for superscripts.
% -- raise --
/raise {
  0 fontsize 2 div rmoveto
  /fontsize fontsize 2 mul 3 div def
  currentfont /FontName get fontsize sf
} def

% Un-raise the text baseline for superscripts.
% -- unraise --
/unraise {
  /fontsize fontsize 1.5 mul def
  0 fontsize 2 div neg rmoveto
} def

% Lower the text baseline for subscripts.
% -- lower --
/lower {
  0 fontsize 3 div neg rmoveto
  /fontsize fontsize 2 mul 3 div def
  currentfont /FontName get fontsize sf
} def

% Un-lower the text baseline for subscripts.
% -- unlower --
/unlower {
  /fontsize fontsize 1.5 mul def
  0 fontsize 3 div rmoveto
} def

% Compare the top two elements on the stack and leave only the
% larger one.
/maxval {2 copy gt {pop} {exch pop} ifelse} def

% Tokenize a string.  Do not use the usual PostScript token because
% parentheses will not be interpreted correctly because of rescanning
% of the string.
/vg&token {/vg&string exch def /vg&index -1 def /vg&level 0 def
0 2 vg&string length 2 sub {
  dup dup 1 add exch vg&string exch get 8 bitshift vg&string 3 -1 roll get or
  dup 16#f0fe eq {pop 1}{16#f0ff eq {-1}{0} ifelse} ifelse
  /vg&level exch vg&level add def
  vg&level 0 eq {/vg&index exch def exit} if pop
} for
vg&index 0 ge {
  vg&string vg&index 2 add dup vg&string length exch sub getinterval
  vg&index 2 gt {vg&string 2 vg&index 2 sub getinterval}{()} ifelse
  true}
{false} ifelse
} bind def

% Recursively show an unicode string.
% <string> recshow --
/recshow {
  popfirst
  {
    % Test to see if this is a string attribute.
    vg&fbyte 16#f0 and 16#e0 eq
    {
      q

      % Font style.
      currentfont dup /FontStyleBits known {/FontStyleBits get}{pop 0} ifelse
      vg&cbyte or vg&fontstyles exch get fontsize exch exec

      vg&token pop recshow currentpoint Q m recshow
    }
    {
      vg&fbyte 16#F8 and 16#F0 eq {

        % Superscript and/or subscript.
        vg&cbyte 16#00 eq {
          vg&token pop exch vg&token pop 3 -1 roll
          q raise recshow unraise currentpoint pop Q exch
          q lower recshow unlower currentpoint pop Q
          maxval currentpoint exch pop m recshow } if

        % Strikeout.
        vg&cbyte 16#01 eq {
          vg&token pop currentpoint 3 -1 roll recshow
          q 0 J vg&underline vg&uthick w
          currentpoint 4 -2 roll fontsize 3 div add moveto
          fontsize 3 div add lineto internalstroke Q
          recshow} if

        % Underline.
        vg&cbyte 16#02 eq {
          vg&token pop currentpoint 3 -1 roll recshow
          q 0 J vg&underline vg&uthick w
          currentpoint 4 -2 roll vg&uoffset add moveto
          vg&uoffset add lineto internalstroke Q
          recshow} if

        % Dashed underline.
        vg&cbyte 16#03 eq {
          vg&token pop currentpoint 3 -1 roll recshow
          q 0 J [ vg&uthick 5 mul vg&uthick 2 mul] 0 d
          vg&underline vg&uthick w
          currentpoint 4 -2 roll vg&uoffset add moveto
          vg&uoffset add lineto internalstroke Q
          recshow} if

        % Dotted underline.
        vg&cbyte 16#04 eq {
          vg&token pop currentpoint 3 -1 roll recshow
          q 1 J [ 0 vg&uthick 3 mul] 0 d
          vg&underline vg&uthick w
          currentpoint 4 -2 roll vg&uoffset add moveto
          vg&uoffset add lineto internalstroke Q
          recshow} if

        % Thick underline.
        vg&cbyte 16#05 eq {
          vg&token pop currentpoint 3 -1 roll recshow
          q 0 J vg&underline vg&uthick 2 mul w
          currentpoint 4 -2 roll vg&uoffset vg&uthick 2 div sub add moveto
          vg&uoffset vg&uthick 2 div sub add lineto internalstroke Q
          recshow} if

        % Gray thick underline.
        vg&cbyte 16#06 eq {
          vg&token pop currentpoint 3 -1 roll recshow
          q 0 J vg&underline vg&uthick 2 mul w 0.5 setgray
          currentpoint 4 -2 roll vg&uoffset vg&uthick 2 div sub add moveto
          vg&uoffset vg&uthick 2 div sub add lineto internalstroke Q
          recshow} if

        % Overbar.
        vg&cbyte 16#07 eq {
          vg&token pop dup stringsize relative 4 1 roll pop pop exch
          3 -1 roll recshow
          q 0 J vg&underline vg&uthick w
          vg&uoffset neg add dup currentpoint pop exch m l internalstroke Q
          recshow} if
      }
      {
        vg&fbyte vg&cbyte unicharshow recshow
      } ifelse
    } ifelse
  } if
} def

% Get the underline position and thickness from the current font.
/vg&underline {

currentfont dup /FontType get 0 eq {/FDepVector get 0 get} if
dup dup /FontInfo known {
  /FontInfo get dup
  dup /UnderlinePosition known {
    /UnderlinePosition get /vg&uoffset exch def
  }
  {
    pop /vg&uoffset 0 def
  } ifelse
  dup /UnderlineThickness known {
    /UnderlineThickness get /vg&uthick exch def
  }
  {
    pop /vg&uthick 0 def
  } ifelse
}
{
  pop /vg&uoffset 0 def /vg&uthick 0 def
} ifelse
/FontMatrix get
currentfont dup /FontType get 0 eq
{/FontMatrix get matrix concatmatrix}{pop} ifelse
dup 0 vg&uoffset 3 -1 roll transform /vg&uoffset exch def pop
0 vg&uthick 3 -1 roll transform /vg&uthick exch def pop
} def

% Make a frame with the coordinates on the stack.
% <llx> <lly> <urx> <ury> frame --
/frame {4 copy m 3 1 roll exch l 4 -2 roll l l h} def

% Resets the accumulated bounding box to a degenerate box at the
% current point.
% -- resetbbox --
/resetbbox {
  currentpoint 2 copy
  /bbury exch def
  /bburx exch def
  /bblly exch def
  /bbllx exch def
} def

% Update the accumulated bounding box.
% <llx'> <lly'> <urx'> <ury'> updatebbox --
/updatebbox {
  dup bbury gt {/bbury exch def} {pop} ifelse
  dup bburx gt {/bburx exch def} {pop} ifelse
  dup bblly lt {/bblly exch def} {pop} ifelse
  dup bbllx lt {/bbllx exch def} {pop} ifelse
} def

% Set the bounding box to the values on the stack.
% <llx'> <lly'> <urx'> <ury'> updatebbox --
/restorebbox {
  /bbury exch def /bburx exch def /bblly exch def /bbllx exch def
} def

% Push the accumulated bounding box onto the stack.
% -- pushbbox <llx> <lly> <urx> <ury>
/pushbbox {bbllx bblly bburx bbury} def

% Make the relative bounding box relative to the currentpoint.
% <llx'> <lly'> <urx'> <ury'> inflate <llx> <lly> <urx> <ury>
/inflate {
  2 {fontsize 0.2 mul add 4 1 roll} repeat
  2 {fontsize 0.2 mul sub 4 1 roll} repeat
} def

% Make the relative bounding box relative to the currentpoint.
% <llx'> <lly'> <urx'> <ury'> relative <llx> <lly> <urx> <ury>
/relative {
  currentpoint 3 -1 roll add 3 1 roll add exch 4 2 roll
  currentpoint 3 -1 roll add 3 1 roll add exch 4 2 roll
} def

% Returns the size of a string appropriate for recshow.
% <string> stringsize <llx> <lly> <urx> <ury>
/stringsize {
  pushbbox /internalshow load /internalstroke load 7 -1 roll
  q
  nulldevice 0 0 m
  nullinternalshow nullinternalstroke
  resetbbox
  recshow
  /internalstroke exch def /internalshow exch def
  pushbbox 8 -4 roll restorebbox
  Q
} def

% Calculate values for string positioning.
/calcval {4 copy
  3 -1 roll sub /widy exch def sub neg /widx exch def
  pop pop /dy exch def /dx exch def} def

% Utilities to position a string.
% First letter (U=upper, C=center, B=baseline, L=lower)
% Second letter (L=left, C=center, R=right)
/align [
{calcval dx neg widy dy add neg rmoveto} % UL
{calcval dx neg widy 2 div dy add neg rmoveto} % CL
{calcval dx neg 0 rmoveto} % BL
{calcval dx neg dy neg rmoveto} % LL
{calcval widx dx add neg widy dy add neg rmoveto} % UR
{calcval widx dx add neg widy 2 div dy add neg rmoveto} % CR
{calcval widx dx add neg 0 rmoveto} % BR
{calcval widx dx add neg dy neg rmoveto} % LR
{calcval widx 2 div dx add neg widy dy add neg rmoveto} % UC
{calcval widx 2 div dx add neg widy 2 div dy add neg rmoveto} % CC
{calcval widx 2 div dx add neg 0 rmoveto} % BC
{calcval widx 2 div dx add neg dy neg rmoveto} % LC
] def

/vg&str {m q 1 -1 scale dup stringsize 4 copy align 11 -1 roll get exec
         q inflate relative frame exch exec Q recshow Q} def

end /procDict exch def
%%EndProlog

%%BeginSetup
save
procDict begin
printColorMap begin
469 442 setpagesize
0 0 0 0 setmargins
0 0 setorigin
469 442 setsize
naturalsize
portrait
imagescale
cliptobounds
setbasematrix
/Helvetica 10 sf
defaultGraphicsState
%%EndSetup

0.00000 0.00000 0.00000 RG
[ 1.00000 0.00000 0.00000 1.00000 0.00000 0.00000 ] defaultmatrix matrix concatmatrix setmatrix
cliprestore
1.00000 1.00000 1.00000 RG
newpath
0.00000 0.00000 m
469.000 0.00000 l
469.000 442.000 l
0.00000 442.000 l
0.00000 0.00000 l
h
f
0.00000 0.00000 0.00000 RG
0.00000 0.00000 0.00000 RG
[ 1.00000 0.00000 0.00000 1.00000 0.00000 0.00000 ] defaultmatrix matrix concatmatrix setmatrix
cliprestore
1.00000 1.00000 1.00000 RG
newpath
0.00000 0.00000 m
469.000 0.00000 l
469.000 442.000 l
0.00000 442.000 l
0.00000 0.00000 l
h
f
0.00000 0.00000 0.00000 RG
0 0 469 442 rc
q
[ 1.00000 0.00000 0.00000 1.00000 0.00000 0.00000 ] concat
[ 1.00000 0.00000 0.00000 1.00000 -59.0000 -73.0000 ] concat
1.00000 1.00000 1.00000 RG
newpath
59.0000 73.0000 m
528.000 73.0000 l
528.000 515.000 l
59.0000 515.000 l
59.0000 73.0000 l
h
f
0.00000 0.00000 0.00000 RG
[ 1.00000 0.00000 0.00000 1.00000 -59.0000 -73.0000 ] defaultmatrix matrix concatmatrix setmatrix
[ 1.00000 0.00000 0.00000 1.00000 -59.0000 -73.0000 ] defaultmatrix matrix concatmatrix setmatrix
[ 1.00000 0.00000 0.00000 1.00000 0.00000 0.00000 ] defaultmatrix matrix concatmatrix setmatrix
[ 1.00000 0.00000 0.00000 1.00000 -59.0000 -73.0000 ] defaultmatrix matrix concatmatrix setmatrix
1.00000 .800000 0.00000 RG
newpath
180.694 287.000 m
180.694 295.284 173.979 302.000 165.694 302.000  c
157.410 302.000 150.694 295.284 150.694 287.000  c
150.694 278.716 157.410 272.000 165.694 272.000  c
173.979 272.000 180.694 278.716 180.694 287.000  c
h
f
0 J
1.45000 M
0.00000 0.00000 0.00000 RG
newpath
180.694 287.000 m
180.694 295.284 173.979 302.000 165.694 302.000  c
157.410 302.000 150.694 295.284 150.694 287.000  c
150.694 278.716 157.410 272.000 165.694 272.000  c
173.979 272.000 180.694 278.716 180.694 287.000  c
h
S
2 J
10.0000 M
0 J
1.45000 M
newpath
158.672 291.682 m
157.813 291.682 157.100 291.363 156.533 290.727  c
155.967 290.090 155.684 289.287 155.684 288.318  c
155.684 287.283 155.964 286.477 156.525 285.898  c
157.085 285.320 157.867 285.031 158.871 285.031  c
159.367 285.031 159.922 285.100 160.535 285.236  c
160.535 286.203 l
159.883 286.012 159.352 285.916 158.942 285.916  c
158.352 285.916 157.878 286.138 157.521 286.581  c
157.163 287.024 156.984 287.615 156.984 288.354  c
156.984 289.068 157.168 289.646 157.535 290.088  c
157.902 290.529 158.383 290.750 158.977 290.750  c
159.504 290.750 160.047 290.615 160.606 290.346  c
160.606 291.342 l
159.859 291.568 159.215 291.682 158.672 291.682  c
h
162.299 291.535 m
162.299 282.863 l
164.924 282.863 l
165.756 282.863 166.394 283.047 166.837 283.414  c
167.280 283.781 167.502 284.314 167.502 285.014  c
167.502 286.170 166.918 286.990 165.750 287.475  c
168.645 291.535 l
167.133 291.535 l
164.666 287.867 l
163.518 287.867 l
163.518 291.535 l
h
163.518 286.947 m
163.916 286.947 l
165.463 286.947 166.236 286.340 166.236 285.125  c
166.236 284.230 165.588 283.783 164.291 283.783  c
163.518 283.783 l
h
170.572 291.535 m
170.572 290.668 l
172.307 290.668 l
172.307 283.824 l
170.572 284.258 l
170.572 283.367 l
173.467 282.646 l
173.467 290.668 l
175.201 290.668 l
175.201 291.535 l
h
f
2 J
10.0000 M
1.00000 .800000 0.00000 RG
newpath
288.000 287.000 m
288.000 295.284 281.284 302.000 273.000 302.000  c
264.716 302.000 258.000 295.284 258.000 287.000  c
258.000 278.716 264.716 272.000 273.000 272.000  c
281.284 272.000 288.000 278.716 288.000 287.000  c
h
f
0 J
1.45000 M
0.00000 0.00000 0.00000 RG
newpath
288.000 287.000 m
288.000 295.284 281.284 302.000 273.000 302.000  c
264.716 302.000 258.000 295.284 258.000 287.000  c
258.000 278.716 264.716 272.000 273.000 272.000  c
281.284 272.000 288.000 278.716 288.000 287.000  c
h
S
2 J
10.0000 M
0 J
1.45000 M
newpath
265.978 291.682 m
265.118 291.682 264.405 291.363 263.839 290.727  c
263.272 290.090 262.989 289.287 262.989 288.318  c
262.989 287.283 263.270 286.477 263.830 285.898  c
264.391 285.320 265.173 285.031 266.177 285.031  c
266.673 285.031 267.228 285.100 267.841 285.236  c
267.841 286.203 l
267.188 286.012 266.657 285.916 266.247 285.916  c
265.657 285.916 265.184 286.138 264.826 286.581  c
264.469 287.024 264.290 287.615 264.290 288.354  c
264.290 289.068 264.474 289.646 264.841 290.088  c
265.208 290.529 265.688 290.750 266.282 290.750  c
266.810 290.750 267.353 290.615 267.911 290.346  c
267.911 291.342 l
267.165 291.568 266.521 291.682 265.978 291.682  c
h
269.604 291.535 m
269.604 282.863 l
272.229 282.863 l
273.062 282.863 273.699 283.047 274.143 283.414  c
274.586 283.781 274.808 284.314 274.808 285.014  c
274.808 286.170 274.224 286.990 273.056 287.475  c
275.950 291.535 l
274.438 291.535 l
271.972 287.867 l
270.823 287.867 l
270.823 291.535 l
h
270.823 286.947 m
271.222 286.947 l
272.769 286.947 273.542 286.340 273.542 285.125  c
273.542 284.230 272.894 283.783 271.597 283.783  c
270.823 283.783 l
h
277.069 291.535 m
277.069 290.521 l
277.405 289.736 278.085 288.881 279.108 287.955  c
279.771 287.363 l
280.622 286.594 281.048 285.830 281.048 285.072  c
281.048 284.588 280.902 284.207 280.611 283.930  c
280.320 283.652 279.921 283.514 279.413 283.514  c
278.812 283.514 278.103 283.746 277.286 284.211  c
277.286 283.191 l
278.056 282.828 278.819 282.646 279.577 282.646  c
280.390 282.646 281.042 282.865 281.534 283.303  c
282.026 283.740 282.272 284.320 282.272 285.043  c
282.272 285.562 282.148 286.023 281.900 286.426  c
281.652 286.828 281.190 287.316 280.515 287.891  c
280.069 288.271 l
279.144 289.057 278.608 289.807 278.464 290.521  c
282.231 290.521 l
282.231 291.535 l
h
f
2 J
10.0000 M
1.00000 .800000 0.00000 RG
newpath
398.306 407.000 m
398.306 415.284 391.590 422.000 383.306 422.000  c
375.021 422.000 368.306 415.284 368.306 407.000  c
368.306 398.716 375.021 392.000 383.306 392.000  c
391.590 392.000 398.306 398.716 398.306 407.000  c
h
f
0 J
1.45000 M
0.00000 0.00000 0.00000 RG
newpath
398.306 407.000 m
398.306 415.284 391.590 422.000 383.306 422.000  c
375.021 422.000 368.306 415.284 368.306 407.000  c
368.306 398.716 375.021 392.000 383.306 392.000  c
391.590 392.000 398.306 398.716 398.306 407.000  c
h
S
2 J
10.0000 M
0 J
1.45000 M
newpath
376.283 411.682 m
375.424 411.682 374.711 411.363 374.144 410.727  c
373.578 410.090 373.295 409.287 373.295 408.318  c
373.295 407.283 373.575 406.477 374.136 405.898  c
374.696 405.320 375.478 405.031 376.482 405.031  c
376.978 405.031 377.533 405.100 378.146 405.236  c
378.146 406.203 l
377.494 406.012 376.963 405.916 376.553 405.916  c
375.963 405.916 375.489 406.138 375.132 406.581  c
374.774 407.024 374.596 407.615 374.596 408.354  c
374.596 409.068 374.779 409.646 375.146 410.088  c
375.514 410.529 375.994 410.750 376.588 410.750  c
377.115 410.750 377.658 410.615 378.217 410.346  c
378.217 411.342 l
377.471 411.568 376.826 411.682 376.283 411.682  c
h
379.910 411.535 m
379.910 402.863 l
382.535 402.863 l
383.367 402.863 384.005 403.047 384.448 403.414  c
384.891 403.781 385.113 404.314 385.113 405.014  c
385.113 406.170 384.529 406.990 383.361 407.475  c
386.256 411.535 l
384.744 411.535 l
382.277 407.867 l
381.129 407.867 l
381.129 411.535 l
h
381.129 406.947 m
381.527 406.947 l
383.074 406.947 383.848 406.340 383.848 405.125  c
383.848 404.230 383.199 403.783 381.902 403.783  c
381.129 403.783 l
h
387.598 411.471 m
387.598 410.393 l
388.426 410.721 389.078 410.885 389.555 410.885  c
390.105 410.885 390.554 410.724 390.899 410.401  c
391.245 410.079 391.418 409.662 391.418 409.150  c
391.418 407.932 390.564 407.322 388.857 407.322  c
388.400 407.322 l
388.400 406.543 l
388.805 406.537 l
390.406 406.537 391.207 405.973 391.207 404.844  c
391.207 403.957 390.680 403.514 389.625 403.514  c
389.047 403.514 388.410 403.676 387.715 404.000  c
387.715 402.992 l
388.398 402.762 389.062 402.646 389.707 402.646  c
391.480 402.646 392.367 403.316 392.367 404.656  c
392.367 405.676 391.764 406.402 390.557 406.836  c
391.955 407.160 392.654 407.926 392.654 409.133  c
392.654 409.949 392.385 410.590 391.846 411.055  c
391.307 411.520 390.566 411.752 389.625 411.752  c
389.090 411.752 388.414 411.658 387.598 411.471  c
h
f
2 J
10.0000 M
1.00000 .800000 0.00000 RG
newpath
425.000 193.000 m
425.000 201.284 418.284 208.000 410.000 208.000  c
401.716 208.000 395.000 201.284 395.000 193.000  c
395.000 184.716 401.716 178.000 410.000 178.000  c
418.284 178.000 425.000 184.716 425.000 193.000  c
h
f
0 J
1.45000 M
0.00000 0.00000 0.00000 RG
newpath
425.000 193.000 m
425.000 201.284 418.284 208.000 410.000 208.000  c
401.716 208.000 395.000 201.284 395.000 193.000  c
395.000 184.716 401.716 178.000 410.000 178.000  c
418.284 178.000 425.000 184.716 425.000 193.000  c
h
S
2 J
10.0000 M
0 J
1.45000 M
newpath
402.978 197.682 m
402.118 197.682 401.405 197.363 400.839 196.727  c
400.272 196.090 399.989 195.287 399.989 194.318  c
399.989 193.283 400.270 192.477 400.830 191.898  c
401.391 191.320 402.173 191.031 403.177 191.031  c
403.673 191.031 404.228 191.100 404.841 191.236  c
404.841 192.203 l
404.188 192.012 403.657 191.916 403.247 191.916  c
402.657 191.916 402.184 192.138 401.826 192.581  c
401.469 193.024 401.290 193.615 401.290 194.354  c
401.290 195.068 401.474 195.646 401.841 196.088  c
402.208 196.529 402.688 196.750 403.282 196.750  c
403.810 196.750 404.353 196.615 404.911 196.346  c
404.911 197.342 l
404.165 197.568 403.521 197.682 402.978 197.682  c
h
406.604 197.535 m
406.604 188.863 l
409.229 188.863 l
410.062 188.863 410.699 189.047 411.143 189.414  c
411.586 189.781 411.808 190.314 411.808 191.014  c
411.808 192.170 411.224 192.990 410.056 193.475  c
412.950 197.535 l
411.438 197.535 l
408.972 193.867 l
407.823 193.867 l
407.823 197.535 l
h
407.823 192.947 m
408.222 192.947 l
409.769 192.947 410.542 192.340 410.542 191.125  c
410.542 190.230 409.894 189.783 408.597 189.783  c
407.823 189.783 l
h
417.591 197.535 m
417.591 195.080 l
413.688 195.080 l
413.688 194.207 l
417.591 188.863 l
418.675 188.863 l
418.675 194.137 l
419.835 194.137 l
419.835 195.080 l
418.675 195.080 l
418.675 197.535 l
h
414.819 194.137 m
417.667 194.137 l
417.667 190.281 l
h
f
2 J
10.0000 M
1.00000 .800000 0.00000 RG
newpath
288.000 163.000 m
288.000 171.284 281.284 178.000 273.000 178.000  c
264.716 178.000 258.000 171.284 258.000 163.000  c
258.000 154.716 264.716 148.000 273.000 148.000  c
281.284 148.000 288.000 154.716 288.000 163.000  c
h
f
0 J
1.45000 M
0.00000 0.00000 0.00000 RG
newpath
288.000 163.000 m
288.000 171.284 281.284 178.000 273.000 178.000  c
264.716 178.000 258.000 171.284 258.000 163.000  c
258.000 154.716 264.716 148.000 273.000 148.000  c
281.284 148.000 288.000 154.716 288.000 163.000  c
h
S
2 J
10.0000 M
0 J
1.45000 M
newpath
265.978 167.682 m
265.118 167.682 264.405 167.363 263.839 166.727  c
263.272 166.090 262.989 165.287 262.989 164.318  c
262.989 163.283 263.270 162.477 263.830 161.898  c
264.391 161.320 265.173 161.031 266.177 161.031  c
266.673 161.031 267.228 161.100 267.841 161.236  c
267.841 162.203 l
267.188 162.012 266.657 161.916 266.247 161.916  c
265.657 161.916 265.184 162.138 264.826 162.581  c
264.469 163.024 264.290 163.615 264.290 164.354  c
264.290 165.068 264.474 165.646 264.841 166.088  c
265.208 166.529 265.688 166.750 266.282 166.750  c
266.810 166.750 267.353 166.615 267.911 166.346  c
267.911 167.342 l
267.165 167.568 266.521 167.682 265.978 167.682  c
h
269.604 167.535 m
269.604 158.863 l
272.229 158.863 l
273.062 158.863 273.699 159.047 274.143 159.414  c
274.586 159.781 274.808 160.314 274.808 161.014  c
274.808 162.170 274.224 162.990 273.056 163.475  c
275.950 167.535 l
274.438 167.535 l
271.972 163.867 l
270.823 163.867 l
270.823 167.535 l
h
270.823 162.947 m
271.222 162.947 l
272.769 162.947 273.542 162.340 273.542 161.125  c
273.542 160.230 272.894 159.783 271.597 159.783  c
270.823 159.783 l
h
277.532 167.570 m
277.532 166.539 l
278.106 166.770 278.653 166.885 279.173 166.885  c
279.743 166.885 280.191 166.717 280.518 166.381  c
280.844 166.045 281.007 165.582 281.007 164.992  c
281.007 163.691 280.110 163.041 278.317 163.041  c
278.114 163.041 277.901 163.055 277.679 163.082  c
277.679 158.863 l
282.067 158.863 l
282.067 159.871 l
278.692 159.871 l
278.692 162.156 l
279.806 162.156 280.675 162.412 281.300 162.924  c
281.925 163.436 282.237 164.145 282.237 165.051  c
282.237 165.895 281.953 166.556 281.385 167.034  c
280.816 167.513 280.028 167.752 279.021 167.752  c
278.583 167.752 278.087 167.691 277.532 167.570  c
h
f
2 J
10.0000 M
1.00000 .800000 0.00000 RG
newpath
288.000 413.000 m
288.000 421.284 281.284 428.000 273.000 428.000  c
264.716 428.000 258.000 421.284 258.000 413.000  c
258.000 404.716 264.716 398.000 273.000 398.000  c
281.284 398.000 288.000 404.716 288.000 413.000  c
h
f
0 J
1.45000 M
0.00000 0.00000 0.00000 RG
newpath
288.000 413.000 m
288.000 421.284 281.284 428.000 273.000 428.000  c
264.716 428.000 258.000 421.284 258.000 413.000  c
258.000 404.716 264.716 398.000 273.000 398.000  c
281.284 398.000 288.000 404.716 288.000 413.000  c
h
S
2 J
10.0000 M
0 J
1.45000 M
newpath
265.978 417.682 m
265.118 417.682 264.405 417.363 263.839 416.727  c
263.272 416.090 262.989 415.287 262.989 414.318  c
262.989 413.283 263.270 412.477 263.830 411.898  c
264.391 411.320 265.173 411.031 266.177 411.031  c
266.673 411.031 267.228 411.100 267.841 411.236  c
267.841 412.203 l
267.188 412.012 266.657 411.916 266.247 411.916  c
265.657 411.916 265.184 412.138 264.826 412.581  c
264.469 413.024 264.290 413.615 264.290 414.354  c
264.290 415.068 264.474 415.646 264.841 416.088  c
265.208 416.529 265.688 416.750 266.282 416.750  c
266.810 416.750 267.353 416.615 267.911 416.346  c
267.911 417.342 l
267.165 417.568 266.521 417.682 265.978 417.682  c
h
269.604 417.535 m
269.604 408.863 l
272.229 408.863 l
273.062 408.863 273.699 409.047 274.143 409.414  c
274.586 409.781 274.808 410.314 274.808 411.014  c
274.808 412.170 274.224 412.990 273.056 413.475  c
275.950 417.535 l
274.438 417.535 l
271.972 413.867 l
270.823 413.867 l
270.823 417.535 l
h
270.823 412.947 m
271.222 412.947 l
272.769 412.947 273.542 412.340 273.542 411.125  c
273.542 410.230 272.894 409.783 271.597 409.783  c
270.823 409.783 l
h
278.136 413.041 m
278.687 412.326 279.380 411.969 280.216 411.969  c
280.974 411.969 281.594 412.220 282.076 412.722  c
282.559 413.224 282.800 413.867 282.800 414.652  c
282.800 415.555 282.529 416.297 281.988 416.879  c
281.447 417.461 280.761 417.752 279.929 417.752  c
278.972 417.752 278.224 417.367 277.685 416.598  c
277.146 415.828 276.876 414.760 276.876 413.393  c
276.876 411.889 277.186 410.721 277.805 409.889  c
278.424 409.057 279.296 408.641 280.421 408.641  c
280.937 408.641 281.581 408.750 282.354 408.969  c
282.354 409.977 l
281.538 409.664 280.870 409.508 280.351 409.508  c
278.874 409.508 278.136 410.686 278.136 413.041  c
h
281.640 414.910 m
281.640 414.254 281.492 413.738 281.197 413.363  c
280.902 412.988 280.493 412.801 279.970 412.801  c
279.481 412.801 279.062 412.965 278.710 413.293  c
278.358 413.621 278.183 414.016 278.183 414.477  c
278.183 415.203 278.350 415.786 278.684 416.226  c
279.018 416.665 279.460 416.885 280.011 416.885  c
280.507 416.885 280.902 416.706 281.197 416.349  c
281.492 415.991 281.640 415.512 281.640 414.910  c
h
f
2 J
10.0000 M
1.00000 .800000 0.00000 RG
newpath
180.694 163.000 m
180.694 171.284 173.979 178.000 165.694 178.000  c
157.410 178.000 150.694 171.284 150.694 163.000  c
150.694 154.716 157.410 148.000 165.694 148.000  c
173.979 148.000 180.694 154.716 180.694 163.000  c
h
f
0 J
1.45000 M
0.00000 0.00000 0.00000 RG
newpath
180.694 163.000 m
180.694 171.284 173.979 178.000 165.694 178.000  c
157.410 178.000 150.694 171.284 150.694 163.000  c
150.694 154.716 157.410 148.000 165.694 148.000  c
173.979 148.000 180.694 154.716 180.694 163.000  c
h
S
2 J
10.0000 M
0 J
1.45000 M
newpath
158.672 167.682 m
157.813 167.682 157.100 167.363 156.533 166.727  c
155.967 166.090 155.684 165.287 155.684 164.318  c
155.684 163.283 155.964 162.477 156.525 161.898  c
157.085 161.320 157.867 161.031 158.871 161.031  c
159.367 161.031 159.922 161.100 160.535 161.236  c
160.535 162.203 l
159.883 162.012 159.352 161.916 158.942 161.916  c
158.352 161.916 157.878 162.138 157.521 162.581  c
157.163 163.024 156.984 163.615 156.984 164.354  c
156.984 165.068 157.168 165.646 157.535 166.088  c
157.902 166.529 158.383 166.750 158.977 166.750  c
159.504 166.750 160.047 166.615 160.606 166.346  c
160.606 167.342 l
159.859 167.568 159.215 167.682 158.672 167.682  c
h
162.299 167.535 m
162.299 158.863 l
164.924 158.863 l
165.756 158.863 166.394 159.047 166.837 159.414  c
167.280 159.781 167.502 160.314 167.502 161.014  c
167.502 162.170 166.918 162.990 165.750 163.475  c
168.645 167.535 l
167.133 167.535 l
164.666 163.867 l
163.518 163.867 l
163.518 167.535 l
h
163.518 162.947 m
163.916 162.947 l
165.463 162.947 166.236 162.340 166.236 161.125  c
166.236 160.230 165.588 159.783 164.291 159.783  c
163.518 159.783 l
h
170.572 167.535 m
170.686 166.859 170.847 166.275 171.056 165.783  c
171.265 165.291 171.635 164.615 172.166 163.756  c
174.533 159.947 l
170.068 159.947 l
170.068 158.863 l
175.635 158.863 l
175.635 159.947 l
173.412 163.225 172.168 165.754 171.902 167.535  c
h
f
2 J
10.0000 M
1.00000 .800000 0.00000 RG
newpath
398.306 287.000 m
398.306 295.284 391.590 302.000 383.306 302.000  c
375.021 302.000 368.306 295.284 368.306 287.000  c
368.306 278.716 375.021 272.000 383.306 272.000  c
391.590 272.000 398.306 278.716 398.306 287.000  c
h
f
0 J
1.45000 M
0.00000 0.00000 0.00000 RG
newpath
398.306 287.000 m
398.306 295.284 391.590 302.000 383.306 302.000  c
375.021 302.000 368.306 295.284 368.306 287.000  c
368.306 278.716 375.021 272.000 383.306 272.000  c
391.590 272.000 398.306 278.716 398.306 287.000  c
h
S
2 J
10.0000 M
0 J
1.45000 M
newpath
381.987 291.330 m
381.214 291.564 380.552 291.682 380.001 291.682  c
379.063 291.682 378.299 291.370 377.707 290.747  c
377.115 290.124 376.819 289.316 376.819 288.324  c
376.819 287.359 377.080 286.568 377.601 285.951  c
378.123 285.334 378.790 285.025 379.602 285.025  c
380.372 285.025 380.967 285.299 381.387 285.846  c
381.807 286.393 382.016 287.170 382.016 288.178  c
382.011 288.535 l
377.997 288.535 l
378.165 290.047 378.905 290.803 380.218 290.803  c
380.698 290.803 381.288 290.674 381.987 290.416  c
h
378.050 287.668 m
380.856 287.668 l
380.856 286.484 380.415 285.893 379.532 285.893  c
378.645 285.893 378.151 286.484 378.050 287.668  c
h
383.974 291.535 m
383.974 282.863 l
386.599 282.863 l
387.431 282.863 388.068 283.047 388.512 283.414  c
388.955 283.781 389.177 284.314 389.177 285.014  c
389.177 286.170 388.593 286.990 387.425 287.475  c
390.319 291.535 l
388.807 291.535 l
386.341 287.867 l
385.192 287.867 l
385.192 291.535 l
h
385.192 286.947 m
385.591 286.947 l
387.138 286.947 387.911 286.340 387.911 285.125  c
387.911 284.230 387.263 283.783 385.966 283.783  c
385.192 283.783 l
h
f
2 J
10.0000 M
1.00000 .800000 0.00000 RG
newpath
273.000 362.000 m
277.133 355.315 l
285.728 357.607 l
282.978 350.444 l
291.000 347.000 l
282.978 343.556 l
285.728 336.393 l
277.133 338.685 l
273.000 332.000 l
268.867 338.685 l
260.272 336.393 l
263.022 343.556 l
255.000 347.000 l
263.022 350.444 l
260.272 357.607 l
268.867 355.315 l
h
f*
0 J
1.45000 M
0.00000 0.00000 0.00000 RG
newpath
273.000 362.000 m
277.133 355.315 l
285.728 357.607 l
282.978 350.444 l
291.000 347.000 l
282.978 343.556 l
285.728 336.393 l
277.133 338.685 l
273.000 332.000 l
268.867 338.685 l
260.272 336.393 l
263.022 343.556 l
255.000 347.000 l
263.022 350.444 l
260.272 357.607 l
268.867 355.315 l
h
S
2 J
10.0000 M
0 J
1.45000 M
newpath
264.908 346.039 m
264.908 351.535 l
263.748 351.535 l
263.748 346.039 l
262.846 346.039 l
262.846 345.172 l
263.748 345.172 l
263.748 344.410 l
263.748 342.895 264.439 342.137 265.822 342.137  c
266.209 342.137 266.648 342.201 267.141 342.330  c
267.141 343.244 l
266.621 343.084 266.205 343.004 265.893 343.004  c
265.514 343.004 265.255 343.095 265.116 343.276  c
264.978 343.458 264.908 343.795 264.908 344.287  c
264.908 345.172 l
266.496 345.172 l
266.496 346.039 l
h
268.682 351.535 m
266.859 345.172 l
267.990 345.172 l
269.385 350.100 l
270.891 345.172 l
272.045 345.172 l
273.363 350.100 l
274.963 345.172 l
275.953 345.172 l
273.879 351.535 l
272.719 351.535 l
271.371 346.607 l
269.848 351.535 l
h
277.031 351.535 m
277.031 350.521 l
277.367 349.736 278.047 348.881 279.070 347.955  c
279.732 347.363 l
280.584 346.594 281.010 345.830 281.010 345.072  c
281.010 344.588 280.864 344.207 280.573 343.930  c
280.282 343.652 279.883 343.514 279.375 343.514  c
278.773 343.514 278.064 343.746 277.248 344.211  c
277.248 343.191 l
278.018 342.828 278.781 342.646 279.539 342.646  c
280.352 342.646 281.004 342.865 281.496 343.303  c
281.988 343.740 282.234 344.320 282.234 345.043  c
282.234 345.562 282.110 346.023 281.862 346.426  c
281.614 346.828 281.152 347.316 280.477 347.891  c
280.031 348.271 l
279.105 349.057 278.570 349.807 278.426 350.521  c
282.193 350.521 l
282.193 351.535 l
h
f
2 J
10.0000 M
1.00000 .800000 0.00000 RG
newpath
359.000 246.000 m
363.133 237.532 l
371.728 240.435 l
368.978 231.363 l
377.000 227.000 l
368.978 222.637 l
371.728 213.565 l
363.133 216.468 l
359.000 208.000 l
354.867 216.468 l
346.272 213.565 l
349.022 222.637 l
341.000 227.000 l
349.022 231.363 l
346.272 240.435 l
354.867 237.532 l
h
f*
0 J
1.45000 M
0.00000 0.00000 0.00000 RG
newpath
359.000 246.000 m
363.133 237.532 l
371.728 240.435 l
368.978 231.363 l
377.000 227.000 l
368.978 222.637 l
371.728 213.565 l
363.133 216.468 l
359.000 208.000 l
354.867 216.468 l
346.272 213.565 l
349.022 222.637 l
341.000 227.000 l
349.022 231.363 l
346.272 240.435 l
354.867 237.532 l
h
S
2 J
10.0000 M
0 J
1.45000 M
newpath
350.908 226.039 m
350.908 231.535 l
349.748 231.535 l
349.748 226.039 l
348.846 226.039 l
348.846 225.172 l
349.748 225.172 l
349.748 224.410 l
349.748 222.895 350.439 222.137 351.822 222.137  c
352.209 222.137 352.648 222.201 353.141 222.330  c
353.141 223.244 l
352.621 223.084 352.205 223.004 351.893 223.004  c
351.514 223.004 351.255 223.095 351.116 223.276  c
350.978 223.458 350.908 223.795 350.908 224.287  c
350.908 225.172 l
352.496 225.172 l
352.496 226.039 l
h
354.682 231.535 m
352.859 225.172 l
353.990 225.172 l
355.385 230.100 l
356.891 225.172 l
358.045 225.172 l
359.363 230.100 l
360.963 225.172 l
361.953 225.172 l
359.879 231.535 l
358.719 231.535 l
357.371 226.607 l
355.848 231.535 l
h
363.494 231.570 m
363.494 230.539 l
364.068 230.770 364.615 230.885 365.135 230.885  c
365.705 230.885 366.153 230.717 366.479 230.381  c
366.806 230.045 366.969 229.582 366.969 228.992  c
366.969 227.691 366.072 227.041 364.279 227.041  c
364.076 227.041 363.863 227.055 363.641 227.082  c
363.641 222.863 l
368.029 222.863 l
368.029 223.871 l
364.654 223.871 l
364.654 226.156 l
365.768 226.156 366.637 226.412 367.262 226.924  c
367.887 227.436 368.199 228.145 368.199 229.051  c
368.199 229.895 367.915 230.556 367.347 231.034  c
366.778 231.513 365.990 231.752 364.982 231.752  c
364.545 231.752 364.049 231.691 363.494 231.570  c
h
f
2 J
10.0000 M
1.00000 .800000 0.00000 RG
newpath
273.000 242.000 m
277.133 235.315 l
285.728 237.607 l
282.978 230.444 l
291.000 227.000 l
282.978 223.556 l
285.728 216.393 l
277.133 218.685 l
273.000 212.000 l
268.867 218.685 l
260.272 216.393 l
263.022 223.556 l
255.000 227.000 l
263.022 230.444 l
260.272 237.607 l
268.867 235.315 l
h
f*
0 J
1.45000 M
0.00000 0.00000 0.00000 RG
newpath
273.000 242.000 m
277.133 235.315 l
285.728 237.607 l
282.978 230.444 l
291.000 227.000 l
282.978 223.556 l
285.728 216.393 l
277.133 218.685 l
273.000 212.000 l
268.867 218.685 l
260.272 216.393 l
263.022 223.556 l
255.000 227.000 l
263.022 230.444 l
260.272 237.607 l
268.867 235.315 l
h
S
2 J
10.0000 M
0 J
1.45000 M
newpath
264.908 226.039 m
264.908 231.535 l
263.748 231.535 l
263.748 226.039 l
262.846 226.039 l
262.846 225.172 l
263.748 225.172 l
263.748 224.410 l
263.748 222.895 264.439 222.137 265.822 222.137  c
266.209 222.137 266.648 222.201 267.141 222.330  c
267.141 223.244 l
266.621 223.084 266.205 223.004 265.893 223.004  c
265.514 223.004 265.255 223.095 265.116 223.276  c
264.978 223.458 264.908 223.795 264.908 224.287  c
264.908 225.172 l
266.496 225.172 l
266.496 226.039 l
h
268.682 231.535 m
266.859 225.172 l
267.990 225.172 l
269.385 230.100 l
270.891 225.172 l
272.045 225.172 l
273.363 230.100 l
274.963 225.172 l
275.953 225.172 l
273.879 231.535 l
272.719 231.535 l
271.371 226.607 l
269.848 231.535 l
h
277.840 231.535 m
277.840 230.668 l
279.574 230.668 l
279.574 223.824 l
277.840 224.258 l
277.840 223.367 l
280.734 222.646 l
280.734 230.668 l
282.469 230.668 l
282.469 231.535 l
h
f
2 J
10.0000 M
1.00000 .800000 0.00000 RG
newpath
383.306 362.000 m
387.439 355.315 l
396.033 357.607 l
393.283 350.444 l
401.306 347.000 l
393.283 343.556 l
396.033 336.393 l
387.439 338.685 l
383.306 332.000 l
379.173 338.685 l
370.578 336.393 l
373.328 343.556 l
365.306 347.000 l
373.328 350.444 l
370.578 357.607 l
379.173 355.315 l
h
f*
0 J
1.45000 M
0.00000 0.00000 0.00000 RG
newpath
383.306 362.000 m
387.439 355.315 l
396.033 357.607 l
393.283 350.444 l
401.306 347.000 l
393.283 343.556 l
396.033 336.393 l
387.439 338.685 l
383.306 332.000 l
379.173 338.685 l
370.578 336.393 l
373.328 343.556 l
365.306 347.000 l
373.328 350.444 l
370.578 357.607 l
379.173 355.315 l
h
S
2 J
10.0000 M
0 J
1.45000 M
newpath
375.214 346.039 m
375.214 351.535 l
374.054 351.535 l
374.054 346.039 l
373.151 346.039 l
373.151 345.172 l
374.054 345.172 l
374.054 344.410 l
374.054 342.895 374.745 342.137 376.128 342.137  c
376.515 342.137 376.954 342.201 377.446 342.330  c
377.446 343.244 l
376.927 343.084 376.511 343.004 376.198 343.004  c
375.819 343.004 375.560 343.095 375.422 343.276  c
375.283 343.458 375.214 343.795 375.214 344.287  c
375.214 345.172 l
376.802 345.172 l
376.802 346.039 l
h
378.987 351.535 m
377.165 345.172 l
378.296 345.172 l
379.690 350.100 l
381.196 345.172 l
382.350 345.172 l
383.669 350.100 l
385.268 345.172 l
386.259 345.172 l
384.184 351.535 l
383.024 351.535 l
381.677 346.607 l
380.153 351.535 l
h
387.559 351.471 m
387.559 350.393 l
388.388 350.721 389.040 350.885 389.516 350.885  c
390.067 350.885 390.516 350.724 390.861 350.401  c
391.207 350.079 391.380 349.662 391.380 349.150  c
391.380 347.932 390.526 347.322 388.819 347.322  c
388.362 347.322 l
388.362 346.543 l
388.766 346.537 l
390.368 346.537 391.169 345.973 391.169 344.844  c
391.169 343.957 390.641 343.514 389.587 343.514  c
389.009 343.514 388.372 343.676 387.677 344.000  c
387.677 342.992 l
388.360 342.762 389.024 342.646 389.669 342.646  c
391.442 342.646 392.329 343.316 392.329 344.656  c
392.329 345.676 391.725 346.402 390.518 346.836  c
391.917 347.160 392.616 347.926 392.616 349.133  c
392.616 349.949 392.347 350.590 391.807 351.055  c
391.268 351.520 390.528 351.752 389.587 351.752  c
389.052 351.752 388.376 351.658 387.559 351.471  c
h
f
2 J
10.0000 M
1.00000 .800000 0.00000 RG
newpath
165.694 246.000 m
169.827 237.532 l
178.422 240.435 l
175.672 231.363 l
183.694 227.000 l
175.672 222.637 l
178.422 213.565 l
169.827 216.468 l
165.694 208.000 l
161.561 216.468 l
152.967 213.565 l
155.717 222.637 l
147.694 227.000 l
155.717 231.363 l
152.967 240.435 l
161.561 237.532 l
h
f*
0 J
1.45000 M
0.00000 0.00000 0.00000 RG
newpath
165.694 246.000 m
169.827 237.532 l
178.422 240.435 l
175.672 231.363 l
183.694 227.000 l
175.672 222.637 l
178.422 213.565 l
169.827 216.468 l
165.694 208.000 l
161.561 216.468 l
152.967 213.565 l
155.717 222.637 l
147.694 227.000 l
155.717 231.363 l
152.967 240.435 l
161.561 237.532 l
h
S
2 J
10.0000 M
0 J
1.45000 M
newpath
157.603 226.039 m
157.603 231.535 l
156.442 231.535 l
156.442 226.039 l
155.540 226.039 l
155.540 225.172 l
156.442 225.172 l
156.442 224.410 l
156.442 222.895 157.134 222.137 158.517 222.137  c
158.903 222.137 159.343 222.201 159.835 222.330  c
159.835 223.244 l
159.316 223.084 158.900 223.004 158.587 223.004  c
158.208 223.004 157.949 223.095 157.811 223.276  c
157.672 223.458 157.603 223.795 157.603 224.287  c
157.603 225.172 l
159.191 225.172 l
159.191 226.039 l
h
161.376 231.535 m
159.554 225.172 l
160.685 225.172 l
162.079 230.100 l
163.585 225.172 l
164.739 225.172 l
166.058 230.100 l
167.657 225.172 l
168.648 225.172 l
166.573 231.535 l
165.413 231.535 l
164.066 226.607 l
162.542 231.535 l
h
173.247 231.535 m
173.247 229.080 l
169.345 229.080 l
169.345 228.207 l
173.247 222.863 l
174.331 222.863 l
174.331 228.137 l
175.491 228.137 l
175.491 229.080 l
174.331 229.080 l
174.331 231.535 l
h
170.476 228.137 m
173.323 228.137 l
173.323 224.281 l
h
f
2 J
10.0000 M
1.00000 .800000 0.00000 RG
newpath
74.6944 212.000 m
119.694 212.000 l
119.694 242.000 l
74.6944 242.000 l
74.6944 212.000 l
h
f
0 J
1.45000 M
0.00000 0.00000 0.00000 RG
newpath
74.6944 212.000 m
119.694 212.000 l
119.694 242.000 l
74.6944 242.000 l
74.6944 212.000 l
h
S
2 J
10.0000 M
0 J
1.45000 M
newpath
83.9025 231.682 m
83.0431 231.682 82.3302 231.363 81.7638 230.727  c
81.1974 230.090 80.9142 229.287 80.9142 228.318  c
80.9142 227.283 81.1944 226.477 81.7550 225.898  c
82.3155 225.320 83.0978 225.031 84.1017 225.031  c
84.5978 225.031 85.1525 225.100 85.7657 225.236  c
85.7657 226.203 l
85.1134 226.012 84.5821 225.916 84.1720 225.916  c
83.5821 225.916 83.1085 226.138 82.7511 226.581  c
82.3937 227.024 82.2150 227.615 82.2150 228.354  c
82.2150 229.068 82.3985 229.646 82.7657 230.088  c
83.1329 230.529 83.6134 230.750 84.2071 230.750  c
84.7345 230.750 85.2775 230.615 85.8360 230.346  c
85.8360 231.342 l
85.0900 231.568 84.4454 231.682 83.9025 231.682  c
h
87.5294 231.535 m
87.5294 222.863 l
90.4122 222.863 l
91.2716 222.863 91.9659 222.959 92.4952 223.150  c
93.0245 223.342 93.4825 223.666 93.8692 224.123  c
94.4825 224.850 94.7892 225.807 94.7892 226.994  c
94.7892 228.436 94.4083 229.553 93.6466 230.346  c
92.8849 231.139 91.8126 231.535 90.4298 231.535  c
h
88.7599 230.615 m
90.3360 230.615 l
91.4610 230.615 92.2579 230.312 92.7267 229.707  c
93.2306 229.062 93.4825 228.197 93.4825 227.111  c
93.4825 226.092 93.2345 225.291 92.7384 224.709  c
92.4376 224.354 92.0782 224.110 91.6603 223.979  c
91.2423 223.849 90.6134 223.783 89.7735 223.783  c
88.7599 223.783 l
h
101.217 231.330 m
100.443 231.564 99.7814 231.682 99.2306 231.682  c
98.2931 231.682 97.5284 231.370 96.9366 230.747  c
96.3448 230.124 96.0489 229.316 96.0489 228.324  c
96.0489 227.359 96.3097 226.568 96.8312 225.951  c
97.3526 225.334 98.0196 225.025 98.8321 225.025  c
99.6017 225.025 100.196 225.299 100.616 225.846  c
101.036 226.393 101.246 227.170 101.246 228.178  c
101.240 228.535 l
97.2267 228.535 l
97.3946 230.047 98.1349 230.803 99.4474 230.803  c
99.9278 230.803 100.518 230.674 101.217 230.416  c
h
97.2794 227.668 m
100.086 227.668 l
100.086 226.484 99.6446 225.893 98.7618 225.893  c
97.8751 225.893 97.3810 226.484 97.2794 227.668  c
h
103.238 233.850 m
103.238 225.172 l
104.393 225.172 l
104.393 226.367 l
104.865 225.477 105.574 225.031 106.520 225.031  c
107.285 225.031 107.888 225.311 108.327 225.869  c
108.767 226.428 108.986 227.191 108.986 228.160  c
108.986 229.215 108.737 230.065 108.239 230.712  c
107.741 231.358 107.086 231.682 106.274 231.682  c
105.520 231.682 104.893 231.393 104.393 230.814  c
104.393 233.850 l
h
104.393 230.018 m
104.986 230.549 105.553 230.814 106.092 230.814  c
107.201 230.814 107.756 229.969 107.756 228.277  c
107.756 226.785 107.264 226.039 106.279 226.039  c
105.635 226.039 105.006 226.389 104.393 227.088  c
h
112.701 231.682 m
112.115 231.682 111.658 231.514 111.330 231.178  c
111.002 230.842 110.838 230.375 110.838 229.777  c
110.838 226.039 l
110.041 226.039 l
110.041 225.172 l
110.838 225.172 l
110.838 224.018 l
111.992 223.906 l
111.992 225.172 l
113.656 225.172 l
113.656 226.039 l
111.992 226.039 l
111.992 229.566 l
111.992 230.398 112.352 230.814 113.070 230.814  c
113.223 230.814 113.408 230.789 113.627 230.738  c
113.627 231.535 l
113.272 231.633 112.963 231.682 112.701 231.682  c
h
f
2 J
10.0000 M
1.00000 .800000 0.00000 RG
newpath
74.6944 272.000 m
119.694 272.000 l
119.694 302.000 l
74.6944 302.000 l
74.6944 272.000 l
h
f
0 J
1.45000 M
0.00000 0.00000 0.00000 RG
newpath
74.6944 272.000 m
119.694 272.000 l
119.694 302.000 l
74.6944 302.000 l
74.6944 272.000 l
h
S
2 J
10.0000 M
0 J
1.45000 M
newpath
85.8126 291.330 m
85.0392 291.564 84.3771 291.682 83.8263 291.682  c
82.8888 291.682 82.1241 291.370 81.5323 290.747  c
80.9405 290.124 80.6446 289.316 80.6446 288.324  c
80.6446 287.359 80.9054 286.568 81.4269 285.951  c
81.9483 285.334 82.6153 285.025 83.4278 285.025  c
84.1974 285.025 84.7921 285.299 85.2120 285.846  c
85.6319 286.393 85.8419 287.170 85.8419 288.178  c
85.8360 288.535 l
81.8224 288.535 l
81.9903 290.047 82.7306 290.803 84.0431 290.803  c
84.5235 290.803 85.1134 290.674 85.8126 290.416  c
h
81.8751 287.668 m
84.6817 287.668 l
84.6817 286.484 84.2403 285.893 83.3575 285.893  c
82.4708 285.893 81.9767 286.484 81.8751 287.668  c
h
87.7989 291.535 m
87.7989 282.863 l
90.6817 282.863 l
91.5411 282.863 92.2355 282.959 92.7648 283.150  c
93.2941 283.342 93.7521 283.666 94.1388 284.123  c
94.7521 284.850 95.0587 285.807 95.0587 286.994  c
95.0587 288.436 94.6778 289.553 93.9161 290.346  c
93.1544 291.139 92.0821 291.535 90.6993 291.535  c
h
89.0294 290.615 m
90.6056 290.615 l
91.7306 290.615 92.5275 290.312 92.9962 289.707  c
93.5001 289.062 93.7521 288.197 93.7521 287.111  c
93.7521 286.092 93.5040 285.291 93.0079 284.709  c
92.7071 284.354 92.3478 284.110 91.9298 283.979  c
91.5118 283.849 90.8829 283.783 90.0431 283.783  c
89.0294 283.783 l
h
101.486 291.330 m
100.713 291.564 100.051 291.682 99.5001 291.682  c
98.5626 291.682 97.7980 291.370 97.2062 290.747  c
96.6144 290.124 96.3185 289.316 96.3185 288.324  c
96.3185 287.359 96.5792 286.568 97.1007 285.951  c
97.6222 285.334 98.2892 285.025 99.1017 285.025  c
99.8712 285.025 100.466 285.299 100.886 285.846  c
101.306 286.393 101.516 287.170 101.516 288.178  c
101.510 288.535 l
97.4962 288.535 l
97.6642 290.047 98.4044 290.803 99.7169 290.803  c
100.197 290.803 100.787 290.674 101.486 290.416  c
h
97.5489 287.668 m
100.356 287.668 l
100.356 286.484 99.9142 285.893 99.0314 285.893  c
98.1446 285.893 97.6505 286.484 97.5489 287.668  c
h
103.508 293.850 m
103.508 285.172 l
104.662 285.172 l
104.662 286.367 l
105.135 285.477 105.844 285.031 106.789 285.031  c
107.555 285.031 108.157 285.311 108.597 285.869  c
109.036 286.428 109.256 287.191 109.256 288.160  c
109.256 289.215 109.007 290.065 108.509 290.712  c
108.011 291.358 107.356 291.682 106.543 291.682  c
105.789 291.682 105.162 291.393 104.662 290.814  c
104.662 293.850 l
h
104.662 290.018 m
105.256 290.549 105.822 290.814 106.361 290.814  c
107.471 290.814 108.025 289.969 108.025 288.277  c
108.025 286.785 107.533 286.039 106.549 286.039  c
105.904 286.039 105.275 286.389 104.662 287.088  c
h
112.971 291.682 m
112.385 291.682 111.928 291.514 111.600 291.178  c
111.272 290.842 111.108 290.375 111.108 289.777  c
111.108 286.039 l
110.311 286.039 l
110.311 285.172 l
111.108 285.172 l
111.108 284.018 l
112.262 283.906 l
112.262 285.172 l
113.926 285.172 l
113.926 286.039 l
112.262 286.039 l
112.262 289.566 l
112.262 290.398 112.621 290.814 113.340 290.814  c
113.492 290.814 113.678 290.789 113.897 290.738  c
113.897 291.535 l
113.541 291.633 113.233 291.682 112.971 291.682  c
h
f
2 J
10.0000 M
1.00000 .800000 0.00000 RG
newpath
458.000 275.609 m
474.109 259.500 l
496.891 259.500 l
513.000 275.609 l
513.000 298.391 l
496.891 314.500 l
474.109 314.500 l
458.000 298.391 l
h
f*
0 J
1.45000 M
0.00000 0.00000 0.00000 RG
newpath
458.000 275.609 m
474.109 259.500 l
496.891 259.500 l
513.000 275.609 l
513.000 298.391 l
496.891 314.500 l
474.109 314.500 l
458.000 298.391 l
h
S
2 J
10.0000 M
0 J
1.45000 M
newpath
463.809 291.535 m
463.809 282.863 l
465.039 282.863 l
465.039 291.535 l
h
467.307 291.535 m
467.307 285.172 l
468.461 285.172 l
468.461 286.367 l
469.070 285.477 469.816 285.031 470.699 285.031  c
471.250 285.031 471.689 285.206 472.018 285.556  c
472.346 285.905 472.510 286.375 472.510 286.965  c
472.510 291.535 l
471.355 291.535 l
471.355 287.340 l
471.355 286.867 471.286 286.530 471.147 286.329  c
471.009 286.128 470.779 286.027 470.459 286.027  c
469.752 286.027 469.086 286.490 468.461 287.416  c
468.461 291.535 l
h
476.664 291.682 m
476.078 291.682 475.621 291.514 475.293 291.178  c
474.965 290.842 474.801 290.375 474.801 289.777  c
474.801 286.039 l
474.004 286.039 l
474.004 285.172 l
474.801 285.172 l
474.801 284.018 l
475.955 283.906 l
475.955 285.172 l
477.619 285.172 l
477.619 286.039 l
475.955 286.039 l
475.955 289.566 l
475.955 290.398 476.314 290.814 477.033 290.814  c
477.186 290.814 477.371 290.789 477.590 290.738  c
477.590 291.535 l
477.234 291.633 476.926 291.682 476.664 291.682  c
h
483.906 291.330 m
483.133 291.564 482.471 291.682 481.920 291.682  c
480.982 291.682 480.218 291.370 479.626 290.747  c
479.034 290.124 478.738 289.316 478.738 288.324  c
478.738 287.359 478.999 286.568 479.521 285.951  c
480.042 285.334 480.709 285.025 481.521 285.025  c
482.291 285.025 482.886 285.299 483.306 285.846  c
483.726 286.393 483.936 287.170 483.936 288.178  c
483.930 288.535 l
479.916 288.535 l
480.084 290.047 480.824 290.803 482.137 290.803  c
482.617 290.803 483.207 290.674 483.906 290.416  c
h
479.969 287.668 m
482.775 287.668 l
482.775 286.484 482.334 285.893 481.451 285.893  c
480.564 285.893 480.070 286.484 479.969 287.668  c
h
485.928 291.535 m
485.928 285.172 l
487.082 285.172 l
487.082 286.367 l
487.539 285.477 488.203 285.031 489.074 285.031  c
489.191 285.031 489.314 285.041 489.443 285.061  c
489.443 286.139 l
489.244 286.072 489.068 286.039 488.916 286.039  c
488.186 286.039 487.574 286.473 487.082 287.340  c
487.082 291.535 l
h
490.838 291.535 m
490.838 285.172 l
491.992 285.172 l
491.992 286.367 l
492.602 285.477 493.348 285.031 494.230 285.031  c
494.781 285.031 495.221 285.206 495.549 285.556  c
495.877 285.905 496.041 286.375 496.041 286.965  c
496.041 291.535 l
494.887 291.535 l
494.887 287.340 l
494.887 286.867 494.817 286.530 494.679 286.329  c
494.540 286.128 494.311 286.027 493.990 286.027  c
493.283 286.027 492.617 286.490 491.992 287.416  c
491.992 291.535 l
h
502.949 291.330 m
502.176 291.564 501.514 291.682 500.963 291.682  c
500.025 291.682 499.261 291.370 498.669 290.747  c
498.077 290.124 497.781 289.316 497.781 288.324  c
497.781 287.359 498.042 286.568 498.563 285.951  c
499.085 285.334 499.752 285.025 500.564 285.025  c
501.334 285.025 501.929 285.299 502.349 285.846  c
502.769 286.393 502.979 287.170 502.979 288.178  c
502.973 288.535 l
498.959 288.535 l
499.127 290.047 499.867 290.803 501.180 290.803  c
501.660 290.803 502.250 290.674 502.949 290.416  c
h
499.012 287.668 m
501.818 287.668 l
501.818 286.484 501.377 285.893 500.494 285.893  c
499.607 285.893 499.113 286.484 499.012 287.668  c
h
506.881 291.682 m
506.295 291.682 505.838 291.514 505.510 291.178  c
505.182 290.842 505.018 290.375 505.018 289.777  c
505.018 286.039 l
504.221 286.039 l
504.221 285.172 l
505.018 285.172 l
505.018 284.018 l
506.172 283.906 l
506.172 285.172 l
507.836 285.172 l
507.836 286.039 l
506.172 286.039 l
506.172 289.566 l
506.172 290.398 506.531 290.814 507.250 290.814  c
507.402 290.814 507.588 290.789 507.807 290.738  c
507.807 291.535 l
507.451 291.633 507.143 291.682 506.881 291.682  c
h
f
2 J
10.0000 M
1.00000 .800000 0.00000 RG
newpath
228.000 96.0000 m
258.000 96.0000 l
258.000 126.000 l
228.000 126.000 l
228.000 96.0000 l
h
f
0 J
1.45000 M
0.00000 0.00000 0.00000 RG
newpath
228.000 96.0000 m
258.000 96.0000 l
258.000 126.000 l
228.000 126.000 l
228.000 96.0000 l
h
S
2 J
10.0000 M
0 J
1.45000 M
newpath
239.771 115.682 m
238.912 115.682 238.199 115.363 237.633 114.727  c
237.066 114.090 236.783 113.287 236.783 112.318  c
236.783 111.283 237.063 110.477 237.624 109.898  c
238.185 109.320 238.967 109.031 239.971 109.031  c
240.467 109.031 241.021 109.100 241.635 109.236  c
241.635 110.203 l
240.982 110.012 240.451 109.916 240.041 109.916  c
239.451 109.916 238.978 110.138 238.620 110.581  c
238.263 111.024 238.084 111.615 238.084 112.354  c
238.084 113.068 238.268 113.646 238.635 114.088  c
239.002 114.529 239.482 114.750 240.076 114.750  c
240.604 114.750 241.146 114.615 241.705 114.346  c
241.705 115.342 l
240.959 115.568 240.314 115.682 239.771 115.682  c
h
244.084 115.535 m
244.084 114.668 l
245.818 114.668 l
245.818 107.824 l
244.084 108.258 l
244.084 107.367 l
246.979 106.646 l
246.979 114.668 l
248.713 114.668 l
248.713 115.535 l
h
f
2 J
10.0000 M
1.00000 .800000 0.00000 RG
newpath
281.000 96.0000 m
311.000 96.0000 l
311.000 126.000 l
281.000 126.000 l
281.000 96.0000 l
h
f
0 J
1.45000 M
0.00000 0.00000 0.00000 RG
newpath
281.000 96.0000 m
311.000 96.0000 l
311.000 126.000 l
281.000 126.000 l
281.000 96.0000 l
h
S
2 J
10.0000 M
0 J
1.45000 M
newpath
292.771 115.682 m
291.912 115.682 291.199 115.363 290.633 114.727  c
290.066 114.090 289.783 113.287 289.783 112.318  c
289.783 111.283 290.063 110.477 290.624 109.898  c
291.185 109.320 291.967 109.031 292.971 109.031  c
293.467 109.031 294.021 109.100 294.635 109.236  c
294.635 110.203 l
293.982 110.012 293.451 109.916 293.041 109.916  c
292.451 109.916 291.978 110.138 291.620 110.581  c
291.263 111.024 291.084 111.615 291.084 112.354  c
291.084 113.068 291.268 113.646 291.635 114.088  c
292.002 114.529 292.482 114.750 293.076 114.750  c
293.604 114.750 294.146 114.615 294.705 114.346  c
294.705 115.342 l
293.959 115.568 293.314 115.682 292.771 115.682  c
h
296.275 115.535 m
296.275 114.521 l
296.611 113.736 297.291 112.881 298.314 111.955  c
298.977 111.363 l
299.828 110.594 300.254 109.830 300.254 109.072  c
300.254 108.588 300.108 108.207 299.817 107.930  c
299.526 107.652 299.127 107.514 298.619 107.514  c
298.018 107.514 297.309 107.746 296.492 108.211  c
296.492 107.191 l
297.262 106.828 298.025 106.646 298.783 106.646  c
299.596 106.646 300.248 106.865 300.740 107.303  c
301.232 107.740 301.479 108.320 301.479 109.043  c
301.479 109.562 301.354 110.023 301.106 110.426  c
300.858 110.828 300.396 111.316 299.721 111.891  c
299.275 112.271 l
298.350 113.057 297.814 113.807 297.670 114.521  c
301.438 114.521 l
301.438 115.535 l
h
f
2 J
10.0000 M
1.00000 .800000 0.00000 RG
newpath
311.000 148.000 m
341.000 148.000 l
341.000 178.000 l
311.000 178.000 l
311.000 148.000 l
h
f
0 J
1.45000 M
0.00000 0.00000 0.00000 RG
newpath
311.000 148.000 m
341.000 148.000 l
341.000 178.000 l
311.000 178.000 l
311.000 148.000 l
h
S
2 J
10.0000 M
0 J
1.45000 M
newpath
322.771 167.682 m
321.912 167.682 321.199 167.363 320.633 166.727  c
320.066 166.090 319.783 165.287 319.783 164.318  c
319.783 163.283 320.063 162.477 320.624 161.898  c
321.185 161.320 321.967 161.031 322.971 161.031  c
323.467 161.031 324.021 161.100 324.635 161.236  c
324.635 162.203 l
323.982 162.012 323.451 161.916 323.041 161.916  c
322.451 161.916 321.978 162.138 321.620 162.581  c
321.263 163.024 321.084 163.615 321.084 164.354  c
321.084 165.068 321.268 165.646 321.635 166.088  c
322.002 166.529 322.482 166.750 323.076 166.750  c
323.604 166.750 324.146 166.615 324.705 166.346  c
324.705 167.342 l
323.959 167.568 323.314 167.682 322.771 167.682  c
h
326.498 167.471 m
326.498 166.393 l
327.326 166.721 327.979 166.885 328.455 166.885  c
329.006 166.885 329.454 166.724 329.800 166.401  c
330.146 166.079 330.318 165.662 330.318 165.150  c
330.318 163.932 329.465 163.322 327.758 163.322  c
327.301 163.322 l
327.301 162.543 l
327.705 162.537 l
329.307 162.537 330.107 161.973 330.107 160.844  c
330.107 159.957 329.580 159.514 328.525 159.514  c
327.947 159.514 327.311 159.676 326.615 160.000  c
326.615 158.992 l
327.299 158.762 327.963 158.646 328.607 158.646  c
330.381 158.646 331.268 159.316 331.268 160.656  c
331.268 161.676 330.664 162.402 329.457 162.836  c
330.855 163.160 331.555 163.926 331.555 165.133  c
331.555 165.949 331.285 166.590 330.746 167.055  c
330.207 167.520 329.467 167.752 328.525 167.752  c
327.990 167.752 327.314 167.658 326.498 167.471  c
h
f
2 J
10.0000 M
1.00000 .800000 0.00000 RG
newpath
195.000 368.000 m
225.000 368.000 l
225.000 398.000 l
195.000 398.000 l
195.000 368.000 l
h
f
0 J
1.45000 M
0.00000 0.00000 0.00000 RG
newpath
195.000 368.000 m
225.000 368.000 l
225.000 398.000 l
195.000 398.000 l
195.000 368.000 l
h
S
2 J
10.0000 M
0 J
1.45000 M
newpath
205.626 387.535 m
205.626 378.283 l
206.780 378.283 l
206.780 387.535 l
h
209.745 387.535 m
209.745 386.668 l
211.479 386.668 l
211.479 379.824 l
209.745 380.258 l
209.745 379.367 l
212.640 378.646 l
212.640 386.668 l
214.374 386.668 l
214.374 387.535 l
h
f
2 J
10.0000 M
1.00000 .800000 0.00000 RG
newpath
213.000 428.000 m
243.000 428.000 l
243.000 458.000 l
213.000 458.000 l
213.000 428.000 l
h
f
0 J
1.45000 M
0.00000 0.00000 0.00000 RG
newpath
213.000 428.000 m
243.000 428.000 l
243.000 458.000 l
213.000 458.000 l
213.000 428.000 l
h
S
2 J
10.0000 M
0 J
1.45000 M
newpath
223.626 447.535 m
223.626 438.283 l
224.780 438.283 l
224.780 447.535 l
h
226.937 447.535 m
226.937 446.521 l
227.272 445.736 227.952 444.881 228.976 443.955  c
229.638 443.363 l
230.489 442.594 230.915 441.830 230.915 441.072  c
230.915 440.588 230.770 440.207 230.479 439.930  c
230.188 439.652 229.788 439.514 229.280 439.514  c
228.679 439.514 227.970 439.746 227.153 440.211  c
227.153 439.191 l
227.923 438.828 228.687 438.646 229.444 438.646  c
230.257 438.646 230.909 438.865 231.401 439.303  c
231.894 439.740 232.140 440.320 232.140 441.043  c
232.140 441.562 232.016 442.023 231.768 442.426  c
231.520 442.828 231.058 443.316 230.382 443.891  c
229.937 444.271 l
229.011 445.057 228.476 445.807 228.331 446.521  c
232.099 446.521 l
232.099 447.535 l
h
f
2 J
10.0000 M
1.00000 .800000 0.00000 RG
newpath
258.000 470.000 m
288.000 470.000 l
288.000 500.000 l
258.000 500.000 l
258.000 470.000 l
h
f
0 J
1.45000 M
0.00000 0.00000 0.00000 RG
newpath
258.000 470.000 m
288.000 470.000 l
288.000 500.000 l
258.000 500.000 l
258.000 470.000 l
h
S
2 J
10.0000 M
0 J
1.45000 M
newpath
268.626 489.535 m
268.626 480.283 l
269.780 480.283 l
269.780 489.535 l
h
272.159 489.471 m
272.159 488.393 l
272.987 488.721 273.640 488.885 274.116 488.885  c
274.667 488.885 275.115 488.724 275.461 488.401  c
275.807 488.079 275.979 487.662 275.979 487.150  c
275.979 485.932 275.126 485.322 273.419 485.322  c
272.962 485.322 l
272.962 484.543 l
273.366 484.537 l
274.968 484.537 275.769 483.973 275.769 482.844  c
275.769 481.957 275.241 481.514 274.187 481.514  c
273.608 481.514 272.972 481.676 272.276 482.000  c
272.276 480.992 l
272.960 480.762 273.624 480.646 274.269 480.646  c
276.042 480.646 276.929 481.316 276.929 482.656  c
276.929 483.676 276.325 484.402 275.118 484.836  c
276.517 485.160 277.216 485.926 277.216 487.133  c
277.216 487.949 276.946 488.590 276.407 489.055  c
275.868 489.520 275.128 489.752 274.187 489.752  c
273.651 489.752 272.976 489.658 272.159 489.471  c
h
f
2 J
10.0000 M
1.00000 .800000 0.00000 RG
newpath
368.306 470.000 m
398.306 470.000 l
398.306 500.000 l
368.306 500.000 l
368.306 470.000 l
h
f
0 J
1.45000 M
0.00000 0.00000 0.00000 RG
newpath
368.306 470.000 m
398.306 470.000 l
398.306 500.000 l
368.306 500.000 l
368.306 470.000 l
h
S
2 J
10.0000 M
0 J
1.45000 M
newpath
371.329 489.535 m
369.507 483.172 l
370.638 483.172 l
372.032 488.100 l
373.538 483.172 l
374.692 483.172 l
376.011 488.100 l
377.610 483.172 l
378.600 483.172 l
376.526 489.535 l
375.366 489.535 l
374.018 484.607 l
372.495 489.535 l
h
380.575 489.535 m
378.753 483.172 l
379.884 483.172 l
381.278 488.100 l
382.784 483.172 l
383.938 483.172 l
385.257 488.100 l
386.856 483.172 l
387.847 483.172 l
385.772 489.535 l
384.612 489.535 l
383.265 484.607 l
381.741 489.535 l
h
389.821 489.535 m
387.999 483.172 l
389.130 483.172 l
390.524 488.100 l
392.030 483.172 l
393.184 483.172 l
394.503 488.100 l
396.102 483.172 l
397.093 483.172 l
395.018 489.535 l
393.858 489.535 l
392.511 484.607 l
390.987 489.535 l
h
f
2 J
10.0000 M
1.00000 .800000 0.00000 RG
newpath
419.306 434.000 m
449.306 434.000 l
449.306 464.000 l
419.306 464.000 l
419.306 434.000 l
h
f
0 J
1.45000 M
0.00000 0.00000 0.00000 RG
newpath
419.306 434.000 m
449.306 434.000 l
449.306 464.000 l
419.306 464.000 l
419.306 434.000 l
h
S
2 J
10.0000 M
0 J
1.45000 M
newpath
423.076 453.535 m
423.076 447.172 l
424.230 447.172 l
424.230 448.367 l
424.793 447.477 425.516 447.031 426.398 447.031  c
427.250 447.031 427.830 447.477 428.139 448.367  c
428.685 447.473 429.396 447.025 430.271 447.025  c
430.834 447.025 431.269 447.190 431.578 447.521  c
431.887 447.851 432.041 448.312 432.041 448.906  c
432.041 453.535 l
430.881 453.535 l
430.881 449.088 l
430.881 448.361 430.594 447.998 430.019 447.998  c
429.422 447.998 428.795 448.422 428.139 449.270  c
428.139 453.535 l
426.978 453.535 l
426.978 449.088 l
426.978 448.357 426.685 447.992 426.099 447.992  c
425.517 447.992 424.894 448.418 424.230 449.270  c
424.230 453.535 l
h
437.560 452.727 m
436.869 453.363 436.203 453.682 435.562 453.682  c
435.035 453.682 434.598 453.517 434.250 453.187  c
433.902 452.856 433.728 452.439 433.728 451.936  c
433.728 451.240 434.020 450.706 434.604 450.333  c
435.188 449.960 436.025 449.773 437.115 449.773  c
437.391 449.773 l
437.391 449.006 l
437.391 448.268 437.012 447.898 436.254 447.898  c
435.644 447.898 434.986 448.086 434.279 448.461  c
434.279 447.506 l
435.057 447.189 435.785 447.031 436.465 447.031  c
437.176 447.031 437.700 447.191 438.038 447.512  c
438.376 447.832 438.545 448.330 438.545 449.006  c
438.545 451.889 l
438.545 452.549 438.748 452.879 439.154 452.879  c
439.205 452.879 439.279 452.871 439.377 452.855  c
439.459 453.494 l
439.197 453.619 438.908 453.682 438.592 453.682  c
438.053 453.682 437.709 453.363 437.560 452.727  c
h
437.391 452.100 m
437.391 450.453 l
437.004 450.441 l
436.371 450.441 435.859 450.562 435.469 450.802  c
435.078 451.042 434.883 451.357 434.883 451.748  c
434.883 452.025 434.980 452.260 435.176 452.451  c
435.371 452.643 435.609 452.738 435.891 452.738  c
436.371 452.738 436.871 452.525 437.391 452.100  c
h
440.906 453.535 m
440.906 447.172 l
442.060 447.172 l
442.060 453.535 l
h
440.906 446.018 m
440.906 444.863 l
442.060 444.863 l
442.060 446.018 l
h
444.375 453.535 m
444.375 444.283 l
445.529 444.283 l
445.529 453.535 l
h
f
2 J
10.0000 M
1.00000 .800000 0.00000 RG
newpath
419.306 362.000 m
449.306 362.000 l
449.306 392.000 l
419.306 392.000 l
419.306 362.000 l
h
f
0 J
1.45000 M
0.00000 0.00000 0.00000 RG
newpath
419.306 362.000 m
449.306 362.000 l
449.306 392.000 l
419.306 392.000 l
419.306 362.000 l
h
S
2 J
10.0000 M
0 J
1.45000 M
newpath
427.371 381.682 m
426.512 381.682 425.799 381.363 425.232 380.727  c
424.666 380.090 424.383 379.287 424.383 378.318  c
424.383 377.283 424.663 376.477 425.224 375.898  c
425.784 375.320 426.566 375.031 427.570 375.031  c
428.066 375.031 428.621 375.100 429.234 375.236  c
429.234 376.203 l
428.582 376.012 428.051 375.916 427.641 375.916  c
427.051 375.916 426.577 376.138 426.220 376.581  c
425.862 377.024 425.683 377.615 425.683 378.354  c
425.683 379.068 425.867 379.646 426.234 380.088  c
426.601 380.529 427.082 380.750 427.676 380.750  c
428.203 380.750 428.746 380.615 429.305 380.346  c
429.305 381.342 l
428.558 381.568 427.914 381.682 427.371 381.682  c
h
435.117 381.535 m
435.117 380.340 l
434.648 381.234 433.941 381.682 432.996 381.682  c
432.230 381.682 431.628 381.402 431.188 380.844  c
430.749 380.285 430.529 379.521 430.529 378.553  c
430.529 377.494 430.778 376.643 431.276 375.998  c
431.774 375.354 432.430 375.031 433.242 375.031  c
433.996 375.031 434.621 375.320 435.117 375.898  c
435.117 372.283 l
436.277 372.283 l
436.277 381.535 l
h
435.117 376.689 m
434.519 376.162 433.953 375.898 433.418 375.898  c
432.312 375.898 431.760 376.744 431.760 378.436  c
431.760 379.924 432.252 380.668 433.236 380.668  c
433.877 380.668 434.504 380.318 435.117 379.619  c
h
438.586 381.535 m
438.586 375.172 l
439.740 375.172 l
439.740 376.367 l
440.349 375.477 441.096 375.031 441.978 375.031  c
442.529 375.031 442.969 375.206 443.297 375.556  c
443.625 375.905 443.789 376.375 443.789 376.965  c
443.789 381.535 l
442.635 381.535 l
442.635 377.340 l
442.635 376.867 442.565 376.530 442.427 376.329  c
442.288 376.128 442.058 376.027 441.738 376.027  c
441.031 376.027 440.365 376.490 439.740 377.416  c
439.740 381.535 l
h
f
2 J
10.0000 M
1.00000 .800000 0.00000 RG
newpath
90.6944 148.000 m
120.694 148.000 l
120.694 178.000 l
90.6944 178.000 l
90.6944 148.000 l
h
f
0 J
1.45000 M
0.00000 0.00000 0.00000 RG
newpath
90.6944 148.000 m
120.694 148.000 l
120.694 178.000 l
90.6944 178.000 l
90.6944 148.000 l
h
S
2 J
10.0000 M
0 J
1.45000 M
newpath
103.023 166.727 m
102.331 167.363 101.665 167.682 101.025 167.682  c
100.497 167.682 100.060 167.517 99.7120 167.187  c
99.3644 166.856 99.1905 166.439 99.1905 165.936  c
99.1905 165.240 99.4825 164.706 100.067 164.333  c
100.650 163.960 101.487 163.773 102.577 163.773  c
102.853 163.773 l
102.853 163.006 l
102.853 162.268 102.474 161.898 101.716 161.898  c
101.107 161.898 100.448 162.086 99.7413 162.461  c
99.7413 161.506 l
100.519 161.189 101.247 161.031 101.927 161.031  c
102.638 161.031 103.162 161.191 103.500 161.512  c
103.838 161.832 104.007 162.330 104.007 163.006  c
104.007 165.889 l
104.007 166.549 104.210 166.879 104.616 166.879  c
104.667 166.879 104.741 166.871 104.839 166.855  c
104.921 167.494 l
104.659 167.619 104.370 167.682 104.054 167.682  c
103.515 167.682 103.171 167.363 103.023 166.727  c
h
102.853 166.100 m
102.853 164.453 l
102.466 164.441 l
101.833 164.441 101.321 164.562 100.931 164.802  c
100.540 165.042 100.345 165.357 100.345 165.748  c
100.345 166.025 100.442 166.260 100.638 166.451  c
100.833 166.643 101.071 166.738 101.353 166.738  c
101.833 166.738 102.333 166.525 102.853 166.100  c
h
107.019 167.535 m
107.019 166.668 l
108.753 166.668 l
108.753 159.824 l
107.019 160.258 l
107.019 159.367 l
109.913 158.646 l
109.913 166.668 l
111.648 166.668 l
111.648 167.535 l
h
f
2 J
10.0000 M
1.00000 .800000 0.00000 RG
newpath
93.6944 88.0000 m
123.694 88.0000 l
123.694 118.000 l
93.6944 118.000 l
93.6944 88.0000 l
h
f
0 J
1.45000 M
0.00000 0.00000 0.00000 RG
newpath
93.6944 88.0000 m
123.694 88.0000 l
123.694 118.000 l
93.6944 118.000 l
93.6944 88.0000 l
h
S
2 J
10.0000 M
0 J
1.45000 M
newpath
106.023 106.727 m
105.331 107.363 104.665 107.682 104.025 107.682  c
103.497 107.682 103.060 107.517 102.712 107.187  c
102.364 106.856 102.191 106.439 102.191 105.936  c
102.191 105.240 102.483 104.706 103.067 104.333  c
103.650 103.960 104.487 103.773 105.577 103.773  c
105.853 103.773 l
105.853 103.006 l
105.853 102.268 105.474 101.898 104.716 101.898  c
104.107 101.898 103.448 102.086 102.741 102.461  c
102.741 101.506 l
103.519 101.189 104.247 101.031 104.927 101.031  c
105.638 101.031 106.162 101.191 106.500 101.512  c
106.838 101.832 107.007 102.330 107.007 103.006  c
107.007 105.889 l
107.007 106.549 107.210 106.879 107.616 106.879  c
107.667 106.879 107.741 106.871 107.839 106.855  c
107.921 107.494 l
107.659 107.619 107.370 107.682 107.054 107.682  c
106.515 107.682 106.171 107.363 106.023 106.727  c
h
105.853 106.100 m
105.853 104.453 l
105.466 104.441 l
104.833 104.441 104.321 104.562 103.931 104.802  c
103.540 105.042 103.345 105.357 103.345 105.748  c
103.345 106.025 103.442 106.260 103.638 106.451  c
103.833 106.643 104.071 106.738 104.353 106.738  c
104.833 106.738 105.333 106.525 105.853 106.100  c
h
109.210 107.535 m
109.210 106.521 l
109.546 105.736 110.226 104.881 111.249 103.955  c
111.911 103.363 l
112.763 102.594 113.189 101.830 113.189 101.072  c
113.189 100.588 113.043 100.207 112.752 99.9297  c
112.461 99.6523 112.062 99.5137 111.554 99.5137  c
110.952 99.5137 110.243 99.7461 109.427 100.211  c
109.427 99.1914 l
110.196 98.8281 110.960 98.6465 111.718 98.6465  c
112.530 98.6465 113.183 98.8652 113.675 99.3027  c
114.167 99.7402 114.413 100.320 114.413 101.043  c
114.413 101.562 114.289 102.023 114.041 102.426  c
113.793 102.828 113.331 103.316 112.655 103.891  c
112.210 104.271 l
111.284 105.057 110.749 105.807 110.605 106.521  c
114.372 106.521 l
114.372 107.535 l
h
f
2 J
10.0000 M
1.00000 .800000 0.00000 RG
newpath
153.694 88.0000 m
183.694 88.0000 l
183.694 118.000 l
153.694 118.000 l
153.694 88.0000 l
h
f
0 J
1.45000 M
0.00000 0.00000 0.00000 RG
newpath
153.694 88.0000 m
183.694 88.0000 l
183.694 118.000 l
153.694 118.000 l
153.694 88.0000 l
h
S
2 J
10.0000 M
0 J
1.45000 M
newpath
166.023 106.727 m
165.331 107.363 164.665 107.682 164.025 107.682  c
163.497 107.682 163.060 107.517 162.712 107.187  c
162.364 106.856 162.191 106.439 162.191 105.936  c
162.191 105.240 162.483 104.706 163.067 104.333  c
163.650 103.960 164.487 103.773 165.577 103.773  c
165.853 103.773 l
165.853 103.006 l
165.853 102.268 165.474 101.898 164.716 101.898  c
164.107 101.898 163.448 102.086 162.741 102.461  c
162.741 101.506 l
163.519 101.189 164.247 101.031 164.927 101.031  c
165.638 101.031 166.162 101.191 166.500 101.512  c
166.838 101.832 167.007 102.330 167.007 103.006  c
167.007 105.889 l
167.007 106.549 167.210 106.879 167.616 106.879  c
167.667 106.879 167.741 106.871 167.839 106.855  c
167.921 107.494 l
167.659 107.619 167.370 107.682 167.054 107.682  c
166.515 107.682 166.171 107.363 166.023 106.727  c
h
165.853 106.100 m
165.853 104.453 l
165.466 104.441 l
164.833 104.441 164.321 104.562 163.931 104.802  c
163.540 105.042 163.345 105.357 163.345 105.748  c
163.345 106.025 163.442 106.260 163.638 106.451  c
163.833 106.643 164.071 106.738 164.353 106.738  c
164.833 106.738 165.333 106.525 165.853 106.100  c
h
169.433 107.471 m
169.433 106.393 l
170.261 106.721 170.913 106.885 171.390 106.885  c
171.941 106.885 172.389 106.724 172.734 106.401  c
173.080 106.079 173.253 105.662 173.253 105.150  c
173.253 103.932 172.400 103.322 170.692 103.322  c
170.235 103.322 l
170.235 102.543 l
170.640 102.537 l
172.241 102.537 173.042 101.973 173.042 100.844  c
173.042 99.9570 172.515 99.5137 171.460 99.5137  c
170.882 99.5137 170.245 99.6758 169.550 100.000  c
169.550 98.9922 l
170.234 98.7617 170.898 98.6465 171.542 98.6465  c
173.316 98.6465 174.202 99.3164 174.202 100.656  c
174.202 101.676 173.599 102.402 172.392 102.836  c
173.790 103.160 174.489 103.926 174.489 105.133  c
174.489 105.949 174.220 106.590 173.681 107.055  c
173.142 107.520 172.401 107.752 171.460 107.752  c
170.925 107.752 170.249 107.658 169.433 107.471  c
h
f
2 J
10.0000 M
1.00000 .800000 0.00000 RG
newpath
381.000 96.0000 m
411.000 96.0000 l
411.000 126.000 l
381.000 126.000 l
381.000 96.0000 l
h
f
0 J
1.45000 M
0.00000 0.00000 0.00000 RG
newpath
381.000 96.0000 m
411.000 96.0000 l
411.000 126.000 l
381.000 126.000 l
381.000 96.0000 l
h
S
2 J
10.0000 M
0 J
1.45000 M
newpath
386.889 115.535 m
386.889 114.340 l
386.420 115.234 385.713 115.682 384.768 115.682  c
384.002 115.682 383.399 115.402 382.960 114.844  c
382.521 114.285 382.301 113.521 382.301 112.553  c
382.301 111.494 382.550 110.643 383.048 109.998  c
383.546 109.354 384.201 109.031 385.014 109.031  c
385.768 109.031 386.393 109.320 386.889 109.898  c
386.889 106.283 l
388.049 106.283 l
388.049 115.535 l
h
386.889 110.689 m
386.291 110.162 385.725 109.898 385.189 109.898  c
384.084 109.898 383.531 110.744 383.531 112.436  c
383.531 113.924 384.023 114.668 385.008 114.668  c
385.648 114.668 386.275 114.318 386.889 113.619  c
h
390.357 115.535 m
390.357 106.283 l
391.512 106.283 l
391.512 110.367 l
392.121 109.477 392.867 109.031 393.750 109.031  c
394.301 109.031 394.740 109.206 395.068 109.556  c
395.396 109.905 395.561 110.375 395.561 110.965  c
395.561 115.535 l
394.406 115.535 l
394.406 111.340 l
394.406 110.867 394.337 110.530 394.198 110.329  c
394.060 110.128 393.830 110.027 393.510 110.027  c
392.803 110.027 392.137 110.490 391.512 111.416  c
391.512 115.535 l
h
400.289 115.682 m
399.430 115.682 398.717 115.363 398.150 114.727  c
397.584 114.090 397.301 113.287 397.301 112.318  c
397.301 111.283 397.581 110.477 398.142 109.898  c
398.702 109.320 399.484 109.031 400.488 109.031  c
400.984 109.031 401.539 109.100 402.152 109.236  c
402.152 110.203 l
401.500 110.012 400.969 109.916 400.559 109.916  c
399.969 109.916 399.495 110.138 399.138 110.581  c
398.780 111.024 398.602 111.615 398.602 112.354  c
398.602 113.068 398.785 113.646 399.152 114.088  c
399.520 114.529 400.000 114.750 400.594 114.750  c
401.121 114.750 401.664 114.615 402.223 114.346  c
402.223 115.342 l
401.477 115.568 400.832 115.682 400.289 115.682  c
h
403.951 117.850 m
403.951 109.172 l
405.105 109.172 l
405.105 110.367 l
405.578 109.477 406.287 109.031 407.232 109.031  c
407.998 109.031 408.601 109.311 409.040 109.869  c
409.479 110.428 409.699 111.191 409.699 112.160  c
409.699 113.215 409.450 114.065 408.952 114.712  c
408.454 115.358 407.799 115.682 406.986 115.682  c
406.232 115.682 405.605 115.393 405.105 114.814  c
405.105 117.850 l
h
405.105 114.018 m
405.699 114.549 406.266 114.814 406.805 114.814  c
407.914 114.814 408.469 113.969 408.469 112.277  c
408.469 110.785 407.977 110.039 406.992 110.039  c
406.348 110.039 405.719 110.389 405.105 111.088  c
h
f
2 J
10.0000 M
1.00000 .800000 0.00000 RG
newpath
458.000 108.000 m
488.000 108.000 l
488.000 138.000 l
458.000 138.000 l
458.000 108.000 l
h
f
0 J
1.45000 M
0.00000 0.00000 0.00000 RG
newpath
458.000 108.000 m
488.000 108.000 l
488.000 138.000 l
458.000 138.000 l
458.000 108.000 l
h
S
2 J
10.0000 M
0 J
1.45000 M
newpath
467.680 127.535 m
467.680 126.340 l
467.211 127.234 466.504 127.682 465.559 127.682  c
464.793 127.682 464.190 127.402 463.751 126.844  c
463.312 126.285 463.092 125.521 463.092 124.553  c
463.092 123.494 463.341 122.643 463.839 121.998  c
464.337 121.354 464.992 121.031 465.805 121.031  c
466.559 121.031 467.184 121.320 467.680 121.898  c
467.680 118.283 l
468.840 118.283 l
468.840 127.535 l
h
467.680 122.689 m
467.082 122.162 466.516 121.898 465.980 121.898  c
464.875 121.898 464.322 122.744 464.322 124.436  c
464.322 125.924 464.814 126.668 465.799 126.668  c
466.439 126.668 467.066 126.318 467.680 125.619  c
h
471.148 127.535 m
471.148 121.172 l
472.303 121.172 l
472.303 122.367 l
472.912 121.477 473.658 121.031 474.541 121.031  c
475.092 121.031 475.531 121.206 475.859 121.556  c
476.188 121.905 476.352 122.375 476.352 122.965  c
476.352 127.535 l
475.197 127.535 l
475.197 123.340 l
475.197 122.867 475.128 122.530 474.989 122.329  c
474.851 122.128 474.621 122.027 474.301 122.027  c
473.594 122.027 472.928 122.490 472.303 123.416  c
472.303 127.535 l
h
480.283 127.682 m
479.756 127.682 479.115 127.559 478.361 127.312  c
478.361 126.252 l
479.115 126.627 479.771 126.814 480.330 126.814  c
480.662 126.814 480.938 126.725 481.156 126.545  c
481.375 126.365 481.484 126.141 481.484 125.871  c
481.484 125.477 481.178 125.150 480.564 124.893  c
479.891 124.605 l
478.895 124.191 478.396 123.596 478.396 122.818  c
478.396 122.264 478.593 121.827 478.985 121.509  c
479.378 121.190 479.916 121.031 480.600 121.031  c
480.955 121.031 481.395 121.080 481.918 121.178  c
482.158 121.225 l
482.158 122.186 l
481.514 121.994 481.002 121.898 480.623 121.898  c
479.881 121.898 479.510 122.168 479.510 122.707  c
479.510 123.055 479.791 123.348 480.354 123.586  c
480.910 123.820 l
481.539 124.086 481.984 124.366 482.246 124.661  c
482.508 124.956 482.639 125.324 482.639 125.766  c
482.639 126.324 482.418 126.783 481.977 127.143  c
481.535 127.502 480.971 127.682 480.283 127.682  c
h
f
2 J
10.0000 M
1.00000 .800000 0.00000 RG
newpath
458.000 193.000 m
488.000 193.000 l
488.000 223.000 l
458.000 223.000 l
458.000 193.000 l
h
f
0 J
1.45000 M
0.00000 0.00000 0.00000 RG
newpath
458.000 193.000 m
488.000 193.000 l
488.000 223.000 l
458.000 223.000 l
458.000 193.000 l
h
S
2 J
10.0000 M
0 J
1.45000 M
newpath
466.065 212.682 m
465.206 212.682 464.493 212.363 463.927 211.727  c
463.360 211.090 463.077 210.287 463.077 209.318  c
463.077 208.283 463.357 207.477 463.918 206.898  c
464.479 206.320 465.261 206.031 466.265 206.031  c
466.761 206.031 467.315 206.100 467.929 206.236  c
467.929 207.203 l
467.276 207.012 466.745 206.916 466.335 206.916  c
465.745 206.916 465.271 207.138 464.914 207.581  c
464.557 208.024 464.378 208.615 464.378 209.354  c
464.378 210.068 464.562 210.646 464.929 211.088  c
465.296 211.529 465.776 211.750 466.370 211.750  c
466.897 211.750 467.440 211.615 467.999 211.346  c
467.999 212.342 l
467.253 212.568 466.608 212.682 466.065 212.682  c
h
473.812 212.535 m
473.812 211.340 l
473.343 212.234 472.636 212.682 471.690 212.682  c
470.925 212.682 470.322 212.402 469.883 211.844  c
469.443 211.285 469.224 210.521 469.224 209.553  c
469.224 208.494 469.473 207.643 469.971 206.998  c
470.469 206.354 471.124 206.031 471.937 206.031  c
472.690 206.031 473.315 206.320 473.812 206.898  c
473.812 203.283 l
474.972 203.283 l
474.972 212.535 l
h
473.812 207.689 m
473.214 207.162 472.647 206.898 472.112 206.898  c
471.007 206.898 470.454 207.744 470.454 209.436  c
470.454 210.924 470.946 211.668 471.931 211.668  c
472.571 211.668 473.198 211.318 473.812 210.619  c
h
477.280 212.535 m
477.280 206.172 l
478.435 206.172 l
478.435 207.367 l
479.044 206.477 479.790 206.031 480.673 206.031  c
481.224 206.031 481.663 206.206 481.991 206.556  c
482.319 206.905 482.483 207.375 482.483 207.965  c
482.483 212.535 l
481.329 212.535 l
481.329 208.340 l
481.329 207.867 481.260 207.530 481.121 207.329  c
480.982 207.128 480.753 207.027 480.433 207.027  c
479.726 207.027 479.060 207.490 478.435 208.416  c
478.435 212.535 l
h
f
2 J
10.0000 M
0 J
1.45000 M
newpath
180.694 287.000 m
258.000 287.000 l
S
2 J
10.0000 M
0 J
1.45000 M
newpath
288.000 287.000 m
368.306 287.000 l
S
2 J
10.0000 M
0 J
1.45000 M
newpath
273.000 302.000 m
273.000 332.015 l
S
2 J
10.0000 M
0 J
1.45000 M
newpath
273.000 361.985 m
273.000 398.000 l
S
2 J
10.0000 M
0 J
1.45000 M
newpath
348.019 234.661 m
285.302 278.417 l
S
2 J
10.0000 M
0 J
1.45000 M
newpath
369.833 219.778 m
397.519 201.320 l
S
2 J
10.0000 M
0 J
1.45000 M
newpath
273.000 241.971 m
273.000 272.000 l
S
2 J
10.0000 M
0 J
1.45000 M
newpath
273.000 212.031 m
273.000 178.000 l
S
2 J
10.0000 M
0 J
1.45000 M
newpath
383.306 302.000 m
383.306 332.015 l
S
2 J
10.0000 M
0 J
1.45000 M
newpath
383.306 361.971 m
383.306 392.000 l
S
2 J
10.0000 M
0 J
1.45000 M
newpath
165.694 272.000 m
165.694 246.028 l
S
2 J
10.0000 M
0 J
1.45000 M
newpath
165.694 178.000 m
165.694 208.003 l
S
2 J
10.0000 M
0 J
1.45000 M
newpath
114.319 242.000 m
154.411 277.117 l
S
2 J
10.0000 M
0 J
1.45000 M
newpath
150.694 287.000 m
119.694 287.000 l
S
2 J
10.0000 M
0 J
1.45000 M
newpath
398.306 287.000 m
458.039 287.000 l
S
2 J
10.0000 M
0 J
1.45000 M
newpath
251.654 126.000 m
265.504 150.007 l
S
2 J
10.0000 M
0 J
1.45000 M
newpath
289.365 126.000 m
279.068 149.282 l
S
2 J
10.0000 M
0 J
1.45000 M
newpath
311.000 163.000 m
288.000 163.000 l
S
2 J
10.0000 M
0 J
1.45000 M
newpath
225.000 390.143 m
259.457 406.551 l
S
2 J
10.0000 M
0 J
1.45000 M
newpath
243.000 433.000 m
260.519 421.320 l
S
2 J
10.0000 M
0 J
1.45000 M
newpath
273.000 470.000 m
273.000 428.000 l
S
2 J
10.0000 M
0 J
1.45000 M
newpath
383.306 470.000 m
383.306 422.000 l
S
2 J
10.0000 M
0 J
1.45000 M
newpath
419.306 436.647 m
394.885 416.536 l
S
2 J
10.0000 M
0 J
1.45000 M
newpath
396.235 399.395 m
419.306 385.824 l
S
2 J
10.0000 M
0 J
1.45000 M
newpath
120.694 163.000 m
150.694 163.000 l
S
2 J
10.0000 M
0 J
1.45000 M
newpath
122.944 118.000 m
155.363 152.125 l
S
2 J
10.0000 M
0 J
1.45000 M
newpath
167.944 118.000 m
166.444 148.019 l
S
2 J
10.0000 M
0 J
1.45000 M
newpath
398.561 126.000 m
407.476 178.214 l
S
2 J
10.0000 M
0 J
1.45000 M
newpath
420.034 181.851 m
459.500 138.000 l
S
2 J
10.0000 M
0 J
1.45000 M
newpath
424.592 196.474 m
458.000 204.429 l
S
2 J
10.0000 M
Q
[ 1.00000 0.00000 0.00000 1.00000 0.00000 0.00000 ] defaultmatrix matrix concatmatrix setmatrix
cliprestore

%%Trailer
%%EOF
