%!PS-Adobe-3.0 EPSF-3.0
%%BoundingBox: 0 0 513 440
%%Creator: yExport 1.5
%%Producer: org.freehep.graphicsio.ps.EPSGraphics2D Revision: 12753 
%%For: 
%%Title: 
%%CreationDate: Monday, October 30, 2017 11:34:40 AM GMT
%%LanguageLevel: 3
%%EndComments
%%BeginProlog
100 dict dup begin

%
% File: org/freehep/graphicsio.ps/PSProlog.txt
% Author: Charles Loomis
%

% Redefinitions which save some space in the output file.  These are also
% the same as the PDF operators.
/q {gsave} def
/Q {grestore} def

/n {newpath} def
/m {moveto} def
/l {lineto} def
/c {curveto} def
/h {closepath} def

/re {4 -2 roll moveto
     dup 0 exch rlineto exch 0 rlineto
     neg 0 exch rlineto closepath} def

/f {fill} def
/f* {eofill} def
/F {gsave vg&FC fill grestore} def
/F* {gsave vg&FC eofill grestore} def

/s {closepath stroke} def
/S {stroke} def

/b {closepath gsave vg&FC fill grestore
    gsave stroke grestore newpath} def
/B {gsave vg&FC fill grestore gsave stroke grestore newpath} def
/b* {closepath gsave vg&FC eofill grestore
    gsave stroke grestore newpath} def
/B* {gsave vg&FC eofill grestore gsave stroke grestore newpath} def

/g {1 array astore /vg&fcolor exch def} def
/G {setgray} def
/k {4 array astore /vg&fcolor exch def} def
/K {setcmykcolor} def
/rg {3 array astore /vg&fcolor exch def} def
/RG {setrgbcolor} def

% Initialize the fill color.
0 0 0 rg

/vg&FC {mark vg&fcolor aload pop
        counttomark 1 eq {G} if
        counttomark 3 eq {RG} if
        counttomark 4 eq {K} if
        cleartomark } def

/vg&DFC {/vg&fcolor exch def} def

/vg&C {mark exch aload pop
       counttomark 1 eq {G} if
       counttomark 3 eq {RG} if
       counttomark 4 eq {K} if
       cleartomark } def

/w {setlinewidth} def
/j {setlinejoin} def
/J {setlinecap} def
/M {setmiterlimit} def
/d {setdash} def
/i {setflat} def

/W {clip} def
/W* {eoclip} def

% Setup the default graphics state.
% (black; 1 pt. linewidth; miter join; butt-ends; solid)
/defaultGraphicsState {0 g 1 w 0 j 0 J [] 0 d} def

% Emulation of the rectangle operators for PostScript implementations
% which do not implement all Level 2 features.  This is an INCOMPLETE
% emulation; only the "x y width height rect..." form is emulated.
/*rf {gsave newpath re fill grestore} def
/*rs {gsave newpath re stroke grestore} def
/*rc {newpath re clip} def
/rf  /rectfill where {pop /rectfill}{/*rf} ifelse load def
/rs  /rectstroke where {pop /rectstroke}{/*rs} ifelse load def
/rc  /rectclip where {pop /rectclip}{/*rc} ifelse load def

% Emulation of the selectfont operator.  This includes a 20% increase in
% the fontsize which is necessary to get sizes similar to the Java fonts.
/*sf {exch findfont exch
      dup type /arraytype eq {makefont}{scalefont} ifelse setfont} bind def
/sf /selectfont where {pop {1.2 mul selectfont}}{{1.2 mul *sf}} ifelse def

% Special version of stroke which allows the dash pattern to continue
% across path segments.  (This may be needed for PostScript although
% modern printers seem to do this correctly.)
/vg&stroke {
  currentdash pop length 0 eq
  {stroke}
  {
    currentdash /vg&doffset exch def pop
    flattenpath
    {m vg&resetdash}
    {2 copy
     currentpoint
     3 -1 roll sub dup mul
     3 1 roll sub dup mul
     add sqrt
     3 1 roll l
     currentdash 3 -1 roll add setdash}
     {}
     {h vg&resetdash}
     pathforall
     stroke
     vg&resetdash
  } ifelse
} def
/vg&resetdash {currentdash pop vg&doffset setdash} def

% Initialize variables for safety.
/delta 0 def
/xv 0 def  /yv 0 def  /width 0 def  /height 0 def

% Initialize to portrait INTERNATIONAL (Letter-height, A4-width) page.
/pw 595 def  /ph 791  def  /po true def /ftp false def

% Initialize margins to 20 points.
/ml 20 def  /mr 20 def  /mt 20 def  /mb 20 def

% Temporary matrices.
/smatrix 0 def  /nmatrix 0 def

% set page size (usage: <page width><page height> setpagesize)
/setpagesize {/ph exch def /pw exch def} def

% set page orientation (usage: portrait or landscape)
/portrait {/po true def} def
/landscape {/po false def} def

% force natural size for image (usage: naturalsize)
/naturalsize {/ftp false def} def

% resize image to fill page (usage: fittopage)
/fittopage {/ftp true def} def

% set margins of the page (usage: <left><bottom><top><right> setmargins)
/setmargins {/mr exch def /mt exch def /mb exch def /ml exch def} def

% set the graphic's size (usage: <width><height> setsize)
/setsize {/gh exch def /gw exch def} def

% set the graphic's origin (usage: <x0><y0> setorigin)
/setorigin {/gy exch def /gx exch def} def

% calculate image center
/imagecenter {pw ml sub mr sub 2 div ml add
              ph mt sub mb sub 2 div mb add} def

% calculate the necessary scaling
/imagescale {po {gw}{gh} ifelse pw ml sub mr sub div
             po {gh}{gw} ifelse ph mt sub mb sub div
             2 copy lt {exch} if pop
             ftp not {1 2 copy lt {exch} if pop} if
             1 exch div /sfactor exch def
             /gw gw sfactor mul def /gh gh sfactor mul def} def

% calculate image origin
/imageorigin {pw ml sub mr sub 2 div ml add
              po {gw}{gh} ifelse 2 div sub
              ph mt sub mb sub 2 div mb add
              po {gh}{gw} ifelse 2 div po {add}{sub} ifelse} def

% calculate the clipping origin
/cliporigin  {pw ml sub mr sub 2 div ml add
              po {gw}{gh} ifelse 2 div sub floor
              ph mt sub mb sub 2 div mb add
              po {gh}{gw} ifelse 2 div sub floor} def

% Set the clipping region to the bounding box.
/cliptobounds {cliporigin po {gw}{gh} ifelse 1 add
                          po {gh}{gw} ifelse 1 add rc} def

% set the base transformation matrix (usage: setbasematrix)
/setbasematrix {imageorigin translate
                po {0}{90} ifelse rotate
                sfactor sfactor neg scale
                /defaultmatrix matrix currentmatrix def} def

% The lower-right bias in drawing 1 pt. wide lines.
/bias  {q 0.5 0.5 translate} def
/unbias {Q} def

% Define the composite fonts used to print Unicode strings.
% Undefine particular values in an encoding array.
/vg&undef { {exch dup 3 -1 roll /.notdef put} forall } def
/vg&redef { {3 -1 roll dup 4 2 roll put} forall } def

% usage: key encoding basefontname vg&newbasefont font
/vg&newbasefont {
findfont dup length dict copy
  begin
    currentdict /FID undef
    /Encoding exch def
    dup /FontName exch def
    currentdict
  end
definefont
} def

% usage: key encoding basefontname vg&newskewedbasefont font
/vg&newskewedbasefont {
findfont dup length dict copy
  begin
    currentdict /FID undef
    /Encoding exch def
    dup /FontName exch def
    exch FontMatrix exch matrix concatmatrix /FontMatrix exch def
    currentdict
  end
definefont
} def

% usage: basekey suffix vg&nconcat name
/vg&nconcat {
  2 {dup length string cvs exch} repeat
  dup length 3 -1 roll dup length 3 -1 roll add string
  dup 0 4 -1 roll dup length 5 1 roll putinterval
  dup 4 -2 roll exch putinterval cvn
} def

%usage: fontname vg&skewmatrix matrix
/vg&skewmatrix {
findfont dup /FontInfo known
  {
    /FontInfo get dup /ItalicAngle known
    {
      [ 1 0 4 -1 roll /ItalicAngle get neg dup sin exch cos div 1 0 0 ]
    }
    {pop matrix} ifelse
  }
  {pop matrix} ifelse
} def

% usage: newfontname basefontname vg&newcompositefont --
/vg&newcompositefont {
/vg&fstyle exch def
/vg&bfont exch def
/vg&fname exch def
<<
/FontStyleBits vg&fstyle
/FontType 0
/FontMatrix matrix
/FontName vg&fname
/FMapType 2
/Encoding [ 0 1 255 {pop 6} for ]
          dup 16#00 0 put % Latin
          dup 16#03 1 put % Greek
          dup 16#20 2 put % Punctuation
          dup 16#21 3 put % Arrows
          dup 16#22 4 put % MathOps
          dup 16#27 5 put % Dingbats

/FDepVector [
vg&bfont /-UC-Latin vg&nconcat UCLatinEncoding
vg&bfont vg&newbasefont

vg&bfont vg&skewmatrix
vg&bfont /-UC-Greek vg&nconcat UCGreekEncoding
/Symbol vg&newskewedbasefont

vg&bfont /-UC-Punctuation vg&nconcat UCPunctuationEncoding
vg&bfont vg&newbasefont

/Arrows-UC findfont
/MathOps-UC findfont
/Dingbats-UC findfont
/Undefined-UC findfont ]
>>
vg&fname exch definefont pop
} def

% Null encoding vector (all elements set to .notdef)
/NullEncoding [ 256 {/.notdef} repeat ] def

% Unicode Latin encoding (unicode codes \u0000-\u00ff)
/UCLatinEncoding
  ISOLatin1Encoding dup length array copy
  dup 16#60 /grave put
  [ 16#90 16#91 16#92 16#93 16#94 16#95 16#96
    16#97 16#98 16#9a 16#9b 16#9d 16#9e 16#9f
  ] vg&undef
  def

% Unicode Greek encoding (unicode codes \u0370-\u03ff)
/UCGreekEncoding
  NullEncoding dup length array copy
  << 16#91 /Alpha    16#92 /Beta      16#93 /Gamma    16#94 /Delta
     16#95 /Epsilon  16#96 /Zeta      16#97 /Eta      16#98 /Theta
     16#99 /Iota     16#9a /Kappa     16#9b /Lambda   16#9c /Mu
     16#9d /Nu       16#9e /Xi        16#9f /Omicron  16#a0 /Pi
     16#a1 /Rho      16#a3 /Sigma     16#a4 /Tau      16#a5 /Upsilon
     16#a6 /Phi      16#a7 /Chi       16#a8 /Psi      16#a9 /Omega
     16#b1 /alpha    16#b2 /beta      16#b3 /gamma    16#b4 /delta
     16#b5 /epsilon  16#b6 /zeta      16#b7 /eta      16#b8 /theta
     16#b9 /iota     16#ba /kappa     16#bb /lambda   16#bc /mu
     16#bd /nu       16#be /xi        16#bf /omicron  16#c0 /pi
     16#c1 /rho      16#c2 /sigma1    16#c3 /sigma    16#c4 /tau
     16#c5 /upsilon  16#c6 /phi1      16#c7 /chi      16#c8 /psi
     16#c9 /omega    16#7e /semicolon 16#87 /dotmath  16#d1 /theta1
     16#d2 /Upsilon1 16#d5 /phi       16#d6 /omega1
  >> vg&redef
  def

% Unicode punctuation encoding (unicode codes \u2000-\u206f)
/UCPunctuationEncoding
  NullEncoding dup length array copy
  << 16#10 /hyphen          16#11 /hyphen              16#12 /endash
     16#13 /emdash          16#18 /quoteleft           16#19 /quoteright
     16#1a /quotesinglbase  16#1b /quotesingle         16#1c /quotedblleft
     16#1d /quotedblright   16#1e /quotedblbase        16#1f /quotedbl
     16#20 /dagger          16#21 /daggerdbl           16#22 /bullet
     16#24 /period          16#26 /ellipsis            16#27 /periodcentered
     16#30 /perthousand     16#44 /fraction
     16#70 /zerosuperior    16#74 /foursuperior        16#75 /fivesuperior
     16#76 /sixsuperior     16#77 /sevensuperior       16#78 /eightsuperior
     16#79 /ninesuperior    16#7b /hyphensuperior      16#7d /parenleftsuperior
     16#7e /parenrightsuperior
     16#80 /zeroinferior    16#84 /fourinferior        16#85 /fiveinferior
     16#81 /oneinferior     16#82 /twoinferior         16#83 /threeinferior
     16#86 /sixinferior     16#87 /seveninferior       16#88 /eightinferior
     16#89 /nineinferior    16#8b /hypheninferior      16#8d /parenleftinferior
     16#8e /parenrightinferior
  >> vg&redef
  def

% Unicode mathematical operators encoding (unicode codes \u2200-\u22ff)
/UCMathOpsEncoding
  NullEncoding dup length array copy
  << 16#00 /universal       16#02 /partialdiff         16#03 /existential
     16#05 /emptyset        16#06 /Delta               16#07 /gradient
     16#08 /element         16#09 /notelement          16#0b /suchthat
     16#0f /product         16#11 /summation           16#12 /minus
     16#15 /fraction        16#17 /asteriskmath        16#19 /bullet
     16#1a /radical         16#1d /proportional        16#1e /infinity
     16#20 /angle           16#23 /bar                 16#27 /logicaland
     16#28 /logicalor       16#29 /intersection        16#2a /union
     16#2b /integral        16#34 /therefore           16#36 /colon
     16#3c /similar         16#45 /congruent           16#48 /approxequal
     16#60 /notequal        16#61 /equivalence         16#64 /lessequal
     16#65 /greaterequal    16#82 /propersubset        16#83 /propersuperset
     16#86 /reflexsubset    16#87 /reflexsuperset      16#95 /circleplus
     16#97 /circlemultiply  16#a5 /perpendicular       16#03 /existential
     16#c0 /logicaland      16#c1 /logicalor           16#c2 /intersection
     16#c3 /union           16#c4 /diamond             16#c5 /dotmath
  >> vg&redef
  def

% Unicode arrows encoding (unicode codes \u2190-\u21ff)
% Also includes those "Letterlike" unicode characters
% which are available in the symbol font. (unicode codes \u2100-\u214f)
/UCArrowsEncoding
  NullEncoding dup length array copy
  << 16#11 /Ifraktur        16#1c /Rfraktur            16#22 /trademarkserif
     16#35 /aleph
     16#90 /arrowleft       16#91 /arrowup             16#92 /arrowright
     16#93 /arrowdown       16#94 /arrowboth           16#d0 /arrowdblleft
     16#d1 /arrowdblup      16#d2 /arrowdblright       16#d3 /arrowdbldown
     16#d4 /arrowdblboth
  >> vg&redef
  def

/ZapfDingbats findfont /Encoding get
dup length array copy /UCDingbatsEncoding exch def
16#20 1 16#7f {
  dup 16#20 sub exch
  UCDingbatsEncoding exch get
  UCDingbatsEncoding 3 1 roll put
} for
16#a0 1 16#ff {
  dup 16#40 sub exch
  UCDingbatsEncoding exch get
  UCDingbatsEncoding 3 1 roll put
} for
UCDingbatsEncoding [ 16#c0 1 16#ff {} for ] vg&undef
[ 16#00  16#05 16#0a 16#0b  16#28 16#4c 16#4e  16#53 16#54 16#55  16#57 16#5f
  16#60  16#68 16#69 16#6a  16#6b 16#6c 16#6d  16#6e 16#6f 16#70  16#71 16#72
  16#73  16#74 16#75 16#95  16#96 16#97 16#b0  16#bf
] vg&undef pop

% Define the base fonts which don't change.
/Undefined-UC NullEncoding       /Helvetica    vg&newbasefont pop
/MathOps-UC   UCMathOpsEncoding  /Symbol       vg&newbasefont pop
/Arrows-UC    UCArrowsEncoding   /Symbol       vg&newbasefont pop
/Dingbats-UC  UCDingbatsEncoding /ZapfDingbats vg&newbasefont pop

% Make the SansSerif composite fonts.
/SansSerif /Helvetica 16#00 vg&newcompositefont
/SansSerif-Bold /Helvetica-Bold 16#01 vg&newcompositefont
/SansSerif-Italic /Helvetica-Oblique 16#02 vg&newcompositefont
/SansSerif-BoldItalic /Helvetica-BoldOblique 16#03 vg&newcompositefont

% Make the Serif composite fonts.
/Serif /Times-Roman 16#00 vg&newcompositefont
/Serif-Bold /Times-Bold 16#01 vg&newcompositefont
/Serif-Italic /Times-Italic 16#02 vg&newcompositefont
/Serif-BoldItalic /Times-BoldItalic 16#03 vg&newcompositefont

% Make the Monospaced composite fonts.
/Monospaced /Courier 16#00 vg&newcompositefont
/Monospaced-Bold /Courier-Bold 16#01 vg&newcompositefont
/Monospaced-Italic /Courier-Oblique 16#02 vg&newcompositefont
/Monospaced-BoldItalic /Courier-BoldOblique 16#03 vg&newcompositefont

% Make the Dialog composite fonts.
/Dialog /Helvetica 16#00 vg&newcompositefont
/Dialog-Bold /Helvetica-Bold 16#01 vg&newcompositefont
/Dialog-Italic /Helvetica-Oblique 16#02 vg&newcompositefont
/Dialog-BoldItalic /Helvetica-BoldOblique 16#03 vg&newcompositefont

% Make the DialogInput composite fonts.
/DialogInput /Courier 16#00 vg&newcompositefont
/DialogInput-Bold /Courier-Bold 16#01 vg&newcompositefont
/DialogInput-Italic /Courier-Oblique 16#02 vg&newcompositefont
/DialogInput-BoldItalic /Courier-BoldOblique 16#03 vg&newcompositefont

% Make the Typewriter composite fonts (JDK 1.1 only).
/Typewriter /Courier 16#00 vg&newcompositefont
/Typewriter-Bold /Courier-Bold 16#01 vg&newcompositefont
/Typewriter-Italic /Courier-Oblique 16#02 vg&newcompositefont
/Typewriter-BoldItalic /Courier-BoldOblique 16#03 vg&newcompositefont


/cfontH {
 dup /fontsize exch def /SansSerif exch sf
 /vg&fontstyles [{cfontH} {cfontHB} {cfontHI} {cfontHBI}] def
} def
/cfontHB {
  dup /fontsize exch def /SansSerif-Bold exch sf
 /vg&fontstyles [{cfontH} {cfontHB} {cfontHI} {cfontHBI}] def
} def
/cfontHI {
 dup /fontsize exch def /SansSerif-Italic exch sf
 /vg&fontstyles [{cfontH} {cfontHB} {cfontHI} {cfontHBI}] def
} def
/cfontHBI {
 dup /fontsize exch def /SansSerif-BoldItalic exch sf
 /vg&fontstyles [{cfontH} {cfontHB} {cfontHI} {cfontHBI}] def
} def

/cfontT {
 dup /fontsize exch def /Serif exch sf
 /vg&fontstyles [{cfontT} {cfontTB} {cfontTI} {cfontTBI}] def
} def
/cfontTB {
 dup /fontsize exch def /Serif-Bold exch sf
 /vg&fontstyles [{cfontT} {cfontTB} {cfontTI} {cfontTBI}] def
} def
/cfontTI {
 dup /fontsize exch def /Serif-Italic exch sf
 /vg&fontstyles [{cfontT} {cfontTB} {cfontTI} {cfontTBI}] def
} def
/cfontTBI {
 dup /fontsize exch def /Serif-BoldItalic exch sf
 /vg&fontstyles [{cfontT} {cfontTB} {cfontTI} {cfontTBI}] def
} def

/cfontC {
 dup /fontsize exch def /Typewriter exch sf
 /vg&fontstyles [{cfontC} {cfontCB} {cfontCI} {cfontCBI}] def
} def
/cfontCB {
 dup /fontsize exch def /Typewriter-Bold exch sf
 /vg&fontstyles [{cfontC} {cfontCB} {cfontCI} {cfontCBI}] def
} def
/cfontCI {
 dup /fontsize exch def /Typewriter-Italic exch sf
 /vg&fontstyles [{cfontC} {cfontCB} {cfontCI} {cfontCBI}] def
} def
/cfontCBI {
 dup /fontsize exch def /Typewriter-BoldItalic exch sf
 /vg&fontstyles [{cfontC} {cfontCB} {cfontCI} {cfontCBI}] def
} def

% Darken or lighten the current color.
/darken {0.7 exch exp 3 copy
         q 4 -1 roll vg&C
         currentrgbcolor 3 {4 -2 roll mul} repeat
         3 array astore Q} def

/displayColorMap
<< /Cr   [1.00 0.00 0.00]       /Cg     [0.00 1.00 0.00]
   /Cb   [0.00 0.00 1.00]       /Cc     [1.00 0.00 0.00 0.00]
   /Cm   [0.00 1.00 0.00 0.00]  /Cy     [0.00 0.00 1.00 0.00]
   /Co   [1.00 0.78 0.00]       /Cp     [1.00 0.67 0.67]
   /Cw   [1   ]                 /Cgrl   [0.75]
   /Cgr  [0.50]                 /Cgrd   [0.25]
   /Ck   [0   ]
   /CGr  [1.00 0.00 0.00]       /CGg    [0.00 1.00 0.00]
   /CGb  [0.00 0.00 1.00]       /CGc    [1.00 0.00 0.00 0.00]
   /CGm  [0.00 1.00 0.00 0.00]  /CGy    [0.00 0.00 1.00 0.00]
   /CGo  [1.00 0.78 0.00]       /CGp    [1.00 0.67 0.67]
   /CGw  [1   ]                 /CGgrl  [0.75]
   /CGgr [0.50]                 /CGgrd  [0.25]
   /CGk  [0   ]
   /CIr  [1.00 0.00 0.00]       /CIg    [0.00 1.00 0.00]
   /CIb  [0.00 0.00 1.00]       /CIc    [1.00 0.00 0.00 0.00]
   /CIm  [0.00 1.00 0.00 0.00]  /CIy    [0.00 0.00 1.00 0.00]
   /CIo  [1.00 0.78 0.00]       /CIp    [1.00 0.67 0.67]
   /CIw  [1   ]                 /CIgrl  [0.75]
   /CIgr [0.50]                 /CIgrd  [0.25]
   /CIk  [0   ]
>> def

/printColorMap
<< /Cr   [1.00 0.33 0.33]       /Cg     [0.33 1.00 0.33]
   /Cb   [0.33 0.33 1.00]       /Cc     [1.00 0.00 0.00 0.00]
   /Cm   [0.00 1.00 0.00 0.00]  /Cy     [0.00 0.00 1.00 0.00]
   /Co   [1.00 0.78 0.00]       /Cp     [1.00 0.67 0.67]
   /Cw   [1   ]                 /Cgrl   [0.75]
   /Cgr  [0.50]                 /Cgrd   [0.25]
   /Ck   [0   ]
   /CGr  [1.00 0.33 0.33]       /CGg    [0.33 1.00 0.33]
   /CGb  [0.33 0.33 1.00]       /CGc    [1.00 0.00 0.00 0.00]
   /CGm  [0.00 1.00 0.00 0.00]  /CGy    [0.00 0.00 1.00 0.00]
   /CGo  [1.00 0.78 0.00]       /CGp    [1.00 0.67 0.67]
   /CGw  [1   ]                 /CGgrl  [0.75]
   /CGgr [0.50]                 /CGgrd  [0.25]
   /CGk  [0   ]
   /CIr  [1.00 0.33 0.33]       /CIg    [0.33 1.00 0.33]
   /CIb  [0.33 0.33 1.00]       /CIc    [1.00 0.00 0.00 0.00]
   /CIm  [0.00 1.00 0.00 0.00]  /CIy    [0.00 0.00 1.00 0.00]
   /CIo  [1.00 0.78 0.00]       /CIp    [1.00 0.67 0.67]
   /CIw  [1   ]                 /CIgrl  [0.75]
   /CIgr [0.50]                 /CIgrd  [0.25]
   /CIk  [0   ]
>> def

/grayColorMap
<< /Cr   [0   ]                 /Cg     [0   ]
   /Cb   [0   ]                 /Cc     [0   ]
   /Cm   [0   ]                 /Cy     [0   ]
   /Co   [0   ]                 /Cp     [0   ]
   /Cw   [0   ]                 /Cgrl   [0   ]
   /Cgr  [0   ]                 /Cgrd   [0   ]
   /Ck   [0   ]
   /CGr  [0.75]                 /CGg    [1   ]
   /CGb  [0.50]                 /CGc    [0.75]
   /CGm  [0.50]                 /CGy    [1   ]
   /CGo  [0.75]                 /CGp    [1   ]
   /CGw  [0   ]                 /CGgrl  [0.25]
   /CGgr [0.50]                 /CGgrd  [0.75]
   /CGk  [1   ]
   /CIr  [1   ]                 /CIg    [1   ]
   /CIb  [1   ]                 /CIc    [1   ]
   /CIm  [1   ]                 /CIy    [1   ]
   /CIo  [1   ]                 /CIp    [1   ]
   /CIw  [1   ]                 /CIgrl  [1   ]
   /CIgr [1   ]                 /CIgrd  [1   ]
   /CIk  [1   ]
>> def

/bwColorMap
<< /Cr   [0   ]                 /Cg     [0   ]
   /Cb   [0   ]                 /Cc     [0   ]
   /Cm   [0   ]                 /Cy     [0   ]
   /Co   [0   ]                 /Cp     [0   ]
   /Cw   [0   ]                 /Cgrl   [0   ]
   /Cgr  [0   ]                 /Cgrd   [0   ]
   /Ck   [0   ]
   /CGr  [1   ]                 /CGg    [1   ]
   /CGb  [1   ]                 /CGc    [1   ]
   /CGm  [1   ]                 /CGy    [1   ]
   /CGo  [1   ]                 /CGp    [1   ]
   /CGw  [0   ]                 /CGgrl  [1   ]
   /CGgr [1   ]                 /CGgrd  [1   ]
   /CGk  [1   ]
   /CIr  [1   ]                 /CIg    [1   ]
   /CIb  [1   ]                 /CIc    [1   ]
   /CIm  [1   ]                 /CIy    [1   ]
   /CIo  [1   ]                 /CIp    [1   ]
   /CIw  [1   ]                 /CIgrl  [1   ]
   /CIgr [1   ]                 /CIgrd  [1   ]
   /CIk  [1   ]
>> def

%
% The following routines handle the alignment of and printing of
% tagged strings.
%

% Predefine the bounding box values.
/bbllx 0 def /bblly 0 def /bburx 0 def /bbury 0 def

% This routine pops the first unicode character off of a string and returns
% the remainder of the string, the character code of first character,
% and a "true" if the string was non-zero length.
% <string>      popfirst <remaining string> <true>
% <null string> popfirst <false>
/popfirst {
  dup length 1 gt
    {dup 0 get /vg&fbyte exch def
     dup 1 get /vg&cbyte exch def
     dup length 2 sub 2 exch getinterval true}
    {pop false} ifelse
} def

% This routine shows a single unicode character given the font and
% character codes.
% <font code> <char code> unicharshow --
/unicharshow {
  2 string
  dup 0 5 -1 roll put
  dup 1 4 -1 roll put
  internalshow
} def

% This is an internal routine to alternate between determining the
% bounding box for stringsize and showing the string for recshow.
% <string> internalshow --
/internalshow {show} def

% This is an internal routine to alternate between determining the
% bounding box for stringsize and stroking various ornaments.
% <string> internalstroke --
/internalstroke {S} def

% Sets up internalshow to use the null device to determine string size.
% -- nullinternalshow --
/nullinternalshow {/internalshow {false charpath flattenpath
                                  pathbbox updatebbox} def} def

% Sets up internalstroke to use the null device to determine string size.
% -- nullinternalstroke --
/nullinternalstroke {
 /internalstroke {flattenpath pathbbox updatebbox} def} def

% This routine tests to see if the character code matches the first
% character of a string.
% <char code> <string> testchar <char code> <true or false>
/testchar {exch dup 3 -1 roll 0 get eq} def

% Raise the text baseline for superscripts.
% -- raise --
/raise {
  0 fontsize 2 div rmoveto
  /fontsize fontsize 2 mul 3 div def
  currentfont /FontName get fontsize sf
} def

% Un-raise the text baseline for superscripts.
% -- unraise --
/unraise {
  /fontsize fontsize 1.5 mul def
  0 fontsize 2 div neg rmoveto
} def

% Lower the text baseline for subscripts.
% -- lower --
/lower {
  0 fontsize 3 div neg rmoveto
  /fontsize fontsize 2 mul 3 div def
  currentfont /FontName get fontsize sf
} def

% Un-lower the text baseline for subscripts.
% -- unlower --
/unlower {
  /fontsize fontsize 1.5 mul def
  0 fontsize 3 div rmoveto
} def

% Compare the top two elements on the stack and leave only the
% larger one.
/maxval {2 copy gt {pop} {exch pop} ifelse} def

% Tokenize a string.  Do not use the usual PostScript token because
% parentheses will not be interpreted correctly because of rescanning
% of the string.
/vg&token {/vg&string exch def /vg&index -1 def /vg&level 0 def
0 2 vg&string length 2 sub {
  dup dup 1 add exch vg&string exch get 8 bitshift vg&string 3 -1 roll get or
  dup 16#f0fe eq {pop 1}{16#f0ff eq {-1}{0} ifelse} ifelse
  /vg&level exch vg&level add def
  vg&level 0 eq {/vg&index exch def exit} if pop
} for
vg&index 0 ge {
  vg&string vg&index 2 add dup vg&string length exch sub getinterval
  vg&index 2 gt {vg&string 2 vg&index 2 sub getinterval}{()} ifelse
  true}
{false} ifelse
} bind def

% Recursively show an unicode string.
% <string> recshow --
/recshow {
  popfirst
  {
    % Test to see if this is a string attribute.
    vg&fbyte 16#f0 and 16#e0 eq
    {
      q

      % Font style.
      currentfont dup /FontStyleBits known {/FontStyleBits get}{pop 0} ifelse
      vg&cbyte or vg&fontstyles exch get fontsize exch exec

      vg&token pop recshow currentpoint Q m recshow
    }
    {
      vg&fbyte 16#F8 and 16#F0 eq {

        % Superscript and/or subscript.
        vg&cbyte 16#00 eq {
          vg&token pop exch vg&token pop 3 -1 roll
          q raise recshow unraise currentpoint pop Q exch
          q lower recshow unlower currentpoint pop Q
          maxval currentpoint exch pop m recshow } if

        % Strikeout.
        vg&cbyte 16#01 eq {
          vg&token pop currentpoint 3 -1 roll recshow
          q 0 J vg&underline vg&uthick w
          currentpoint 4 -2 roll fontsize 3 div add moveto
          fontsize 3 div add lineto internalstroke Q
          recshow} if

        % Underline.
        vg&cbyte 16#02 eq {
          vg&token pop currentpoint 3 -1 roll recshow
          q 0 J vg&underline vg&uthick w
          currentpoint 4 -2 roll vg&uoffset add moveto
          vg&uoffset add lineto internalstroke Q
          recshow} if

        % Dashed underline.
        vg&cbyte 16#03 eq {
          vg&token pop currentpoint 3 -1 roll recshow
          q 0 J [ vg&uthick 5 mul vg&uthick 2 mul] 0 d
          vg&underline vg&uthick w
          currentpoint 4 -2 roll vg&uoffset add moveto
          vg&uoffset add lineto internalstroke Q
          recshow} if

        % Dotted underline.
        vg&cbyte 16#04 eq {
          vg&token pop currentpoint 3 -1 roll recshow
          q 1 J [ 0 vg&uthick 3 mul] 0 d
          vg&underline vg&uthick w
          currentpoint 4 -2 roll vg&uoffset add moveto
          vg&uoffset add lineto internalstroke Q
          recshow} if

        % Thick underline.
        vg&cbyte 16#05 eq {
          vg&token pop currentpoint 3 -1 roll recshow
          q 0 J vg&underline vg&uthick 2 mul w
          currentpoint 4 -2 roll vg&uoffset vg&uthick 2 div sub add moveto
          vg&uoffset vg&uthick 2 div sub add lineto internalstroke Q
          recshow} if

        % Gray thick underline.
        vg&cbyte 16#06 eq {
          vg&token pop currentpoint 3 -1 roll recshow
          q 0 J vg&underline vg&uthick 2 mul w 0.5 setgray
          currentpoint 4 -2 roll vg&uoffset vg&uthick 2 div sub add moveto
          vg&uoffset vg&uthick 2 div sub add lineto internalstroke Q
          recshow} if

        % Overbar.
        vg&cbyte 16#07 eq {
          vg&token pop dup stringsize relative 4 1 roll pop pop exch
          3 -1 roll recshow
          q 0 J vg&underline vg&uthick w
          vg&uoffset neg add dup currentpoint pop exch m l internalstroke Q
          recshow} if
      }
      {
        vg&fbyte vg&cbyte unicharshow recshow
      } ifelse
    } ifelse
  } if
} def

% Get the underline position and thickness from the current font.
/vg&underline {

currentfont dup /FontType get 0 eq {/FDepVector get 0 get} if
dup dup /FontInfo known {
  /FontInfo get dup
  dup /UnderlinePosition known {
    /UnderlinePosition get /vg&uoffset exch def
  }
  {
    pop /vg&uoffset 0 def
  } ifelse
  dup /UnderlineThickness known {
    /UnderlineThickness get /vg&uthick exch def
  }
  {
    pop /vg&uthick 0 def
  } ifelse
}
{
  pop /vg&uoffset 0 def /vg&uthick 0 def
} ifelse
/FontMatrix get
currentfont dup /FontType get 0 eq
{/FontMatrix get matrix concatmatrix}{pop} ifelse
dup 0 vg&uoffset 3 -1 roll transform /vg&uoffset exch def pop
0 vg&uthick 3 -1 roll transform /vg&uthick exch def pop
} def

% Make a frame with the coordinates on the stack.
% <llx> <lly> <urx> <ury> frame --
/frame {4 copy m 3 1 roll exch l 4 -2 roll l l h} def

% Resets the accumulated bounding box to a degenerate box at the
% current point.
% -- resetbbox --
/resetbbox {
  currentpoint 2 copy
  /bbury exch def
  /bburx exch def
  /bblly exch def
  /bbllx exch def
} def

% Update the accumulated bounding box.
% <llx'> <lly'> <urx'> <ury'> updatebbox --
/updatebbox {
  dup bbury gt {/bbury exch def} {pop} ifelse
  dup bburx gt {/bburx exch def} {pop} ifelse
  dup bblly lt {/bblly exch def} {pop} ifelse
  dup bbllx lt {/bbllx exch def} {pop} ifelse
} def

% Set the bounding box to the values on the stack.
% <llx'> <lly'> <urx'> <ury'> updatebbox --
/restorebbox {
  /bbury exch def /bburx exch def /bblly exch def /bbllx exch def
} def

% Push the accumulated bounding box onto the stack.
% -- pushbbox <llx> <lly> <urx> <ury>
/pushbbox {bbllx bblly bburx bbury} def

% Make the relative bounding box relative to the currentpoint.
% <llx'> <lly'> <urx'> <ury'> inflate <llx> <lly> <urx> <ury>
/inflate {
  2 {fontsize 0.2 mul add 4 1 roll} repeat
  2 {fontsize 0.2 mul sub 4 1 roll} repeat
} def

% Make the relative bounding box relative to the currentpoint.
% <llx'> <lly'> <urx'> <ury'> relative <llx> <lly> <urx> <ury>
/relative {
  currentpoint 3 -1 roll add 3 1 roll add exch 4 2 roll
  currentpoint 3 -1 roll add 3 1 roll add exch 4 2 roll
} def

% Returns the size of a string appropriate for recshow.
% <string> stringsize <llx> <lly> <urx> <ury>
/stringsize {
  pushbbox /internalshow load /internalstroke load 7 -1 roll
  q
  nulldevice 0 0 m
  nullinternalshow nullinternalstroke
  resetbbox
  recshow
  /internalstroke exch def /internalshow exch def
  pushbbox 8 -4 roll restorebbox
  Q
} def

% Calculate values for string positioning.
/calcval {4 copy
  3 -1 roll sub /widy exch def sub neg /widx exch def
  pop pop /dy exch def /dx exch def} def

% Utilities to position a string.
% First letter (U=upper, C=center, B=baseline, L=lower)
% Second letter (L=left, C=center, R=right)
/align [
{calcval dx neg widy dy add neg rmoveto} % UL
{calcval dx neg widy 2 div dy add neg rmoveto} % CL
{calcval dx neg 0 rmoveto} % BL
{calcval dx neg dy neg rmoveto} % LL
{calcval widx dx add neg widy dy add neg rmoveto} % UR
{calcval widx dx add neg widy 2 div dy add neg rmoveto} % CR
{calcval widx dx add neg 0 rmoveto} % BR
{calcval widx dx add neg dy neg rmoveto} % LR
{calcval widx 2 div dx add neg widy dy add neg rmoveto} % UC
{calcval widx 2 div dx add neg widy 2 div dy add neg rmoveto} % CC
{calcval widx 2 div dx add neg 0 rmoveto} % BC
{calcval widx 2 div dx add neg dy neg rmoveto} % LC
] def

/vg&str {m q 1 -1 scale dup stringsize 4 copy align 11 -1 roll get exec
         q inflate relative frame exch exec Q recshow Q} def

end /procDict exch def
%%EndProlog

%%BeginSetup
save
procDict begin
printColorMap begin
513 440 setpagesize
0 0 0 0 setmargins
0 0 setorigin
513 440 setsize
naturalsize
portrait
imagescale
cliptobounds
setbasematrix
/Helvetica 10 sf
defaultGraphicsState
%%EndSetup

0.00000 0.00000 0.00000 RG
[ 1.00000 0.00000 0.00000 1.00000 0.00000 0.00000 ] defaultmatrix matrix concatmatrix setmatrix
cliprestore
1.00000 1.00000 1.00000 RG
newpath
0.00000 0.00000 m
513.000 0.00000 l
513.000 440.000 l
0.00000 440.000 l
0.00000 0.00000 l
h
f
0.00000 0.00000 0.00000 RG
0.00000 0.00000 0.00000 RG
[ 1.00000 0.00000 0.00000 1.00000 0.00000 0.00000 ] defaultmatrix matrix concatmatrix setmatrix
cliprestore
1.00000 1.00000 1.00000 RG
newpath
0.00000 0.00000 m
513.000 0.00000 l
513.000 440.000 l
0.00000 440.000 l
0.00000 0.00000 l
h
f
0.00000 0.00000 0.00000 RG
0 0 513 440 rc
q
[ 1.00000 0.00000 0.00000 1.00000 0.00000 0.00000 ] concat
[ 1.00000 0.00000 0.00000 1.00000 -65.0000 -78.0000 ] concat
1.00000 1.00000 1.00000 RG
newpath
65.0000 78.0000 m
578.000 78.0000 l
578.000 518.000 l
65.0000 518.000 l
65.0000 78.0000 l
h
f
0.00000 0.00000 0.00000 RG
[ 1.00000 0.00000 0.00000 1.00000 -65.0000 -78.0000 ] defaultmatrix matrix concatmatrix setmatrix
[ 1.00000 0.00000 0.00000 1.00000 -65.0000 -78.0000 ] defaultmatrix matrix concatmatrix setmatrix
[ 1.00000 0.00000 0.00000 1.00000 0.00000 0.00000 ] defaultmatrix matrix concatmatrix setmatrix
[ 1.00000 0.00000 0.00000 1.00000 -65.0000 -78.0000 ] defaultmatrix matrix concatmatrix setmatrix
1.00000 .800000 0.00000 RG
newpath
152.000 128.000 m
152.000 147.330 136.330 163.000 117.000 163.000  c
97.6700 163.000 82.0000 147.330 82.0000 128.000  c
82.0000 108.670 97.6700 93.0000 117.000 93.0000  c
136.330 93.0000 152.000 108.670 152.000 128.000  c
h
f
0 J
1.45000 M
0.00000 0.00000 0.00000 RG
newpath
152.000 128.000 m
152.000 147.330 136.330 163.000 117.000 163.000  c
97.6700 163.000 82.0000 147.330 82.0000 128.000  c
82.0000 108.670 97.6700 93.0000 117.000 93.0000  c
136.330 93.0000 152.000 108.670 152.000 128.000  c
h
S
2 J
10.0000 M
0 J
1.45000 M
newpath
107.982 132.535 m
107.982 126.172 l
109.137 126.172 l
109.137 127.367 l
109.594 126.477 110.258 126.031 111.129 126.031  c
111.246 126.031 111.369 126.041 111.498 126.061  c
111.498 127.139 l
111.299 127.072 111.123 127.039 110.971 127.039  c
110.240 127.039 109.629 127.473 109.137 128.340  c
109.137 132.535 l
h
115.225 132.535 m
111.949 123.863 l
113.180 123.863 l
115.863 130.965 l
118.453 123.863 l
119.531 123.863 l
116.385 132.535 l
h
120.803 132.471 m
120.803 131.393 l
121.631 131.721 122.283 131.885 122.760 131.885  c
123.311 131.885 123.759 131.724 124.104 131.401  c
124.450 131.079 124.623 130.662 124.623 130.150  c
124.623 128.932 123.770 128.322 122.062 128.322  c
121.605 128.322 l
121.605 127.543 l
122.010 127.537 l
123.611 127.537 124.412 126.973 124.412 125.844  c
124.412 124.957 123.885 124.514 122.830 124.514  c
122.252 124.514 121.615 124.676 120.920 125.000  c
120.920 123.992 l
121.604 123.762 122.268 123.646 122.912 123.646  c
124.686 123.646 125.572 124.316 125.572 125.656  c
125.572 126.676 124.969 127.402 123.762 127.836  c
125.160 128.160 125.859 128.926 125.859 130.133  c
125.859 130.949 125.590 131.590 125.051 132.055  c
124.512 132.520 123.771 132.752 122.830 132.752  c
122.295 132.752 121.619 132.658 120.803 132.471  c
h
f
2 J
10.0000 M
1.00000 .800000 0.00000 RG
newpath
227.000 259.000 m
227.000 278.330 211.330 294.000 192.000 294.000  c
172.670 294.000 157.000 278.330 157.000 259.000  c
157.000 239.670 172.670 224.000 192.000 224.000  c
211.330 224.000 227.000 239.670 227.000 259.000  c
h
f
0 J
1.45000 M
0.00000 0.00000 0.00000 RG
newpath
227.000 259.000 m
227.000 278.330 211.330 294.000 192.000 294.000  c
172.670 294.000 157.000 278.330 157.000 259.000  c
157.000 239.670 172.670 224.000 192.000 224.000  c
211.330 224.000 227.000 239.670 227.000 259.000  c
h
S
2 J
10.0000 M
0 J
1.45000 M
newpath
182.982 263.535 m
182.982 257.172 l
184.137 257.172 l
184.137 258.367 l
184.594 257.477 185.258 257.031 186.129 257.031  c
186.246 257.031 186.369 257.041 186.498 257.061  c
186.498 258.139 l
186.299 258.072 186.123 258.039 185.971 258.039  c
185.240 258.039 184.629 258.473 184.137 259.340  c
184.137 263.535 l
h
190.225 263.535 m
186.949 254.863 l
188.180 254.863 l
190.863 261.965 l
193.453 254.863 l
194.531 254.863 l
191.385 263.535 l
h
196.389 263.535 m
196.389 262.668 l
198.123 262.668 l
198.123 255.824 l
196.389 256.258 l
196.389 255.367 l
199.283 254.646 l
199.283 262.668 l
201.018 262.668 l
201.018 263.535 l
h
f
2 J
10.0000 M
1.00000 .800000 0.00000 RG
newpath
318.000 128.000 m
318.000 147.330 302.330 163.000 283.000 163.000  c
263.670 163.000 248.000 147.330 248.000 128.000  c
248.000 108.670 263.670 93.0000 283.000 93.0000  c
302.330 93.0000 318.000 108.670 318.000 128.000  c
h
f
0 J
1.45000 M
0.00000 0.00000 0.00000 RG
newpath
318.000 128.000 m
318.000 147.330 302.330 163.000 283.000 163.000  c
263.670 163.000 248.000 147.330 248.000 128.000  c
248.000 108.670 263.670 93.0000 283.000 93.0000  c
302.330 93.0000 318.000 108.670 318.000 128.000  c
h
S
2 J
10.0000 M
0 J
1.45000 M
newpath
273.982 132.535 m
273.982 126.172 l
275.137 126.172 l
275.137 127.367 l
275.594 126.477 276.258 126.031 277.129 126.031  c
277.246 126.031 277.369 126.041 277.498 126.061  c
277.498 127.139 l
277.299 127.072 277.123 127.039 276.971 127.039  c
276.240 127.039 275.629 127.473 275.137 128.340  c
275.137 132.535 l
h
281.225 132.535 m
277.949 123.863 l
279.180 123.863 l
281.863 130.965 l
284.453 123.863 l
285.531 123.863 l
282.385 132.535 l
h
286.580 132.535 m
286.580 131.521 l
286.916 130.736 287.596 129.881 288.619 128.955  c
289.281 128.363 l
290.133 127.594 290.559 126.830 290.559 126.072  c
290.559 125.588 290.413 125.207 290.122 124.930  c
289.831 124.652 289.432 124.514 288.924 124.514  c
288.322 124.514 287.613 124.746 286.797 125.211  c
286.797 124.191 l
287.566 123.828 288.330 123.646 289.088 123.646  c
289.900 123.646 290.553 123.865 291.045 124.303  c
291.537 124.740 291.783 125.320 291.783 126.043  c
291.783 126.562 291.659 127.023 291.411 127.426  c
291.163 127.828 290.701 128.316 290.025 128.891  c
289.580 129.271 l
288.654 130.057 288.119 130.807 287.975 131.521  c
291.742 131.521 l
291.742 132.535 l
h
f
2 J
10.0000 M
1.00000 .800000 0.00000 RG
newpath
563.000 259.000 m
563.000 278.330 547.330 294.000 528.000 294.000  c
508.670 294.000 493.000 278.330 493.000 259.000  c
493.000 239.670 508.670 224.000 528.000 224.000  c
547.330 224.000 563.000 239.670 563.000 259.000  c
h
f
0 J
1.45000 M
0.00000 0.00000 0.00000 RG
newpath
563.000 259.000 m
563.000 278.330 547.330 294.000 528.000 294.000  c
508.670 294.000 493.000 278.330 493.000 259.000  c
493.000 239.670 508.670 224.000 528.000 224.000  c
547.330 224.000 563.000 239.670 563.000 259.000  c
h
S
2 J
10.0000 M
0 J
1.45000 M
newpath
519.454 263.535 m
519.454 257.172 l
520.608 257.172 l
520.608 258.367 l
521.065 257.477 521.729 257.031 522.601 257.031  c
522.718 257.031 522.841 257.041 522.970 257.061  c
522.970 258.139 l
522.771 258.072 522.595 258.039 522.442 258.039  c
521.712 258.039 521.101 258.473 520.608 259.340  c
520.608 263.535 l
h
524.329 263.535 m
524.329 254.863 l
526.579 254.863 l
527.446 254.863 528.111 255.027 528.574 255.355  c
529.037 255.684 529.269 256.156 529.269 256.773  c
529.269 257.824 528.675 258.572 527.487 259.018  c
528.905 259.451 529.614 260.234 529.614 261.367  c
529.614 262.070 529.380 262.607 528.911 262.979  c
528.442 263.350 527.767 263.535 526.884 263.535  c
h
525.548 262.615 m
525.800 262.615 l
526.702 262.615 527.286 262.559 527.552 262.445  c
528.060 262.230 528.313 261.832 528.313 261.250  c
528.313 260.734 528.083 260.306 527.622 259.964  c
527.161 259.622 526.585 259.451 525.894 259.451  c
525.548 259.451 l
h
525.548 258.672 m
525.940 258.672 l
526.597 258.672 527.105 258.531 527.467 258.250  c
527.828 257.969 528.009 257.572 528.009 257.061  c
528.009 256.209 527.349 255.783 526.028 255.783  c
525.548 255.783 l
h
533.294 263.535 m
533.294 255.783 l
530.218 255.783 l
530.218 254.863 l
537.601 254.863 l
537.601 255.783 l
534.524 255.783 l
534.524 263.535 l
h
f
2 J
10.0000 M
1.00000 .800000 0.00000 RG
newpath
395.000 363.500 m
395.000 382.830 379.330 398.500 360.000 398.500  c
340.670 398.500 325.000 382.830 325.000 363.500  c
325.000 344.170 340.670 328.500 360.000 328.500  c
379.330 328.500 395.000 344.170 395.000 363.500  c
h
f
0 J
1.45000 M
0.00000 0.00000 0.00000 RG
newpath
395.000 363.500 m
395.000 382.830 379.330 398.500 360.000 398.500  c
340.670 398.500 325.000 382.830 325.000 363.500  c
325.000 344.170 340.670 328.500 360.000 328.500  c
379.330 328.500 395.000 344.170 395.000 363.500  c
h
S
2 J
10.0000 M
0 J
1.45000 M
newpath
346.034 368.035 m
346.034 361.672 l
347.188 361.672 l
347.188 362.867 l
347.646 361.977 348.310 361.531 349.181 361.531  c
349.298 361.531 349.421 361.541 349.550 361.561  c
349.550 362.639 l
349.351 362.572 349.175 362.539 349.022 362.539  c
348.292 362.539 347.681 362.973 347.188 363.840  c
347.188 368.035 l
h
352.972 368.035 m
352.972 360.283 l
349.896 360.283 l
349.896 359.363 l
357.278 359.363 l
357.278 360.283 l
354.202 360.283 l
354.202 368.035 l
h
361.813 367.227 m
361.122 367.863 360.456 368.182 359.815 368.182  c
359.288 368.182 358.851 368.017 358.503 367.687  c
358.155 367.356 357.981 366.939 357.981 366.436  c
357.981 365.740 358.273 365.206 358.857 364.833  c
359.441 364.460 360.278 364.273 361.368 364.273  c
361.644 364.273 l
361.644 363.506 l
361.644 362.768 361.265 362.398 360.507 362.398  c
359.897 362.398 359.239 362.586 358.532 362.961  c
358.532 362.006 l
359.310 361.689 360.038 361.531 360.718 361.531  c
361.429 361.531 361.953 361.691 362.291 362.012  c
362.629 362.332 362.798 362.830 362.798 363.506  c
362.798 366.389 l
362.798 367.049 363.001 367.379 363.407 367.379  c
363.458 367.379 363.532 367.371 363.630 367.355  c
363.712 367.994 l
363.450 368.119 363.161 368.182 362.845 368.182  c
362.306 368.182 361.962 367.863 361.813 367.227  c
h
361.644 366.600 m
361.644 364.953 l
361.257 364.941 l
360.624 364.941 360.112 365.062 359.722 365.302  c
359.331 365.542 359.136 365.857 359.136 366.248  c
359.136 366.525 359.233 366.760 359.429 366.951  c
359.624 367.143 359.862 367.238 360.144 367.238  c
360.624 367.238 361.124 367.025 361.644 366.600  c
h
367.069 368.182 m
366.483 368.182 366.026 368.014 365.698 367.678  c
365.370 367.342 365.206 366.875 365.206 366.277  c
365.206 362.539 l
364.409 362.539 l
364.409 361.672 l
365.206 361.672 l
365.206 360.518 l
366.360 360.406 l
366.360 361.672 l
368.024 361.672 l
368.024 362.539 l
366.360 362.539 l
366.360 366.066 l
366.360 366.898 366.720 367.314 367.438 367.314  c
367.591 367.314 367.776 367.289 367.995 367.238  c
367.995 368.035 l
367.640 368.133 367.331 368.182 367.069 368.182  c
h
372.929 367.227 m
372.237 367.863 371.571 368.182 370.931 368.182  c
370.403 368.182 369.966 368.017 369.618 367.687  c
369.271 367.356 369.097 366.939 369.097 366.436  c
369.097 365.740 369.389 365.206 369.973 364.833  c
370.557 364.460 371.394 364.273 372.483 364.273  c
372.759 364.273 l
372.759 363.506 l
372.759 362.768 372.380 362.398 371.622 362.398  c
371.013 362.398 370.354 362.586 369.647 362.961  c
369.647 362.006 l
370.425 361.689 371.153 361.531 371.833 361.531  c
372.544 361.531 373.068 361.691 373.406 362.012  c
373.744 362.332 373.913 362.830 373.913 363.506  c
373.913 366.389 l
373.913 367.049 374.116 367.379 374.522 367.379  c
374.573 367.379 374.647 367.371 374.745 367.355  c
374.827 367.994 l
374.565 368.119 374.276 368.182 373.960 368.182  c
373.421 368.182 373.077 367.863 372.929 367.227  c
h
372.759 366.600 m
372.759 364.953 l
372.372 364.941 l
371.739 364.941 371.228 365.062 370.837 365.302  c
370.446 365.542 370.251 365.857 370.251 366.248  c
370.251 366.525 370.349 366.760 370.544 366.951  c
370.739 367.143 370.978 367.238 371.259 367.238  c
371.739 367.238 372.239 367.025 372.759 366.600  c
h
f
2 J
10.0000 M
1.00000 .800000 0.00000 RG
newpath
227.000 468.000 m
227.000 487.330 211.330 503.000 192.000 503.000  c
172.670 503.000 157.000 487.330 157.000 468.000  c
157.000 448.670 172.670 433.000 192.000 433.000  c
211.330 433.000 227.000 448.670 227.000 468.000  c
h
f
0 J
1.45000 M
0.00000 0.00000 0.00000 RG
newpath
227.000 468.000 m
227.000 487.330 211.330 503.000 192.000 503.000  c
172.670 503.000 157.000 487.330 157.000 468.000  c
157.000 448.670 172.670 433.000 192.000 433.000  c
211.330 433.000 227.000 448.670 227.000 468.000  c
h
S
2 J
10.0000 M
0 J
1.45000 M
newpath
165.668 472.535 m
165.668 466.172 l
166.822 466.172 l
166.822 467.367 l
167.279 466.477 167.943 466.031 168.814 466.031  c
168.932 466.031 169.055 466.041 169.184 466.061  c
169.184 467.139 l
168.984 467.072 168.809 467.039 168.656 467.039  c
167.926 467.039 167.314 467.473 166.822 468.340  c
166.822 472.535 l
h
174.035 472.752 m
172.832 472.752 171.864 472.335 171.132 471.501  c
170.399 470.667 170.033 469.564 170.033 468.193  c
170.033 466.814 170.401 465.712 171.138 464.886  c
171.874 464.060 172.857 463.646 174.088 463.646  c
175.314 463.646 176.297 464.059 177.035 464.883  c
177.773 465.707 178.143 466.807 178.143 468.182  c
178.143 469.584 177.773 470.696 177.035 471.519  c
176.297 472.341 175.297 472.752 174.035 472.752  c
h
174.053 471.832 m
174.939 471.832 175.625 471.513 176.109 470.874  c
176.594 470.235 176.836 469.334 176.836 468.170  c
176.836 467.041 176.593 466.158 176.106 465.521  c
175.620 464.885 174.947 464.566 174.088 464.566  c
173.225 464.566 172.551 464.886 172.066 465.524  c
171.582 466.163 171.340 467.051 171.340 468.188  c
171.340 469.320 171.580 470.211 172.061 470.859  c
172.541 471.508 173.205 471.832 174.053 471.832  c
h
179.900 472.535 m
179.900 466.172 l
181.055 466.172 l
181.055 467.367 l
181.512 466.477 182.176 466.031 183.047 466.031  c
183.164 466.031 183.287 466.041 183.416 466.061  c
183.416 467.139 l
183.217 467.072 183.041 467.039 182.889 467.039  c
182.158 467.039 181.547 467.473 181.055 468.340  c
181.055 472.535 l
h
188.092 471.727 m
187.400 472.363 186.734 472.682 186.094 472.682  c
185.566 472.682 185.129 472.517 184.781 472.187  c
184.434 471.856 184.260 471.439 184.260 470.936  c
184.260 470.240 184.552 469.706 185.136 469.333  c
185.720 468.960 186.557 468.773 187.646 468.773  c
187.922 468.773 l
187.922 468.006 l
187.922 467.268 187.543 466.898 186.785 466.898  c
186.176 466.898 185.518 467.086 184.811 467.461  c
184.811 466.506 l
185.588 466.189 186.316 466.031 186.996 466.031  c
187.707 466.031 188.231 466.191 188.569 466.512  c
188.907 466.832 189.076 467.330 189.076 468.006  c
189.076 470.889 l
189.076 471.549 189.279 471.879 189.686 471.879  c
189.736 471.879 189.811 471.871 189.908 471.855  c
189.990 472.494 l
189.729 472.619 189.439 472.682 189.123 472.682  c
188.584 472.682 188.240 472.363 188.092 471.727  c
h
187.922 471.100 m
187.922 469.453 l
187.535 469.441 l
186.902 469.441 186.391 469.562 186.000 469.802  c
185.609 470.042 185.414 470.357 185.414 470.748  c
185.414 471.025 185.512 471.260 185.707 471.451  c
185.902 471.643 186.141 471.738 186.422 471.738  c
186.902 471.738 187.402 471.525 187.922 471.100  c
h
191.438 472.535 m
191.438 466.172 l
192.592 466.172 l
192.592 467.367 l
193.201 466.477 193.947 466.031 194.830 466.031  c
195.381 466.031 195.820 466.206 196.148 466.556  c
196.477 466.905 196.641 467.375 196.641 467.965  c
196.641 472.535 l
195.486 472.535 l
195.486 468.340 l
195.486 467.867 195.417 467.530 195.278 467.329  c
195.140 467.128 194.910 467.027 194.590 467.027  c
193.883 467.027 193.217 467.490 192.592 468.416  c
192.592 472.535 l
h
198.908 474.650 m
199.043 473.648 l
199.711 473.965 200.369 474.123 201.018 474.123  c
202.318 474.123 202.969 473.434 202.969 472.055  c
202.969 471.053 l
202.543 471.943 201.844 472.389 200.871 472.389  c
200.109 472.389 199.504 472.111 199.055 471.557  c
198.605 471.002 198.381 470.254 198.381 469.312  c
198.381 468.344 198.637 467.555 199.148 466.945  c
199.660 466.336 200.322 466.031 201.135 466.031  c
201.846 466.031 202.457 466.320 202.969 466.898  c
202.969 466.172 l
204.129 466.172 l
204.129 470.801 l
204.129 471.797 204.077 472.534 203.974 473.013  c
203.870 473.491 203.676 473.883 203.391 474.188  c
202.887 474.723 202.104 474.990 201.041 474.990  c
200.299 474.990 199.588 474.877 198.908 474.650  c
h
202.969 470.332 m
202.969 467.689 l
202.461 467.162 201.908 466.898 201.311 466.898  c
200.779 466.898 200.363 467.111 200.062 467.537  c
199.762 467.963 199.611 468.547 199.611 469.289  c
199.611 470.684 200.102 471.381 201.082 471.381  c
201.750 471.381 202.379 471.031 202.969 470.332  c
h
211.031 472.330 m
210.258 472.564 209.596 472.682 209.045 472.682  c
208.107 472.682 207.343 472.370 206.751 471.747  c
206.159 471.124 205.863 470.316 205.863 469.324  c
205.863 468.359 206.124 467.568 206.646 466.951  c
207.167 466.334 207.834 466.025 208.646 466.025  c
209.416 466.025 210.011 466.299 210.431 466.846  c
210.851 467.393 211.061 468.170 211.061 469.178  c
211.055 469.535 l
207.041 469.535 l
207.209 471.047 207.949 471.803 209.262 471.803  c
209.742 471.803 210.332 471.674 211.031 471.416  c
h
207.094 468.668 m
209.900 468.668 l
209.900 467.484 209.459 466.893 208.576 466.893  c
207.689 466.893 207.195 467.484 207.094 468.668  c
h
212.895 472.535 m
212.895 471.521 l
213.230 470.736 213.910 469.881 214.934 468.955  c
215.596 468.363 l
216.447 467.594 216.873 466.830 216.873 466.072  c
216.873 465.588 216.728 465.207 216.437 464.930  c
216.146 464.652 215.746 464.514 215.238 464.514  c
214.637 464.514 213.928 464.746 213.111 465.211  c
213.111 464.191 l
213.881 463.828 214.645 463.646 215.402 463.646  c
216.215 463.646 216.867 463.865 217.359 464.303  c
217.852 464.740 218.098 465.320 218.098 466.043  c
218.098 466.562 217.974 467.023 217.726 467.426  c
217.478 467.828 217.016 468.316 216.340 468.891  c
215.895 469.271 l
214.969 470.057 214.434 470.807 214.289 471.521  c
218.057 471.521 l
218.057 472.535 l
h
f
2 J
10.0000 M
1.00000 .800000 0.00000 RG
newpath
563.000 468.000 m
563.000 487.330 547.330 503.000 528.000 503.000  c
508.670 503.000 493.000 487.330 493.000 468.000  c
493.000 448.670 508.670 433.000 528.000 433.000  c
547.330 433.000 563.000 448.670 563.000 468.000  c
h
f
0 J
1.45000 M
0.00000 0.00000 0.00000 RG
newpath
563.000 468.000 m
563.000 487.330 547.330 503.000 528.000 503.000  c
508.670 503.000 493.000 487.330 493.000 468.000  c
493.000 448.670 508.670 433.000 528.000 433.000  c
547.330 433.000 563.000 448.670 563.000 468.000  c
h
S
2 J
10.0000 M
0 J
1.45000 M
newpath
499.043 472.535 m
499.043 466.172 l
500.197 466.172 l
500.197 467.367 l
500.654 466.477 501.318 466.031 502.189 466.031  c
502.307 466.031 502.430 466.041 502.559 466.061  c
502.559 467.139 l
502.359 467.072 502.184 467.039 502.031 467.039  c
501.301 467.039 500.689 467.473 500.197 468.340  c
500.197 472.535 l
h
506.285 472.535 m
503.010 463.863 l
504.240 463.863 l
506.924 470.965 l
509.514 463.863 l
510.592 463.863 l
507.445 472.535 l
h
514.289 472.682 m
513.379 472.682 512.652 472.380 512.109 471.776  c
511.566 471.173 511.295 470.365 511.295 469.354  c
511.295 468.330 511.567 467.521 512.112 466.925  c
512.657 466.329 513.396 466.031 514.330 466.031  c
515.264 466.031 516.003 466.329 516.548 466.925  c
517.093 467.521 517.365 468.326 517.365 469.342  c
517.365 470.381 517.092 471.197 516.545 471.791  c
515.998 472.385 515.246 472.682 514.289 472.682  c
h
514.307 471.814 m
515.529 471.814 516.141 470.990 516.141 469.342  c
516.141 467.713 515.537 466.898 514.330 466.898  c
513.127 466.898 512.525 467.717 512.525 469.354  c
512.525 470.994 513.119 471.814 514.307 471.814  c
h
523.254 472.535 m
523.254 471.340 l
522.785 472.234 522.078 472.682 521.133 472.682  c
520.367 472.682 519.765 472.402 519.325 471.844  c
518.886 471.285 518.666 470.521 518.666 469.553  c
518.666 468.494 518.915 467.643 519.413 466.998  c
519.911 466.354 520.566 466.031 521.379 466.031  c
522.133 466.031 522.758 466.320 523.254 466.898  c
523.254 463.283 l
524.414 463.283 l
524.414 472.535 l
h
523.254 467.689 m
522.656 467.162 522.090 466.898 521.555 466.898  c
520.449 466.898 519.896 467.744 519.896 469.436  c
519.896 470.924 520.389 471.668 521.373 471.668  c
522.014 471.668 522.641 471.318 523.254 470.619  c
h
530.004 471.727 m
529.312 472.363 528.646 472.682 528.006 472.682  c
527.479 472.682 527.041 472.517 526.693 472.187  c
526.346 471.856 526.172 471.439 526.172 470.936  c
526.172 470.240 526.464 469.706 527.048 469.333  c
527.632 468.960 528.469 468.773 529.559 468.773  c
529.834 468.773 l
529.834 468.006 l
529.834 467.268 529.455 466.898 528.697 466.898  c
528.088 466.898 527.430 467.086 526.723 467.461  c
526.723 466.506 l
527.500 466.189 528.229 466.031 528.908 466.031  c
529.619 466.031 530.144 466.191 530.481 466.512  c
530.819 466.832 530.988 467.330 530.988 468.006  c
530.988 470.889 l
530.988 471.549 531.191 471.879 531.598 471.879  c
531.648 471.879 531.723 471.871 531.820 471.855  c
531.902 472.494 l
531.641 472.619 531.352 472.682 531.035 472.682  c
530.496 472.682 530.152 472.363 530.004 471.727  c
h
529.834 471.100 m
529.834 469.453 l
529.447 469.441 l
528.814 469.441 528.303 469.562 527.912 469.802  c
527.521 470.042 527.326 470.357 527.326 470.748  c
527.326 471.025 527.424 471.260 527.619 471.451  c
527.814 471.643 528.053 471.738 528.334 471.738  c
528.814 471.738 529.314 471.525 529.834 471.100  c
h
534.727 467.039 m
534.727 472.535 l
533.566 472.535 l
533.566 467.039 l
532.664 467.039 l
532.664 466.172 l
533.566 466.172 l
533.566 465.410 l
533.566 463.895 534.258 463.137 535.641 463.137  c
536.027 463.137 536.467 463.201 536.959 463.330  c
536.959 464.244 l
536.439 464.084 536.023 464.004 535.711 464.004  c
535.332 464.004 535.073 464.095 534.935 464.276  c
534.796 464.458 534.727 464.795 534.727 465.287  c
534.727 466.172 l
536.314 466.172 l
536.314 467.039 l
h
540.252 472.682 m
539.342 472.682 538.615 472.380 538.072 471.776  c
537.529 471.173 537.258 470.365 537.258 469.354  c
537.258 468.330 537.530 467.521 538.075 466.925  c
538.620 466.329 539.359 466.031 540.293 466.031  c
541.227 466.031 541.966 466.329 542.511 466.925  c
543.056 467.521 543.328 468.326 543.328 469.342  c
543.328 470.381 543.055 471.197 542.508 471.791  c
541.961 472.385 541.209 472.682 540.252 472.682  c
h
540.270 471.814 m
541.492 471.814 542.104 470.990 542.104 469.342  c
542.104 467.713 541.500 466.898 540.293 466.898  c
539.090 466.898 538.488 467.717 538.488 469.354  c
538.488 470.994 539.082 471.814 540.270 471.814  c
h
545.133 472.535 m
545.133 466.172 l
546.287 466.172 l
546.287 467.367 l
546.896 466.477 547.643 466.031 548.525 466.031  c
549.076 466.031 549.516 466.206 549.844 466.556  c
550.172 466.905 550.336 467.375 550.336 467.965  c
550.336 472.535 l
549.182 472.535 l
549.182 468.340 l
549.182 467.867 549.112 467.530 548.974 467.329  c
548.835 467.128 548.605 467.027 548.285 467.027  c
547.578 467.027 546.912 467.490 546.287 468.416  c
546.287 472.535 l
h
557.244 472.330 m
556.471 472.564 555.809 472.682 555.258 472.682  c
554.320 472.682 553.556 472.370 552.964 471.747  c
552.372 471.124 552.076 470.316 552.076 469.324  c
552.076 468.359 552.337 467.568 552.858 466.951  c
553.380 466.334 554.047 466.025 554.859 466.025  c
555.629 466.025 556.224 466.299 556.644 466.846  c
557.063 467.393 557.273 468.170 557.273 469.178  c
557.268 469.535 l
553.254 469.535 l
553.422 471.047 554.162 471.803 555.475 471.803  c
555.955 471.803 556.545 471.674 557.244 471.416  c
h
553.307 468.668 m
556.113 468.668 l
556.113 467.484 555.672 466.893 554.789 466.893  c
553.902 466.893 553.408 467.484 553.307 468.668  c
h
f
2 J
10.0000 M
1.00000 .800000 0.00000 RG
newpath
150.000 363.500 m
150.000 382.830 134.330 398.500 115.000 398.500  c
95.6700 398.500 80.0000 382.830 80.0000 363.500  c
80.0000 344.170 95.6700 328.500 115.000 328.500  c
134.330 328.500 150.000 344.170 150.000 363.500  c
h
f
0 J
1.45000 M
0.00000 0.00000 0.00000 RG
newpath
150.000 363.500 m
150.000 382.830 134.330 398.500 115.000 398.500  c
95.6700 398.500 80.0000 382.830 80.0000 363.500  c
80.0000 344.170 95.6700 328.500 115.000 328.500  c
134.330 328.500 150.000 344.170 150.000 363.500  c
h
S
2 J
10.0000 M
0 J
1.45000 M
newpath
88.6680 368.035 m
88.6680 361.672 l
89.8223 361.672 l
89.8223 362.867 l
90.2793 361.977 90.9434 361.531 91.8145 361.531  c
91.9316 361.531 92.0547 361.541 92.1836 361.561  c
92.1836 362.639 l
91.9844 362.572 91.8086 362.539 91.6562 362.539  c
90.9258 362.539 90.3145 362.973 89.8223 363.840  c
89.8223 368.035 l
h
97.0352 368.252 m
95.8320 368.252 94.8643 367.835 94.1318 367.001  c
93.3994 366.167 93.0332 365.064 93.0332 363.693  c
93.0332 362.314 93.4014 361.212 94.1377 360.386  c
94.8740 359.560 95.8574 359.146 97.0879 359.146  c
98.3145 359.146 99.2969 359.559 100.035 360.383  c
100.773 361.207 101.143 362.307 101.143 363.682  c
101.143 365.084 100.773 366.196 100.035 367.019  c
99.2969 367.841 98.2969 368.252 97.0352 368.252  c
h
97.0527 367.332 m
97.9395 367.332 98.6250 367.013 99.1094 366.374  c
99.5938 365.735 99.8359 364.834 99.8359 363.670  c
99.8359 362.541 99.5928 361.658 99.1064 361.021  c
98.6201 360.385 97.9473 360.066 97.0879 360.066  c
96.2246 360.066 95.5508 360.386 95.0664 361.024  c
94.5820 361.663 94.3398 362.551 94.3398 363.688  c
94.3398 364.820 94.5801 365.711 95.0605 366.359  c
95.5410 367.008 96.2051 367.332 97.0527 367.332  c
h
102.900 368.035 m
102.900 361.672 l
104.055 361.672 l
104.055 362.867 l
104.512 361.977 105.176 361.531 106.047 361.531  c
106.164 361.531 106.287 361.541 106.416 361.561  c
106.416 362.639 l
106.217 362.572 106.041 362.539 105.889 362.539  c
105.158 362.539 104.547 362.973 104.055 363.840  c
104.055 368.035 l
h
111.092 367.227 m
110.400 367.863 109.734 368.182 109.094 368.182  c
108.566 368.182 108.129 368.017 107.781 367.687  c
107.434 367.356 107.260 366.939 107.260 366.436  c
107.260 365.740 107.552 365.206 108.136 364.833  c
108.720 364.460 109.557 364.273 110.646 364.273  c
110.922 364.273 l
110.922 363.506 l
110.922 362.768 110.543 362.398 109.785 362.398  c
109.176 362.398 108.518 362.586 107.811 362.961  c
107.811 362.006 l
108.588 361.689 109.316 361.531 109.996 361.531  c
110.707 361.531 111.231 361.691 111.569 362.012  c
111.907 362.332 112.076 362.830 112.076 363.506  c
112.076 366.389 l
112.076 367.049 112.279 367.379 112.686 367.379  c
112.736 367.379 112.811 367.371 112.908 367.355  c
112.990 367.994 l
112.729 368.119 112.439 368.182 112.123 368.182  c
111.584 368.182 111.240 367.863 111.092 367.227  c
h
110.922 366.600 m
110.922 364.953 l
110.535 364.941 l
109.902 364.941 109.391 365.062 109.000 365.302  c
108.609 365.542 108.414 365.857 108.414 366.248  c
108.414 366.525 108.512 366.760 108.707 366.951  c
108.902 367.143 109.141 367.238 109.422 367.238  c
109.902 367.238 110.402 367.025 110.922 366.600  c
h
114.438 368.035 m
114.438 361.672 l
115.592 361.672 l
115.592 362.867 l
116.201 361.977 116.947 361.531 117.830 361.531  c
118.381 361.531 118.820 361.706 119.148 362.056  c
119.477 362.405 119.641 362.875 119.641 363.465  c
119.641 368.035 l
118.486 368.035 l
118.486 363.840 l
118.486 363.367 118.417 363.030 118.278 362.829  c
118.140 362.628 117.910 362.527 117.590 362.527  c
116.883 362.527 116.217 362.990 115.592 363.916  c
115.592 368.035 l
h
121.908 370.150 m
122.043 369.148 l
122.711 369.465 123.369 369.623 124.018 369.623  c
125.318 369.623 125.969 368.934 125.969 367.555  c
125.969 366.553 l
125.543 367.443 124.844 367.889 123.871 367.889  c
123.109 367.889 122.504 367.611 122.055 367.057  c
121.605 366.502 121.381 365.754 121.381 364.812  c
121.381 363.844 121.637 363.055 122.148 362.445  c
122.660 361.836 123.322 361.531 124.135 361.531  c
124.846 361.531 125.457 361.820 125.969 362.398  c
125.969 361.672 l
127.129 361.672 l
127.129 366.301 l
127.129 367.297 127.077 368.034 126.974 368.513  c
126.870 368.991 126.676 369.383 126.391 369.688  c
125.887 370.223 125.104 370.490 124.041 370.490  c
123.299 370.490 122.588 370.377 121.908 370.150  c
h
125.969 365.832 m
125.969 363.189 l
125.461 362.662 124.908 362.398 124.311 362.398  c
123.779 362.398 123.363 362.611 123.062 363.037  c
122.762 363.463 122.611 364.047 122.611 364.789  c
122.611 366.184 123.102 366.881 124.082 366.881  c
124.750 366.881 125.379 366.531 125.969 365.832  c
h
134.031 367.830 m
133.258 368.064 132.596 368.182 132.045 368.182  c
131.107 368.182 130.343 367.870 129.751 367.247  c
129.159 366.624 128.863 365.816 128.863 364.824  c
128.863 363.859 129.124 363.068 129.646 362.451  c
130.167 361.834 130.834 361.525 131.646 361.525  c
132.416 361.525 133.011 361.799 133.431 362.346  c
133.851 362.893 134.061 363.670 134.061 364.678  c
134.055 365.035 l
130.041 365.035 l
130.209 366.547 130.949 367.303 132.262 367.303  c
132.742 367.303 133.332 367.174 134.031 366.916  c
h
130.094 364.168 m
132.900 364.168 l
132.900 362.984 132.459 362.393 131.576 362.393  c
130.689 362.393 130.195 362.984 130.094 364.168  c
h
136.703 368.035 m
136.703 367.168 l
138.438 367.168 l
138.438 360.324 l
136.703 360.758 l
136.703 359.867 l
139.598 359.146 l
139.598 367.168 l
141.332 367.168 l
141.332 368.035 l
h
f
2 J
10.0000 M
0 J
1.45000 M
newpath
174.610 228.626 m
134.390 158.374 l
S
2 J
10.0000 M
0 J
1.45000 M
newpath
211.968 230.255 m
263.032 156.745 l
S
2 J
10.0000 M
0 J
1.45000 M
newpath
152.000 128.000 m
248.000 128.000 l
S
2 J
10.0000 M
0 J
1.45000 M
newpath
227.000 259.000 m
493.000 259.000 l
S
2 J
10.0000 M
0 J
1.45000 M
newpath
313.865 144.503 m
497.135 242.497 l
S
2 J
10.0000 M
0 J
1.45000 M
newpath
221.720 277.486 m
330.280 345.014 l
S
2 J
10.0000 M
0 J
1.45000 M
newpath
389.720 345.014 m
498.280 277.486 l
S
2 J
10.0000 M
0 J
1.45000 M
newpath
227.000 468.000 m
493.000 468.000 l
S
2 J
10.0000 M
0 J
1.45000 M
newpath
528.000 294.000 m
528.000 433.000 l
S
2 J
10.0000 M
0 J
1.45000 M
newpath
135.762 391.677 m
171.238 439.823 l
S
2 J
10.0000 M
0 J
1.45000 M
newpath
150.000 363.500 m
325.000 363.500 l
S
2 J
10.0000 M
Q
[ 1.00000 0.00000 0.00000 1.00000 0.00000 0.00000 ] defaultmatrix matrix concatmatrix setmatrix
cliprestore

%%Trailer
%%EOF
