%!PS-Adobe-3.0 EPSF-3.0
%%BoundingBox: 0 0 422 354
%%Creator: yExport 1.5
%%Producer: org.freehep.graphicsio.ps.EPSGraphics2D Revision: 12753 
%%For: 
%%Title: 
%%CreationDate: Wednesday, November 29, 2017 8:48:52 AM WAT
%%LanguageLevel: 3
%%EndComments
%%BeginProlog
100 dict dup begin

%
% File: org/freehep/graphicsio.ps/PSProlog.txt
% Author: Charles Loomis
%

% Redefinitions which save some space in the output file.  These are also
% the same as the PDF operators.
/q {gsave} def
/Q {grestore} def

/n {newpath} def
/m {moveto} def
/l {lineto} def
/c {curveto} def
/h {closepath} def

/re {4 -2 roll moveto
     dup 0 exch rlineto exch 0 rlineto
     neg 0 exch rlineto closepath} def

/f {fill} def
/f* {eofill} def
/F {gsave vg&FC fill grestore} def
/F* {gsave vg&FC eofill grestore} def

/s {closepath stroke} def
/S {stroke} def

/b {closepath gsave vg&FC fill grestore
    gsave stroke grestore newpath} def
/B {gsave vg&FC fill grestore gsave stroke grestore newpath} def
/b* {closepath gsave vg&FC eofill grestore
    gsave stroke grestore newpath} def
/B* {gsave vg&FC eofill grestore gsave stroke grestore newpath} def

/g {1 array astore /vg&fcolor exch def} def
/G {setgray} def
/k {4 array astore /vg&fcolor exch def} def
/K {setcmykcolor} def
/rg {3 array astore /vg&fcolor exch def} def
/RG {setrgbcolor} def

% Initialize the fill color.
0 0 0 rg

/vg&FC {mark vg&fcolor aload pop
        counttomark 1 eq {G} if
        counttomark 3 eq {RG} if
        counttomark 4 eq {K} if
        cleartomark } def

/vg&DFC {/vg&fcolor exch def} def

/vg&C {mark exch aload pop
       counttomark 1 eq {G} if
       counttomark 3 eq {RG} if
       counttomark 4 eq {K} if
       cleartomark } def

/w {setlinewidth} def
/j {setlinejoin} def
/J {setlinecap} def
/M {setmiterlimit} def
/d {setdash} def
/i {setflat} def

/W {clip} def
/W* {eoclip} def

% Setup the default graphics state.
% (black; 1 pt. linewidth; miter join; butt-ends; solid)
/defaultGraphicsState {0 g 1 w 0 j 0 J [] 0 d} def

% Emulation of the rectangle operators for PostScript implementations
% which do not implement all Level 2 features.  This is an INCOMPLETE
% emulation; only the "x y width height rect..." form is emulated.
/*rf {gsave newpath re fill grestore} def
/*rs {gsave newpath re stroke grestore} def
/*rc {newpath re clip} def
/rf  /rectfill where {pop /rectfill}{/*rf} ifelse load def
/rs  /rectstroke where {pop /rectstroke}{/*rs} ifelse load def
/rc  /rectclip where {pop /rectclip}{/*rc} ifelse load def

% Emulation of the selectfont operator.  This includes a 20% increase in
% the fontsize which is necessary to get sizes similar to the Java fonts.
/*sf {exch findfont exch
      dup type /arraytype eq {makefont}{scalefont} ifelse setfont} bind def
/sf /selectfont where {pop {1.2 mul selectfont}}{{1.2 mul *sf}} ifelse def

% Special version of stroke which allows the dash pattern to continue
% across path segments.  (This may be needed for PostScript although
% modern printers seem to do this correctly.)
/vg&stroke {
  currentdash pop length 0 eq
  {stroke}
  {
    currentdash /vg&doffset exch def pop
    flattenpath
    {m vg&resetdash}
    {2 copy
     currentpoint
     3 -1 roll sub dup mul
     3 1 roll sub dup mul
     add sqrt
     3 1 roll l
     currentdash 3 -1 roll add setdash}
     {}
     {h vg&resetdash}
     pathforall
     stroke
     vg&resetdash
  } ifelse
} def
/vg&resetdash {currentdash pop vg&doffset setdash} def

% Initialize variables for safety.
/delta 0 def
/xv 0 def  /yv 0 def  /width 0 def  /height 0 def

% Initialize to portrait INTERNATIONAL (Letter-height, A4-width) page.
/pw 595 def  /ph 791  def  /po true def /ftp false def

% Initialize margins to 20 points.
/ml 20 def  /mr 20 def  /mt 20 def  /mb 20 def

% Temporary matrices.
/smatrix 0 def  /nmatrix 0 def

% set page size (usage: <page width><page height> setpagesize)
/setpagesize {/ph exch def /pw exch def} def

% set page orientation (usage: portrait or landscape)
/portrait {/po true def} def
/landscape {/po false def} def

% force natural size for image (usage: naturalsize)
/naturalsize {/ftp false def} def

% resize image to fill page (usage: fittopage)
/fittopage {/ftp true def} def

% set margins of the page (usage: <left><bottom><top><right> setmargins)
/setmargins {/mr exch def /mt exch def /mb exch def /ml exch def} def

% set the graphic's size (usage: <width><height> setsize)
/setsize {/gh exch def /gw exch def} def

% set the graphic's origin (usage: <x0><y0> setorigin)
/setorigin {/gy exch def /gx exch def} def

% calculate image center
/imagecenter {pw ml sub mr sub 2 div ml add
              ph mt sub mb sub 2 div mb add} def

% calculate the necessary scaling
/imagescale {po {gw}{gh} ifelse pw ml sub mr sub div
             po {gh}{gw} ifelse ph mt sub mb sub div
             2 copy lt {exch} if pop
             ftp not {1 2 copy lt {exch} if pop} if
             1 exch div /sfactor exch def
             /gw gw sfactor mul def /gh gh sfactor mul def} def

% calculate image origin
/imageorigin {pw ml sub mr sub 2 div ml add
              po {gw}{gh} ifelse 2 div sub
              ph mt sub mb sub 2 div mb add
              po {gh}{gw} ifelse 2 div po {add}{sub} ifelse} def

% calculate the clipping origin
/cliporigin  {pw ml sub mr sub 2 div ml add
              po {gw}{gh} ifelse 2 div sub floor
              ph mt sub mb sub 2 div mb add
              po {gh}{gw} ifelse 2 div sub floor} def

% Set the clipping region to the bounding box.
/cliptobounds {cliporigin po {gw}{gh} ifelse 1 add
                          po {gh}{gw} ifelse 1 add rc} def

% set the base transformation matrix (usage: setbasematrix)
/setbasematrix {imageorigin translate
                po {0}{90} ifelse rotate
                sfactor sfactor neg scale
                /defaultmatrix matrix currentmatrix def} def

% The lower-right bias in drawing 1 pt. wide lines.
/bias  {q 0.5 0.5 translate} def
/unbias {Q} def

% Define the composite fonts used to print Unicode strings.
% Undefine particular values in an encoding array.
/vg&undef { {exch dup 3 -1 roll /.notdef put} forall } def
/vg&redef { {3 -1 roll dup 4 2 roll put} forall } def

% usage: key encoding basefontname vg&newbasefont font
/vg&newbasefont {
findfont dup length dict copy
  begin
    currentdict /FID undef
    /Encoding exch def
    dup /FontName exch def
    currentdict
  end
definefont
} def

% usage: key encoding basefontname vg&newskewedbasefont font
/vg&newskewedbasefont {
findfont dup length dict copy
  begin
    currentdict /FID undef
    /Encoding exch def
    dup /FontName exch def
    exch FontMatrix exch matrix concatmatrix /FontMatrix exch def
    currentdict
  end
definefont
} def

% usage: basekey suffix vg&nconcat name
/vg&nconcat {
  2 {dup length string cvs exch} repeat
  dup length 3 -1 roll dup length 3 -1 roll add string
  dup 0 4 -1 roll dup length 5 1 roll putinterval
  dup 4 -2 roll exch putinterval cvn
} def

%usage: fontname vg&skewmatrix matrix
/vg&skewmatrix {
findfont dup /FontInfo known
  {
    /FontInfo get dup /ItalicAngle known
    {
      [ 1 0 4 -1 roll /ItalicAngle get neg dup sin exch cos div 1 0 0 ]
    }
    {pop matrix} ifelse
  }
  {pop matrix} ifelse
} def

% usage: newfontname basefontname vg&newcompositefont --
/vg&newcompositefont {
/vg&fstyle exch def
/vg&bfont exch def
/vg&fname exch def
<<
/FontStyleBits vg&fstyle
/FontType 0
/FontMatrix matrix
/FontName vg&fname
/FMapType 2
/Encoding [ 0 1 255 {pop 6} for ]
          dup 16#00 0 put % Latin
          dup 16#03 1 put % Greek
          dup 16#20 2 put % Punctuation
          dup 16#21 3 put % Arrows
          dup 16#22 4 put % MathOps
          dup 16#27 5 put % Dingbats

/FDepVector [
vg&bfont /-UC-Latin vg&nconcat UCLatinEncoding
vg&bfont vg&newbasefont

vg&bfont vg&skewmatrix
vg&bfont /-UC-Greek vg&nconcat UCGreekEncoding
/Symbol vg&newskewedbasefont

vg&bfont /-UC-Punctuation vg&nconcat UCPunctuationEncoding
vg&bfont vg&newbasefont

/Arrows-UC findfont
/MathOps-UC findfont
/Dingbats-UC findfont
/Undefined-UC findfont ]
>>
vg&fname exch definefont pop
} def

% Null encoding vector (all elements set to .notdef)
/NullEncoding [ 256 {/.notdef} repeat ] def

% Unicode Latin encoding (unicode codes \u0000-\u00ff)
/UCLatinEncoding
  ISOLatin1Encoding dup length array copy
  dup 16#60 /grave put
  [ 16#90 16#91 16#92 16#93 16#94 16#95 16#96
    16#97 16#98 16#9a 16#9b 16#9d 16#9e 16#9f
  ] vg&undef
  def

% Unicode Greek encoding (unicode codes \u0370-\u03ff)
/UCGreekEncoding
  NullEncoding dup length array copy
  << 16#91 /Alpha    16#92 /Beta      16#93 /Gamma    16#94 /Delta
     16#95 /Epsilon  16#96 /Zeta      16#97 /Eta      16#98 /Theta
     16#99 /Iota     16#9a /Kappa     16#9b /Lambda   16#9c /Mu
     16#9d /Nu       16#9e /Xi        16#9f /Omicron  16#a0 /Pi
     16#a1 /Rho      16#a3 /Sigma     16#a4 /Tau      16#a5 /Upsilon
     16#a6 /Phi      16#a7 /Chi       16#a8 /Psi      16#a9 /Omega
     16#b1 /alpha    16#b2 /beta      16#b3 /gamma    16#b4 /delta
     16#b5 /epsilon  16#b6 /zeta      16#b7 /eta      16#b8 /theta
     16#b9 /iota     16#ba /kappa     16#bb /lambda   16#bc /mu
     16#bd /nu       16#be /xi        16#bf /omicron  16#c0 /pi
     16#c1 /rho      16#c2 /sigma1    16#c3 /sigma    16#c4 /tau
     16#c5 /upsilon  16#c6 /phi1      16#c7 /chi      16#c8 /psi
     16#c9 /omega    16#7e /semicolon 16#87 /dotmath  16#d1 /theta1
     16#d2 /Upsilon1 16#d5 /phi       16#d6 /omega1
  >> vg&redef
  def

% Unicode punctuation encoding (unicode codes \u2000-\u206f)
/UCPunctuationEncoding
  NullEncoding dup length array copy
  << 16#10 /hyphen          16#11 /hyphen              16#12 /endash
     16#13 /emdash          16#18 /quoteleft           16#19 /quoteright
     16#1a /quotesinglbase  16#1b /quotesingle         16#1c /quotedblleft
     16#1d /quotedblright   16#1e /quotedblbase        16#1f /quotedbl
     16#20 /dagger          16#21 /daggerdbl           16#22 /bullet
     16#24 /period          16#26 /ellipsis            16#27 /periodcentered
     16#30 /perthousand     16#44 /fraction
     16#70 /zerosuperior    16#74 /foursuperior        16#75 /fivesuperior
     16#76 /sixsuperior     16#77 /sevensuperior       16#78 /eightsuperior
     16#79 /ninesuperior    16#7b /hyphensuperior      16#7d /parenleftsuperior
     16#7e /parenrightsuperior
     16#80 /zeroinferior    16#84 /fourinferior        16#85 /fiveinferior
     16#81 /oneinferior     16#82 /twoinferior         16#83 /threeinferior
     16#86 /sixinferior     16#87 /seveninferior       16#88 /eightinferior
     16#89 /nineinferior    16#8b /hypheninferior      16#8d /parenleftinferior
     16#8e /parenrightinferior
  >> vg&redef
  def

% Unicode mathematical operators encoding (unicode codes \u2200-\u22ff)
/UCMathOpsEncoding
  NullEncoding dup length array copy
  << 16#00 /universal       16#02 /partialdiff         16#03 /existential
     16#05 /emptyset        16#06 /Delta               16#07 /gradient
     16#08 /element         16#09 /notelement          16#0b /suchthat
     16#0f /product         16#11 /summation           16#12 /minus
     16#15 /fraction        16#17 /asteriskmath        16#19 /bullet
     16#1a /radical         16#1d /proportional        16#1e /infinity
     16#20 /angle           16#23 /bar                 16#27 /logicaland
     16#28 /logicalor       16#29 /intersection        16#2a /union
     16#2b /integral        16#34 /therefore           16#36 /colon
     16#3c /similar         16#45 /congruent           16#48 /approxequal
     16#60 /notequal        16#61 /equivalence         16#64 /lessequal
     16#65 /greaterequal    16#82 /propersubset        16#83 /propersuperset
     16#86 /reflexsubset    16#87 /reflexsuperset      16#95 /circleplus
     16#97 /circlemultiply  16#a5 /perpendicular       16#03 /existential
     16#c0 /logicaland      16#c1 /logicalor           16#c2 /intersection
     16#c3 /union           16#c4 /diamond             16#c5 /dotmath
  >> vg&redef
  def

% Unicode arrows encoding (unicode codes \u2190-\u21ff)
% Also includes those "Letterlike" unicode characters
% which are available in the symbol font. (unicode codes \u2100-\u214f)
/UCArrowsEncoding
  NullEncoding dup length array copy
  << 16#11 /Ifraktur        16#1c /Rfraktur            16#22 /trademarkserif
     16#35 /aleph
     16#90 /arrowleft       16#91 /arrowup             16#92 /arrowright
     16#93 /arrowdown       16#94 /arrowboth           16#d0 /arrowdblleft
     16#d1 /arrowdblup      16#d2 /arrowdblright       16#d3 /arrowdbldown
     16#d4 /arrowdblboth
  >> vg&redef
  def

/ZapfDingbats findfont /Encoding get
dup length array copy /UCDingbatsEncoding exch def
16#20 1 16#7f {
  dup 16#20 sub exch
  UCDingbatsEncoding exch get
  UCDingbatsEncoding 3 1 roll put
} for
16#a0 1 16#ff {
  dup 16#40 sub exch
  UCDingbatsEncoding exch get
  UCDingbatsEncoding 3 1 roll put
} for
UCDingbatsEncoding [ 16#c0 1 16#ff {} for ] vg&undef
[ 16#00  16#05 16#0a 16#0b  16#28 16#4c 16#4e  16#53 16#54 16#55  16#57 16#5f
  16#60  16#68 16#69 16#6a  16#6b 16#6c 16#6d  16#6e 16#6f 16#70  16#71 16#72
  16#73  16#74 16#75 16#95  16#96 16#97 16#b0  16#bf
] vg&undef pop

% Define the base fonts which don't change.
/Undefined-UC NullEncoding       /Helvetica    vg&newbasefont pop
/MathOps-UC   UCMathOpsEncoding  /Symbol       vg&newbasefont pop
/Arrows-UC    UCArrowsEncoding   /Symbol       vg&newbasefont pop
/Dingbats-UC  UCDingbatsEncoding /ZapfDingbats vg&newbasefont pop

% Make the SansSerif composite fonts.
/SansSerif /Helvetica 16#00 vg&newcompositefont
/SansSerif-Bold /Helvetica-Bold 16#01 vg&newcompositefont
/SansSerif-Italic /Helvetica-Oblique 16#02 vg&newcompositefont
/SansSerif-BoldItalic /Helvetica-BoldOblique 16#03 vg&newcompositefont

% Make the Serif composite fonts.
/Serif /Times-Roman 16#00 vg&newcompositefont
/Serif-Bold /Times-Bold 16#01 vg&newcompositefont
/Serif-Italic /Times-Italic 16#02 vg&newcompositefont
/Serif-BoldItalic /Times-BoldItalic 16#03 vg&newcompositefont

% Make the Monospaced composite fonts.
/Monospaced /Courier 16#00 vg&newcompositefont
/Monospaced-Bold /Courier-Bold 16#01 vg&newcompositefont
/Monospaced-Italic /Courier-Oblique 16#02 vg&newcompositefont
/Monospaced-BoldItalic /Courier-BoldOblique 16#03 vg&newcompositefont

% Make the Dialog composite fonts.
/Dialog /Helvetica 16#00 vg&newcompositefont
/Dialog-Bold /Helvetica-Bold 16#01 vg&newcompositefont
/Dialog-Italic /Helvetica-Oblique 16#02 vg&newcompositefont
/Dialog-BoldItalic /Helvetica-BoldOblique 16#03 vg&newcompositefont

% Make the DialogInput composite fonts.
/DialogInput /Courier 16#00 vg&newcompositefont
/DialogInput-Bold /Courier-Bold 16#01 vg&newcompositefont
/DialogInput-Italic /Courier-Oblique 16#02 vg&newcompositefont
/DialogInput-BoldItalic /Courier-BoldOblique 16#03 vg&newcompositefont

% Make the Typewriter composite fonts (JDK 1.1 only).
/Typewriter /Courier 16#00 vg&newcompositefont
/Typewriter-Bold /Courier-Bold 16#01 vg&newcompositefont
/Typewriter-Italic /Courier-Oblique 16#02 vg&newcompositefont
/Typewriter-BoldItalic /Courier-BoldOblique 16#03 vg&newcompositefont


/cfontH {
 dup /fontsize exch def /SansSerif exch sf
 /vg&fontstyles [{cfontH} {cfontHB} {cfontHI} {cfontHBI}] def
} def
/cfontHB {
  dup /fontsize exch def /SansSerif-Bold exch sf
 /vg&fontstyles [{cfontH} {cfontHB} {cfontHI} {cfontHBI}] def
} def
/cfontHI {
 dup /fontsize exch def /SansSerif-Italic exch sf
 /vg&fontstyles [{cfontH} {cfontHB} {cfontHI} {cfontHBI}] def
} def
/cfontHBI {
 dup /fontsize exch def /SansSerif-BoldItalic exch sf
 /vg&fontstyles [{cfontH} {cfontHB} {cfontHI} {cfontHBI}] def
} def

/cfontT {
 dup /fontsize exch def /Serif exch sf
 /vg&fontstyles [{cfontT} {cfontTB} {cfontTI} {cfontTBI}] def
} def
/cfontTB {
 dup /fontsize exch def /Serif-Bold exch sf
 /vg&fontstyles [{cfontT} {cfontTB} {cfontTI} {cfontTBI}] def
} def
/cfontTI {
 dup /fontsize exch def /Serif-Italic exch sf
 /vg&fontstyles [{cfontT} {cfontTB} {cfontTI} {cfontTBI}] def
} def
/cfontTBI {
 dup /fontsize exch def /Serif-BoldItalic exch sf
 /vg&fontstyles [{cfontT} {cfontTB} {cfontTI} {cfontTBI}] def
} def

/cfontC {
 dup /fontsize exch def /Typewriter exch sf
 /vg&fontstyles [{cfontC} {cfontCB} {cfontCI} {cfontCBI}] def
} def
/cfontCB {
 dup /fontsize exch def /Typewriter-Bold exch sf
 /vg&fontstyles [{cfontC} {cfontCB} {cfontCI} {cfontCBI}] def
} def
/cfontCI {
 dup /fontsize exch def /Typewriter-Italic exch sf
 /vg&fontstyles [{cfontC} {cfontCB} {cfontCI} {cfontCBI}] def
} def
/cfontCBI {
 dup /fontsize exch def /Typewriter-BoldItalic exch sf
 /vg&fontstyles [{cfontC} {cfontCB} {cfontCI} {cfontCBI}] def
} def

% Darken or lighten the current color.
/darken {0.7 exch exp 3 copy
         q 4 -1 roll vg&C
         currentrgbcolor 3 {4 -2 roll mul} repeat
         3 array astore Q} def

/displayColorMap
<< /Cr   [1.00 0.00 0.00]       /Cg     [0.00 1.00 0.00]
   /Cb   [0.00 0.00 1.00]       /Cc     [1.00 0.00 0.00 0.00]
   /Cm   [0.00 1.00 0.00 0.00]  /Cy     [0.00 0.00 1.00 0.00]
   /Co   [1.00 0.78 0.00]       /Cp     [1.00 0.67 0.67]
   /Cw   [1   ]                 /Cgrl   [0.75]
   /Cgr  [0.50]                 /Cgrd   [0.25]
   /Ck   [0   ]
   /CGr  [1.00 0.00 0.00]       /CGg    [0.00 1.00 0.00]
   /CGb  [0.00 0.00 1.00]       /CGc    [1.00 0.00 0.00 0.00]
   /CGm  [0.00 1.00 0.00 0.00]  /CGy    [0.00 0.00 1.00 0.00]
   /CGo  [1.00 0.78 0.00]       /CGp    [1.00 0.67 0.67]
   /CGw  [1   ]                 /CGgrl  [0.75]
   /CGgr [0.50]                 /CGgrd  [0.25]
   /CGk  [0   ]
   /CIr  [1.00 0.00 0.00]       /CIg    [0.00 1.00 0.00]
   /CIb  [0.00 0.00 1.00]       /CIc    [1.00 0.00 0.00 0.00]
   /CIm  [0.00 1.00 0.00 0.00]  /CIy    [0.00 0.00 1.00 0.00]
   /CIo  [1.00 0.78 0.00]       /CIp    [1.00 0.67 0.67]
   /CIw  [1   ]                 /CIgrl  [0.75]
   /CIgr [0.50]                 /CIgrd  [0.25]
   /CIk  [0   ]
>> def

/printColorMap
<< /Cr   [1.00 0.33 0.33]       /Cg     [0.33 1.00 0.33]
   /Cb   [0.33 0.33 1.00]       /Cc     [1.00 0.00 0.00 0.00]
   /Cm   [0.00 1.00 0.00 0.00]  /Cy     [0.00 0.00 1.00 0.00]
   /Co   [1.00 0.78 0.00]       /Cp     [1.00 0.67 0.67]
   /Cw   [1   ]                 /Cgrl   [0.75]
   /Cgr  [0.50]                 /Cgrd   [0.25]
   /Ck   [0   ]
   /CGr  [1.00 0.33 0.33]       /CGg    [0.33 1.00 0.33]
   /CGb  [0.33 0.33 1.00]       /CGc    [1.00 0.00 0.00 0.00]
   /CGm  [0.00 1.00 0.00 0.00]  /CGy    [0.00 0.00 1.00 0.00]
   /CGo  [1.00 0.78 0.00]       /CGp    [1.00 0.67 0.67]
   /CGw  [1   ]                 /CGgrl  [0.75]
   /CGgr [0.50]                 /CGgrd  [0.25]
   /CGk  [0   ]
   /CIr  [1.00 0.33 0.33]       /CIg    [0.33 1.00 0.33]
   /CIb  [0.33 0.33 1.00]       /CIc    [1.00 0.00 0.00 0.00]
   /CIm  [0.00 1.00 0.00 0.00]  /CIy    [0.00 0.00 1.00 0.00]
   /CIo  [1.00 0.78 0.00]       /CIp    [1.00 0.67 0.67]
   /CIw  [1   ]                 /CIgrl  [0.75]
   /CIgr [0.50]                 /CIgrd  [0.25]
   /CIk  [0   ]
>> def

/grayColorMap
<< /Cr   [0   ]                 /Cg     [0   ]
   /Cb   [0   ]                 /Cc     [0   ]
   /Cm   [0   ]                 /Cy     [0   ]
   /Co   [0   ]                 /Cp     [0   ]
   /Cw   [0   ]                 /Cgrl   [0   ]
   /Cgr  [0   ]                 /Cgrd   [0   ]
   /Ck   [0   ]
   /CGr  [0.75]                 /CGg    [1   ]
   /CGb  [0.50]                 /CGc    [0.75]
   /CGm  [0.50]                 /CGy    [1   ]
   /CGo  [0.75]                 /CGp    [1   ]
   /CGw  [0   ]                 /CGgrl  [0.25]
   /CGgr [0.50]                 /CGgrd  [0.75]
   /CGk  [1   ]
   /CIr  [1   ]                 /CIg    [1   ]
   /CIb  [1   ]                 /CIc    [1   ]
   /CIm  [1   ]                 /CIy    [1   ]
   /CIo  [1   ]                 /CIp    [1   ]
   /CIw  [1   ]                 /CIgrl  [1   ]
   /CIgr [1   ]                 /CIgrd  [1   ]
   /CIk  [1   ]
>> def

/bwColorMap
<< /Cr   [0   ]                 /Cg     [0   ]
   /Cb   [0   ]                 /Cc     [0   ]
   /Cm   [0   ]                 /Cy     [0   ]
   /Co   [0   ]                 /Cp     [0   ]
   /Cw   [0   ]                 /Cgrl   [0   ]
   /Cgr  [0   ]                 /Cgrd   [0   ]
   /Ck   [0   ]
   /CGr  [1   ]                 /CGg    [1   ]
   /CGb  [1   ]                 /CGc    [1   ]
   /CGm  [1   ]                 /CGy    [1   ]
   /CGo  [1   ]                 /CGp    [1   ]
   /CGw  [0   ]                 /CGgrl  [1   ]
   /CGgr [1   ]                 /CGgrd  [1   ]
   /CGk  [1   ]
   /CIr  [1   ]                 /CIg    [1   ]
   /CIb  [1   ]                 /CIc    [1   ]
   /CIm  [1   ]                 /CIy    [1   ]
   /CIo  [1   ]                 /CIp    [1   ]
   /CIw  [1   ]                 /CIgrl  [1   ]
   /CIgr [1   ]                 /CIgrd  [1   ]
   /CIk  [1   ]
>> def

%
% The following routines handle the alignment of and printing of
% tagged strings.
%

% Predefine the bounding box values.
/bbllx 0 def /bblly 0 def /bburx 0 def /bbury 0 def

% This routine pops the first unicode character off of a string and returns
% the remainder of the string, the character code of first character,
% and a "true" if the string was non-zero length.
% <string>      popfirst <remaining string> <true>
% <null string> popfirst <false>
/popfirst {
  dup length 1 gt
    {dup 0 get /vg&fbyte exch def
     dup 1 get /vg&cbyte exch def
     dup length 2 sub 2 exch getinterval true}
    {pop false} ifelse
} def

% This routine shows a single unicode character given the font and
% character codes.
% <font code> <char code> unicharshow --
/unicharshow {
  2 string
  dup 0 5 -1 roll put
  dup 1 4 -1 roll put
  internalshow
} def

% This is an internal routine to alternate between determining the
% bounding box for stringsize and showing the string for recshow.
% <string> internalshow --
/internalshow {show} def

% This is an internal routine to alternate between determining the
% bounding box for stringsize and stroking various ornaments.
% <string> internalstroke --
/internalstroke {S} def

% Sets up internalshow to use the null device to determine string size.
% -- nullinternalshow --
/nullinternalshow {/internalshow {false charpath flattenpath
                                  pathbbox updatebbox} def} def

% Sets up internalstroke to use the null device to determine string size.
% -- nullinternalstroke --
/nullinternalstroke {
 /internalstroke {flattenpath pathbbox updatebbox} def} def

% This routine tests to see if the character code matches the first
% character of a string.
% <char code> <string> testchar <char code> <true or false>
/testchar {exch dup 3 -1 roll 0 get eq} def

% Raise the text baseline for superscripts.
% -- raise --
/raise {
  0 fontsize 2 div rmoveto
  /fontsize fontsize 2 mul 3 div def
  currentfont /FontName get fontsize sf
} def

% Un-raise the text baseline for superscripts.
% -- unraise --
/unraise {
  /fontsize fontsize 1.5 mul def
  0 fontsize 2 div neg rmoveto
} def

% Lower the text baseline for subscripts.
% -- lower --
/lower {
  0 fontsize 3 div neg rmoveto
  /fontsize fontsize 2 mul 3 div def
  currentfont /FontName get fontsize sf
} def

% Un-lower the text baseline for subscripts.
% -- unlower --
/unlower {
  /fontsize fontsize 1.5 mul def
  0 fontsize 3 div rmoveto
} def

% Compare the top two elements on the stack and leave only the
% larger one.
/maxval {2 copy gt {pop} {exch pop} ifelse} def

% Tokenize a string.  Do not use the usual PostScript token because
% parentheses will not be interpreted correctly because of rescanning
% of the string.
/vg&token {/vg&string exch def /vg&index -1 def /vg&level 0 def
0 2 vg&string length 2 sub {
  dup dup 1 add exch vg&string exch get 8 bitshift vg&string 3 -1 roll get or
  dup 16#f0fe eq {pop 1}{16#f0ff eq {-1}{0} ifelse} ifelse
  /vg&level exch vg&level add def
  vg&level 0 eq {/vg&index exch def exit} if pop
} for
vg&index 0 ge {
  vg&string vg&index 2 add dup vg&string length exch sub getinterval
  vg&index 2 gt {vg&string 2 vg&index 2 sub getinterval}{()} ifelse
  true}
{false} ifelse
} bind def

% Recursively show an unicode string.
% <string> recshow --
/recshow {
  popfirst
  {
    % Test to see if this is a string attribute.
    vg&fbyte 16#f0 and 16#e0 eq
    {
      q

      % Font style.
      currentfont dup /FontStyleBits known {/FontStyleBits get}{pop 0} ifelse
      vg&cbyte or vg&fontstyles exch get fontsize exch exec

      vg&token pop recshow currentpoint Q m recshow
    }
    {
      vg&fbyte 16#F8 and 16#F0 eq {

        % Superscript and/or subscript.
        vg&cbyte 16#00 eq {
          vg&token pop exch vg&token pop 3 -1 roll
          q raise recshow unraise currentpoint pop Q exch
          q lower recshow unlower currentpoint pop Q
          maxval currentpoint exch pop m recshow } if

        % Strikeout.
        vg&cbyte 16#01 eq {
          vg&token pop currentpoint 3 -1 roll recshow
          q 0 J vg&underline vg&uthick w
          currentpoint 4 -2 roll fontsize 3 div add moveto
          fontsize 3 div add lineto internalstroke Q
          recshow} if

        % Underline.
        vg&cbyte 16#02 eq {
          vg&token pop currentpoint 3 -1 roll recshow
          q 0 J vg&underline vg&uthick w
          currentpoint 4 -2 roll vg&uoffset add moveto
          vg&uoffset add lineto internalstroke Q
          recshow} if

        % Dashed underline.
        vg&cbyte 16#03 eq {
          vg&token pop currentpoint 3 -1 roll recshow
          q 0 J [ vg&uthick 5 mul vg&uthick 2 mul] 0 d
          vg&underline vg&uthick w
          currentpoint 4 -2 roll vg&uoffset add moveto
          vg&uoffset add lineto internalstroke Q
          recshow} if

        % Dotted underline.
        vg&cbyte 16#04 eq {
          vg&token pop currentpoint 3 -1 roll recshow
          q 1 J [ 0 vg&uthick 3 mul] 0 d
          vg&underline vg&uthick w
          currentpoint 4 -2 roll vg&uoffset add moveto
          vg&uoffset add lineto internalstroke Q
          recshow} if

        % Thick underline.
        vg&cbyte 16#05 eq {
          vg&token pop currentpoint 3 -1 roll recshow
          q 0 J vg&underline vg&uthick 2 mul w
          currentpoint 4 -2 roll vg&uoffset vg&uthick 2 div sub add moveto
          vg&uoffset vg&uthick 2 div sub add lineto internalstroke Q
          recshow} if

        % Gray thick underline.
        vg&cbyte 16#06 eq {
          vg&token pop currentpoint 3 -1 roll recshow
          q 0 J vg&underline vg&uthick 2 mul w 0.5 setgray
          currentpoint 4 -2 roll vg&uoffset vg&uthick 2 div sub add moveto
          vg&uoffset vg&uthick 2 div sub add lineto internalstroke Q
          recshow} if

        % Overbar.
        vg&cbyte 16#07 eq {
          vg&token pop dup stringsize relative 4 1 roll pop pop exch
          3 -1 roll recshow
          q 0 J vg&underline vg&uthick w
          vg&uoffset neg add dup currentpoint pop exch m l internalstroke Q
          recshow} if
      }
      {
        vg&fbyte vg&cbyte unicharshow recshow
      } ifelse
    } ifelse
  } if
} def

% Get the underline position and thickness from the current font.
/vg&underline {

currentfont dup /FontType get 0 eq {/FDepVector get 0 get} if
dup dup /FontInfo known {
  /FontInfo get dup
  dup /UnderlinePosition known {
    /UnderlinePosition get /vg&uoffset exch def
  }
  {
    pop /vg&uoffset 0 def
  } ifelse
  dup /UnderlineThickness known {
    /UnderlineThickness get /vg&uthick exch def
  }
  {
    pop /vg&uthick 0 def
  } ifelse
}
{
  pop /vg&uoffset 0 def /vg&uthick 0 def
} ifelse
/FontMatrix get
currentfont dup /FontType get 0 eq
{/FontMatrix get matrix concatmatrix}{pop} ifelse
dup 0 vg&uoffset 3 -1 roll transform /vg&uoffset exch def pop
0 vg&uthick 3 -1 roll transform /vg&uthick exch def pop
} def

% Make a frame with the coordinates on the stack.
% <llx> <lly> <urx> <ury> frame --
/frame {4 copy m 3 1 roll exch l 4 -2 roll l l h} def

% Resets the accumulated bounding box to a degenerate box at the
% current point.
% -- resetbbox --
/resetbbox {
  currentpoint 2 copy
  /bbury exch def
  /bburx exch def
  /bblly exch def
  /bbllx exch def
} def

% Update the accumulated bounding box.
% <llx'> <lly'> <urx'> <ury'> updatebbox --
/updatebbox {
  dup bbury gt {/bbury exch def} {pop} ifelse
  dup bburx gt {/bburx exch def} {pop} ifelse
  dup bblly lt {/bblly exch def} {pop} ifelse
  dup bbllx lt {/bbllx exch def} {pop} ifelse
} def

% Set the bounding box to the values on the stack.
% <llx'> <lly'> <urx'> <ury'> updatebbox --
/restorebbox {
  /bbury exch def /bburx exch def /bblly exch def /bbllx exch def
} def

% Push the accumulated bounding box onto the stack.
% -- pushbbox <llx> <lly> <urx> <ury>
/pushbbox {bbllx bblly bburx bbury} def

% Make the relative bounding box relative to the currentpoint.
% <llx'> <lly'> <urx'> <ury'> inflate <llx> <lly> <urx> <ury>
/inflate {
  2 {fontsize 0.2 mul add 4 1 roll} repeat
  2 {fontsize 0.2 mul sub 4 1 roll} repeat
} def

% Make the relative bounding box relative to the currentpoint.
% <llx'> <lly'> <urx'> <ury'> relative <llx> <lly> <urx> <ury>
/relative {
  currentpoint 3 -1 roll add 3 1 roll add exch 4 2 roll
  currentpoint 3 -1 roll add 3 1 roll add exch 4 2 roll
} def

% Returns the size of a string appropriate for recshow.
% <string> stringsize <llx> <lly> <urx> <ury>
/stringsize {
  pushbbox /internalshow load /internalstroke load 7 -1 roll
  q
  nulldevice 0 0 m
  nullinternalshow nullinternalstroke
  resetbbox
  recshow
  /internalstroke exch def /internalshow exch def
  pushbbox 8 -4 roll restorebbox
  Q
} def

% Calculate values for string positioning.
/calcval {4 copy
  3 -1 roll sub /widy exch def sub neg /widx exch def
  pop pop /dy exch def /dx exch def} def

% Utilities to position a string.
% First letter (U=upper, C=center, B=baseline, L=lower)
% Second letter (L=left, C=center, R=right)
/align [
{calcval dx neg widy dy add neg rmoveto} % UL
{calcval dx neg widy 2 div dy add neg rmoveto} % CL
{calcval dx neg 0 rmoveto} % BL
{calcval dx neg dy neg rmoveto} % LL
{calcval widx dx add neg widy dy add neg rmoveto} % UR
{calcval widx dx add neg widy 2 div dy add neg rmoveto} % CR
{calcval widx dx add neg 0 rmoveto} % BR
{calcval widx dx add neg dy neg rmoveto} % LR
{calcval widx 2 div dx add neg widy dy add neg rmoveto} % UC
{calcval widx 2 div dx add neg widy 2 div dy add neg rmoveto} % CC
{calcval widx 2 div dx add neg 0 rmoveto} % BC
{calcval widx 2 div dx add neg dy neg rmoveto} % LC
] def

/vg&str {m q 1 -1 scale dup stringsize 4 copy align 11 -1 roll get exec
         q inflate relative frame exch exec Q recshow Q} def

end /procDict exch def
%%EndProlog

%%BeginSetup
save
procDict begin
printColorMap begin
422 354 setpagesize
0 0 0 0 setmargins
0 0 setorigin
422 354 setsize
naturalsize
portrait
imagescale
cliptobounds
setbasematrix
/Helvetica 10 sf
defaultGraphicsState
%%EndSetup

0.00000 0.00000 0.00000 RG
[ 1.00000 0.00000 0.00000 1.00000 0.00000 0.00000 ] defaultmatrix matrix concatmatrix setmatrix
cliprestore
1.00000 1.00000 1.00000 RG
newpath
0.00000 0.00000 m
422.000 0.00000 l
422.000 354.000 l
0.00000 354.000 l
0.00000 0.00000 l
h
f
0.00000 0.00000 0.00000 RG
0.00000 0.00000 0.00000 RG
[ 1.00000 0.00000 0.00000 1.00000 0.00000 0.00000 ] defaultmatrix matrix concatmatrix setmatrix
cliprestore
1.00000 1.00000 1.00000 RG
newpath
0.00000 0.00000 m
422.000 0.00000 l
422.000 354.000 l
0.00000 354.000 l
0.00000 0.00000 l
h
f
0.00000 0.00000 0.00000 RG
0 0 422 354 rc
q
[ 1.00000 0.00000 0.00000 1.00000 0.00000 0.00000 ] concat
[ 1.00000 0.00000 0.00000 1.00000 -416.000 -158.000 ] concat
1.00000 1.00000 1.00000 RG
newpath
416.000 158.000 m
838.000 158.000 l
838.000 512.000 l
416.000 512.000 l
416.000 158.000 l
h
f
0.00000 0.00000 0.00000 RG
[ 1.00000 0.00000 0.00000 1.00000 -416.000 -158.000 ] defaultmatrix matrix concatmatrix setmatrix
[ 1.00000 0.00000 0.00000 1.00000 -416.000 -158.000 ] defaultmatrix matrix concatmatrix setmatrix
[ 1.00000 0.00000 0.00000 1.00000 0.00000 0.00000 ] defaultmatrix matrix concatmatrix setmatrix
[ 1.00000 0.00000 0.00000 1.00000 -416.000 -158.000 ] defaultmatrix matrix concatmatrix setmatrix
1.00000 .800000 0.00000 RG
newpath
715.000 221.000 m
776.000 221.000 l
776.000 251.000 l
715.000 251.000 l
715.000 221.000 l
h
f
0 J
1.45000 M
0.00000 0.00000 0.00000 RG
newpath
715.000 221.000 m
776.000 221.000 l
776.000 251.000 l
715.000 251.000 l
715.000 221.000 l
h
S
2 J
10.0000 M
0 J
1.45000 M
newpath
739.764 239.727 m
739.072 240.363 738.406 240.682 737.766 240.682  c
737.238 240.682 736.801 240.517 736.453 240.187  c
736.105 239.856 735.932 239.439 735.932 238.936  c
735.932 238.240 736.224 237.706 736.808 237.333  c
737.392 236.960 738.229 236.773 739.318 236.773  c
739.594 236.773 l
739.594 236.006 l
739.594 235.268 739.215 234.898 738.457 234.898  c
737.848 234.898 737.189 235.086 736.482 235.461  c
736.482 234.506 l
737.260 234.189 737.988 234.031 738.668 234.031  c
739.379 234.031 739.903 234.191 740.241 234.512  c
740.579 234.832 740.748 235.330 740.748 236.006  c
740.748 238.889 l
740.748 239.549 740.951 239.879 741.357 239.879  c
741.408 239.879 741.482 239.871 741.580 239.855  c
741.662 240.494 l
741.400 240.619 741.111 240.682 740.795 240.682  c
740.256 240.682 739.912 240.363 739.764 239.727  c
h
739.594 239.100 m
739.594 237.453 l
739.207 237.441 l
738.574 237.441 738.062 237.562 737.672 237.802  c
737.281 238.042 737.086 238.357 737.086 238.748  c
737.086 239.025 737.184 239.260 737.379 239.451  c
737.574 239.643 737.812 239.738 738.094 239.738  c
738.574 239.738 739.074 239.525 739.594 239.100  c
h
743.109 240.535 m
743.109 234.172 l
744.264 234.172 l
744.264 235.367 l
744.873 234.477 745.619 234.031 746.502 234.031  c
747.053 234.031 747.492 234.206 747.820 234.556  c
748.148 234.905 748.312 235.375 748.312 235.965  c
748.312 240.535 l
747.158 240.535 l
747.158 236.340 l
747.158 235.867 747.089 235.530 746.950 235.329  c
746.812 235.128 746.582 235.027 746.262 235.027  c
745.555 235.027 744.889 235.490 744.264 236.416  c
744.264 240.535 l
h
750.926 242.850 m
751.957 240.535 l
749.496 234.172 l
750.744 234.172 l
752.566 238.965 l
754.512 234.172 l
755.602 234.172 l
752.127 242.850 l
h
f
2 J
10.0000 M
1.00000 .800000 0.00000 RG
newpath
469.000 221.000 m
552.000 221.000 l
552.000 251.000 l
469.000 251.000 l
469.000 221.000 l
h
f
0 J
1.45000 M
0.00000 0.00000 0.00000 RG
newpath
469.000 221.000 m
552.000 221.000 l
552.000 251.000 l
469.000 251.000 l
469.000 221.000 l
h
S
2 J
10.0000 M
0 J
1.45000 M
newpath
473.706 240.535 m
473.706 234.172 l
474.860 234.172 l
474.860 235.367 l
475.423 234.477 476.146 234.031 477.028 234.031  c
477.880 234.031 478.460 234.477 478.769 235.367  c
479.315 234.473 480.026 234.025 480.901 234.025  c
481.464 234.025 481.899 234.190 482.208 234.521  c
482.517 234.851 482.671 235.312 482.671 235.906  c
482.671 240.535 l
481.511 240.535 l
481.511 236.088 l
481.511 235.361 481.224 234.998 480.649 234.998  c
480.052 234.998 479.425 235.422 478.769 236.270  c
478.769 240.535 l
477.608 240.535 l
477.608 236.088 l
477.608 235.357 477.315 234.992 476.729 234.992  c
476.147 234.992 475.524 235.418 474.860 236.270  c
474.860 240.535 l
h
488.190 239.727 m
487.499 240.363 486.833 240.682 486.192 240.682  c
485.665 240.682 485.228 240.517 484.880 240.187  c
484.532 239.856 484.358 239.439 484.358 238.936  c
484.358 238.240 484.650 237.706 485.234 237.333  c
485.818 236.960 486.655 236.773 487.745 236.773  c
488.021 236.773 l
488.021 236.006 l
488.021 235.268 487.642 234.898 486.884 234.898  c
486.274 234.898 485.616 235.086 484.909 235.461  c
484.909 234.506 l
485.687 234.189 486.415 234.031 487.095 234.031  c
487.806 234.031 488.330 234.191 488.668 234.512  c
489.006 234.832 489.175 235.330 489.175 236.006  c
489.175 238.889 l
489.175 239.549 489.378 239.879 489.784 239.879  c
489.835 239.879 489.909 239.871 490.007 239.855  c
490.089 240.494 l
489.827 240.619 489.538 240.682 489.222 240.682  c
488.683 240.682 488.339 240.363 488.190 239.727  c
h
488.021 239.100 m
488.021 237.453 l
487.634 237.441 l
487.001 237.441 486.489 237.562 486.099 237.802  c
485.708 238.042 485.513 238.357 485.513 238.748  c
485.513 239.025 485.610 239.260 485.806 239.451  c
486.001 239.643 486.239 239.738 486.521 239.738  c
487.001 239.738 487.501 239.525 488.021 239.100  c
h
491.536 240.535 m
491.536 234.172 l
492.690 234.172 l
492.690 235.367 l
493.300 234.477 494.046 234.031 494.929 234.031  c
495.479 234.031 495.919 234.206 496.247 234.556  c
496.575 234.905 496.739 235.375 496.739 235.965  c
496.739 240.535 l
495.585 240.535 l
495.585 236.340 l
495.585 235.867 495.516 235.530 495.377 235.329  c
495.238 235.128 495.009 235.027 494.688 235.027  c
493.981 235.027 493.315 235.490 492.690 236.416  c
492.690 240.535 l
h
502.265 239.727 m
501.573 240.363 500.907 240.682 500.267 240.682  c
499.739 240.682 499.302 240.517 498.954 240.187  c
498.606 239.856 498.433 239.439 498.433 238.936  c
498.433 238.240 498.725 237.706 499.309 237.333  c
499.893 236.960 500.729 236.773 501.819 236.773  c
502.095 236.773 l
502.095 236.006 l
502.095 235.268 501.716 234.898 500.958 234.898  c
500.349 234.898 499.690 235.086 498.983 235.461  c
498.983 234.506 l
499.761 234.189 500.489 234.031 501.169 234.031  c
501.880 234.031 502.404 234.191 502.742 234.512  c
503.080 234.832 503.249 235.330 503.249 236.006  c
503.249 238.889 l
503.249 239.549 503.452 239.879 503.858 239.879  c
503.909 239.879 503.983 239.871 504.081 239.855  c
504.163 240.494 l
503.901 240.619 503.612 240.682 503.296 240.682  c
502.757 240.682 502.413 240.363 502.265 239.727  c
h
502.095 239.100 m
502.095 237.453 l
501.708 237.441 l
501.075 237.441 500.563 237.562 500.173 237.802  c
499.782 238.042 499.587 238.357 499.587 238.748  c
499.587 239.025 499.685 239.260 499.880 239.451  c
500.075 239.643 500.313 239.738 500.595 239.738  c
501.075 239.738 501.575 239.525 502.095 239.100  c
h
505.634 242.650 m
505.769 241.648 l
506.437 241.965 507.095 242.123 507.743 242.123  c
509.044 242.123 509.694 241.434 509.694 240.055  c
509.694 239.053 l
509.269 239.943 508.569 240.389 507.597 240.389  c
506.835 240.389 506.229 240.111 505.780 239.557  c
505.331 239.002 505.106 238.254 505.106 237.312  c
505.106 236.344 505.362 235.555 505.874 234.945  c
506.386 234.336 507.048 234.031 507.860 234.031  c
508.571 234.031 509.183 234.320 509.694 234.898  c
509.694 234.172 l
510.854 234.172 l
510.854 238.801 l
510.854 239.797 510.803 240.534 510.699 241.013  c
510.596 241.491 510.401 241.883 510.116 242.188  c
509.612 242.723 508.829 242.990 507.767 242.990  c
507.024 242.990 506.313 242.877 505.634 242.650  c
h
509.694 238.332 m
509.694 235.689 l
509.187 235.162 508.634 234.898 508.036 234.898  c
507.505 234.898 507.089 235.111 506.788 235.537  c
506.487 235.963 506.337 236.547 506.337 237.289  c
506.337 238.684 506.827 239.381 507.808 239.381  c
508.476 239.381 509.104 239.031 509.694 238.332  c
h
517.757 240.330 m
516.983 240.564 516.321 240.682 515.771 240.682  c
514.833 240.682 514.068 240.370 513.477 239.747  c
512.885 239.124 512.589 238.316 512.589 237.324  c
512.589 236.359 512.850 235.568 513.371 234.951  c
513.893 234.334 514.560 234.025 515.372 234.025  c
516.142 234.025 516.736 234.299 517.156 234.846  c
517.576 235.393 517.786 236.170 517.786 237.178  c
517.780 237.535 l
513.767 237.535 l
513.935 239.047 514.675 239.803 515.987 239.803  c
516.468 239.803 517.058 239.674 517.757 239.416  c
h
513.819 236.668 m
516.626 236.668 l
516.626 235.484 516.185 234.893 515.302 234.893  c
514.415 234.893 513.921 235.484 513.819 236.668  c
h
519.778 240.535 m
519.778 234.172 l
520.933 234.172 l
520.933 235.367 l
521.495 234.477 522.218 234.031 523.101 234.031  c
523.952 234.031 524.532 234.477 524.841 235.367  c
525.388 234.473 526.099 234.025 526.974 234.025  c
527.536 234.025 527.972 234.190 528.280 234.521  c
528.589 234.851 528.743 235.312 528.743 235.906  c
528.743 240.535 l
527.583 240.535 l
527.583 236.088 l
527.583 235.361 527.296 234.998 526.722 234.998  c
526.124 234.998 525.497 235.422 524.841 236.270  c
524.841 240.535 l
523.681 240.535 l
523.681 236.088 l
523.681 235.357 523.388 234.992 522.802 234.992  c
522.220 234.992 521.597 235.418 520.933 236.270  c
520.933 240.535 l
h
535.646 240.330 m
534.872 240.564 534.210 240.682 533.659 240.682  c
532.722 240.682 531.957 240.370 531.365 239.747  c
530.773 239.124 530.478 238.316 530.478 237.324  c
530.478 236.359 530.738 235.568 531.260 234.951  c
531.781 234.334 532.448 234.025 533.261 234.025  c
534.030 234.025 534.625 234.299 535.045 234.846  c
535.465 235.393 535.675 236.170 535.675 237.178  c
535.669 237.535 l
531.655 237.535 l
531.823 239.047 532.563 239.803 533.876 239.803  c
534.356 239.803 534.946 239.674 535.646 239.416  c
h
531.708 236.668 m
534.515 236.668 l
534.515 235.484 534.073 234.893 533.190 234.893  c
532.304 234.893 531.810 235.484 531.708 236.668  c
h
537.667 240.535 m
537.667 234.172 l
538.821 234.172 l
538.821 235.367 l
539.431 234.477 540.177 234.031 541.060 234.031  c
541.610 234.031 542.050 234.206 542.378 234.556  c
542.706 234.905 542.870 235.375 542.870 235.965  c
542.870 240.535 l
541.716 240.535 l
541.716 236.340 l
541.716 235.867 541.646 235.530 541.508 235.329  c
541.369 235.128 541.140 235.027 540.819 235.027  c
540.112 235.027 539.446 235.490 538.821 236.416  c
538.821 240.535 l
h
547.024 240.682 m
546.438 240.682 545.981 240.514 545.653 240.178  c
545.325 239.842 545.161 239.375 545.161 238.777  c
545.161 235.039 l
544.364 235.039 l
544.364 234.172 l
545.161 234.172 l
545.161 233.018 l
546.315 232.906 l
546.315 234.172 l
547.979 234.172 l
547.979 235.039 l
546.315 235.039 l
546.315 238.566 l
546.315 239.398 546.675 239.814 547.394 239.814  c
547.546 239.814 547.731 239.789 547.950 239.738  c
547.950 240.535 l
547.595 240.633 547.286 240.682 547.024 240.682  c
h
f
2 J
10.0000 M
1.00000 .800000 0.00000 RG
newpath
469.000 423.000 m
552.000 423.000 l
552.000 453.000 l
469.000 453.000 l
469.000 423.000 l
h
f
0 J
1.45000 M
0.00000 0.00000 0.00000 RG
newpath
469.000 423.000 m
552.000 423.000 l
552.000 453.000 l
469.000 453.000 l
469.000 423.000 l
h
S
2 J
10.0000 M
0 J
1.45000 M
newpath
486.890 442.535 m
486.890 436.172 l
488.044 436.172 l
488.044 437.367 l
488.501 436.477 489.165 436.031 490.036 436.031  c
490.153 436.031 490.276 436.041 490.405 436.061  c
490.405 437.139 l
490.206 437.072 490.030 437.039 489.878 437.039  c
489.147 437.039 488.536 437.473 488.044 438.340  c
488.044 442.535 l
h
496.464 442.330 m
495.690 442.564 495.028 442.682 494.478 442.682  c
493.540 442.682 492.775 442.370 492.184 441.747  c
491.592 441.124 491.296 440.316 491.296 439.324  c
491.296 438.359 491.557 437.568 492.078 436.951  c
492.600 436.334 493.267 436.025 494.079 436.025  c
494.849 436.025 495.443 436.299 495.863 436.846  c
496.283 437.393 496.493 438.170 496.493 439.178  c
496.487 439.535 l
492.474 439.535 l
492.642 441.047 493.382 441.803 494.694 441.803  c
495.175 441.803 495.765 441.674 496.464 441.416  c
h
492.526 438.668 m
495.333 438.668 l
495.333 437.484 494.892 436.893 494.009 436.893  c
493.122 436.893 492.628 437.484 492.526 438.668  c
h
500.173 442.682 m
499.646 442.682 499.005 442.559 498.251 442.312  c
498.251 441.252 l
499.005 441.627 499.661 441.814 500.220 441.814  c
500.552 441.814 500.827 441.725 501.046 441.545  c
501.265 441.365 501.374 441.141 501.374 440.871  c
501.374 440.477 501.067 440.150 500.454 439.893  c
499.780 439.605 l
498.784 439.191 498.286 438.596 498.286 437.818  c
498.286 437.264 498.482 436.827 498.875 436.509  c
499.268 436.190 499.806 436.031 500.489 436.031  c
500.845 436.031 501.284 436.080 501.808 436.178  c
502.048 436.225 l
502.048 437.186 l
501.403 436.994 500.892 436.898 500.513 436.898  c
499.771 436.898 499.399 437.168 499.399 437.707  c
499.399 438.055 499.681 438.348 500.243 438.586  c
500.800 438.820 l
501.429 439.086 501.874 439.366 502.136 439.661  c
502.397 439.956 502.528 440.324 502.528 440.766  c
502.528 441.324 502.308 441.783 501.866 442.143  c
501.425 442.502 500.860 442.682 500.173 442.682  c
h
509.267 442.330 m
508.493 442.564 507.831 442.682 507.280 442.682  c
506.343 442.682 505.578 442.370 504.986 441.747  c
504.395 441.124 504.099 440.316 504.099 439.324  c
504.099 438.359 504.359 437.568 504.881 436.951  c
505.402 436.334 506.069 436.025 506.882 436.025  c
507.651 436.025 508.246 436.299 508.666 436.846  c
509.086 437.393 509.296 438.170 509.296 439.178  c
509.290 439.535 l
505.276 439.535 l
505.444 441.047 506.185 441.803 507.497 441.803  c
507.978 441.803 508.567 441.674 509.267 441.416  c
h
505.329 438.668 m
508.136 438.668 l
508.136 437.484 507.694 436.893 506.812 436.893  c
505.925 436.893 505.431 437.484 505.329 438.668  c
h
514.569 441.727 m
513.878 442.363 513.212 442.682 512.571 442.682  c
512.044 442.682 511.606 442.517 511.259 442.187  c
510.911 441.856 510.737 441.439 510.737 440.936  c
510.737 440.240 511.029 439.706 511.613 439.333  c
512.197 438.960 513.034 438.773 514.124 438.773  c
514.399 438.773 l
514.399 438.006 l
514.399 437.268 514.021 436.898 513.263 436.898  c
512.653 436.898 511.995 437.086 511.288 437.461  c
511.288 436.506 l
512.065 436.189 512.794 436.031 513.474 436.031  c
514.185 436.031 514.709 436.191 515.047 436.512  c
515.385 436.832 515.554 437.330 515.554 438.006  c
515.554 440.889 l
515.554 441.549 515.757 441.879 516.163 441.879  c
516.214 441.879 516.288 441.871 516.386 441.855  c
516.468 442.494 l
516.206 442.619 515.917 442.682 515.601 442.682  c
515.062 442.682 514.718 442.363 514.569 441.727  c
h
514.399 441.100 m
514.399 439.453 l
514.013 439.441 l
513.380 439.441 512.868 439.562 512.478 439.802  c
512.087 440.042 511.892 440.357 511.892 440.748  c
511.892 441.025 511.989 441.260 512.185 441.451  c
512.380 441.643 512.618 441.738 512.899 441.738  c
513.380 441.738 513.880 441.525 514.399 441.100  c
h
517.915 442.535 m
517.915 436.172 l
519.069 436.172 l
519.069 437.367 l
519.526 436.477 520.190 436.031 521.062 436.031  c
521.179 436.031 521.302 436.041 521.431 436.061  c
521.431 437.139 l
521.231 437.072 521.056 437.039 520.903 437.039  c
520.173 437.039 519.562 437.473 519.069 438.340  c
519.069 442.535 l
h
525.310 442.682 m
524.450 442.682 523.737 442.363 523.171 441.727  c
522.604 441.090 522.321 440.287 522.321 439.318  c
522.321 438.283 522.602 437.477 523.162 436.898  c
523.723 436.320 524.505 436.031 525.509 436.031  c
526.005 436.031 526.560 436.100 527.173 436.236  c
527.173 437.203 l
526.521 437.012 525.989 436.916 525.579 436.916  c
524.989 436.916 524.516 437.138 524.158 437.581  c
523.801 438.024 523.622 438.615 523.622 439.354  c
523.622 440.068 523.806 440.646 524.173 441.088  c
524.540 441.529 525.021 441.750 525.614 441.750  c
526.142 441.750 526.685 441.615 527.243 441.346  c
527.243 442.342 l
526.497 442.568 525.853 442.682 525.310 442.682  c
h
528.972 442.535 m
528.972 433.283 l
530.126 433.283 l
530.126 437.367 l
530.735 436.477 531.481 436.031 532.364 436.031  c
532.915 436.031 533.354 436.206 533.683 436.556  c
534.011 436.905 534.175 437.375 534.175 437.965  c
534.175 442.535 l
533.021 442.535 l
533.021 438.340 l
533.021 437.867 532.951 437.530 532.812 437.329  c
532.674 437.128 532.444 437.027 532.124 437.027  c
531.417 437.027 530.751 437.490 530.126 438.416  c
530.126 442.535 l
h
f
2 J
10.0000 M
1.00000 .800000 0.00000 RG
newpath
715.000 423.000 m
776.000 423.000 l
776.000 453.000 l
715.000 453.000 l
715.000 423.000 l
h
f
0 J
1.45000 M
0.00000 0.00000 0.00000 RG
newpath
715.000 423.000 m
776.000 423.000 l
776.000 453.000 l
715.000 453.000 l
715.000 423.000 l
h
S
2 J
10.0000 M
0 J
1.45000 M
newpath
735.313 442.682 m
734.786 442.682 734.146 442.559 733.392 442.312  c
733.392 441.252 l
734.146 441.627 734.802 441.814 735.360 441.814  c
735.692 441.814 735.968 441.725 736.187 441.545  c
736.405 441.365 736.515 441.141 736.515 440.871  c
736.515 440.477 736.208 440.150 735.595 439.893  c
734.921 439.605 l
733.925 439.191 733.427 438.596 733.427 437.818  c
733.427 437.264 733.623 436.827 734.016 436.509  c
734.408 436.190 734.946 436.031 735.630 436.031  c
735.985 436.031 736.425 436.080 736.948 436.178  c
737.188 436.225 l
737.188 437.186 l
736.544 436.994 736.032 436.898 735.653 436.898  c
734.911 436.898 734.540 437.168 734.540 437.707  c
734.540 438.055 734.821 438.348 735.384 438.586  c
735.940 438.820 l
736.569 439.086 737.015 439.366 737.276 439.661  c
737.538 439.956 737.669 440.324 737.669 440.766  c
737.669 441.324 737.448 441.783 737.007 442.143  c
736.565 442.502 736.001 442.682 735.313 442.682  c
h
741.653 442.682 m
741.067 442.682 740.610 442.514 740.282 442.178  c
739.954 441.842 739.790 441.375 739.790 440.777  c
739.790 437.039 l
738.993 437.039 l
738.993 436.172 l
739.790 436.172 l
739.790 435.018 l
740.944 434.906 l
740.944 436.172 l
742.608 436.172 l
742.608 437.039 l
740.944 437.039 l
740.944 440.566 l
740.944 441.398 741.304 441.814 742.022 441.814  c
742.175 441.814 742.360 441.789 742.579 441.738  c
742.579 442.535 l
742.224 442.633 741.915 442.682 741.653 442.682  c
h
747.513 441.727 m
746.821 442.363 746.155 442.682 745.515 442.682  c
744.987 442.682 744.550 442.517 744.202 442.187  c
743.854 441.856 743.681 441.439 743.681 440.936  c
743.681 440.240 743.973 439.706 744.557 439.333  c
745.141 438.960 745.978 438.773 747.067 438.773  c
747.343 438.773 l
747.343 438.006 l
747.343 437.268 746.964 436.898 746.206 436.898  c
745.597 436.898 744.938 437.086 744.231 437.461  c
744.231 436.506 l
745.009 436.189 745.737 436.031 746.417 436.031  c
747.128 436.031 747.652 436.191 747.990 436.512  c
748.328 436.832 748.497 437.330 748.497 438.006  c
748.497 440.889 l
748.497 441.549 748.700 441.879 749.106 441.879  c
749.157 441.879 749.231 441.871 749.329 441.855  c
749.411 442.494 l
749.149 442.619 748.860 442.682 748.544 442.682  c
748.005 442.682 747.661 442.363 747.513 441.727  c
h
747.343 441.100 m
747.343 439.453 l
746.956 439.441 l
746.323 439.441 745.812 439.562 745.421 439.802  c
745.030 440.042 744.835 440.357 744.835 440.748  c
744.835 441.025 744.933 441.260 745.128 441.451  c
745.323 441.643 745.562 441.738 745.843 441.738  c
746.323 441.738 746.823 441.525 747.343 441.100  c
h
752.235 437.039 m
752.235 442.535 l
751.075 442.535 l
751.075 437.039 l
750.173 437.039 l
750.173 436.172 l
751.075 436.172 l
751.075 435.410 l
751.075 433.895 751.767 433.137 753.149 433.137  c
753.536 433.137 753.976 433.201 754.468 433.330  c
754.468 434.244 l
753.948 434.084 753.532 434.004 753.220 434.004  c
752.841 434.004 752.582 434.095 752.443 434.276  c
752.305 434.458 752.235 434.795 752.235 435.287  c
752.235 436.172 l
753.823 436.172 l
753.823 437.039 l
h
756.647 437.039 m
756.647 442.535 l
755.487 442.535 l
755.487 437.039 l
754.585 437.039 l
754.585 436.172 l
755.487 436.172 l
755.487 435.410 l
755.487 433.895 756.179 433.137 757.562 433.137  c
757.948 433.137 758.388 433.201 758.880 433.330  c
758.880 434.244 l
758.360 434.084 757.944 434.004 757.632 434.004  c
757.253 434.004 756.994 434.095 756.855 434.276  c
756.717 434.458 756.647 434.795 756.647 435.287  c
756.647 436.172 l
758.235 436.172 l
758.235 437.039 l
h
f
2 J
10.0000 M
1.00000 0.00000 0.00000 RG
0 J
1.45000 M
newpath
766.090 221.000 m
767.780 216.590 l
768.667 211.412 l
768.500 206.000 l
767.256 200.730 l
765.055 195.960 l
762.017 191.781 l
758.263 188.287 l
753.914 185.569 l
749.090 183.720 l
743.912 182.833 l
738.500 183.000 l
733.230 184.244 l
728.460 186.445 l
724.281 189.483 l
720.787 193.237 l
718.069 197.586 l
716.220 202.410 l
715.333 207.588 l
715.500 213.000 l
715.586 213.363 l
715.628 213.454 l
S
newpath
718.029 221.085 m
719.196 208.137 l
715.327 212.500 l
709.657 211.139 l
h
f
0.00000 0.00000 0.00000 RG
newpath
729.761 187.535 m
729.761 186.340 l
729.292 187.234 728.585 187.682 727.640 187.682  c
726.874 187.682 726.271 187.402 725.832 186.844  c
725.393 186.285 725.173 185.521 725.173 184.553  c
725.173 183.494 725.422 182.643 725.920 181.998  c
726.418 181.354 727.073 181.031 727.886 181.031  c
728.640 181.031 729.265 181.320 729.761 181.898  c
729.761 178.283 l
730.921 178.283 l
730.921 187.535 l
h
729.761 182.689 m
729.163 182.162 728.597 181.898 728.062 181.898  c
726.956 181.898 726.403 182.744 726.403 184.436  c
726.403 185.924 726.896 186.668 727.880 186.668  c
728.521 186.668 729.147 186.318 729.761 185.619  c
h
737.894 187.330 m
737.120 187.564 736.458 187.682 735.907 187.682  c
734.970 187.682 734.205 187.370 733.613 186.747  c
733.021 186.124 732.726 185.316 732.726 184.324  c
732.726 183.359 732.986 182.568 733.508 181.951  c
734.029 181.334 734.696 181.025 735.509 181.025  c
736.278 181.025 736.873 181.299 737.293 181.846  c
737.713 182.393 737.923 183.170 737.923 184.178  c
737.917 184.535 l
733.903 184.535 l
734.071 186.047 734.812 186.803 736.124 186.803  c
736.604 186.803 737.194 186.674 737.894 186.416  c
h
733.956 183.668 m
736.763 183.668 l
736.763 182.484 736.321 181.893 735.438 181.893  c
734.552 181.893 734.058 182.484 733.956 183.668  c
h
739.915 187.535 m
739.915 181.172 l
741.069 181.172 l
741.069 182.367 l
741.679 181.477 742.425 181.031 743.308 181.031  c
743.858 181.031 744.298 181.206 744.626 181.556  c
744.954 181.905 745.118 182.375 745.118 182.965  c
745.118 187.535 l
743.964 187.535 l
743.964 183.340 l
743.964 182.867 743.895 182.530 743.756 182.329  c
743.617 182.128 743.388 182.027 743.067 182.027  c
742.360 182.027 741.694 182.490 741.069 183.416  c
741.069 187.535 l
h
747.731 189.850 m
748.763 187.535 l
746.302 181.172 l
747.550 181.172 l
749.372 185.965 l
751.317 181.172 l
752.407 181.172 l
748.933 189.850 l
h
f
1.00000 0.00000 0.00000 RG
2 J
10.0000 M
0.00000 0.00000 0.00000 RG
0.00000 1.00000 0.00000 RG
0 J
1.45000 M
newpath
749.939 251.023 m
750.282 251.655 l
753.701 255.799 l
757.845 259.218 l
762.601 261.800 l
767.857 263.431 l
773.500 264.000 l
779.143 263.431 l
784.399 261.800 l
789.155 259.218 l
793.299 255.799 l
796.718 251.655 l
799.300 246.899 l
800.931 241.643 l
801.500 236.000 l
800.931 230.357 l
799.300 225.101 l
796.718 220.345 l
793.299 216.201 l
789.155 212.782 l
784.399 210.200 l
779.143 208.569 l
773.500 208.000 l
767.857 208.569 l
762.601 210.200 l
757.845 212.782 l
755.208 214.957 l
755.147 215.036 l
S
newpath
749.873 221.052 m
761.543 215.324 l
755.806 214.284 l
754.023 208.732 l
h
f
0.00000 0.00000 0.00000 RG
newpath
783.500 242.850 m
783.500 234.172 l
784.654 234.172 l
784.654 235.367 l
785.127 234.477 785.836 234.031 786.781 234.031  c
787.547 234.031 788.149 234.311 788.589 234.869  c
789.028 235.428 789.248 236.191 789.248 237.160  c
789.248 238.215 788.999 239.065 788.501 239.712  c
788.003 240.358 787.348 240.682 786.535 240.682  c
785.781 240.682 785.154 240.393 784.654 239.814  c
784.654 242.850 l
h
784.654 239.018 m
785.248 239.549 785.814 239.814 786.354 239.814  c
787.463 239.814 788.018 238.969 788.018 237.277  c
788.018 235.785 787.525 235.039 786.541 235.039  c
785.896 235.039 785.268 235.389 784.654 236.088  c
h
795.717 240.330 m
794.943 240.564 794.281 240.682 793.730 240.682  c
792.793 240.682 792.028 240.370 791.437 239.747  c
790.845 239.124 790.549 238.316 790.549 237.324  c
790.549 236.359 790.810 235.568 791.331 234.951  c
791.853 234.334 792.520 234.025 793.332 234.025  c
794.102 234.025 794.696 234.299 795.116 234.846  c
795.536 235.393 795.746 236.170 795.746 237.178  c
795.740 237.535 l
791.727 237.535 l
791.895 239.047 792.635 239.803 793.947 239.803  c
794.428 239.803 795.018 239.674 795.717 239.416  c
h
791.779 236.668 m
794.586 236.668 l
794.586 235.484 794.145 234.893 793.262 234.893  c
792.375 234.893 791.881 235.484 791.779 236.668  c
h
797.738 240.535 m
797.738 234.172 l
798.893 234.172 l
798.893 235.367 l
799.350 234.477 800.014 234.031 800.885 234.031  c
801.002 234.031 801.125 234.041 801.254 234.061  c
801.254 235.139 l
801.055 235.072 800.879 235.039 800.727 235.039  c
799.996 235.039 799.385 235.473 798.893 236.340  c
798.893 240.535 l
h
802.648 240.535 m
802.648 234.172 l
803.803 234.172 l
803.803 235.367 l
804.365 234.477 805.088 234.031 805.971 234.031  c
806.822 234.031 807.402 234.477 807.711 235.367  c
808.258 234.473 808.969 234.025 809.844 234.025  c
810.406 234.025 810.842 234.190 811.150 234.521  c
811.459 234.851 811.613 235.312 811.613 235.906  c
811.613 240.535 l
810.453 240.535 l
810.453 236.088 l
810.453 235.361 810.166 234.998 809.592 234.998  c
808.994 234.998 808.367 235.422 807.711 236.270  c
807.711 240.535 l
806.551 240.535 l
806.551 236.088 l
806.551 235.357 806.258 234.992 805.672 234.992  c
805.090 234.992 804.467 235.418 803.803 236.270  c
803.803 240.535 l
h
813.852 240.535 m
813.852 234.172 l
815.006 234.172 l
815.006 240.535 l
h
813.852 233.018 m
813.852 231.863 l
815.006 231.863 l
815.006 233.018 l
h
819.230 240.682 m
818.645 240.682 818.188 240.514 817.859 240.178  c
817.531 239.842 817.367 239.375 817.367 238.777  c
817.367 235.039 l
816.570 235.039 l
816.570 234.172 l
817.367 234.172 l
817.367 233.018 l
818.521 232.906 l
818.521 234.172 l
820.186 234.172 l
820.186 235.039 l
818.521 235.039 l
818.521 238.566 l
818.521 239.398 818.881 239.814 819.600 239.814  c
819.752 239.814 819.938 239.789 820.156 239.738  c
820.156 240.535 l
819.801 240.633 819.492 240.682 819.230 240.682  c
h
f
0.00000 1.00000 0.00000 RG
2 J
10.0000 M
0.00000 0.00000 0.00000 RG
0.00000 1.00000 0.00000 RG
0 J
1.45000 M
newpath
509.831 220.964 m
509.181 218.676 l
506.602 213.590 l
503.104 209.087 l
498.777 205.309 l
493.712 202.399 l
490.932 201.314 l
488.000 200.500 l
485.001 199.985 l
482.023 199.779 l
476.201 200.249 l
470.676 201.819 l
465.590 204.398 l
461.087 207.896 l
457.309 212.223 l
454.399 217.288 l
453.314 220.068 l
452.500 223.000 l
451.985 225.999 l
451.779 228.977 l
452.249 234.799 l
453.819 240.324 l
456.398 245.410 l
459.896 249.913 l
464.223 253.691 l
469.288 256.601 l
472.068 257.686 l
475.000 258.500 l
477.999 259.015 l
480.977 259.221 l
486.799 258.751 l
492.324 257.181 l
495.451 255.596 l
495.530 255.534 l
S
newpath
502.083 250.945 m
489.386 253.732 l
494.711 256.107 l
495.121 261.924 l
h
f
0.00000 0.00000 0.00000 RG
newpath
434.500 229.850 m
434.500 221.172 l
435.654 221.172 l
435.654 222.367 l
436.127 221.477 436.836 221.031 437.781 221.031  c
438.547 221.031 439.149 221.311 439.589 221.869  c
440.028 222.428 440.248 223.191 440.248 224.160  c
440.248 225.215 439.999 226.065 439.501 226.712  c
439.003 227.358 438.348 227.682 437.535 227.682  c
436.781 227.682 436.154 227.393 435.654 226.814  c
435.654 229.850 l
h
435.654 226.018 m
436.248 226.549 436.814 226.814 437.354 226.814  c
438.463 226.814 439.018 225.969 439.018 224.277  c
439.018 222.785 438.525 222.039 437.541 222.039  c
436.896 222.039 436.268 222.389 435.654 223.088  c
h
446.717 227.330 m
445.943 227.564 445.281 227.682 444.730 227.682  c
443.793 227.682 443.028 227.370 442.437 226.747  c
441.845 226.124 441.549 225.316 441.549 224.324  c
441.549 223.359 441.810 222.568 442.331 221.951  c
442.853 221.334 443.520 221.025 444.332 221.025  c
445.102 221.025 445.696 221.299 446.116 221.846  c
446.536 222.393 446.746 223.170 446.746 224.178  c
446.740 224.535 l
442.727 224.535 l
442.895 226.047 443.635 226.803 444.947 226.803  c
445.428 226.803 446.018 226.674 446.717 226.416  c
h
442.779 223.668 m
445.586 223.668 l
445.586 222.484 445.145 221.893 444.262 221.893  c
443.375 221.893 442.881 222.484 442.779 223.668  c
h
448.738 227.535 m
448.738 221.172 l
449.893 221.172 l
449.893 222.367 l
450.350 221.477 451.014 221.031 451.885 221.031  c
452.002 221.031 452.125 221.041 452.254 221.061  c
452.254 222.139 l
452.055 222.072 451.879 222.039 451.727 222.039  c
450.996 222.039 450.385 222.473 449.893 223.340  c
449.893 227.535 l
h
453.648 227.535 m
453.648 221.172 l
454.803 221.172 l
454.803 222.367 l
455.365 221.477 456.088 221.031 456.971 221.031  c
457.822 221.031 458.402 221.477 458.711 222.367  c
459.258 221.473 459.969 221.025 460.844 221.025  c
461.406 221.025 461.842 221.190 462.150 221.521  c
462.459 221.851 462.613 222.312 462.613 222.906  c
462.613 227.535 l
461.453 227.535 l
461.453 223.088 l
461.453 222.361 461.166 221.998 460.592 221.998  c
459.994 221.998 459.367 222.422 458.711 223.270  c
458.711 227.535 l
457.551 227.535 l
457.551 223.088 l
457.551 222.357 457.258 221.992 456.672 221.992  c
456.090 221.992 455.467 222.418 454.803 223.270  c
454.803 227.535 l
h
464.852 227.535 m
464.852 221.172 l
466.006 221.172 l
466.006 227.535 l
h
464.852 220.018 m
464.852 218.863 l
466.006 218.863 l
466.006 220.018 l
h
470.230 227.682 m
469.645 227.682 469.188 227.514 468.859 227.178  c
468.531 226.842 468.367 226.375 468.367 225.777  c
468.367 222.039 l
467.570 222.039 l
467.570 221.172 l
468.367 221.172 l
468.367 220.018 l
469.521 219.906 l
469.521 221.172 l
471.186 221.172 l
471.186 222.039 l
469.521 222.039 l
469.521 225.566 l
469.521 226.398 469.881 226.814 470.600 226.814  c
470.752 226.814 470.938 226.789 471.156 226.738  c
471.156 227.535 l
470.801 227.633 470.492 227.682 470.230 227.682  c
h
f
0.00000 1.00000 0.00000 RG
2 J
10.0000 M
0.00000 0.00000 0.00000 RG
1.00000 0.00000 0.00000 RG
0 J
1.45000 M
newpath
551.971 235.309 m
552.766 234.456 l
555.565 229.883 l
557.388 224.935 l
558.224 219.768 l
558.063 214.536 l
556.895 209.394 l
554.711 204.497 l
551.500 200.000 l
547.456 196.234 l
542.883 193.435 l
537.935 191.612 l
532.768 190.776 l
527.536 190.937 l
522.394 192.105 l
517.497 194.289 l
513.000 197.500 l
509.234 201.544 l
506.435 206.117 l
504.612 211.065 l
504.296 213.023 l
504.299 213.123 l
S
newpath
503.919 221.114 m
509.483 209.365 l
504.346 212.124 l
499.494 208.890 l
h
f
0.00000 0.00000 0.00000 RG
newpath
542.761 204.535 m
542.761 203.340 l
542.292 204.234 541.585 204.682 540.640 204.682  c
539.874 204.682 539.271 204.402 538.832 203.844  c
538.393 203.285 538.173 202.521 538.173 201.553  c
538.173 200.494 538.422 199.643 538.920 198.998  c
539.418 198.354 540.073 198.031 540.886 198.031  c
541.640 198.031 542.265 198.320 542.761 198.898  c
542.761 195.283 l
543.921 195.283 l
543.921 204.535 l
h
542.761 199.689 m
542.163 199.162 541.597 198.898 541.062 198.898  c
539.956 198.898 539.403 199.744 539.403 201.436  c
539.403 202.924 539.896 203.668 540.880 203.668  c
541.521 203.668 542.147 203.318 542.761 202.619  c
h
550.894 204.330 m
550.120 204.564 549.458 204.682 548.907 204.682  c
547.970 204.682 547.205 204.370 546.613 203.747  c
546.021 203.124 545.726 202.316 545.726 201.324  c
545.726 200.359 545.986 199.568 546.508 198.951  c
547.029 198.334 547.696 198.025 548.509 198.025  c
549.278 198.025 549.873 198.299 550.293 198.846  c
550.713 199.393 550.923 200.170 550.923 201.178  c
550.917 201.535 l
546.903 201.535 l
547.071 203.047 547.812 203.803 549.124 203.803  c
549.604 203.803 550.194 203.674 550.894 203.416  c
h
546.956 200.668 m
549.763 200.668 l
549.763 199.484 549.321 198.893 548.438 198.893  c
547.552 198.893 547.058 199.484 546.956 200.668  c
h
552.915 204.535 m
552.915 198.172 l
554.069 198.172 l
554.069 199.367 l
554.679 198.477 555.425 198.031 556.308 198.031  c
556.858 198.031 557.298 198.206 557.626 198.556  c
557.954 198.905 558.118 199.375 558.118 199.965  c
558.118 204.535 l
556.964 204.535 l
556.964 200.340 l
556.964 199.867 556.895 199.530 556.756 199.329  c
556.617 199.128 556.388 199.027 556.067 199.027  c
555.360 199.027 554.694 199.490 554.069 200.416  c
554.069 204.535 l
h
560.731 206.850 m
561.763 204.535 l
559.302 198.172 l
560.550 198.172 l
562.372 202.965 l
564.317 198.172 l
565.407 198.172 l
561.933 206.850 l
h
f
1.00000 0.00000 0.00000 RG
2 J
10.0000 M
0.00000 0.00000 0.00000 RG
0.00000 1.00000 0.00000 RG
0 J
1.45000 M
newpath
552.000 236.000 m
608.500 236.000 l
706.973 236.000 l
S
newpath
714.973 236.000 m
702.973 231.000 l
705.973 236.000 l
702.973 241.000 l
h
f
0.00000 0.00000 0.00000 RG
newpath
590.500 242.850 m
590.500 234.172 l
591.654 234.172 l
591.654 235.367 l
592.127 234.477 592.836 234.031 593.781 234.031  c
594.547 234.031 595.149 234.311 595.589 234.869  c
596.028 235.428 596.248 236.191 596.248 237.160  c
596.248 238.215 595.999 239.065 595.501 239.712  c
595.003 240.358 594.348 240.682 593.535 240.682  c
592.781 240.682 592.154 240.393 591.654 239.814  c
591.654 242.850 l
h
591.654 239.018 m
592.248 239.549 592.814 239.814 593.354 239.814  c
594.463 239.814 595.018 238.969 595.018 237.277  c
595.018 235.785 594.525 235.039 593.541 235.039  c
592.896 235.039 592.268 235.389 591.654 236.088  c
h
602.717 240.330 m
601.943 240.564 601.281 240.682 600.730 240.682  c
599.793 240.682 599.028 240.370 598.437 239.747  c
597.845 239.124 597.549 238.316 597.549 237.324  c
597.549 236.359 597.810 235.568 598.331 234.951  c
598.853 234.334 599.520 234.025 600.332 234.025  c
601.102 234.025 601.696 234.299 602.116 234.846  c
602.536 235.393 602.746 236.170 602.746 237.178  c
602.740 237.535 l
598.727 237.535 l
598.895 239.047 599.635 239.803 600.947 239.803  c
601.428 239.803 602.018 239.674 602.717 239.416  c
h
598.779 236.668 m
601.586 236.668 l
601.586 235.484 601.145 234.893 600.262 234.893  c
599.375 234.893 598.881 235.484 598.779 236.668  c
h
604.738 240.535 m
604.738 234.172 l
605.893 234.172 l
605.893 235.367 l
606.350 234.477 607.014 234.031 607.885 234.031  c
608.002 234.031 608.125 234.041 608.254 234.061  c
608.254 235.139 l
608.055 235.072 607.879 235.039 607.727 235.039  c
606.996 235.039 606.385 235.473 605.893 236.340  c
605.893 240.535 l
h
609.648 240.535 m
609.648 234.172 l
610.803 234.172 l
610.803 235.367 l
611.365 234.477 612.088 234.031 612.971 234.031  c
613.822 234.031 614.402 234.477 614.711 235.367  c
615.258 234.473 615.969 234.025 616.844 234.025  c
617.406 234.025 617.842 234.190 618.150 234.521  c
618.459 234.851 618.613 235.312 618.613 235.906  c
618.613 240.535 l
617.453 240.535 l
617.453 236.088 l
617.453 235.361 617.166 234.998 616.592 234.998  c
615.994 234.998 615.367 235.422 614.711 236.270  c
614.711 240.535 l
613.551 240.535 l
613.551 236.088 l
613.551 235.357 613.258 234.992 612.672 234.992  c
612.090 234.992 611.467 235.418 610.803 236.270  c
610.803 240.535 l
h
620.852 240.535 m
620.852 234.172 l
622.006 234.172 l
622.006 240.535 l
h
620.852 233.018 m
620.852 231.863 l
622.006 231.863 l
622.006 233.018 l
h
626.230 240.682 m
625.645 240.682 625.188 240.514 624.859 240.178  c
624.531 239.842 624.367 239.375 624.367 238.777  c
624.367 235.039 l
623.570 235.039 l
623.570 234.172 l
624.367 234.172 l
624.367 233.018 l
625.521 232.906 l
625.521 234.172 l
627.186 234.172 l
627.186 235.039 l
625.521 235.039 l
625.521 238.566 l
625.521 239.398 625.881 239.814 626.600 239.814  c
626.752 239.814 626.938 239.789 627.156 239.738  c
627.156 240.535 l
626.801 240.633 626.492 240.682 626.230 240.682  c
h
f
0.00000 1.00000 0.00000 RG
2 J
10.0000 M
0.00000 0.00000 0.00000 RG
0.00000 1.00000 0.00000 RG
0 J
1.45000 M
newpath
481.843 452.966 m
480.500 457.000 l
479.889 462.049 l
480.284 466.969 l
481.609 471.637 l
483.787 475.935 l
486.741 479.741 l
490.396 482.934 l
494.674 485.394 l
499.500 487.000 l
504.549 487.611 l
509.469 487.216 l
514.137 485.891 l
518.435 483.713 l
522.241 480.759 l
525.434 477.104 l
527.894 472.826 l
529.500 468.000 l
530.111 462.951 l
529.938 460.803 l
529.909 460.707 l
S
newpath
528.182 452.896 m
525.891 465.692 l
530.125 461.684 l
535.655 463.533 l
h
f
0.00000 0.00000 0.00000 RG
newpath
481.500 493.850 m
481.500 485.172 l
482.654 485.172 l
482.654 486.367 l
483.127 485.477 483.836 485.031 484.781 485.031  c
485.547 485.031 486.149 485.311 486.589 485.869  c
487.028 486.428 487.248 487.191 487.248 488.160  c
487.248 489.215 486.999 490.065 486.501 490.712  c
486.003 491.358 485.348 491.682 484.535 491.682  c
483.781 491.682 483.154 491.393 482.654 490.814  c
482.654 493.850 l
h
482.654 490.018 m
483.248 490.549 483.814 490.814 484.354 490.814  c
485.463 490.814 486.018 489.969 486.018 488.277  c
486.018 486.785 485.525 486.039 484.541 486.039  c
483.896 486.039 483.268 486.389 482.654 487.088  c
h
493.717 491.330 m
492.943 491.564 492.281 491.682 491.730 491.682  c
490.793 491.682 490.028 491.370 489.437 490.747  c
488.845 490.124 488.549 489.316 488.549 488.324  c
488.549 487.359 488.810 486.568 489.331 485.951  c
489.853 485.334 490.520 485.025 491.332 485.025  c
492.102 485.025 492.696 485.299 493.116 485.846  c
493.536 486.393 493.746 487.170 493.746 488.178  c
493.740 488.535 l
489.727 488.535 l
489.895 490.047 490.635 490.803 491.947 490.803  c
492.428 490.803 493.018 490.674 493.717 490.416  c
h
489.779 487.668 m
492.586 487.668 l
492.586 486.484 492.145 485.893 491.262 485.893  c
490.375 485.893 489.881 486.484 489.779 487.668  c
h
495.738 491.535 m
495.738 485.172 l
496.893 485.172 l
496.893 486.367 l
497.350 485.477 498.014 485.031 498.885 485.031  c
499.002 485.031 499.125 485.041 499.254 485.061  c
499.254 486.139 l
499.055 486.072 498.879 486.039 498.727 486.039  c
497.996 486.039 497.385 486.473 496.893 487.340  c
496.893 491.535 l
h
500.648 491.535 m
500.648 485.172 l
501.803 485.172 l
501.803 486.367 l
502.365 485.477 503.088 485.031 503.971 485.031  c
504.822 485.031 505.402 485.477 505.711 486.367  c
506.258 485.473 506.969 485.025 507.844 485.025  c
508.406 485.025 508.842 485.190 509.150 485.521  c
509.459 485.851 509.613 486.312 509.613 486.906  c
509.613 491.535 l
508.453 491.535 l
508.453 487.088 l
508.453 486.361 508.166 485.998 507.592 485.998  c
506.994 485.998 506.367 486.422 505.711 487.270  c
505.711 491.535 l
504.551 491.535 l
504.551 487.088 l
504.551 486.357 504.258 485.992 503.672 485.992  c
503.090 485.992 502.467 486.418 501.803 487.270  c
501.803 491.535 l
h
511.852 491.535 m
511.852 485.172 l
513.006 485.172 l
513.006 491.535 l
h
511.852 484.018 m
511.852 482.863 l
513.006 482.863 l
513.006 484.018 l
h
517.230 491.682 m
516.645 491.682 516.188 491.514 515.859 491.178  c
515.531 490.842 515.367 490.375 515.367 489.777  c
515.367 486.039 l
514.570 486.039 l
514.570 485.172 l
515.367 485.172 l
515.367 484.018 l
516.521 483.906 l
516.521 485.172 l
518.186 485.172 l
518.186 486.039 l
516.521 486.039 l
516.521 489.566 l
516.521 490.398 516.881 490.814 517.600 490.814  c
517.752 490.814 517.938 490.789 518.156 490.738  c
518.156 491.535 l
517.801 491.633 517.492 491.682 517.230 491.682  c
h
f
0.00000 1.00000 0.00000 RG
2 J
10.0000 M
0.00000 0.00000 0.00000 RG
1.00000 0.00000 0.00000 RG
0 J
1.45000 M
newpath
491.451 250.970 m
491.451 414.971 l
S
newpath
491.451 422.971 m
496.451 410.971 l
491.451 413.971 l
486.451 410.971 l
h
f
0.00000 0.00000 0.00000 RG
newpath
482.712 341.535 m
482.712 340.340 l
482.243 341.234 481.536 341.682 480.590 341.682  c
479.825 341.682 479.222 341.402 478.783 340.844  c
478.343 340.285 478.124 339.521 478.124 338.553  c
478.124 337.494 478.373 336.643 478.871 335.998  c
479.369 335.354 480.024 335.031 480.837 335.031  c
481.590 335.031 482.215 335.320 482.712 335.898  c
482.712 332.283 l
483.872 332.283 l
483.872 341.535 l
h
482.712 336.689 m
482.114 336.162 481.547 335.898 481.012 335.898  c
479.907 335.898 479.354 336.744 479.354 338.436  c
479.354 339.924 479.846 340.668 480.831 340.668  c
481.471 340.668 482.098 340.318 482.712 339.619  c
h
490.844 341.330 m
490.071 341.564 489.409 341.682 488.858 341.682  c
487.921 341.682 487.156 341.370 486.564 340.747  c
485.972 340.124 485.676 339.316 485.676 338.324  c
485.676 337.359 485.937 336.568 486.459 335.951  c
486.980 335.334 487.647 335.025 488.460 335.025  c
489.229 335.025 489.824 335.299 490.244 335.846  c
490.664 336.393 490.874 337.170 490.874 338.178  c
490.868 338.535 l
486.854 338.535 l
487.022 340.047 487.762 340.803 489.075 340.803  c
489.555 340.803 490.145 340.674 490.844 340.416  c
h
486.907 337.668 m
489.714 337.668 l
489.714 336.484 489.272 335.893 488.389 335.893  c
487.503 335.893 487.008 336.484 486.907 337.668  c
h
492.866 341.535 m
492.866 335.172 l
494.020 335.172 l
494.020 336.367 l
494.630 335.477 495.376 335.031 496.258 335.031  c
496.809 335.031 497.249 335.206 497.577 335.556  c
497.905 335.905 498.069 336.375 498.069 336.965  c
498.069 341.535 l
496.915 341.535 l
496.915 337.340 l
496.915 336.867 496.845 336.530 496.707 336.329  c
496.568 336.128 496.339 336.027 496.018 336.027  c
495.311 336.027 494.645 336.490 494.020 337.416  c
494.020 341.535 l
h
500.682 343.850 m
501.714 341.535 l
499.253 335.172 l
500.501 335.172 l
502.323 339.965 l
504.268 335.172 l
505.358 335.172 l
501.883 343.850 l
h
f
1.00000 0.00000 0.00000 RG
2 J
10.0000 M
0.00000 0.00000 0.00000 RG
0.00000 1.00000 0.00000 RG
0 J
1.45000 M
newpath
736.545 251.000 m
665.500 370.000 l
552.017 419.786 l
S
newpath
544.691 423.000 m
557.689 422.758 l
552.933 419.384 l
553.671 413.600 l
h
f
0.00000 0.00000 0.00000 RG
newpath
620.013 388.908 m
620.013 380.231 l
621.167 380.231 l
621.167 381.426 l
621.640 380.535 622.349 380.090 623.294 380.090  c
624.060 380.090 624.662 380.369 625.102 380.928  c
625.541 381.487 625.761 382.250 625.761 383.219  c
625.761 384.274 625.512 385.124 625.014 385.771  c
624.516 386.417 623.860 386.741 623.048 386.741  c
622.294 386.741 621.667 386.451 621.167 385.873  c
621.167 388.908 l
h
621.167 385.076 m
621.761 385.608 622.327 385.873 622.866 385.873  c
623.976 385.873 624.530 385.028 624.530 383.336  c
624.530 381.844 624.038 381.098 623.054 381.098  c
622.409 381.098 621.780 381.448 621.167 382.147  c
h
632.230 386.389 m
631.456 386.623 630.794 386.741 630.243 386.741  c
629.306 386.741 628.541 386.429 627.949 385.806  c
627.358 385.183 627.062 384.375 627.062 383.383  c
627.062 382.418 627.322 381.627 627.844 381.010  c
628.365 380.393 629.032 380.084 629.845 380.084  c
630.614 380.084 631.209 380.358 631.629 380.905  c
632.049 381.451 632.259 382.229 632.259 383.237  c
632.253 383.594 l
628.239 383.594 l
628.407 385.106 629.148 385.862 630.460 385.862  c
630.941 385.862 631.530 385.733 632.230 385.475  c
h
628.292 382.727 m
631.099 382.727 l
631.099 381.543 630.657 380.951 629.775 380.951  c
628.888 380.951 628.394 381.543 628.292 382.727  c
h
634.251 386.594 m
634.251 380.231 l
635.405 380.231 l
635.405 381.426 l
635.862 380.535 636.526 380.090 637.398 380.090  c
637.515 380.090 637.638 380.100 637.767 380.119  c
637.767 381.198 l
637.568 381.131 637.392 381.098 637.239 381.098  c
636.509 381.098 635.898 381.532 635.405 382.399  c
635.405 386.594 l
h
639.161 386.594 m
639.161 380.231 l
640.316 380.231 l
640.316 381.426 l
640.878 380.535 641.601 380.090 642.484 380.090  c
643.335 380.090 643.915 380.535 644.224 381.426  c
644.771 380.532 645.482 380.084 646.357 380.084  c
646.919 380.084 647.355 380.249 647.663 380.579  c
647.972 380.909 648.126 381.371 648.126 381.965  c
648.126 386.594 l
646.966 386.594 l
646.966 382.147 l
646.966 381.420 646.679 381.057 646.105 381.057  c
645.507 381.057 644.880 381.481 644.224 382.328  c
644.224 386.594 l
643.064 386.594 l
643.064 382.147 l
643.064 381.416 642.771 381.051 642.185 381.051  c
641.603 381.051 640.980 381.477 640.316 382.328  c
640.316 386.594 l
h
650.364 386.594 m
650.364 380.231 l
651.519 380.231 l
651.519 386.594 l
h
650.364 379.076 m
650.364 377.922 l
651.519 377.922 l
651.519 379.076 l
h
655.743 386.741 m
655.157 386.741 654.700 386.573 654.372 386.237  c
654.044 385.901 653.880 385.434 653.880 384.836  c
653.880 381.098 l
653.083 381.098 l
653.083 380.231 l
653.880 380.231 l
653.880 379.076 l
655.034 378.965 l
655.034 380.231 l
656.698 380.231 l
656.698 381.098 l
655.034 381.098 l
655.034 384.625 l
655.034 385.457 655.394 385.873 656.112 385.873  c
656.265 385.873 656.450 385.848 656.669 385.797  c
656.669 386.594 l
656.314 386.692 656.005 386.741 655.743 386.741  c
h
f
0.00000 1.00000 0.00000 RG
2 J
10.0000 M
0.00000 0.00000 0.00000 RG
1.00000 0.00000 0.00000 RG
0 J
1.45000 M
newpath
527.951 423.000 m
721.983 256.215 l
S
newpath
728.049 251.000 m
715.690 255.031 l
721.224 256.867 l
722.209 262.614 l
h
f
0.00000 0.00000 0.00000 RG
newpath
619.261 341.535 m
619.261 340.340 l
618.792 341.234 618.085 341.682 617.140 341.682  c
616.374 341.682 615.771 341.402 615.332 340.844  c
614.893 340.285 614.673 339.521 614.673 338.553  c
614.673 337.494 614.922 336.643 615.420 335.998  c
615.918 335.354 616.573 335.031 617.386 335.031  c
618.140 335.031 618.765 335.320 619.261 335.898  c
619.261 332.283 l
620.421 332.283 l
620.421 341.535 l
h
619.261 336.689 m
618.663 336.162 618.097 335.898 617.562 335.898  c
616.456 335.898 615.903 336.744 615.903 338.436  c
615.903 339.924 616.396 340.668 617.380 340.668  c
618.021 340.668 618.647 340.318 619.261 339.619  c
h
627.394 341.330 m
626.620 341.564 625.958 341.682 625.407 341.682  c
624.470 341.682 623.705 341.370 623.113 340.747  c
622.521 340.124 622.226 339.316 622.226 338.324  c
622.226 337.359 622.486 336.568 623.008 335.951  c
623.529 335.334 624.196 335.025 625.009 335.025  c
625.778 335.025 626.373 335.299 626.793 335.846  c
627.213 336.393 627.423 337.170 627.423 338.178  c
627.417 338.535 l
623.403 338.535 l
623.571 340.047 624.312 340.803 625.624 340.803  c
626.104 340.803 626.694 340.674 627.394 340.416  c
h
623.456 337.668 m
626.263 337.668 l
626.263 336.484 625.821 335.893 624.938 335.893  c
624.052 335.893 623.558 336.484 623.456 337.668  c
h
629.415 341.535 m
629.415 335.172 l
630.569 335.172 l
630.569 336.367 l
631.179 335.477 631.925 335.031 632.808 335.031  c
633.358 335.031 633.798 335.206 634.126 335.556  c
634.454 335.905 634.618 336.375 634.618 336.965  c
634.618 341.535 l
633.464 341.535 l
633.464 337.340 l
633.464 336.867 633.395 336.530 633.256 336.329  c
633.117 336.128 632.888 336.027 632.567 336.027  c
631.860 336.027 631.194 336.490 630.569 337.416  c
630.569 341.535 l
h
637.231 343.850 m
638.263 341.535 l
635.802 335.172 l
637.050 335.172 l
638.872 339.965 l
640.817 335.172 l
641.907 335.172 l
638.433 343.850 l
h
f
1.00000 0.00000 0.00000 RG
2 J
10.0000 M
0.00000 0.00000 0.00000 RG
0.00000 1.00000 0.00000 RG
0 J
1.45000 M
newpath
530.910 422.953 m
530.910 258.959 l
S
newpath
530.910 250.959 m
525.910 262.959 l
530.910 259.959 l
535.910 262.959 l
h
f
0.00000 0.00000 0.00000 RG
newpath
512.910 368.850 m
512.910 360.172 l
514.064 360.172 l
514.064 361.367 l
514.537 360.477 515.246 360.031 516.191 360.031  c
516.957 360.031 517.559 360.311 517.999 360.869  c
518.438 361.428 518.658 362.191 518.658 363.160  c
518.658 364.215 518.409 365.065 517.911 365.712  c
517.413 366.358 516.758 366.682 515.945 366.682  c
515.191 366.682 514.564 366.393 514.064 365.814  c
514.064 368.850 l
h
514.064 365.018 m
514.658 365.549 515.224 365.814 515.763 365.814  c
516.873 365.814 517.427 364.969 517.427 363.277  c
517.427 361.785 516.935 361.039 515.951 361.039  c
515.306 361.039 514.677 361.389 514.064 362.088  c
h
525.127 366.330 m
524.353 366.564 523.691 366.682 523.140 366.682  c
522.203 366.682 521.438 366.370 520.846 365.747  c
520.255 365.124 519.959 364.316 519.959 363.324  c
519.959 362.359 520.219 361.568 520.741 360.951  c
521.262 360.334 521.929 360.025 522.742 360.025  c
523.511 360.025 524.106 360.299 524.526 360.846  c
524.946 361.393 525.156 362.170 525.156 363.178  c
525.150 363.535 l
521.136 363.535 l
521.304 365.047 522.045 365.803 523.357 365.803  c
523.838 365.803 524.427 365.674 525.127 365.416  c
h
521.189 362.668 m
523.996 362.668 l
523.996 361.484 523.554 360.893 522.672 360.893  c
521.785 360.893 521.291 361.484 521.189 362.668  c
h
527.148 366.535 m
527.148 360.172 l
528.302 360.172 l
528.302 361.367 l
528.759 360.477 529.424 360.031 530.295 360.031  c
530.412 360.031 530.535 360.041 530.664 360.061  c
530.664 361.139 l
530.465 361.072 530.289 361.039 530.136 361.039  c
529.406 361.039 528.795 361.473 528.302 362.340  c
528.302 366.535 l
h
532.058 366.535 m
532.058 360.172 l
533.213 360.172 l
533.213 361.367 l
533.775 360.477 534.498 360.031 535.381 360.031  c
536.232 360.031 536.812 360.477 537.121 361.367  c
537.668 360.473 538.379 360.025 539.254 360.025  c
539.816 360.025 540.252 360.190 540.560 360.521  c
540.869 360.851 541.023 361.312 541.023 361.906  c
541.023 366.535 l
539.863 366.535 l
539.863 362.088 l
539.863 361.361 539.576 360.998 539.002 360.998  c
538.404 360.998 537.777 361.422 537.121 362.270  c
537.121 366.535 l
535.961 366.535 l
535.961 362.088 l
535.961 361.357 535.668 360.992 535.082 360.992  c
534.500 360.992 533.877 361.418 533.213 362.270  c
533.213 366.535 l
h
543.261 366.535 m
543.261 360.172 l
544.416 360.172 l
544.416 366.535 l
h
543.261 359.018 m
543.261 357.863 l
544.416 357.863 l
544.416 359.018 l
h
548.640 366.682 m
548.054 366.682 547.597 366.514 547.269 366.178  c
546.941 365.842 546.777 365.375 546.777 364.777  c
546.777 361.039 l
545.980 361.039 l
545.980 360.172 l
546.777 360.172 l
546.777 359.018 l
547.931 358.906 l
547.931 360.172 l
549.595 360.172 l
549.595 361.039 l
547.931 361.039 l
547.931 364.566 l
547.931 365.398 548.291 365.814 549.009 365.814  c
549.162 365.814 549.347 365.789 549.566 365.738  c
549.566 366.535 l
549.211 366.633 548.902 366.682 548.640 366.682  c
h
f
0.00000 1.00000 0.00000 RG
2 J
10.0000 M
0.00000 0.00000 0.00000 RG
0.00000 1.00000 0.00000 RG
0 J
1.45000 M
newpath
724.004 453.026 m
722.967 456.365 l
722.500 461.000 l
722.967 465.635 l
724.307 469.953 l
726.428 473.860 l
729.237 477.263 l
732.641 480.072 l
736.547 482.193 l
740.865 483.533 l
745.500 484.000 l
750.135 483.533 l
754.453 482.193 l
758.359 480.072 l
761.763 477.263 l
764.572 473.860 l
766.693 469.953 l
768.033 465.635 l
768.500 461.000 l
768.488 460.885 l
768.459 460.790 l
S
newpath
766.978 452.928 m
764.286 465.646 l
768.644 461.772 l
774.113 463.795 l
h
f
0.00000 0.00000 0.00000 RG
newpath
727.500 490.850 m
727.500 482.172 l
728.654 482.172 l
728.654 483.367 l
729.127 482.477 729.836 482.031 730.781 482.031  c
731.547 482.031 732.149 482.311 732.589 482.869  c
733.028 483.428 733.248 484.191 733.248 485.160  c
733.248 486.215 732.999 487.065 732.501 487.712  c
732.003 488.358 731.348 488.682 730.535 488.682  c
729.781 488.682 729.154 488.393 728.654 487.814  c
728.654 490.850 l
h
728.654 487.018 m
729.248 487.549 729.814 487.814 730.354 487.814  c
731.463 487.814 732.018 486.969 732.018 485.277  c
732.018 483.785 731.525 483.039 730.541 483.039  c
729.896 483.039 729.268 483.389 728.654 484.088  c
h
739.717 488.330 m
738.943 488.564 738.281 488.682 737.730 488.682  c
736.793 488.682 736.028 488.370 735.437 487.747  c
734.845 487.124 734.549 486.316 734.549 485.324  c
734.549 484.359 734.810 483.568 735.331 482.951  c
735.853 482.334 736.520 482.025 737.332 482.025  c
738.102 482.025 738.696 482.299 739.116 482.846  c
739.536 483.393 739.746 484.170 739.746 485.178  c
739.740 485.535 l
735.727 485.535 l
735.895 487.047 736.635 487.803 737.947 487.803  c
738.428 487.803 739.018 487.674 739.717 487.416  c
h
735.779 484.668 m
738.586 484.668 l
738.586 483.484 738.145 482.893 737.262 482.893  c
736.375 482.893 735.881 483.484 735.779 484.668  c
h
741.738 488.535 m
741.738 482.172 l
742.893 482.172 l
742.893 483.367 l
743.350 482.477 744.014 482.031 744.885 482.031  c
745.002 482.031 745.125 482.041 745.254 482.061  c
745.254 483.139 l
745.055 483.072 744.879 483.039 744.727 483.039  c
743.996 483.039 743.385 483.473 742.893 484.340  c
742.893 488.535 l
h
746.648 488.535 m
746.648 482.172 l
747.803 482.172 l
747.803 483.367 l
748.365 482.477 749.088 482.031 749.971 482.031  c
750.822 482.031 751.402 482.477 751.711 483.367  c
752.258 482.473 752.969 482.025 753.844 482.025  c
754.406 482.025 754.842 482.190 755.150 482.521  c
755.459 482.851 755.613 483.312 755.613 483.906  c
755.613 488.535 l
754.453 488.535 l
754.453 484.088 l
754.453 483.361 754.166 482.998 753.592 482.998  c
752.994 482.998 752.367 483.422 751.711 484.270  c
751.711 488.535 l
750.551 488.535 l
750.551 484.088 l
750.551 483.357 750.258 482.992 749.672 482.992  c
749.090 482.992 748.467 483.418 747.803 484.270  c
747.803 488.535 l
h
757.852 488.535 m
757.852 482.172 l
759.006 482.172 l
759.006 488.535 l
h
757.852 481.018 m
757.852 479.863 l
759.006 479.863 l
759.006 481.018 l
h
763.230 488.682 m
762.645 488.682 762.188 488.514 761.859 488.178  c
761.531 487.842 761.367 487.375 761.367 486.777  c
761.367 483.039 l
760.570 483.039 l
760.570 482.172 l
761.367 482.172 l
761.367 481.018 l
762.521 480.906 l
762.521 482.172 l
764.186 482.172 l
764.186 483.039 l
762.521 483.039 l
762.521 486.566 l
762.521 487.398 762.881 487.814 763.600 487.814  c
763.752 487.814 763.938 487.789 764.156 487.738  c
764.156 488.535 l
763.801 488.633 763.492 488.682 763.230 488.682  c
h
f
0.00000 1.00000 0.00000 RG
2 J
10.0000 M
0.00000 0.00000 0.00000 RG
1.00000 0.00000 0.00000 RG
0 J
1.45000 M
newpath
766.996 422.974 m
768.033 419.635 l
768.500 415.000 l
768.033 410.365 l
766.693 406.047 l
764.572 402.140 l
761.763 398.737 l
758.359 395.928 l
754.453 393.807 l
750.135 392.467 l
745.500 392.000 l
740.865 392.467 l
736.547 393.807 l
732.641 395.928 l
729.237 398.737 l
726.428 402.140 l
724.307 406.047 l
722.967 410.365 l
722.500 415.000 l
722.512 415.115 l
722.541 415.210 l
S
newpath
724.022 423.072 m
726.714 410.354 l
722.356 414.228 l
716.887 412.205 l
h
f
0.00000 0.00000 0.00000 RG
newpath
736.761 396.535 m
736.761 395.340 l
736.292 396.234 735.585 396.682 734.640 396.682  c
733.874 396.682 733.271 396.402 732.832 395.844  c
732.393 395.285 732.173 394.521 732.173 393.553  c
732.173 392.494 732.422 391.643 732.920 390.998  c
733.418 390.354 734.073 390.031 734.886 390.031  c
735.640 390.031 736.265 390.320 736.761 390.898  c
736.761 387.283 l
737.921 387.283 l
737.921 396.535 l
h
736.761 391.689 m
736.163 391.162 735.597 390.898 735.062 390.898  c
733.956 390.898 733.403 391.744 733.403 393.436  c
733.403 394.924 733.896 395.668 734.880 395.668  c
735.521 395.668 736.147 395.318 736.761 394.619  c
h
744.894 396.330 m
744.120 396.564 743.458 396.682 742.907 396.682  c
741.970 396.682 741.205 396.370 740.613 395.747  c
740.021 395.124 739.726 394.316 739.726 393.324  c
739.726 392.359 739.986 391.568 740.508 390.951  c
741.029 390.334 741.696 390.025 742.509 390.025  c
743.278 390.025 743.873 390.299 744.293 390.846  c
744.713 391.393 744.923 392.170 744.923 393.178  c
744.917 393.535 l
740.903 393.535 l
741.071 395.047 741.812 395.803 743.124 395.803  c
743.604 395.803 744.194 395.674 744.894 395.416  c
h
740.956 392.668 m
743.763 392.668 l
743.763 391.484 743.321 390.893 742.438 390.893  c
741.552 390.893 741.058 391.484 740.956 392.668  c
h
746.915 396.535 m
746.915 390.172 l
748.069 390.172 l
748.069 391.367 l
748.679 390.477 749.425 390.031 750.308 390.031  c
750.858 390.031 751.298 390.206 751.626 390.556  c
751.954 390.905 752.118 391.375 752.118 391.965  c
752.118 396.535 l
750.964 396.535 l
750.964 392.340 l
750.964 391.867 750.895 391.530 750.756 391.329  c
750.617 391.128 750.388 391.027 750.067 391.027  c
749.360 391.027 748.694 391.490 748.069 392.416  c
748.069 396.535 l
h
754.731 398.850 m
755.763 396.535 l
753.302 390.172 l
754.550 390.172 l
756.372 394.965 l
758.317 390.172 l
759.407 390.172 l
755.933 398.850 l
h
f
1.00000 0.00000 0.00000 RG
2 J
10.0000 M
0.00000 0.00000 0.00000 RG
0.00000 1.00000 0.00000 RG
0 J
1.45000 M
newpath
745.500 423.000 m
745.500 259.000 l
S
newpath
745.500 251.000 m
740.500 263.000 l
745.500 260.000 l
750.500 263.000 l
h
f
0.00000 0.00000 0.00000 RG
newpath
729.398 343.850 m
729.398 335.172 l
730.553 335.172 l
730.553 336.367 l
731.025 335.477 731.734 335.031 732.680 335.031  c
733.445 335.031 734.048 335.311 734.487 335.869  c
734.927 336.428 735.146 337.191 735.146 338.160  c
735.146 339.215 734.897 340.065 734.399 340.712  c
733.901 341.358 733.246 341.682 732.434 341.682  c
731.680 341.682 731.053 341.393 730.553 340.814  c
730.553 343.850 l
h
730.553 340.018 m
731.146 340.549 731.713 340.814 732.252 340.814  c
733.361 340.814 733.916 339.969 733.916 338.277  c
733.916 336.785 733.424 336.039 732.439 336.039  c
731.795 336.039 731.166 336.389 730.553 337.088  c
h
741.615 341.330 m
740.842 341.564 740.180 341.682 739.629 341.682  c
738.691 341.682 737.927 341.370 737.335 340.747  c
736.743 340.124 736.447 339.316 736.447 338.324  c
736.447 337.359 736.708 336.568 737.229 335.951  c
737.751 335.334 738.418 335.025 739.230 335.025  c
740.000 335.025 740.595 335.299 741.015 335.846  c
741.435 336.393 741.645 337.170 741.645 338.178  c
741.639 338.535 l
737.625 338.535 l
737.793 340.047 738.533 340.803 739.846 340.803  c
740.326 340.803 740.916 340.674 741.615 340.416  c
h
737.678 337.668 m
740.484 337.668 l
740.484 336.484 740.043 335.893 739.160 335.893  c
738.273 335.893 737.779 336.484 737.678 337.668  c
h
743.637 341.535 m
743.637 335.172 l
744.791 335.172 l
744.791 336.367 l
745.248 335.477 745.912 335.031 746.783 335.031  c
746.900 335.031 747.023 335.041 747.152 335.061  c
747.152 336.139 l
746.953 336.072 746.777 336.039 746.625 336.039  c
745.895 336.039 745.283 336.473 744.791 337.340  c
744.791 341.535 l
h
748.547 341.535 m
748.547 335.172 l
749.701 335.172 l
749.701 336.367 l
750.264 335.477 750.986 335.031 751.869 335.031  c
752.721 335.031 753.301 335.477 753.609 336.367  c
754.156 335.473 754.867 335.025 755.742 335.025  c
756.305 335.025 756.740 335.190 757.049 335.521  c
757.357 335.851 757.512 336.312 757.512 336.906  c
757.512 341.535 l
756.352 341.535 l
756.352 337.088 l
756.352 336.361 756.064 335.998 755.490 335.998  c
754.893 335.998 754.266 336.422 753.609 337.270  c
753.609 341.535 l
752.449 341.535 l
752.449 337.088 l
752.449 336.357 752.156 335.992 751.570 335.992  c
750.988 335.992 750.365 336.418 749.701 337.270  c
749.701 341.535 l
h
759.750 341.535 m
759.750 335.172 l
760.904 335.172 l
760.904 341.535 l
h
759.750 334.018 m
759.750 332.863 l
760.904 332.863 l
760.904 334.018 l
h
765.129 341.682 m
764.543 341.682 764.086 341.514 763.758 341.178  c
763.430 340.842 763.266 340.375 763.266 339.777  c
763.266 336.039 l
762.469 336.039 l
762.469 335.172 l
763.266 335.172 l
763.266 334.018 l
764.420 333.906 l
764.420 335.172 l
766.084 335.172 l
766.084 336.039 l
764.420 336.039 l
764.420 339.566 l
764.420 340.398 764.779 340.814 765.498 340.814  c
765.650 340.814 765.836 340.789 766.055 340.738  c
766.055 341.535 l
765.699 341.633 765.391 341.682 765.129 341.682  c
h
f
0.00000 1.00000 0.00000 RG
2 J
10.0000 M
0.00000 0.00000 0.00000 RG
1.00000 0.00000 0.00000 RG
0 J
1.45000 M
newpath
715.000 438.000 m
560.000 438.000 l
S
newpath
552.000 438.000 m
564.000 443.000 l
561.000 438.000 l
564.000 433.000 l
h
f
0.00000 0.00000 0.00000 RG
newpath
637.454 442.535 m
637.454 441.340 l
636.985 442.234 636.278 442.682 635.333 442.682  c
634.567 442.682 633.965 442.402 633.525 441.844  c
633.086 441.285 632.866 440.521 632.866 439.553  c
632.866 438.494 633.115 437.643 633.613 436.998  c
634.111 436.354 634.766 436.031 635.579 436.031  c
636.333 436.031 636.958 436.320 637.454 436.898  c
637.454 433.283 l
638.614 433.283 l
638.614 442.535 l
h
637.454 437.689 m
636.856 437.162 636.290 436.898 635.755 436.898  c
634.649 436.898 634.096 437.744 634.096 439.436  c
634.096 440.924 634.589 441.668 635.573 441.668  c
636.214 441.668 636.841 441.318 637.454 440.619  c
h
645.587 442.330 m
644.813 442.564 644.151 442.682 643.600 442.682  c
642.663 442.682 641.898 442.370 641.306 441.747  c
640.715 441.124 640.419 440.316 640.419 439.324  c
640.419 438.359 640.679 437.568 641.201 436.951  c
641.722 436.334 642.389 436.025 643.202 436.025  c
643.971 436.025 644.566 436.299 644.986 436.846  c
645.406 437.393 645.616 438.170 645.616 439.178  c
645.610 439.535 l
641.596 439.535 l
641.764 441.047 642.505 441.803 643.817 441.803  c
644.298 441.803 644.887 441.674 645.587 441.416  c
h
641.649 438.668 m
644.456 438.668 l
644.456 437.484 644.014 436.893 643.132 436.893  c
642.245 436.893 641.751 437.484 641.649 438.668  c
h
647.608 442.535 m
647.608 436.172 l
648.762 436.172 l
648.762 437.367 l
649.372 436.477 650.118 436.031 651.001 436.031  c
651.551 436.031 651.991 436.206 652.319 436.556  c
652.647 436.905 652.811 437.375 652.811 437.965  c
652.811 442.535 l
651.657 442.535 l
651.657 438.340 l
651.657 437.867 651.588 437.530 651.449 437.329  c
651.310 437.128 651.081 437.027 650.760 437.027  c
650.053 437.027 649.387 437.490 648.762 438.416  c
648.762 442.535 l
h
655.424 444.850 m
656.456 442.535 l
653.995 436.172 l
655.243 436.172 l
657.065 440.965 l
659.010 436.172 l
660.100 436.172 l
656.626 444.850 l
h
f
1.00000 0.00000 0.00000 RG
2 J
10.0000 M
0.00000 0.00000 0.00000 RG
Q
[ 1.00000 0.00000 0.00000 1.00000 0.00000 0.00000 ] defaultmatrix matrix concatmatrix setmatrix
cliprestore

%%Trailer
%%EOF
