%!PS-Adobe-3.0 EPSF-3.0
%%BoundingBox: 0 0 367 316
%%Creator: yExport 1.5
%%Producer: org.freehep.graphicsio.ps.EPSGraphics2D Revision: 12753 
%%For: 
%%Title: 
%%CreationDate: Tuesday, October 24, 2017 2:03:58 PM BST
%%LanguageLevel: 3
%%EndComments
%%BeginProlog
100 dict dup begin

%
% File: org/freehep/graphicsio.ps/PSProlog.txt
% Author: Charles Loomis
%

% Redefinitions which save some space in the output file.  These are also
% the same as the PDF operators.
/q {gsave} def
/Q {grestore} def

/n {newpath} def
/m {moveto} def
/l {lineto} def
/c {curveto} def
/h {closepath} def

/re {4 -2 roll moveto
     dup 0 exch rlineto exch 0 rlineto
     neg 0 exch rlineto closepath} def

/f {fill} def
/f* {eofill} def
/F {gsave vg&FC fill grestore} def
/F* {gsave vg&FC eofill grestore} def

/s {closepath stroke} def
/S {stroke} def

/b {closepath gsave vg&FC fill grestore
    gsave stroke grestore newpath} def
/B {gsave vg&FC fill grestore gsave stroke grestore newpath} def
/b* {closepath gsave vg&FC eofill grestore
    gsave stroke grestore newpath} def
/B* {gsave vg&FC eofill grestore gsave stroke grestore newpath} def

/g {1 array astore /vg&fcolor exch def} def
/G {setgray} def
/k {4 array astore /vg&fcolor exch def} def
/K {setcmykcolor} def
/rg {3 array astore /vg&fcolor exch def} def
/RG {setrgbcolor} def

% Initialize the fill color.
0 0 0 rg

/vg&FC {mark vg&fcolor aload pop
        counttomark 1 eq {G} if
        counttomark 3 eq {RG} if
        counttomark 4 eq {K} if
        cleartomark } def

/vg&DFC {/vg&fcolor exch def} def

/vg&C {mark exch aload pop
       counttomark 1 eq {G} if
       counttomark 3 eq {RG} if
       counttomark 4 eq {K} if
       cleartomark } def

/w {setlinewidth} def
/j {setlinejoin} def
/J {setlinecap} def
/M {setmiterlimit} def
/d {setdash} def
/i {setflat} def

/W {clip} def
/W* {eoclip} def

% Setup the default graphics state.
% (black; 1 pt. linewidth; miter join; butt-ends; solid)
/defaultGraphicsState {0 g 1 w 0 j 0 J [] 0 d} def

% Emulation of the rectangle operators for PostScript implementations
% which do not implement all Level 2 features.  This is an INCOMPLETE
% emulation; only the "x y width height rect..." form is emulated.
/*rf {gsave newpath re fill grestore} def
/*rs {gsave newpath re stroke grestore} def
/*rc {newpath re clip} def
/rf  /rectfill where {pop /rectfill}{/*rf} ifelse load def
/rs  /rectstroke where {pop /rectstroke}{/*rs} ifelse load def
/rc  /rectclip where {pop /rectclip}{/*rc} ifelse load def

% Emulation of the selectfont operator.  This includes a 20% increase in
% the fontsize which is necessary to get sizes similar to the Java fonts.
/*sf {exch findfont exch
      dup type /arraytype eq {makefont}{scalefont} ifelse setfont} bind def
/sf /selectfont where {pop {1.2 mul selectfont}}{{1.2 mul *sf}} ifelse def

% Special version of stroke which allows the dash pattern to continue
% across path segments.  (This may be needed for PostScript although
% modern printers seem to do this correctly.)
/vg&stroke {
  currentdash pop length 0 eq
  {stroke}
  {
    currentdash /vg&doffset exch def pop
    flattenpath
    {m vg&resetdash}
    {2 copy
     currentpoint
     3 -1 roll sub dup mul
     3 1 roll sub dup mul
     add sqrt
     3 1 roll l
     currentdash 3 -1 roll add setdash}
     {}
     {h vg&resetdash}
     pathforall
     stroke
     vg&resetdash
  } ifelse
} def
/vg&resetdash {currentdash pop vg&doffset setdash} def

% Initialize variables for safety.
/delta 0 def
/xv 0 def  /yv 0 def  /width 0 def  /height 0 def

% Initialize to portrait INTERNATIONAL (Letter-height, A4-width) page.
/pw 595 def  /ph 791  def  /po true def /ftp false def

% Initialize margins to 20 points.
/ml 20 def  /mr 20 def  /mt 20 def  /mb 20 def

% Temporary matrices.
/smatrix 0 def  /nmatrix 0 def

% set page size (usage: <page width><page height> setpagesize)
/setpagesize {/ph exch def /pw exch def} def

% set page orientation (usage: portrait or landscape)
/portrait {/po true def} def
/landscape {/po false def} def

% force natural size for image (usage: naturalsize)
/naturalsize {/ftp false def} def

% resize image to fill page (usage: fittopage)
/fittopage {/ftp true def} def

% set margins of the page (usage: <left><bottom><top><right> setmargins)
/setmargins {/mr exch def /mt exch def /mb exch def /ml exch def} def

% set the graphic's size (usage: <width><height> setsize)
/setsize {/gh exch def /gw exch def} def

% set the graphic's origin (usage: <x0><y0> setorigin)
/setorigin {/gy exch def /gx exch def} def

% calculate image center
/imagecenter {pw ml sub mr sub 2 div ml add
              ph mt sub mb sub 2 div mb add} def

% calculate the necessary scaling
/imagescale {po {gw}{gh} ifelse pw ml sub mr sub div
             po {gh}{gw} ifelse ph mt sub mb sub div
             2 copy lt {exch} if pop
             ftp not {1 2 copy lt {exch} if pop} if
             1 exch div /sfactor exch def
             /gw gw sfactor mul def /gh gh sfactor mul def} def

% calculate image origin
/imageorigin {pw ml sub mr sub 2 div ml add
              po {gw}{gh} ifelse 2 div sub
              ph mt sub mb sub 2 div mb add
              po {gh}{gw} ifelse 2 div po {add}{sub} ifelse} def

% calculate the clipping origin
/cliporigin  {pw ml sub mr sub 2 div ml add
              po {gw}{gh} ifelse 2 div sub floor
              ph mt sub mb sub 2 div mb add
              po {gh}{gw} ifelse 2 div sub floor} def

% Set the clipping region to the bounding box.
/cliptobounds {cliporigin po {gw}{gh} ifelse 1 add
                          po {gh}{gw} ifelse 1 add rc} def

% set the base transformation matrix (usage: setbasematrix)
/setbasematrix {imageorigin translate
                po {0}{90} ifelse rotate
                sfactor sfactor neg scale
                /defaultmatrix matrix currentmatrix def} def

% The lower-right bias in drawing 1 pt. wide lines.
/bias  {q 0.5 0.5 translate} def
/unbias {Q} def

% Define the composite fonts used to print Unicode strings.
% Undefine particular values in an encoding array.
/vg&undef { {exch dup 3 -1 roll /.notdef put} forall } def
/vg&redef { {3 -1 roll dup 4 2 roll put} forall } def

% usage: key encoding basefontname vg&newbasefont font
/vg&newbasefont {
findfont dup length dict copy
  begin
    currentdict /FID undef
    /Encoding exch def
    dup /FontName exch def
    currentdict
  end
definefont
} def

% usage: key encoding basefontname vg&newskewedbasefont font
/vg&newskewedbasefont {
findfont dup length dict copy
  begin
    currentdict /FID undef
    /Encoding exch def
    dup /FontName exch def
    exch FontMatrix exch matrix concatmatrix /FontMatrix exch def
    currentdict
  end
definefont
} def

% usage: basekey suffix vg&nconcat name
/vg&nconcat {
  2 {dup length string cvs exch} repeat
  dup length 3 -1 roll dup length 3 -1 roll add string
  dup 0 4 -1 roll dup length 5 1 roll putinterval
  dup 4 -2 roll exch putinterval cvn
} def

%usage: fontname vg&skewmatrix matrix
/vg&skewmatrix {
findfont dup /FontInfo known
  {
    /FontInfo get dup /ItalicAngle known
    {
      [ 1 0 4 -1 roll /ItalicAngle get neg dup sin exch cos div 1 0 0 ]
    }
    {pop matrix} ifelse
  }
  {pop matrix} ifelse
} def

% usage: newfontname basefontname vg&newcompositefont --
/vg&newcompositefont {
/vg&fstyle exch def
/vg&bfont exch def
/vg&fname exch def
<<
/FontStyleBits vg&fstyle
/FontType 0
/FontMatrix matrix
/FontName vg&fname
/FMapType 2
/Encoding [ 0 1 255 {pop 6} for ]
          dup 16#00 0 put % Latin
          dup 16#03 1 put % Greek
          dup 16#20 2 put % Punctuation
          dup 16#21 3 put % Arrows
          dup 16#22 4 put % MathOps
          dup 16#27 5 put % Dingbats

/FDepVector [
vg&bfont /-UC-Latin vg&nconcat UCLatinEncoding
vg&bfont vg&newbasefont

vg&bfont vg&skewmatrix
vg&bfont /-UC-Greek vg&nconcat UCGreekEncoding
/Symbol vg&newskewedbasefont

vg&bfont /-UC-Punctuation vg&nconcat UCPunctuationEncoding
vg&bfont vg&newbasefont

/Arrows-UC findfont
/MathOps-UC findfont
/Dingbats-UC findfont
/Undefined-UC findfont ]
>>
vg&fname exch definefont pop
} def

% Null encoding vector (all elements set to .notdef)
/NullEncoding [ 256 {/.notdef} repeat ] def

% Unicode Latin encoding (unicode codes \u0000-\u00ff)
/UCLatinEncoding
  ISOLatin1Encoding dup length array copy
  dup 16#60 /grave put
  [ 16#90 16#91 16#92 16#93 16#94 16#95 16#96
    16#97 16#98 16#9a 16#9b 16#9d 16#9e 16#9f
  ] vg&undef
  def

% Unicode Greek encoding (unicode codes \u0370-\u03ff)
/UCGreekEncoding
  NullEncoding dup length array copy
  << 16#91 /Alpha    16#92 /Beta      16#93 /Gamma    16#94 /Delta
     16#95 /Epsilon  16#96 /Zeta      16#97 /Eta      16#98 /Theta
     16#99 /Iota     16#9a /Kappa     16#9b /Lambda   16#9c /Mu
     16#9d /Nu       16#9e /Xi        16#9f /Omicron  16#a0 /Pi
     16#a1 /Rho      16#a3 /Sigma     16#a4 /Tau      16#a5 /Upsilon
     16#a6 /Phi      16#a7 /Chi       16#a8 /Psi      16#a9 /Omega
     16#b1 /alpha    16#b2 /beta      16#b3 /gamma    16#b4 /delta
     16#b5 /epsilon  16#b6 /zeta      16#b7 /eta      16#b8 /theta
     16#b9 /iota     16#ba /kappa     16#bb /lambda   16#bc /mu
     16#bd /nu       16#be /xi        16#bf /omicron  16#c0 /pi
     16#c1 /rho      16#c2 /sigma1    16#c3 /sigma    16#c4 /tau
     16#c5 /upsilon  16#c6 /phi1      16#c7 /chi      16#c8 /psi
     16#c9 /omega    16#7e /semicolon 16#87 /dotmath  16#d1 /theta1
     16#d2 /Upsilon1 16#d5 /phi       16#d6 /omega1
  >> vg&redef
  def

% Unicode punctuation encoding (unicode codes \u2000-\u206f)
/UCPunctuationEncoding
  NullEncoding dup length array copy
  << 16#10 /hyphen          16#11 /hyphen              16#12 /endash
     16#13 /emdash          16#18 /quoteleft           16#19 /quoteright
     16#1a /quotesinglbase  16#1b /quotesingle         16#1c /quotedblleft
     16#1d /quotedblright   16#1e /quotedblbase        16#1f /quotedbl
     16#20 /dagger          16#21 /daggerdbl           16#22 /bullet
     16#24 /period          16#26 /ellipsis            16#27 /periodcentered
     16#30 /perthousand     16#44 /fraction
     16#70 /zerosuperior    16#74 /foursuperior        16#75 /fivesuperior
     16#76 /sixsuperior     16#77 /sevensuperior       16#78 /eightsuperior
     16#79 /ninesuperior    16#7b /hyphensuperior      16#7d /parenleftsuperior
     16#7e /parenrightsuperior
     16#80 /zeroinferior    16#84 /fourinferior        16#85 /fiveinferior
     16#81 /oneinferior     16#82 /twoinferior         16#83 /threeinferior
     16#86 /sixinferior     16#87 /seveninferior       16#88 /eightinferior
     16#89 /nineinferior    16#8b /hypheninferior      16#8d /parenleftinferior
     16#8e /parenrightinferior
  >> vg&redef
  def

% Unicode mathematical operators encoding (unicode codes \u2200-\u22ff)
/UCMathOpsEncoding
  NullEncoding dup length array copy
  << 16#00 /universal       16#02 /partialdiff         16#03 /existential
     16#05 /emptyset        16#06 /Delta               16#07 /gradient
     16#08 /element         16#09 /notelement          16#0b /suchthat
     16#0f /product         16#11 /summation           16#12 /minus
     16#15 /fraction        16#17 /asteriskmath        16#19 /bullet
     16#1a /radical         16#1d /proportional        16#1e /infinity
     16#20 /angle           16#23 /bar                 16#27 /logicaland
     16#28 /logicalor       16#29 /intersection        16#2a /union
     16#2b /integral        16#34 /therefore           16#36 /colon
     16#3c /similar         16#45 /congruent           16#48 /approxequal
     16#60 /notequal        16#61 /equivalence         16#64 /lessequal
     16#65 /greaterequal    16#82 /propersubset        16#83 /propersuperset
     16#86 /reflexsubset    16#87 /reflexsuperset      16#95 /circleplus
     16#97 /circlemultiply  16#a5 /perpendicular       16#03 /existential
     16#c0 /logicaland      16#c1 /logicalor           16#c2 /intersection
     16#c3 /union           16#c4 /diamond             16#c5 /dotmath
  >> vg&redef
  def

% Unicode arrows encoding (unicode codes \u2190-\u21ff)
% Also includes those "Letterlike" unicode characters
% which are available in the symbol font. (unicode codes \u2100-\u214f)
/UCArrowsEncoding
  NullEncoding dup length array copy
  << 16#11 /Ifraktur        16#1c /Rfraktur            16#22 /trademarkserif
     16#35 /aleph
     16#90 /arrowleft       16#91 /arrowup             16#92 /arrowright
     16#93 /arrowdown       16#94 /arrowboth           16#d0 /arrowdblleft
     16#d1 /arrowdblup      16#d2 /arrowdblright       16#d3 /arrowdbldown
     16#d4 /arrowdblboth
  >> vg&redef
  def

/ZapfDingbats findfont /Encoding get
dup length array copy /UCDingbatsEncoding exch def
16#20 1 16#7f {
  dup 16#20 sub exch
  UCDingbatsEncoding exch get
  UCDingbatsEncoding 3 1 roll put
} for
16#a0 1 16#ff {
  dup 16#40 sub exch
  UCDingbatsEncoding exch get
  UCDingbatsEncoding 3 1 roll put
} for
UCDingbatsEncoding [ 16#c0 1 16#ff {} for ] vg&undef
[ 16#00  16#05 16#0a 16#0b  16#28 16#4c 16#4e  16#53 16#54 16#55  16#57 16#5f
  16#60  16#68 16#69 16#6a  16#6b 16#6c 16#6d  16#6e 16#6f 16#70  16#71 16#72
  16#73  16#74 16#75 16#95  16#96 16#97 16#b0  16#bf
] vg&undef pop

% Define the base fonts which don't change.
/Undefined-UC NullEncoding       /Helvetica    vg&newbasefont pop
/MathOps-UC   UCMathOpsEncoding  /Symbol       vg&newbasefont pop
/Arrows-UC    UCArrowsEncoding   /Symbol       vg&newbasefont pop
/Dingbats-UC  UCDingbatsEncoding /ZapfDingbats vg&newbasefont pop

% Make the SansSerif composite fonts.
/SansSerif /Helvetica 16#00 vg&newcompositefont
/SansSerif-Bold /Helvetica-Bold 16#01 vg&newcompositefont
/SansSerif-Italic /Helvetica-Oblique 16#02 vg&newcompositefont
/SansSerif-BoldItalic /Helvetica-BoldOblique 16#03 vg&newcompositefont

% Make the Serif composite fonts.
/Serif /Times-Roman 16#00 vg&newcompositefont
/Serif-Bold /Times-Bold 16#01 vg&newcompositefont
/Serif-Italic /Times-Italic 16#02 vg&newcompositefont
/Serif-BoldItalic /Times-BoldItalic 16#03 vg&newcompositefont

% Make the Monospaced composite fonts.
/Monospaced /Courier 16#00 vg&newcompositefont
/Monospaced-Bold /Courier-Bold 16#01 vg&newcompositefont
/Monospaced-Italic /Courier-Oblique 16#02 vg&newcompositefont
/Monospaced-BoldItalic /Courier-BoldOblique 16#03 vg&newcompositefont

% Make the Dialog composite fonts.
/Dialog /Helvetica 16#00 vg&newcompositefont
/Dialog-Bold /Helvetica-Bold 16#01 vg&newcompositefont
/Dialog-Italic /Helvetica-Oblique 16#02 vg&newcompositefont
/Dialog-BoldItalic /Helvetica-BoldOblique 16#03 vg&newcompositefont

% Make the DialogInput composite fonts.
/DialogInput /Courier 16#00 vg&newcompositefont
/DialogInput-Bold /Courier-Bold 16#01 vg&newcompositefont
/DialogInput-Italic /Courier-Oblique 16#02 vg&newcompositefont
/DialogInput-BoldItalic /Courier-BoldOblique 16#03 vg&newcompositefont

% Make the Typewriter composite fonts (JDK 1.1 only).
/Typewriter /Courier 16#00 vg&newcompositefont
/Typewriter-Bold /Courier-Bold 16#01 vg&newcompositefont
/Typewriter-Italic /Courier-Oblique 16#02 vg&newcompositefont
/Typewriter-BoldItalic /Courier-BoldOblique 16#03 vg&newcompositefont


/cfontH {
 dup /fontsize exch def /SansSerif exch sf
 /vg&fontstyles [{cfontH} {cfontHB} {cfontHI} {cfontHBI}] def
} def
/cfontHB {
  dup /fontsize exch def /SansSerif-Bold exch sf
 /vg&fontstyles [{cfontH} {cfontHB} {cfontHI} {cfontHBI}] def
} def
/cfontHI {
 dup /fontsize exch def /SansSerif-Italic exch sf
 /vg&fontstyles [{cfontH} {cfontHB} {cfontHI} {cfontHBI}] def
} def
/cfontHBI {
 dup /fontsize exch def /SansSerif-BoldItalic exch sf
 /vg&fontstyles [{cfontH} {cfontHB} {cfontHI} {cfontHBI}] def
} def

/cfontT {
 dup /fontsize exch def /Serif exch sf
 /vg&fontstyles [{cfontT} {cfontTB} {cfontTI} {cfontTBI}] def
} def
/cfontTB {
 dup /fontsize exch def /Serif-Bold exch sf
 /vg&fontstyles [{cfontT} {cfontTB} {cfontTI} {cfontTBI}] def
} def
/cfontTI {
 dup /fontsize exch def /Serif-Italic exch sf
 /vg&fontstyles [{cfontT} {cfontTB} {cfontTI} {cfontTBI}] def
} def
/cfontTBI {
 dup /fontsize exch def /Serif-BoldItalic exch sf
 /vg&fontstyles [{cfontT} {cfontTB} {cfontTI} {cfontTBI}] def
} def

/cfontC {
 dup /fontsize exch def /Typewriter exch sf
 /vg&fontstyles [{cfontC} {cfontCB} {cfontCI} {cfontCBI}] def
} def
/cfontCB {
 dup /fontsize exch def /Typewriter-Bold exch sf
 /vg&fontstyles [{cfontC} {cfontCB} {cfontCI} {cfontCBI}] def
} def
/cfontCI {
 dup /fontsize exch def /Typewriter-Italic exch sf
 /vg&fontstyles [{cfontC} {cfontCB} {cfontCI} {cfontCBI}] def
} def
/cfontCBI {
 dup /fontsize exch def /Typewriter-BoldItalic exch sf
 /vg&fontstyles [{cfontC} {cfontCB} {cfontCI} {cfontCBI}] def
} def

% Darken or lighten the current color.
/darken {0.7 exch exp 3 copy
         q 4 -1 roll vg&C
         currentrgbcolor 3 {4 -2 roll mul} repeat
         3 array astore Q} def

/displayColorMap
<< /Cr   [1.00 0.00 0.00]       /Cg     [0.00 1.00 0.00]
   /Cb   [0.00 0.00 1.00]       /Cc     [1.00 0.00 0.00 0.00]
   /Cm   [0.00 1.00 0.00 0.00]  /Cy     [0.00 0.00 1.00 0.00]
   /Co   [1.00 0.78 0.00]       /Cp     [1.00 0.67 0.67]
   /Cw   [1   ]                 /Cgrl   [0.75]
   /Cgr  [0.50]                 /Cgrd   [0.25]
   /Ck   [0   ]
   /CGr  [1.00 0.00 0.00]       /CGg    [0.00 1.00 0.00]
   /CGb  [0.00 0.00 1.00]       /CGc    [1.00 0.00 0.00 0.00]
   /CGm  [0.00 1.00 0.00 0.00]  /CGy    [0.00 0.00 1.00 0.00]
   /CGo  [1.00 0.78 0.00]       /CGp    [1.00 0.67 0.67]
   /CGw  [1   ]                 /CGgrl  [0.75]
   /CGgr [0.50]                 /CGgrd  [0.25]
   /CGk  [0   ]
   /CIr  [1.00 0.00 0.00]       /CIg    [0.00 1.00 0.00]
   /CIb  [0.00 0.00 1.00]       /CIc    [1.00 0.00 0.00 0.00]
   /CIm  [0.00 1.00 0.00 0.00]  /CIy    [0.00 0.00 1.00 0.00]
   /CIo  [1.00 0.78 0.00]       /CIp    [1.00 0.67 0.67]
   /CIw  [1   ]                 /CIgrl  [0.75]
   /CIgr [0.50]                 /CIgrd  [0.25]
   /CIk  [0   ]
>> def

/printColorMap
<< /Cr   [1.00 0.33 0.33]       /Cg     [0.33 1.00 0.33]
   /Cb   [0.33 0.33 1.00]       /Cc     [1.00 0.00 0.00 0.00]
   /Cm   [0.00 1.00 0.00 0.00]  /Cy     [0.00 0.00 1.00 0.00]
   /Co   [1.00 0.78 0.00]       /Cp     [1.00 0.67 0.67]
   /Cw   [1   ]                 /Cgrl   [0.75]
   /Cgr  [0.50]                 /Cgrd   [0.25]
   /Ck   [0   ]
   /CGr  [1.00 0.33 0.33]       /CGg    [0.33 1.00 0.33]
   /CGb  [0.33 0.33 1.00]       /CGc    [1.00 0.00 0.00 0.00]
   /CGm  [0.00 1.00 0.00 0.00]  /CGy    [0.00 0.00 1.00 0.00]
   /CGo  [1.00 0.78 0.00]       /CGp    [1.00 0.67 0.67]
   /CGw  [1   ]                 /CGgrl  [0.75]
   /CGgr [0.50]                 /CGgrd  [0.25]
   /CGk  [0   ]
   /CIr  [1.00 0.33 0.33]       /CIg    [0.33 1.00 0.33]
   /CIb  [0.33 0.33 1.00]       /CIc    [1.00 0.00 0.00 0.00]
   /CIm  [0.00 1.00 0.00 0.00]  /CIy    [0.00 0.00 1.00 0.00]
   /CIo  [1.00 0.78 0.00]       /CIp    [1.00 0.67 0.67]
   /CIw  [1   ]                 /CIgrl  [0.75]
   /CIgr [0.50]                 /CIgrd  [0.25]
   /CIk  [0   ]
>> def

/grayColorMap
<< /Cr   [0   ]                 /Cg     [0   ]
   /Cb   [0   ]                 /Cc     [0   ]
   /Cm   [0   ]                 /Cy     [0   ]
   /Co   [0   ]                 /Cp     [0   ]
   /Cw   [0   ]                 /Cgrl   [0   ]
   /Cgr  [0   ]                 /Cgrd   [0   ]
   /Ck   [0   ]
   /CGr  [0.75]                 /CGg    [1   ]
   /CGb  [0.50]                 /CGc    [0.75]
   /CGm  [0.50]                 /CGy    [1   ]
   /CGo  [0.75]                 /CGp    [1   ]
   /CGw  [0   ]                 /CGgrl  [0.25]
   /CGgr [0.50]                 /CGgrd  [0.75]
   /CGk  [1   ]
   /CIr  [1   ]                 /CIg    [1   ]
   /CIb  [1   ]                 /CIc    [1   ]
   /CIm  [1   ]                 /CIy    [1   ]
   /CIo  [1   ]                 /CIp    [1   ]
   /CIw  [1   ]                 /CIgrl  [1   ]
   /CIgr [1   ]                 /CIgrd  [1   ]
   /CIk  [1   ]
>> def

/bwColorMap
<< /Cr   [0   ]                 /Cg     [0   ]
   /Cb   [0   ]                 /Cc     [0   ]
   /Cm   [0   ]                 /Cy     [0   ]
   /Co   [0   ]                 /Cp     [0   ]
   /Cw   [0   ]                 /Cgrl   [0   ]
   /Cgr  [0   ]                 /Cgrd   [0   ]
   /Ck   [0   ]
   /CGr  [1   ]                 /CGg    [1   ]
   /CGb  [1   ]                 /CGc    [1   ]
   /CGm  [1   ]                 /CGy    [1   ]
   /CGo  [1   ]                 /CGp    [1   ]
   /CGw  [0   ]                 /CGgrl  [1   ]
   /CGgr [1   ]                 /CGgrd  [1   ]
   /CGk  [1   ]
   /CIr  [1   ]                 /CIg    [1   ]
   /CIb  [1   ]                 /CIc    [1   ]
   /CIm  [1   ]                 /CIy    [1   ]
   /CIo  [1   ]                 /CIp    [1   ]
   /CIw  [1   ]                 /CIgrl  [1   ]
   /CIgr [1   ]                 /CIgrd  [1   ]
   /CIk  [1   ]
>> def

%
% The following routines handle the alignment of and printing of
% tagged strings.
%

% Predefine the bounding box values.
/bbllx 0 def /bblly 0 def /bburx 0 def /bbury 0 def

% This routine pops the first unicode character off of a string and returns
% the remainder of the string, the character code of first character,
% and a "true" if the string was non-zero length.
% <string>      popfirst <remaining string> <true>
% <null string> popfirst <false>
/popfirst {
  dup length 1 gt
    {dup 0 get /vg&fbyte exch def
     dup 1 get /vg&cbyte exch def
     dup length 2 sub 2 exch getinterval true}
    {pop false} ifelse
} def

% This routine shows a single unicode character given the font and
% character codes.
% <font code> <char code> unicharshow --
/unicharshow {
  2 string
  dup 0 5 -1 roll put
  dup 1 4 -1 roll put
  internalshow
} def

% This is an internal routine to alternate between determining the
% bounding box for stringsize and showing the string for recshow.
% <string> internalshow --
/internalshow {show} def

% This is an internal routine to alternate between determining the
% bounding box for stringsize and stroking various ornaments.
% <string> internalstroke --
/internalstroke {S} def

% Sets up internalshow to use the null device to determine string size.
% -- nullinternalshow --
/nullinternalshow {/internalshow {false charpath flattenpath
                                  pathbbox updatebbox} def} def

% Sets up internalstroke to use the null device to determine string size.
% -- nullinternalstroke --
/nullinternalstroke {
 /internalstroke {flattenpath pathbbox updatebbox} def} def

% This routine tests to see if the character code matches the first
% character of a string.
% <char code> <string> testchar <char code> <true or false>
/testchar {exch dup 3 -1 roll 0 get eq} def

% Raise the text baseline for superscripts.
% -- raise --
/raise {
  0 fontsize 2 div rmoveto
  /fontsize fontsize 2 mul 3 div def
  currentfont /FontName get fontsize sf
} def

% Un-raise the text baseline for superscripts.
% -- unraise --
/unraise {
  /fontsize fontsize 1.5 mul def
  0 fontsize 2 div neg rmoveto
} def

% Lower the text baseline for subscripts.
% -- lower --
/lower {
  0 fontsize 3 div neg rmoveto
  /fontsize fontsize 2 mul 3 div def
  currentfont /FontName get fontsize sf
} def

% Un-lower the text baseline for subscripts.
% -- unlower --
/unlower {
  /fontsize fontsize 1.5 mul def
  0 fontsize 3 div rmoveto
} def

% Compare the top two elements on the stack and leave only the
% larger one.
/maxval {2 copy gt {pop} {exch pop} ifelse} def

% Tokenize a string.  Do not use the usual PostScript token because
% parentheses will not be interpreted correctly because of rescanning
% of the string.
/vg&token {/vg&string exch def /vg&index -1 def /vg&level 0 def
0 2 vg&string length 2 sub {
  dup dup 1 add exch vg&string exch get 8 bitshift vg&string 3 -1 roll get or
  dup 16#f0fe eq {pop 1}{16#f0ff eq {-1}{0} ifelse} ifelse
  /vg&level exch vg&level add def
  vg&level 0 eq {/vg&index exch def exit} if pop
} for
vg&index 0 ge {
  vg&string vg&index 2 add dup vg&string length exch sub getinterval
  vg&index 2 gt {vg&string 2 vg&index 2 sub getinterval}{()} ifelse
  true}
{false} ifelse
} bind def

% Recursively show an unicode string.
% <string> recshow --
/recshow {
  popfirst
  {
    % Test to see if this is a string attribute.
    vg&fbyte 16#f0 and 16#e0 eq
    {
      q

      % Font style.
      currentfont dup /FontStyleBits known {/FontStyleBits get}{pop 0} ifelse
      vg&cbyte or vg&fontstyles exch get fontsize exch exec

      vg&token pop recshow currentpoint Q m recshow
    }
    {
      vg&fbyte 16#F8 and 16#F0 eq {

        % Superscript and/or subscript.
        vg&cbyte 16#00 eq {
          vg&token pop exch vg&token pop 3 -1 roll
          q raise recshow unraise currentpoint pop Q exch
          q lower recshow unlower currentpoint pop Q
          maxval currentpoint exch pop m recshow } if

        % Strikeout.
        vg&cbyte 16#01 eq {
          vg&token pop currentpoint 3 -1 roll recshow
          q 0 J vg&underline vg&uthick w
          currentpoint 4 -2 roll fontsize 3 div add moveto
          fontsize 3 div add lineto internalstroke Q
          recshow} if

        % Underline.
        vg&cbyte 16#02 eq {
          vg&token pop currentpoint 3 -1 roll recshow
          q 0 J vg&underline vg&uthick w
          currentpoint 4 -2 roll vg&uoffset add moveto
          vg&uoffset add lineto internalstroke Q
          recshow} if

        % Dashed underline.
        vg&cbyte 16#03 eq {
          vg&token pop currentpoint 3 -1 roll recshow
          q 0 J [ vg&uthick 5 mul vg&uthick 2 mul] 0 d
          vg&underline vg&uthick w
          currentpoint 4 -2 roll vg&uoffset add moveto
          vg&uoffset add lineto internalstroke Q
          recshow} if

        % Dotted underline.
        vg&cbyte 16#04 eq {
          vg&token pop currentpoint 3 -1 roll recshow
          q 1 J [ 0 vg&uthick 3 mul] 0 d
          vg&underline vg&uthick w
          currentpoint 4 -2 roll vg&uoffset add moveto
          vg&uoffset add lineto internalstroke Q
          recshow} if

        % Thick underline.
        vg&cbyte 16#05 eq {
          vg&token pop currentpoint 3 -1 roll recshow
          q 0 J vg&underline vg&uthick 2 mul w
          currentpoint 4 -2 roll vg&uoffset vg&uthick 2 div sub add moveto
          vg&uoffset vg&uthick 2 div sub add lineto internalstroke Q
          recshow} if

        % Gray thick underline.
        vg&cbyte 16#06 eq {
          vg&token pop currentpoint 3 -1 roll recshow
          q 0 J vg&underline vg&uthick 2 mul w 0.5 setgray
          currentpoint 4 -2 roll vg&uoffset vg&uthick 2 div sub add moveto
          vg&uoffset vg&uthick 2 div sub add lineto internalstroke Q
          recshow} if

        % Overbar.
        vg&cbyte 16#07 eq {
          vg&token pop dup stringsize relative 4 1 roll pop pop exch
          3 -1 roll recshow
          q 0 J vg&underline vg&uthick w
          vg&uoffset neg add dup currentpoint pop exch m l internalstroke Q
          recshow} if
      }
      {
        vg&fbyte vg&cbyte unicharshow recshow
      } ifelse
    } ifelse
  } if
} def

% Get the underline position and thickness from the current font.
/vg&underline {

currentfont dup /FontType get 0 eq {/FDepVector get 0 get} if
dup dup /FontInfo known {
  /FontInfo get dup
  dup /UnderlinePosition known {
    /UnderlinePosition get /vg&uoffset exch def
  }
  {
    pop /vg&uoffset 0 def
  } ifelse
  dup /UnderlineThickness known {
    /UnderlineThickness get /vg&uthick exch def
  }
  {
    pop /vg&uthick 0 def
  } ifelse
}
{
  pop /vg&uoffset 0 def /vg&uthick 0 def
} ifelse
/FontMatrix get
currentfont dup /FontType get 0 eq
{/FontMatrix get matrix concatmatrix}{pop} ifelse
dup 0 vg&uoffset 3 -1 roll transform /vg&uoffset exch def pop
0 vg&uthick 3 -1 roll transform /vg&uthick exch def pop
} def

% Make a frame with the coordinates on the stack.
% <llx> <lly> <urx> <ury> frame --
/frame {4 copy m 3 1 roll exch l 4 -2 roll l l h} def

% Resets the accumulated bounding box to a degenerate box at the
% current point.
% -- resetbbox --
/resetbbox {
  currentpoint 2 copy
  /bbury exch def
  /bburx exch def
  /bblly exch def
  /bbllx exch def
} def

% Update the accumulated bounding box.
% <llx'> <lly'> <urx'> <ury'> updatebbox --
/updatebbox {
  dup bbury gt {/bbury exch def} {pop} ifelse
  dup bburx gt {/bburx exch def} {pop} ifelse
  dup bblly lt {/bblly exch def} {pop} ifelse
  dup bbllx lt {/bbllx exch def} {pop} ifelse
} def

% Set the bounding box to the values on the stack.
% <llx'> <lly'> <urx'> <ury'> updatebbox --
/restorebbox {
  /bbury exch def /bburx exch def /bblly exch def /bbllx exch def
} def

% Push the accumulated bounding box onto the stack.
% -- pushbbox <llx> <lly> <urx> <ury>
/pushbbox {bbllx bblly bburx bbury} def

% Make the relative bounding box relative to the currentpoint.
% <llx'> <lly'> <urx'> <ury'> inflate <llx> <lly> <urx> <ury>
/inflate {
  2 {fontsize 0.2 mul add 4 1 roll} repeat
  2 {fontsize 0.2 mul sub 4 1 roll} repeat
} def

% Make the relative bounding box relative to the currentpoint.
% <llx'> <lly'> <urx'> <ury'> relative <llx> <lly> <urx> <ury>
/relative {
  currentpoint 3 -1 roll add 3 1 roll add exch 4 2 roll
  currentpoint 3 -1 roll add 3 1 roll add exch 4 2 roll
} def

% Returns the size of a string appropriate for recshow.
% <string> stringsize <llx> <lly> <urx> <ury>
/stringsize {
  pushbbox /internalshow load /internalstroke load 7 -1 roll
  q
  nulldevice 0 0 m
  nullinternalshow nullinternalstroke
  resetbbox
  recshow
  /internalstroke exch def /internalshow exch def
  pushbbox 8 -4 roll restorebbox
  Q
} def

% Calculate values for string positioning.
/calcval {4 copy
  3 -1 roll sub /widy exch def sub neg /widx exch def
  pop pop /dy exch def /dx exch def} def

% Utilities to position a string.
% First letter (U=upper, C=center, B=baseline, L=lower)
% Second letter (L=left, C=center, R=right)
/align [
{calcval dx neg widy dy add neg rmoveto} % UL
{calcval dx neg widy 2 div dy add neg rmoveto} % CL
{calcval dx neg 0 rmoveto} % BL
{calcval dx neg dy neg rmoveto} % LL
{calcval widx dx add neg widy dy add neg rmoveto} % UR
{calcval widx dx add neg widy 2 div dy add neg rmoveto} % CR
{calcval widx dx add neg 0 rmoveto} % BR
{calcval widx dx add neg dy neg rmoveto} % LR
{calcval widx 2 div dx add neg widy dy add neg rmoveto} % UC
{calcval widx 2 div dx add neg widy 2 div dy add neg rmoveto} % CC
{calcval widx 2 div dx add neg 0 rmoveto} % BC
{calcval widx 2 div dx add neg dy neg rmoveto} % LC
] def

/vg&str {m q 1 -1 scale dup stringsize 4 copy align 11 -1 roll get exec
         q inflate relative frame exch exec Q recshow Q} def

end /procDict exch def
%%EndProlog

%%BeginSetup
save
procDict begin
printColorMap begin
367 316 setpagesize
0 0 0 0 setmargins
0 0 setorigin
367 316 setsize
naturalsize
portrait
imagescale
cliptobounds
setbasematrix
/Helvetica 10 sf
defaultGraphicsState
%%EndSetup

0.00000 0.00000 0.00000 RG
[ 1.00000 0.00000 0.00000 1.00000 0.00000 0.00000 ] defaultmatrix matrix concatmatrix setmatrix
cliprestore
1.00000 1.00000 1.00000 RG
newpath
0.00000 0.00000 m
367.000 0.00000 l
367.000 316.000 l
0.00000 316.000 l
0.00000 0.00000 l
h
f
0.00000 0.00000 0.00000 RG
0.00000 0.00000 0.00000 RG
[ 1.00000 0.00000 0.00000 1.00000 0.00000 0.00000 ] defaultmatrix matrix concatmatrix setmatrix
cliprestore
1.00000 1.00000 1.00000 RG
newpath
0.00000 0.00000 m
367.000 0.00000 l
367.000 316.000 l
0.00000 316.000 l
0.00000 0.00000 l
h
f
0.00000 0.00000 0.00000 RG
0 0 367 316 rc
q
[ 1.00000 0.00000 0.00000 1.00000 0.00000 0.00000 ] concat
[ 1.00000 0.00000 0.00000 1.00000 -162.000 -61.0000 ] concat
1.00000 1.00000 1.00000 RG
newpath
162.000 61.0000 m
529.000 61.0000 l
529.000 377.000 l
162.000 377.000 l
162.000 61.0000 l
h
f
0.00000 0.00000 0.00000 RG
[ 1.00000 0.00000 0.00000 1.00000 -162.000 -61.0000 ] defaultmatrix matrix concatmatrix setmatrix
[ 1.00000 0.00000 0.00000 1.00000 -162.000 -61.0000 ] defaultmatrix matrix concatmatrix setmatrix
[ 1.00000 0.00000 0.00000 1.00000 0.00000 0.00000 ] defaultmatrix matrix concatmatrix setmatrix
[ 1.00000 0.00000 0.00000 1.00000 -162.000 -61.0000 ] defaultmatrix matrix concatmatrix setmatrix
1.00000 .800000 0.00000 RG
newpath
302.500 76.0000 m
388.500 76.0000 l
388.500 106.000 l
302.500 106.000 l
302.500 76.0000 l
h
f
0 J
1.45000 M
0.00000 0.00000 0.00000 RG
newpath
302.500 76.0000 m
388.500 76.0000 l
388.500 106.000 l
302.500 106.000 l
302.500 76.0000 l
h
S
2 J
10.0000 M
0 J
1.45000 M
newpath
331.675 95.5352 m
328.399 86.8633 l
329.630 86.8633 l
332.313 93.9648 l
334.903 86.8633 l
335.981 86.8633 l
332.835 95.5352 l
h
337.188 95.5352 m
337.188 89.1719 l
338.343 89.1719 l
338.343 95.5352 l
h
337.188 88.0176 m
337.188 86.8633 l
338.343 86.8633 l
338.343 88.0176 l
h
340.657 95.5352 m
340.657 89.1719 l
341.812 89.1719 l
341.812 90.3672 l
342.269 89.4766 342.933 89.0312 343.804 89.0312  c
343.921 89.0312 344.044 89.0410 344.173 89.0605  c
344.173 90.1387 l
343.974 90.0723 343.798 90.0391 343.646 90.0391  c
342.915 90.0391 342.304 90.4727 341.812 91.3398  c
341.812 95.5352 l
h
345.591 97.6504 m
345.726 96.6484 l
346.394 96.9648 347.052 97.1230 347.700 97.1230  c
349.001 97.1230 349.651 96.4336 349.651 95.0547  c
349.651 94.0527 l
349.226 94.9434 348.526 95.3887 347.554 95.3887  c
346.792 95.3887 346.187 95.1113 345.737 94.5566  c
345.288 94.0020 345.063 93.2539 345.063 92.3125  c
345.063 91.3438 345.319 90.5547 345.831 89.9453  c
346.343 89.3359 347.005 89.0312 347.817 89.0312  c
348.528 89.0312 349.140 89.3203 349.651 89.8984  c
349.651 89.1719 l
350.812 89.1719 l
350.812 93.8008 l
350.812 94.7969 350.760 95.5342 350.656 96.0127  c
350.553 96.4912 350.358 96.8828 350.073 97.1875  c
349.569 97.7227 348.786 97.9902 347.724 97.9902  c
346.981 97.9902 346.271 97.8770 345.591 97.6504  c
h
349.651 93.3320 m
349.651 90.6895 l
349.144 90.1621 348.591 89.8984 347.993 89.8984  c
347.462 89.8984 347.046 90.1113 346.745 90.5371  c
346.444 90.9629 346.294 91.5469 346.294 92.2891  c
346.294 93.6836 346.784 94.3809 347.765 94.3809  c
348.433 94.3809 349.062 94.0312 349.651 93.3320  c
h
353.050 95.5352 m
353.050 89.1719 l
354.204 89.1719 l
354.204 95.5352 l
h
353.050 88.0176 m
353.050 86.8633 l
354.204 86.8633 l
354.204 88.0176 l
h
356.519 95.5352 m
356.519 89.1719 l
357.673 89.1719 l
357.673 90.3672 l
358.282 89.4766 359.028 89.0312 359.911 89.0312  c
360.462 89.0312 360.901 89.2061 361.229 89.5557  c
361.558 89.9053 361.722 90.3750 361.722 90.9648  c
361.722 95.5352 l
360.567 95.5352 l
360.567 91.3398 l
360.567 90.8672 360.498 90.5303 360.359 90.3291  c
360.221 90.1279 359.991 90.0273 359.671 90.0273  c
358.964 90.0273 358.298 90.4902 357.673 91.4160  c
357.673 95.5352 l
h
f
2 J
10.0000 M
1.00000 .800000 0.00000 RG
newpath
177.000 203.000 m
263.000 203.000 l
263.000 233.000 l
177.000 233.000 l
177.000 203.000 l
h
f
0 J
1.45000 M
0.00000 0.00000 0.00000 RG
newpath
177.000 203.000 m
263.000 203.000 l
263.000 233.000 l
177.000 233.000 l
177.000 203.000 l
h
S
2 J
10.0000 M
0 J
1.45000 M
newpath
210.517 222.535 m
210.517 214.783 l
207.440 214.783 l
207.440 213.863 l
214.823 213.863 l
214.823 214.783 l
211.747 214.783 l
211.747 222.535 l
h
219.358 221.727 m
218.667 222.363 218.001 222.682 217.360 222.682  c
216.833 222.682 216.396 222.517 216.048 222.187  c
215.700 221.856 215.526 221.439 215.526 220.936  c
215.526 220.240 215.818 219.706 216.402 219.333  c
216.986 218.960 217.823 218.773 218.913 218.773  c
219.188 218.773 l
219.188 218.006 l
219.188 217.268 218.810 216.898 218.052 216.898  c
217.442 216.898 216.784 217.086 216.077 217.461  c
216.077 216.506 l
216.854 216.189 217.583 216.031 218.263 216.031  c
218.974 216.031 219.498 216.191 219.836 216.512  c
220.174 216.832 220.343 217.330 220.343 218.006  c
220.343 220.889 l
220.343 221.549 220.546 221.879 220.952 221.879  c
221.003 221.879 221.077 221.871 221.175 221.855  c
221.257 222.494 l
220.995 222.619 220.706 222.682 220.390 222.682  c
219.851 222.682 219.507 222.363 219.358 221.727  c
h
219.188 221.100 m
219.188 219.453 l
218.802 219.441 l
218.169 219.441 217.657 219.562 217.267 219.802  c
216.876 220.042 216.681 220.357 216.681 220.748  c
216.681 221.025 216.778 221.260 216.974 221.451  c
217.169 221.643 217.407 221.738 217.688 221.738  c
218.169 221.738 218.669 221.525 219.188 221.100  c
h
224.614 222.682 m
224.028 222.682 223.571 222.514 223.243 222.178  c
222.915 221.842 222.751 221.375 222.751 220.777  c
222.751 217.039 l
221.954 217.039 l
221.954 216.172 l
222.751 216.172 l
222.751 215.018 l
223.905 214.906 l
223.905 216.172 l
225.569 216.172 l
225.569 217.039 l
223.905 217.039 l
223.905 220.566 l
223.905 221.398 224.265 221.814 224.983 221.814  c
225.136 221.814 225.321 221.789 225.540 221.738  c
225.540 222.535 l
225.185 222.633 224.876 222.682 224.614 222.682  c
h
230.474 221.727 m
229.782 222.363 229.116 222.682 228.476 222.682  c
227.948 222.682 227.511 222.517 227.163 222.187  c
226.815 221.856 226.642 221.439 226.642 220.936  c
226.642 220.240 226.934 219.706 227.518 219.333  c
228.102 218.960 228.938 218.773 230.028 218.773  c
230.304 218.773 l
230.304 218.006 l
230.304 217.268 229.925 216.898 229.167 216.898  c
228.558 216.898 227.899 217.086 227.192 217.461  c
227.192 216.506 l
227.970 216.189 228.698 216.031 229.378 216.031  c
230.089 216.031 230.613 216.191 230.951 216.512  c
231.289 216.832 231.458 217.330 231.458 218.006  c
231.458 220.889 l
231.458 221.549 231.661 221.879 232.067 221.879  c
232.118 221.879 232.192 221.871 232.290 221.855  c
232.372 222.494 l
232.110 222.619 231.821 222.682 231.505 222.682  c
230.966 222.682 230.622 222.363 230.474 221.727  c
h
230.304 221.100 m
230.304 219.453 l
229.917 219.441 l
229.284 219.441 228.772 219.562 228.382 219.802  c
227.991 220.042 227.796 220.357 227.796 220.748  c
227.796 221.025 227.894 221.260 228.089 221.451  c
228.284 221.643 228.522 221.738 228.804 221.738  c
229.284 221.738 229.784 221.525 230.304 221.100  c
h
f
2 J
10.0000 M
1.00000 .800000 0.00000 RG
newpath
428.000 203.000 m
514.000 203.000 l
514.000 233.000 l
428.000 233.000 l
428.000 203.000 l
h
f
0 J
1.45000 M
0.00000 0.00000 0.00000 RG
newpath
428.000 203.000 m
514.000 203.000 l
514.000 233.000 l
428.000 233.000 l
428.000 203.000 l
h
S
2 J
10.0000 M
0 J
1.45000 M
newpath
464.874 222.535 m
464.874 213.863 l
467.124 213.863 l
467.991 213.863 468.656 214.027 469.119 214.355  c
469.582 214.684 469.813 215.156 469.813 215.773  c
469.813 216.824 469.220 217.572 468.032 218.018  c
469.450 218.451 470.159 219.234 470.159 220.367  c
470.159 221.070 469.925 221.607 469.456 221.979  c
468.987 222.350 468.312 222.535 467.429 222.535  c
h
466.093 221.615 m
466.345 221.615 l
467.247 221.615 467.831 221.559 468.097 221.445  c
468.604 221.230 468.858 220.832 468.858 220.250  c
468.858 219.734 468.628 219.306 468.167 218.964  c
467.706 218.622 467.130 218.451 466.438 218.451  c
466.093 218.451 l
h
466.093 217.672 m
466.485 217.672 l
467.142 217.672 467.650 217.531 468.012 217.250  c
468.373 216.969 468.554 216.572 468.554 216.061  c
468.554 215.209 467.894 214.783 466.573 214.783  c
466.093 214.783 l
h
473.839 222.535 m
473.839 214.783 l
470.763 214.783 l
470.763 213.863 l
478.146 213.863 l
478.146 214.783 l
475.069 214.783 l
475.069 222.535 l
h
f
2 J
10.0000 M
1.00000 .800000 0.00000 RG
newpath
177.000 330.000 m
263.000 330.000 l
263.000 360.000 l
177.000 360.000 l
177.000 330.000 l
h
f
0 J
1.45000 M
0.00000 0.00000 0.00000 RG
newpath
177.000 330.000 m
263.000 330.000 l
263.000 360.000 l
177.000 360.000 l
177.000 330.000 l
h
S
2 J
10.0000 M
0 J
1.45000 M
newpath
203.374 349.752 m
202.171 349.752 201.203 349.335 200.471 348.501  c
199.738 347.667 199.372 346.564 199.372 345.193  c
199.372 343.814 199.740 342.712 200.477 341.886  c
201.213 341.060 202.196 340.646 203.427 340.646  c
204.653 340.646 205.636 341.059 206.374 341.883  c
207.112 342.707 207.481 343.807 207.481 345.182  c
207.481 346.584 207.112 347.696 206.374 348.519  c
205.636 349.341 204.636 349.752 203.374 349.752  c
h
203.392 348.832 m
204.278 348.832 204.964 348.513 205.448 347.874  c
205.933 347.235 206.175 346.334 206.175 345.170  c
206.175 344.041 205.932 343.158 205.445 342.521  c
204.959 341.885 204.286 341.566 203.427 341.566  c
202.563 341.566 201.890 341.886 201.405 342.524  c
200.921 343.163 200.679 344.051 200.679 345.188  c
200.679 346.320 200.919 347.211 201.399 347.859  c
201.880 348.508 202.544 348.832 203.392 348.832  c
h
209.239 349.535 m
209.239 343.172 l
210.394 343.172 l
210.394 344.367 l
210.851 343.477 211.515 343.031 212.386 343.031  c
212.503 343.031 212.626 343.041 212.755 343.061  c
212.755 344.139 l
212.556 344.072 212.380 344.039 212.228 344.039  c
211.497 344.039 210.886 344.473 210.394 345.340  c
210.394 349.535 l
h
217.431 348.727 m
216.739 349.363 216.073 349.682 215.433 349.682  c
214.905 349.682 214.468 349.517 214.120 349.187  c
213.772 348.856 213.599 348.439 213.599 347.936  c
213.599 347.240 213.891 346.706 214.475 346.333  c
215.059 345.960 215.896 345.773 216.985 345.773  c
217.261 345.773 l
217.261 345.006 l
217.261 344.268 216.882 343.898 216.124 343.898  c
215.515 343.898 214.856 344.086 214.149 344.461  c
214.149 343.506 l
214.927 343.189 215.655 343.031 216.335 343.031  c
217.046 343.031 217.570 343.191 217.908 343.512  c
218.246 343.832 218.415 344.330 218.415 345.006  c
218.415 347.889 l
218.415 348.549 218.618 348.879 219.024 348.879  c
219.075 348.879 219.149 348.871 219.247 348.855  c
219.329 349.494 l
219.067 349.619 218.778 349.682 218.462 349.682  c
217.923 349.682 217.579 349.363 217.431 348.727  c
h
217.261 348.100 m
217.261 346.453 l
216.874 346.441 l
216.241 346.441 215.729 346.562 215.339 346.802  c
214.948 347.042 214.753 347.357 214.753 347.748  c
214.753 348.025 214.851 348.260 215.046 348.451  c
215.241 348.643 215.479 348.738 215.761 348.738  c
216.241 348.738 216.741 348.525 217.261 348.100  c
h
220.776 349.535 m
220.776 343.172 l
221.931 343.172 l
221.931 344.367 l
222.540 343.477 223.286 343.031 224.169 343.031  c
224.720 343.031 225.159 343.206 225.487 343.556  c
225.815 343.905 225.979 344.375 225.979 344.965  c
225.979 349.535 l
224.825 349.535 l
224.825 345.340 l
224.825 344.867 224.756 344.530 224.617 344.329  c
224.479 344.128 224.249 344.027 223.929 344.027  c
223.222 344.027 222.556 344.490 221.931 345.416  c
221.931 349.535 l
h
228.247 351.650 m
228.382 350.648 l
229.050 350.965 229.708 351.123 230.356 351.123  c
231.657 351.123 232.308 350.434 232.308 349.055  c
232.308 348.053 l
231.882 348.943 231.183 349.389 230.210 349.389  c
229.448 349.389 228.843 349.111 228.394 348.557  c
227.944 348.002 227.720 347.254 227.720 346.312  c
227.720 345.344 227.976 344.555 228.487 343.945  c
228.999 343.336 229.661 343.031 230.474 343.031  c
231.185 343.031 231.796 343.320 232.308 343.898  c
232.308 343.172 l
233.468 343.172 l
233.468 347.801 l
233.468 348.797 233.416 349.534 233.312 350.013  c
233.209 350.491 233.015 350.883 232.729 351.188  c
232.226 351.723 231.442 351.990 230.380 351.990  c
229.638 351.990 228.927 351.877 228.247 351.650  c
h
232.308 347.332 m
232.308 344.689 l
231.800 344.162 231.247 343.898 230.649 343.898  c
230.118 343.898 229.702 344.111 229.401 344.537  c
229.101 344.963 228.950 345.547 228.950 346.289  c
228.950 347.684 229.440 348.381 230.421 348.381  c
231.089 348.381 231.718 348.031 232.308 347.332  c
h
240.370 349.330 m
239.597 349.564 238.935 349.682 238.384 349.682  c
237.446 349.682 236.682 349.370 236.090 348.747  c
235.498 348.124 235.202 347.316 235.202 346.324  c
235.202 345.359 235.463 344.568 235.984 343.951  c
236.506 343.334 237.173 343.025 237.985 343.025  c
238.755 343.025 239.350 343.299 239.770 343.846  c
240.189 344.393 240.399 345.170 240.399 346.178  c
240.394 346.535 l
236.380 346.535 l
236.548 348.047 237.288 348.803 238.601 348.803  c
239.081 348.803 239.671 348.674 240.370 348.416  c
h
236.433 345.668 m
239.239 345.668 l
239.239 344.484 238.798 343.893 237.915 343.893  c
237.028 343.893 236.534 344.484 236.433 345.668  c
h
f
2 J
10.0000 M
1.00000 .800000 0.00000 RG
newpath
428.000 330.000 m
514.000 330.000 l
514.000 360.000 l
428.000 360.000 l
428.000 330.000 l
h
f
0 J
1.45000 M
0.00000 0.00000 0.00000 RG
newpath
428.000 330.000 m
514.000 330.000 l
514.000 360.000 l
428.000 360.000 l
428.000 330.000 l
h
S
2 J
10.0000 M
0 J
1.45000 M
newpath
446.830 349.535 m
443.555 340.863 l
444.785 340.863 l
447.469 347.965 l
450.059 340.863 l
451.137 340.863 l
447.990 349.535 l
h
454.834 349.682 m
453.924 349.682 453.197 349.380 452.654 348.776  c
452.111 348.173 451.840 347.365 451.840 346.354  c
451.840 345.330 452.112 344.521 452.657 343.925  c
453.202 343.329 453.941 343.031 454.875 343.031  c
455.809 343.031 456.548 343.329 457.093 343.925  c
457.638 344.521 457.910 345.326 457.910 346.342  c
457.910 347.381 457.637 348.197 457.090 348.791  c
456.543 349.385 455.791 349.682 454.834 349.682  c
h
454.852 348.814 m
456.074 348.814 456.686 347.990 456.686 346.342  c
456.686 344.713 456.082 343.898 454.875 343.898  c
453.672 343.898 453.070 344.717 453.070 346.354  c
453.070 347.994 453.664 348.814 454.852 348.814  c
h
463.799 349.535 m
463.799 348.340 l
463.330 349.234 462.623 349.682 461.678 349.682  c
460.912 349.682 460.310 349.402 459.870 348.844  c
459.431 348.285 459.211 347.521 459.211 346.553  c
459.211 345.494 459.460 344.643 459.958 343.998  c
460.456 343.354 461.111 343.031 461.924 343.031  c
462.678 343.031 463.303 343.320 463.799 343.898  c
463.799 340.283 l
464.959 340.283 l
464.959 349.535 l
h
463.799 344.689 m
463.201 344.162 462.635 343.898 462.100 343.898  c
460.994 343.898 460.441 344.744 460.441 346.436  c
460.441 347.924 460.934 348.668 461.918 348.668  c
462.559 348.668 463.186 348.318 463.799 347.619  c
h
470.549 348.727 m
469.857 349.363 469.191 349.682 468.551 349.682  c
468.023 349.682 467.586 349.517 467.238 349.187  c
466.891 348.856 466.717 348.439 466.717 347.936  c
466.717 347.240 467.009 346.706 467.593 346.333  c
468.177 345.960 469.014 345.773 470.104 345.773  c
470.379 345.773 l
470.379 345.006 l
470.379 344.268 470.000 343.898 469.242 343.898  c
468.633 343.898 467.975 344.086 467.268 344.461  c
467.268 343.506 l
468.045 343.189 468.773 343.031 469.453 343.031  c
470.164 343.031 470.688 343.191 471.026 343.512  c
471.364 343.832 471.533 344.330 471.533 345.006  c
471.533 347.889 l
471.533 348.549 471.736 348.879 472.143 348.879  c
472.193 348.879 472.268 348.871 472.365 348.855  c
472.447 349.494 l
472.186 349.619 471.896 349.682 471.580 349.682  c
471.041 349.682 470.697 349.363 470.549 348.727  c
h
470.379 348.100 m
470.379 346.453 l
469.992 346.441 l
469.359 346.441 468.848 346.562 468.457 346.802  c
468.066 347.042 467.871 347.357 467.871 347.748  c
467.871 348.025 467.969 348.260 468.164 348.451  c
468.359 348.643 468.598 348.738 468.879 348.738  c
469.359 348.738 469.859 348.525 470.379 348.100  c
h
475.271 344.039 m
475.271 349.535 l
474.111 349.535 l
474.111 344.039 l
473.209 344.039 l
473.209 343.172 l
474.111 343.172 l
474.111 342.410 l
474.111 340.895 474.803 340.137 476.186 340.137  c
476.572 340.137 477.012 340.201 477.504 340.330  c
477.504 341.244 l
476.984 341.084 476.568 341.004 476.256 341.004  c
475.877 341.004 475.618 341.095 475.479 341.276  c
475.341 341.458 475.271 341.795 475.271 342.287  c
475.271 343.172 l
476.859 343.172 l
476.859 344.039 l
h
480.797 349.682 m
479.887 349.682 479.160 349.380 478.617 348.776  c
478.074 348.173 477.803 347.365 477.803 346.354  c
477.803 345.330 478.075 344.521 478.620 343.925  c
479.165 343.329 479.904 343.031 480.838 343.031  c
481.771 343.031 482.511 343.329 483.056 343.925  c
483.601 344.521 483.873 345.326 483.873 346.342  c
483.873 347.381 483.600 348.197 483.053 348.791  c
482.506 349.385 481.754 349.682 480.797 349.682  c
h
480.814 348.814 m
482.037 348.814 482.648 347.990 482.648 346.342  c
482.648 344.713 482.045 343.898 480.838 343.898  c
479.635 343.898 479.033 344.717 479.033 346.354  c
479.033 347.994 479.627 348.814 480.814 348.814  c
h
485.678 349.535 m
485.678 343.172 l
486.832 343.172 l
486.832 344.367 l
487.441 343.477 488.188 343.031 489.070 343.031  c
489.621 343.031 490.061 343.206 490.389 343.556  c
490.717 343.905 490.881 344.375 490.881 344.965  c
490.881 349.535 l
489.727 349.535 l
489.727 345.340 l
489.727 344.867 489.657 344.530 489.519 344.329  c
489.380 344.128 489.150 344.027 488.830 344.027  c
488.123 344.027 487.457 344.490 486.832 345.416  c
486.832 349.535 l
h
497.789 349.330 m
497.016 349.564 496.354 349.682 495.803 349.682  c
494.865 349.682 494.101 349.370 493.509 348.747  c
492.917 348.124 492.621 347.316 492.621 346.324  c
492.621 345.359 492.882 344.568 493.403 343.951  c
493.925 343.334 494.592 343.025 495.404 343.025  c
496.174 343.025 496.769 343.299 497.188 343.846  c
497.608 344.393 497.818 345.170 497.818 346.178  c
497.812 346.535 l
493.799 346.535 l
493.967 348.047 494.707 348.803 496.020 348.803  c
496.500 348.803 497.090 348.674 497.789 348.416  c
h
493.852 345.668 m
496.658 345.668 l
496.658 344.484 496.217 343.893 495.334 343.893  c
494.447 343.893 493.953 344.484 493.852 345.668  c
h
f
2 J
10.0000 M
0 J
1.45000 M
newpath
330.677 106.000 m
240.446 197.310 l
S
newpath
234.823 203.000 m
246.814 197.979 l
241.149 196.598 l
239.701 190.950 l
h
f
newpath
259.573 161.350 m
259.573 152.672 l
260.728 152.672 l
260.728 153.867 l
261.200 152.977 261.909 152.531 262.854 152.531  c
263.620 152.531 264.223 152.811 264.662 153.369  c
265.102 153.928 265.321 154.691 265.321 155.660  c
265.321 156.715 265.072 157.565 264.574 158.212  c
264.076 158.858 263.421 159.182 262.608 159.182  c
261.854 159.182 261.228 158.893 260.728 158.314  c
260.728 161.350 l
h
260.728 157.518 m
261.321 158.049 261.888 158.314 262.427 158.314  c
263.536 158.314 264.091 157.469 264.091 155.777  c
264.091 154.285 263.599 153.539 262.614 153.539  c
261.970 153.539 261.341 153.889 260.728 154.588  c
h
267.126 159.035 m
267.126 152.672 l
268.280 152.672 l
268.280 153.867 l
268.737 152.977 269.401 152.531 270.272 152.531  c
270.390 152.531 270.513 152.541 270.642 152.561  c
270.642 153.639 l
270.442 153.572 270.267 153.539 270.114 153.539  c
269.384 153.539 268.772 153.973 268.280 154.840  c
268.280 159.035 l
h
274.526 159.182 m
273.616 159.182 272.890 158.880 272.347 158.276  c
271.804 157.673 271.532 156.865 271.532 155.854  c
271.532 154.830 271.805 154.021 272.350 153.425  c
272.895 152.829 273.634 152.531 274.567 152.531  c
275.501 152.531 276.240 152.829 276.785 153.425  c
277.330 154.021 277.603 154.826 277.603 155.842  c
277.603 156.881 277.329 157.697 276.782 158.291  c
276.235 158.885 275.483 159.182 274.526 159.182  c
h
274.544 158.314 m
275.767 158.314 276.378 157.490 276.378 155.842  c
276.378 154.213 275.774 153.398 274.567 153.398  c
273.364 153.398 272.763 154.217 272.763 155.854  c
272.763 157.494 273.356 158.314 274.544 158.314  c
h
280.726 159.035 m
278.358 152.672 l
279.513 152.672 l
281.364 157.623 l
283.315 152.672 l
284.394 152.672 l
281.880 159.035 l
h
285.618 159.035 m
285.618 152.672 l
286.772 152.672 l
286.772 159.035 l
h
285.618 151.518 m
285.618 150.363 l
286.772 150.363 l
286.772 151.518 l
h
293.171 159.035 m
293.171 157.840 l
292.702 158.734 291.995 159.182 291.050 159.182  c
290.284 159.182 289.682 158.902 289.242 158.344  c
288.803 157.785 288.583 157.021 288.583 156.053  c
288.583 154.994 288.832 154.143 289.330 153.498  c
289.828 152.854 290.483 152.531 291.296 152.531  c
292.050 152.531 292.675 152.820 293.171 153.398  c
293.171 149.783 l
294.331 149.783 l
294.331 159.035 l
h
293.171 154.189 m
292.573 153.662 292.007 153.398 291.472 153.398  c
290.366 153.398 289.813 154.244 289.813 155.936  c
289.813 157.424 290.306 158.168 291.290 158.168  c
291.931 158.168 292.558 157.818 293.171 157.119  c
h
301.304 158.830 m
300.530 159.064 299.868 159.182 299.317 159.182  c
298.380 159.182 297.615 158.870 297.023 158.247  c
296.432 157.624 296.136 156.816 296.136 155.824  c
296.136 154.859 296.396 154.068 296.918 153.451  c
297.439 152.834 298.106 152.525 298.919 152.525  c
299.688 152.525 300.283 152.799 300.703 153.346  c
301.123 153.893 301.333 154.670 301.333 155.678  c
301.327 156.035 l
297.313 156.035 l
297.481 157.547 298.222 158.303 299.534 158.303  c
300.015 158.303 300.604 158.174 301.304 157.916  c
h
297.366 155.168 m
300.173 155.168 l
300.173 153.984 299.731 153.393 298.849 153.393  c
297.962 153.393 297.468 153.984 297.366 155.168  c
h
303.325 159.035 m
303.325 152.672 l
304.479 152.672 l
304.479 153.867 l
304.937 152.977 305.601 152.531 306.472 152.531  c
306.589 152.531 306.712 152.541 306.841 152.561  c
306.841 153.639 l
306.642 153.572 306.466 153.539 306.313 153.539  c
305.583 153.539 304.972 153.973 304.479 154.840  c
304.479 159.035 l
h
f
2 J
10.0000 M
0 J
1.45000 M
newpath
365.946 111.690 m
456.177 203.000 l
S
newpath
360.323 106.000 m
365.201 118.050 l
366.649 112.402 l
372.314 111.021 l
h
f
newpath
384.704 159.182 m
383.845 159.182 383.132 158.863 382.565 158.227  c
381.999 157.590 381.716 156.787 381.716 155.818  c
381.716 154.783 381.996 153.977 382.557 153.398  c
383.117 152.820 383.899 152.531 384.903 152.531  c
385.399 152.531 385.954 152.600 386.567 152.736  c
386.567 153.703 l
385.915 153.512 385.384 153.416 384.974 153.416  c
384.384 153.416 383.910 153.638 383.553 154.081  c
383.195 154.524 383.017 155.115 383.017 155.854  c
383.017 156.568 383.200 157.146 383.567 157.588  c
383.935 158.029 384.415 158.250 385.009 158.250  c
385.536 158.250 386.079 158.115 386.638 157.846  c
386.638 158.842 l
385.892 159.068 385.247 159.182 384.704 159.182  c
h
392.345 159.035 m
392.345 157.840 l
391.731 158.734 390.987 159.182 390.112 159.182  c
389.558 159.182 389.116 159.007 388.788 158.657  c
388.460 158.308 388.296 157.836 388.296 157.242  c
388.296 152.672 l
389.450 152.672 l
389.450 156.867 l
389.450 157.344 389.520 157.683 389.658 157.884  c
389.797 158.085 390.028 158.186 390.353 158.186  c
391.056 158.186 391.720 157.723 392.345 156.797  c
392.345 152.672 l
393.499 152.672 l
393.499 159.035 l
h
397.501 159.182 m
396.974 159.182 396.333 159.059 395.579 158.812  c
395.579 157.752 l
396.333 158.127 396.989 158.314 397.548 158.314  c
397.880 158.314 398.155 158.225 398.374 158.045  c
398.593 157.865 398.702 157.641 398.702 157.371  c
398.702 156.977 398.396 156.650 397.782 156.393  c
397.108 156.105 l
396.112 155.691 395.614 155.096 395.614 154.318  c
395.614 153.764 395.811 153.327 396.203 153.009  c
396.596 152.690 397.134 152.531 397.817 152.531  c
398.173 152.531 398.612 152.580 399.136 152.678  c
399.376 152.725 l
399.376 153.686 l
398.731 153.494 398.220 153.398 397.841 153.398  c
397.099 153.398 396.728 153.668 396.728 154.207  c
396.728 154.555 397.009 154.848 397.571 155.086  c
398.128 155.320 l
398.757 155.586 399.202 155.866 399.464 156.161  c
399.726 156.456 399.856 156.824 399.856 157.266  c
399.856 157.824 399.636 158.283 399.194 158.643  c
398.753 159.002 398.188 159.182 397.501 159.182  c
h
403.841 159.182 m
403.255 159.182 402.798 159.014 402.470 158.678  c
402.142 158.342 401.978 157.875 401.978 157.277  c
401.978 153.539 l
401.181 153.539 l
401.181 152.672 l
401.978 152.672 l
401.978 151.518 l
403.132 151.406 l
403.132 152.672 l
404.796 152.672 l
404.796 153.539 l
403.132 153.539 l
403.132 157.066 l
403.132 157.898 403.491 158.314 404.210 158.314  c
404.362 158.314 404.548 158.289 404.767 158.238  c
404.767 159.035 l
404.411 159.133 404.103 159.182 403.841 159.182  c
h
408.909 159.182 m
407.999 159.182 407.272 158.880 406.729 158.276  c
406.187 157.673 405.915 156.865 405.915 155.854  c
405.915 154.830 406.188 154.021 406.732 153.425  c
407.277 152.829 408.017 152.531 408.950 152.531  c
409.884 152.531 410.623 152.829 411.168 153.425  c
411.713 154.021 411.985 154.826 411.985 155.842  c
411.985 156.881 411.712 157.697 411.165 158.291  c
410.618 158.885 409.866 159.182 408.909 159.182  c
h
408.927 158.314 m
410.149 158.314 410.761 157.490 410.761 155.842  c
410.761 154.213 410.157 153.398 408.950 153.398  c
407.747 153.398 407.146 154.217 407.146 155.854  c
407.146 157.494 407.739 158.314 408.927 158.314  c
h
413.790 159.035 m
413.790 152.672 l
414.944 152.672 l
414.944 153.867 l
415.507 152.977 416.229 152.531 417.112 152.531  c
417.964 152.531 418.544 152.977 418.853 153.867  c
419.399 152.973 420.110 152.525 420.985 152.525  c
421.548 152.525 421.983 152.690 422.292 153.021  c
422.601 153.351 422.755 153.812 422.755 154.406  c
422.755 159.035 l
421.595 159.035 l
421.595 154.588 l
421.595 153.861 421.308 153.498 420.733 153.498  c
420.136 153.498 419.509 153.922 418.853 154.770  c
418.853 159.035 l
417.692 159.035 l
417.692 154.588 l
417.692 153.857 417.399 153.492 416.813 153.492  c
416.231 153.492 415.608 153.918 414.944 154.770  c
414.944 159.035 l
h
429.657 158.830 m
428.884 159.064 428.222 159.182 427.671 159.182  c
426.733 159.182 425.969 158.870 425.377 158.247  c
424.785 157.624 424.489 156.816 424.489 155.824  c
424.489 154.859 424.750 154.068 425.271 153.451  c
425.793 152.834 426.460 152.525 427.272 152.525  c
428.042 152.525 428.637 152.799 429.057 153.346  c
429.477 153.893 429.687 154.670 429.687 155.678  c
429.681 156.035 l
425.667 156.035 l
425.835 157.547 426.575 158.303 427.888 158.303  c
428.368 158.303 428.958 158.174 429.657 157.916  c
h
425.720 155.168 m
428.526 155.168 l
428.526 153.984 428.085 153.393 427.202 153.393  c
426.315 153.393 425.821 153.984 425.720 155.168  c
h
431.679 159.035 m
431.679 152.672 l
432.833 152.672 l
432.833 153.867 l
433.290 152.977 433.954 152.531 434.825 152.531  c
434.942 152.531 435.065 152.541 435.194 152.561  c
435.194 153.639 l
434.995 153.572 434.819 153.539 434.667 153.539  c
433.937 153.539 433.325 153.973 432.833 154.840  c
432.833 159.035 l
h
f
2 J
10.0000 M
0 J
1.45000 M
newpath
263.000 218.000 m
428.000 218.000 l
S
newpath
f
newpath
333.737 231.916 m
333.737 223.238 l
334.892 223.238 l
334.892 224.434 l
335.364 223.543 336.073 223.098 337.019 223.098  c
337.784 223.098 338.387 223.377 338.826 223.936  c
339.266 224.494 339.485 225.258 339.485 226.227  c
339.485 227.281 339.236 228.132 338.738 228.778  c
338.240 229.425 337.585 229.748 336.772 229.748  c
336.019 229.748 335.392 229.459 334.892 228.881  c
334.892 231.916 l
h
334.892 228.084 m
335.485 228.615 336.052 228.881 336.591 228.881  c
337.700 228.881 338.255 228.035 338.255 226.344  c
338.255 224.852 337.763 224.105 336.778 224.105  c
336.134 224.105 335.505 224.455 334.892 225.154  c
h
345.954 229.396 m
345.181 229.631 344.519 229.748 343.968 229.748  c
343.030 229.748 342.266 229.437 341.674 228.813  c
341.082 228.190 340.786 227.383 340.786 226.391  c
340.786 225.426 341.047 224.635 341.568 224.018  c
342.090 223.400 342.757 223.092 343.569 223.092  c
344.339 223.092 344.934 223.365 345.354 223.912  c
345.773 224.459 345.983 225.236 345.983 226.244  c
345.978 226.602 l
341.964 226.602 l
342.132 228.113 342.872 228.869 344.185 228.869  c
344.665 228.869 345.255 228.740 345.954 228.482  c
h
342.017 225.734 m
344.823 225.734 l
344.823 224.551 344.382 223.959 343.499 223.959  c
342.612 223.959 342.118 224.551 342.017 225.734  c
h
352.640 229.396 m
351.866 229.631 351.204 229.748 350.653 229.748  c
349.716 229.748 348.951 229.437 348.359 228.813  c
347.768 228.190 347.472 227.383 347.472 226.391  c
347.472 225.426 347.732 224.635 348.254 224.018  c
348.775 223.400 349.442 223.092 350.255 223.092  c
351.024 223.092 351.619 223.365 352.039 223.912  c
352.459 224.459 352.669 225.236 352.669 226.244  c
352.663 226.602 l
348.649 226.602 l
348.817 228.113 349.558 228.869 350.870 228.869  c
351.351 228.869 351.940 228.740 352.640 228.482  c
h
348.702 225.734 m
351.509 225.734 l
351.509 224.551 351.067 223.959 350.185 223.959  c
349.298 223.959 348.804 224.551 348.702 225.734  c
h
354.661 229.602 m
354.661 223.238 l
355.815 223.238 l
355.815 224.434 l
356.272 223.543 356.937 223.098 357.808 223.098  c
357.925 223.098 358.048 223.107 358.177 223.127  c
358.177 224.205 l
357.978 224.139 357.802 224.105 357.649 224.105  c
356.919 224.105 356.308 224.539 355.815 225.406  c
355.815 229.602 l
h
f
2 J
10.0000 M
0 J
1.45000 M
newpath
220.000 241.000 m
220.000 330.000 l
S
newpath
220.000 233.000 m
215.000 245.000 l
220.000 242.000 l
225.000 245.000 l
h
f
newpath
196.454 286.182 m
195.595 286.182 194.882 285.863 194.315 285.227  c
193.749 284.590 193.466 283.787 193.466 282.818  c
193.466 281.783 193.746 280.977 194.307 280.398  c
194.867 279.820 195.649 279.531 196.653 279.531  c
197.149 279.531 197.704 279.600 198.317 279.736  c
198.317 280.703 l
197.665 280.512 197.134 280.416 196.724 280.416  c
196.134 280.416 195.660 280.638 195.303 281.081  c
194.945 281.524 194.767 282.115 194.767 282.854  c
194.767 283.568 194.950 284.146 195.317 284.588  c
195.685 285.029 196.165 285.250 196.759 285.250  c
197.286 285.250 197.829 285.115 198.388 284.846  c
198.388 285.842 l
197.642 286.068 196.997 286.182 196.454 286.182  c
h
204.095 286.035 m
204.095 284.840 l
203.481 285.734 202.737 286.182 201.862 286.182  c
201.308 286.182 200.866 286.007 200.538 285.657  c
200.210 285.308 200.046 284.836 200.046 284.242  c
200.046 279.672 l
201.200 279.672 l
201.200 283.867 l
201.200 284.344 201.270 284.683 201.408 284.884  c
201.547 285.085 201.778 285.186 202.103 285.186  c
202.806 285.186 203.470 284.723 204.095 283.797  c
204.095 279.672 l
205.249 279.672 l
205.249 286.035 l
h
209.251 286.182 m
208.724 286.182 208.083 286.059 207.329 285.812  c
207.329 284.752 l
208.083 285.127 208.739 285.314 209.298 285.314  c
209.630 285.314 209.905 285.225 210.124 285.045  c
210.343 284.865 210.452 284.641 210.452 284.371  c
210.452 283.977 210.146 283.650 209.532 283.393  c
208.858 283.105 l
207.862 282.691 207.364 282.096 207.364 281.318  c
207.364 280.764 207.561 280.327 207.953 280.009  c
208.346 279.690 208.884 279.531 209.567 279.531  c
209.923 279.531 210.362 279.580 210.886 279.678  c
211.126 279.725 l
211.126 280.686 l
210.481 280.494 209.970 280.398 209.591 280.398  c
208.849 280.398 208.478 280.668 208.478 281.207  c
208.478 281.555 208.759 281.848 209.321 282.086  c
209.878 282.320 l
210.507 282.586 210.952 282.866 211.214 283.161  c
211.476 283.456 211.606 283.824 211.606 284.266  c
211.606 284.824 211.386 285.283 210.944 285.643  c
210.503 286.002 209.938 286.182 209.251 286.182  c
h
215.591 286.182 m
215.005 286.182 214.548 286.014 214.220 285.678  c
213.892 285.342 213.728 284.875 213.728 284.277  c
213.728 280.539 l
212.931 280.539 l
212.931 279.672 l
213.728 279.672 l
213.728 278.518 l
214.882 278.406 l
214.882 279.672 l
216.546 279.672 l
216.546 280.539 l
214.882 280.539 l
214.882 284.066 l
214.882 284.898 215.241 285.314 215.960 285.314  c
216.112 285.314 216.298 285.289 216.517 285.238  c
216.517 286.035 l
216.161 286.133 215.853 286.182 215.591 286.182  c
h
220.659 286.182 m
219.749 286.182 219.022 285.880 218.479 285.276  c
217.937 284.673 217.665 283.865 217.665 282.854  c
217.665 281.830 217.938 281.021 218.482 280.425  c
219.027 279.829 219.767 279.531 220.700 279.531  c
221.634 279.531 222.373 279.829 222.918 280.425  c
223.463 281.021 223.735 281.826 223.735 282.842  c
223.735 283.881 223.462 284.697 222.915 285.291  c
222.368 285.885 221.616 286.182 220.659 286.182  c
h
220.677 285.314 m
221.899 285.314 222.511 284.490 222.511 282.842  c
222.511 281.213 221.907 280.398 220.700 280.398  c
219.497 280.398 218.896 281.217 218.896 282.854  c
218.896 284.494 219.489 285.314 220.677 285.314  c
h
225.540 286.035 m
225.540 279.672 l
226.694 279.672 l
226.694 280.867 l
227.257 279.977 227.979 279.531 228.862 279.531  c
229.714 279.531 230.294 279.977 230.603 280.867  c
231.149 279.973 231.860 279.525 232.735 279.525  c
233.298 279.525 233.733 279.690 234.042 280.021  c
234.351 280.351 234.505 280.812 234.505 281.406  c
234.505 286.035 l
233.345 286.035 l
233.345 281.588 l
233.345 280.861 233.058 280.498 232.483 280.498  c
231.886 280.498 231.259 280.922 230.603 281.770  c
230.603 286.035 l
229.442 286.035 l
229.442 281.588 l
229.442 280.857 229.149 280.492 228.563 280.492  c
227.981 280.492 227.358 280.918 226.694 281.770  c
226.694 286.035 l
h
241.407 285.830 m
240.634 286.064 239.972 286.182 239.421 286.182  c
238.483 286.182 237.719 285.870 237.127 285.247  c
236.535 284.624 236.239 283.816 236.239 282.824  c
236.239 281.859 236.500 281.068 237.021 280.451  c
237.543 279.834 238.210 279.525 239.022 279.525  c
239.792 279.525 240.387 279.799 240.807 280.346  c
241.227 280.893 241.437 281.670 241.437 282.678  c
241.431 283.035 l
237.417 283.035 l
237.585 284.547 238.325 285.303 239.638 285.303  c
240.118 285.303 240.708 285.174 241.407 284.916  c
h
237.470 282.168 m
240.276 282.168 l
240.276 280.984 239.835 280.393 238.952 280.393  c
238.065 280.393 237.571 280.984 237.470 282.168  c
h
243.429 286.035 m
243.429 279.672 l
244.583 279.672 l
244.583 280.867 l
245.040 279.977 245.704 279.531 246.575 279.531  c
246.692 279.531 246.815 279.541 246.944 279.561  c
246.944 280.639 l
246.745 280.572 246.569 280.539 246.417 280.539  c
245.687 280.539 245.075 280.973 244.583 281.840  c
244.583 286.035 l
h
f
2 J
10.0000 M
0 J
1.45000 M
newpath
471.000 233.000 m
471.000 322.000 l
S
newpath
471.000 330.000 m
476.000 318.000 l
471.000 321.000 l
466.000 318.000 l
h
f
newpath
447.823 288.350 m
447.823 279.672 l
448.978 279.672 l
448.978 280.867 l
449.450 279.977 450.159 279.531 451.104 279.531  c
451.870 279.531 452.473 279.811 452.912 280.369  c
453.352 280.928 453.571 281.691 453.571 282.660  c
453.571 283.715 453.322 284.565 452.824 285.212  c
452.326 285.858 451.671 286.182 450.858 286.182  c
450.104 286.182 449.478 285.893 448.978 285.314  c
448.978 288.350 l
h
448.978 284.518 m
449.571 285.049 450.138 285.314 450.677 285.314  c
451.786 285.314 452.341 284.469 452.341 282.777  c
452.341 281.285 451.849 280.539 450.864 280.539  c
450.220 280.539 449.591 280.889 448.978 281.588  c
h
455.376 286.035 m
455.376 279.672 l
456.530 279.672 l
456.530 280.867 l
456.987 279.977 457.651 279.531 458.522 279.531  c
458.640 279.531 458.763 279.541 458.892 279.561  c
458.892 280.639 l
458.692 280.572 458.517 280.539 458.364 280.539  c
457.634 280.539 457.022 280.973 456.530 281.840  c
456.530 286.035 l
h
462.776 286.182 m
461.866 286.182 461.140 285.880 460.597 285.276  c
460.054 284.673 459.782 283.865 459.782 282.854  c
459.782 281.830 460.055 281.021 460.600 280.425  c
461.145 279.829 461.884 279.531 462.817 279.531  c
463.751 279.531 464.490 279.829 465.035 280.425  c
465.580 281.021 465.853 281.826 465.853 282.842  c
465.853 283.881 465.579 284.697 465.032 285.291  c
464.485 285.885 463.733 286.182 462.776 286.182  c
h
462.794 285.314 m
464.017 285.314 464.628 284.490 464.628 282.842  c
464.628 281.213 464.024 280.398 462.817 280.398  c
461.614 280.398 461.013 281.217 461.013 282.854  c
461.013 284.494 461.606 285.314 462.794 285.314  c
h
468.976 286.035 m
466.608 279.672 l
467.763 279.672 l
469.614 284.623 l
471.565 279.672 l
472.644 279.672 l
470.130 286.035 l
h
473.868 286.035 m
473.868 279.672 l
475.022 279.672 l
475.022 286.035 l
h
473.868 278.518 m
473.868 277.363 l
475.022 277.363 l
475.022 278.518 l
h
481.421 286.035 m
481.421 284.840 l
480.952 285.734 480.245 286.182 479.300 286.182  c
478.534 286.182 477.932 285.902 477.492 285.344  c
477.053 284.785 476.833 284.021 476.833 283.053  c
476.833 281.994 477.082 281.143 477.580 280.498  c
478.078 279.854 478.733 279.531 479.546 279.531  c
480.300 279.531 480.925 279.820 481.421 280.398  c
481.421 276.783 l
482.581 276.783 l
482.581 286.035 l
h
481.421 281.189 m
480.823 280.662 480.257 280.398 479.722 280.398  c
478.616 280.398 478.063 281.244 478.063 282.936  c
478.063 284.424 478.556 285.168 479.540 285.168  c
480.181 285.168 480.808 284.818 481.421 284.119  c
h
489.554 285.830 m
488.780 286.064 488.118 286.182 487.567 286.182  c
486.630 286.182 485.865 285.870 485.273 285.247  c
484.682 284.624 484.386 283.816 484.386 282.824  c
484.386 281.859 484.646 281.068 485.168 280.451  c
485.689 279.834 486.356 279.525 487.169 279.525  c
487.938 279.525 488.533 279.799 488.953 280.346  c
489.373 280.893 489.583 281.670 489.583 282.678  c
489.577 283.035 l
485.563 283.035 l
485.731 284.547 486.472 285.303 487.784 285.303  c
488.265 285.303 488.854 285.174 489.554 284.916  c
h
485.616 282.168 m
488.423 282.168 l
488.423 280.984 487.981 280.393 487.099 280.393  c
486.212 280.393 485.718 280.984 485.616 282.168  c
h
491.575 286.035 m
491.575 279.672 l
492.729 279.672 l
492.729 280.867 l
493.187 279.977 493.851 279.531 494.722 279.531  c
494.839 279.531 494.962 279.541 495.091 279.561  c
495.091 280.639 l
494.892 280.572 494.716 280.539 494.563 280.539  c
493.833 280.539 493.222 280.973 492.729 281.840  c
492.729 286.035 l
h
f
2 J
10.0000 M
0 J
1.45000 M
newpath
263.000 345.000 m
428.000 345.000 l
S
newpath
f
newpath
333.737 358.916 m
333.737 350.238 l
334.892 350.238 l
334.892 351.434 l
335.364 350.543 336.073 350.098 337.019 350.098  c
337.784 350.098 338.387 350.377 338.826 350.936  c
339.266 351.494 339.485 352.258 339.485 353.227  c
339.485 354.281 339.236 355.132 338.738 355.778  c
338.240 356.425 337.585 356.748 336.772 356.748  c
336.019 356.748 335.392 356.459 334.892 355.881  c
334.892 358.916 l
h
334.892 355.084 m
335.485 355.615 336.052 355.881 336.591 355.881  c
337.700 355.881 338.255 355.035 338.255 353.344  c
338.255 351.852 337.763 351.105 336.778 351.105  c
336.134 351.105 335.505 351.455 334.892 352.154  c
h
345.954 356.396 m
345.181 356.631 344.519 356.748 343.968 356.748  c
343.030 356.748 342.266 356.437 341.674 355.813  c
341.082 355.190 340.786 354.383 340.786 353.391  c
340.786 352.426 341.047 351.635 341.568 351.018  c
342.090 350.400 342.757 350.092 343.569 350.092  c
344.339 350.092 344.934 350.365 345.354 350.912  c
345.773 351.459 345.983 352.236 345.983 353.244  c
345.978 353.602 l
341.964 353.602 l
342.132 355.113 342.872 355.869 344.185 355.869  c
344.665 355.869 345.255 355.740 345.954 355.482  c
h
342.017 352.734 m
344.823 352.734 l
344.823 351.551 344.382 350.959 343.499 350.959  c
342.612 350.959 342.118 351.551 342.017 352.734  c
h
352.640 356.396 m
351.866 356.631 351.204 356.748 350.653 356.748  c
349.716 356.748 348.951 356.437 348.359 355.813  c
347.768 355.190 347.472 354.383 347.472 353.391  c
347.472 352.426 347.732 351.635 348.254 351.018  c
348.775 350.400 349.442 350.092 350.255 350.092  c
351.024 350.092 351.619 350.365 352.039 350.912  c
352.459 351.459 352.669 352.236 352.669 353.244  c
352.663 353.602 l
348.649 353.602 l
348.817 355.113 349.558 355.869 350.870 355.869  c
351.351 355.869 351.940 355.740 352.640 355.482  c
h
348.702 352.734 m
351.509 352.734 l
351.509 351.551 351.067 350.959 350.185 350.959  c
349.298 350.959 348.804 351.551 348.702 352.734  c
h
354.661 356.602 m
354.661 350.238 l
355.815 350.238 l
355.815 351.434 l
356.272 350.543 356.937 350.098 357.808 350.098  c
357.925 350.098 358.048 350.107 358.177 350.127  c
358.177 351.205 l
357.978 351.139 357.802 351.105 357.649 351.105  c
356.919 351.105 356.308 351.539 355.815 352.406  c
355.815 356.602 l
h
f
2 J
10.0000 M
Q
[ 1.00000 0.00000 0.00000 1.00000 0.00000 0.00000 ] defaultmatrix matrix concatmatrix setmatrix
cliprestore

%%Trailer
%%EOF
