%!PS-Adobe-3.0 EPSF-3.0
%%BoundingBox: 0 0 407 343
%%Creator: yExport 1.5
%%Producer: org.freehep.graphicsio.ps.EPSGraphics2D Revision: 12753 
%%For: 
%%Title: 
%%CreationDate: Thursday, October 19, 2017 3:36:15 PM BST
%%LanguageLevel: 3
%%EndComments
%%BeginProlog
100 dict dup begin

%
% File: org/freehep/graphicsio.ps/PSProlog.txt
% Author: Charles Loomis
%

% Redefinitions which save some space in the output file.  These are also
% the same as the PDF operators.
/q {gsave} def
/Q {grestore} def

/n {newpath} def
/m {moveto} def
/l {lineto} def
/c {curveto} def
/h {closepath} def

/re {4 -2 roll moveto
     dup 0 exch rlineto exch 0 rlineto
     neg 0 exch rlineto closepath} def

/f {fill} def
/f* {eofill} def
/F {gsave vg&FC fill grestore} def
/F* {gsave vg&FC eofill grestore} def

/s {closepath stroke} def
/S {stroke} def

/b {closepath gsave vg&FC fill grestore
    gsave stroke grestore newpath} def
/B {gsave vg&FC fill grestore gsave stroke grestore newpath} def
/b* {closepath gsave vg&FC eofill grestore
    gsave stroke grestore newpath} def
/B* {gsave vg&FC eofill grestore gsave stroke grestore newpath} def

/g {1 array astore /vg&fcolor exch def} def
/G {setgray} def
/k {4 array astore /vg&fcolor exch def} def
/K {setcmykcolor} def
/rg {3 array astore /vg&fcolor exch def} def
/RG {setrgbcolor} def

% Initialize the fill color.
0 0 0 rg

/vg&FC {mark vg&fcolor aload pop
        counttomark 1 eq {G} if
        counttomark 3 eq {RG} if
        counttomark 4 eq {K} if
        cleartomark } def

/vg&DFC {/vg&fcolor exch def} def

/vg&C {mark exch aload pop
       counttomark 1 eq {G} if
       counttomark 3 eq {RG} if
       counttomark 4 eq {K} if
       cleartomark } def

/w {setlinewidth} def
/j {setlinejoin} def
/J {setlinecap} def
/M {setmiterlimit} def
/d {setdash} def
/i {setflat} def

/W {clip} def
/W* {eoclip} def

% Setup the default graphics state.
% (black; 1 pt. linewidth; miter join; butt-ends; solid)
/defaultGraphicsState {0 g 1 w 0 j 0 J [] 0 d} def

% Emulation of the rectangle operators for PostScript implementations
% which do not implement all Level 2 features.  This is an INCOMPLETE
% emulation; only the "x y width height rect..." form is emulated.
/*rf {gsave newpath re fill grestore} def
/*rs {gsave newpath re stroke grestore} def
/*rc {newpath re clip} def
/rf  /rectfill where {pop /rectfill}{/*rf} ifelse load def
/rs  /rectstroke where {pop /rectstroke}{/*rs} ifelse load def
/rc  /rectclip where {pop /rectclip}{/*rc} ifelse load def

% Emulation of the selectfont operator.  This includes a 20% increase in
% the fontsize which is necessary to get sizes similar to the Java fonts.
/*sf {exch findfont exch
      dup type /arraytype eq {makefont}{scalefont} ifelse setfont} bind def
/sf /selectfont where {pop {1.2 mul selectfont}}{{1.2 mul *sf}} ifelse def

% Special version of stroke which allows the dash pattern to continue
% across path segments.  (This may be needed for PostScript although
% modern printers seem to do this correctly.)
/vg&stroke {
  currentdash pop length 0 eq
  {stroke}
  {
    currentdash /vg&doffset exch def pop
    flattenpath
    {m vg&resetdash}
    {2 copy
     currentpoint
     3 -1 roll sub dup mul
     3 1 roll sub dup mul
     add sqrt
     3 1 roll l
     currentdash 3 -1 roll add setdash}
     {}
     {h vg&resetdash}
     pathforall
     stroke
     vg&resetdash
  } ifelse
} def
/vg&resetdash {currentdash pop vg&doffset setdash} def

% Initialize variables for safety.
/delta 0 def
/xv 0 def  /yv 0 def  /width 0 def  /height 0 def

% Initialize to portrait INTERNATIONAL (Letter-height, A4-width) page.
/pw 595 def  /ph 791  def  /po true def /ftp false def

% Initialize margins to 20 points.
/ml 20 def  /mr 20 def  /mt 20 def  /mb 20 def

% Temporary matrices.
/smatrix 0 def  /nmatrix 0 def

% set page size (usage: <page width><page height> setpagesize)
/setpagesize {/ph exch def /pw exch def} def

% set page orientation (usage: portrait or landscape)
/portrait {/po true def} def
/landscape {/po false def} def

% force natural size for image (usage: naturalsize)
/naturalsize {/ftp false def} def

% resize image to fill page (usage: fittopage)
/fittopage {/ftp true def} def

% set margins of the page (usage: <left><bottom><top><right> setmargins)
/setmargins {/mr exch def /mt exch def /mb exch def /ml exch def} def

% set the graphic's size (usage: <width><height> setsize)
/setsize {/gh exch def /gw exch def} def

% set the graphic's origin (usage: <x0><y0> setorigin)
/setorigin {/gy exch def /gx exch def} def

% calculate image center
/imagecenter {pw ml sub mr sub 2 div ml add
              ph mt sub mb sub 2 div mb add} def

% calculate the necessary scaling
/imagescale {po {gw}{gh} ifelse pw ml sub mr sub div
             po {gh}{gw} ifelse ph mt sub mb sub div
             2 copy lt {exch} if pop
             ftp not {1 2 copy lt {exch} if pop} if
             1 exch div /sfactor exch def
             /gw gw sfactor mul def /gh gh sfactor mul def} def

% calculate image origin
/imageorigin {pw ml sub mr sub 2 div ml add
              po {gw}{gh} ifelse 2 div sub
              ph mt sub mb sub 2 div mb add
              po {gh}{gw} ifelse 2 div po {add}{sub} ifelse} def

% calculate the clipping origin
/cliporigin  {pw ml sub mr sub 2 div ml add
              po {gw}{gh} ifelse 2 div sub floor
              ph mt sub mb sub 2 div mb add
              po {gh}{gw} ifelse 2 div sub floor} def

% Set the clipping region to the bounding box.
/cliptobounds {cliporigin po {gw}{gh} ifelse 1 add
                          po {gh}{gw} ifelse 1 add rc} def

% set the base transformation matrix (usage: setbasematrix)
/setbasematrix {imageorigin translate
                po {0}{90} ifelse rotate
                sfactor sfactor neg scale
                /defaultmatrix matrix currentmatrix def} def

% The lower-right bias in drawing 1 pt. wide lines.
/bias  {q 0.5 0.5 translate} def
/unbias {Q} def

% Define the composite fonts used to print Unicode strings.
% Undefine particular values in an encoding array.
/vg&undef { {exch dup 3 -1 roll /.notdef put} forall } def
/vg&redef { {3 -1 roll dup 4 2 roll put} forall } def

% usage: key encoding basefontname vg&newbasefont font
/vg&newbasefont {
findfont dup length dict copy
  begin
    currentdict /FID undef
    /Encoding exch def
    dup /FontName exch def
    currentdict
  end
definefont
} def

% usage: key encoding basefontname vg&newskewedbasefont font
/vg&newskewedbasefont {
findfont dup length dict copy
  begin
    currentdict /FID undef
    /Encoding exch def
    dup /FontName exch def
    exch FontMatrix exch matrix concatmatrix /FontMatrix exch def
    currentdict
  end
definefont
} def

% usage: basekey suffix vg&nconcat name
/vg&nconcat {
  2 {dup length string cvs exch} repeat
  dup length 3 -1 roll dup length 3 -1 roll add string
  dup 0 4 -1 roll dup length 5 1 roll putinterval
  dup 4 -2 roll exch putinterval cvn
} def

%usage: fontname vg&skewmatrix matrix
/vg&skewmatrix {
findfont dup /FontInfo known
  {
    /FontInfo get dup /ItalicAngle known
    {
      [ 1 0 4 -1 roll /ItalicAngle get neg dup sin exch cos div 1 0 0 ]
    }
    {pop matrix} ifelse
  }
  {pop matrix} ifelse
} def

% usage: newfontname basefontname vg&newcompositefont --
/vg&newcompositefont {
/vg&fstyle exch def
/vg&bfont exch def
/vg&fname exch def
<<
/FontStyleBits vg&fstyle
/FontType 0
/FontMatrix matrix
/FontName vg&fname
/FMapType 2
/Encoding [ 0 1 255 {pop 6} for ]
          dup 16#00 0 put % Latin
          dup 16#03 1 put % Greek
          dup 16#20 2 put % Punctuation
          dup 16#21 3 put % Arrows
          dup 16#22 4 put % MathOps
          dup 16#27 5 put % Dingbats

/FDepVector [
vg&bfont /-UC-Latin vg&nconcat UCLatinEncoding
vg&bfont vg&newbasefont

vg&bfont vg&skewmatrix
vg&bfont /-UC-Greek vg&nconcat UCGreekEncoding
/Symbol vg&newskewedbasefont

vg&bfont /-UC-Punctuation vg&nconcat UCPunctuationEncoding
vg&bfont vg&newbasefont

/Arrows-UC findfont
/MathOps-UC findfont
/Dingbats-UC findfont
/Undefined-UC findfont ]
>>
vg&fname exch definefont pop
} def

% Null encoding vector (all elements set to .notdef)
/NullEncoding [ 256 {/.notdef} repeat ] def

% Unicode Latin encoding (unicode codes \u0000-\u00ff)
/UCLatinEncoding
  ISOLatin1Encoding dup length array copy
  dup 16#60 /grave put
  [ 16#90 16#91 16#92 16#93 16#94 16#95 16#96
    16#97 16#98 16#9a 16#9b 16#9d 16#9e 16#9f
  ] vg&undef
  def

% Unicode Greek encoding (unicode codes \u0370-\u03ff)
/UCGreekEncoding
  NullEncoding dup length array copy
  << 16#91 /Alpha    16#92 /Beta      16#93 /Gamma    16#94 /Delta
     16#95 /Epsilon  16#96 /Zeta      16#97 /Eta      16#98 /Theta
     16#99 /Iota     16#9a /Kappa     16#9b /Lambda   16#9c /Mu
     16#9d /Nu       16#9e /Xi        16#9f /Omicron  16#a0 /Pi
     16#a1 /Rho      16#a3 /Sigma     16#a4 /Tau      16#a5 /Upsilon
     16#a6 /Phi      16#a7 /Chi       16#a8 /Psi      16#a9 /Omega
     16#b1 /alpha    16#b2 /beta      16#b3 /gamma    16#b4 /delta
     16#b5 /epsilon  16#b6 /zeta      16#b7 /eta      16#b8 /theta
     16#b9 /iota     16#ba /kappa     16#bb /lambda   16#bc /mu
     16#bd /nu       16#be /xi        16#bf /omicron  16#c0 /pi
     16#c1 /rho      16#c2 /sigma1    16#c3 /sigma    16#c4 /tau
     16#c5 /upsilon  16#c6 /phi1      16#c7 /chi      16#c8 /psi
     16#c9 /omega    16#7e /semicolon 16#87 /dotmath  16#d1 /theta1
     16#d2 /Upsilon1 16#d5 /phi       16#d6 /omega1
  >> vg&redef
  def

% Unicode punctuation encoding (unicode codes \u2000-\u206f)
/UCPunctuationEncoding
  NullEncoding dup length array copy
  << 16#10 /hyphen          16#11 /hyphen              16#12 /endash
     16#13 /emdash          16#18 /quoteleft           16#19 /quoteright
     16#1a /quotesinglbase  16#1b /quotesingle         16#1c /quotedblleft
     16#1d /quotedblright   16#1e /quotedblbase        16#1f /quotedbl
     16#20 /dagger          16#21 /daggerdbl           16#22 /bullet
     16#24 /period          16#26 /ellipsis            16#27 /periodcentered
     16#30 /perthousand     16#44 /fraction
     16#70 /zerosuperior    16#74 /foursuperior        16#75 /fivesuperior
     16#76 /sixsuperior     16#77 /sevensuperior       16#78 /eightsuperior
     16#79 /ninesuperior    16#7b /hyphensuperior      16#7d /parenleftsuperior
     16#7e /parenrightsuperior
     16#80 /zeroinferior    16#84 /fourinferior        16#85 /fiveinferior
     16#81 /oneinferior     16#82 /twoinferior         16#83 /threeinferior
     16#86 /sixinferior     16#87 /seveninferior       16#88 /eightinferior
     16#89 /nineinferior    16#8b /hypheninferior      16#8d /parenleftinferior
     16#8e /parenrightinferior
  >> vg&redef
  def

% Unicode mathematical operators encoding (unicode codes \u2200-\u22ff)
/UCMathOpsEncoding
  NullEncoding dup length array copy
  << 16#00 /universal       16#02 /partialdiff         16#03 /existential
     16#05 /emptyset        16#06 /Delta               16#07 /gradient
     16#08 /element         16#09 /notelement          16#0b /suchthat
     16#0f /product         16#11 /summation           16#12 /minus
     16#15 /fraction        16#17 /asteriskmath        16#19 /bullet
     16#1a /radical         16#1d /proportional        16#1e /infinity
     16#20 /angle           16#23 /bar                 16#27 /logicaland
     16#28 /logicalor       16#29 /intersection        16#2a /union
     16#2b /integral        16#34 /therefore           16#36 /colon
     16#3c /similar         16#45 /congruent           16#48 /approxequal
     16#60 /notequal        16#61 /equivalence         16#64 /lessequal
     16#65 /greaterequal    16#82 /propersubset        16#83 /propersuperset
     16#86 /reflexsubset    16#87 /reflexsuperset      16#95 /circleplus
     16#97 /circlemultiply  16#a5 /perpendicular       16#03 /existential
     16#c0 /logicaland      16#c1 /logicalor           16#c2 /intersection
     16#c3 /union           16#c4 /diamond             16#c5 /dotmath
  >> vg&redef
  def

% Unicode arrows encoding (unicode codes \u2190-\u21ff)
% Also includes those "Letterlike" unicode characters
% which are available in the symbol font. (unicode codes \u2100-\u214f)
/UCArrowsEncoding
  NullEncoding dup length array copy
  << 16#11 /Ifraktur        16#1c /Rfraktur            16#22 /trademarkserif
     16#35 /aleph
     16#90 /arrowleft       16#91 /arrowup             16#92 /arrowright
     16#93 /arrowdown       16#94 /arrowboth           16#d0 /arrowdblleft
     16#d1 /arrowdblup      16#d2 /arrowdblright       16#d3 /arrowdbldown
     16#d4 /arrowdblboth
  >> vg&redef
  def

/ZapfDingbats findfont /Encoding get
dup length array copy /UCDingbatsEncoding exch def
16#20 1 16#7f {
  dup 16#20 sub exch
  UCDingbatsEncoding exch get
  UCDingbatsEncoding 3 1 roll put
} for
16#a0 1 16#ff {
  dup 16#40 sub exch
  UCDingbatsEncoding exch get
  UCDingbatsEncoding 3 1 roll put
} for
UCDingbatsEncoding [ 16#c0 1 16#ff {} for ] vg&undef
[ 16#00  16#05 16#0a 16#0b  16#28 16#4c 16#4e  16#53 16#54 16#55  16#57 16#5f
  16#60  16#68 16#69 16#6a  16#6b 16#6c 16#6d  16#6e 16#6f 16#70  16#71 16#72
  16#73  16#74 16#75 16#95  16#96 16#97 16#b0  16#bf
] vg&undef pop

% Define the base fonts which don't change.
/Undefined-UC NullEncoding       /Helvetica    vg&newbasefont pop
/MathOps-UC   UCMathOpsEncoding  /Symbol       vg&newbasefont pop
/Arrows-UC    UCArrowsEncoding   /Symbol       vg&newbasefont pop
/Dingbats-UC  UCDingbatsEncoding /ZapfDingbats vg&newbasefont pop

% Make the SansSerif composite fonts.
/SansSerif /Helvetica 16#00 vg&newcompositefont
/SansSerif-Bold /Helvetica-Bold 16#01 vg&newcompositefont
/SansSerif-Italic /Helvetica-Oblique 16#02 vg&newcompositefont
/SansSerif-BoldItalic /Helvetica-BoldOblique 16#03 vg&newcompositefont

% Make the Serif composite fonts.
/Serif /Times-Roman 16#00 vg&newcompositefont
/Serif-Bold /Times-Bold 16#01 vg&newcompositefont
/Serif-Italic /Times-Italic 16#02 vg&newcompositefont
/Serif-BoldItalic /Times-BoldItalic 16#03 vg&newcompositefont

% Make the Monospaced composite fonts.
/Monospaced /Courier 16#00 vg&newcompositefont
/Monospaced-Bold /Courier-Bold 16#01 vg&newcompositefont
/Monospaced-Italic /Courier-Oblique 16#02 vg&newcompositefont
/Monospaced-BoldItalic /Courier-BoldOblique 16#03 vg&newcompositefont

% Make the Dialog composite fonts.
/Dialog /Helvetica 16#00 vg&newcompositefont
/Dialog-Bold /Helvetica-Bold 16#01 vg&newcompositefont
/Dialog-Italic /Helvetica-Oblique 16#02 vg&newcompositefont
/Dialog-BoldItalic /Helvetica-BoldOblique 16#03 vg&newcompositefont

% Make the DialogInput composite fonts.
/DialogInput /Courier 16#00 vg&newcompositefont
/DialogInput-Bold /Courier-Bold 16#01 vg&newcompositefont
/DialogInput-Italic /Courier-Oblique 16#02 vg&newcompositefont
/DialogInput-BoldItalic /Courier-BoldOblique 16#03 vg&newcompositefont

% Make the Typewriter composite fonts (JDK 1.1 only).
/Typewriter /Courier 16#00 vg&newcompositefont
/Typewriter-Bold /Courier-Bold 16#01 vg&newcompositefont
/Typewriter-Italic /Courier-Oblique 16#02 vg&newcompositefont
/Typewriter-BoldItalic /Courier-BoldOblique 16#03 vg&newcompositefont


/cfontH {
 dup /fontsize exch def /SansSerif exch sf
 /vg&fontstyles [{cfontH} {cfontHB} {cfontHI} {cfontHBI}] def
} def
/cfontHB {
  dup /fontsize exch def /SansSerif-Bold exch sf
 /vg&fontstyles [{cfontH} {cfontHB} {cfontHI} {cfontHBI}] def
} def
/cfontHI {
 dup /fontsize exch def /SansSerif-Italic exch sf
 /vg&fontstyles [{cfontH} {cfontHB} {cfontHI} {cfontHBI}] def
} def
/cfontHBI {
 dup /fontsize exch def /SansSerif-BoldItalic exch sf
 /vg&fontstyles [{cfontH} {cfontHB} {cfontHI} {cfontHBI}] def
} def

/cfontT {
 dup /fontsize exch def /Serif exch sf
 /vg&fontstyles [{cfontT} {cfontTB} {cfontTI} {cfontTBI}] def
} def
/cfontTB {
 dup /fontsize exch def /Serif-Bold exch sf
 /vg&fontstyles [{cfontT} {cfontTB} {cfontTI} {cfontTBI}] def
} def
/cfontTI {
 dup /fontsize exch def /Serif-Italic exch sf
 /vg&fontstyles [{cfontT} {cfontTB} {cfontTI} {cfontTBI}] def
} def
/cfontTBI {
 dup /fontsize exch def /Serif-BoldItalic exch sf
 /vg&fontstyles [{cfontT} {cfontTB} {cfontTI} {cfontTBI}] def
} def

/cfontC {
 dup /fontsize exch def /Typewriter exch sf
 /vg&fontstyles [{cfontC} {cfontCB} {cfontCI} {cfontCBI}] def
} def
/cfontCB {
 dup /fontsize exch def /Typewriter-Bold exch sf
 /vg&fontstyles [{cfontC} {cfontCB} {cfontCI} {cfontCBI}] def
} def
/cfontCI {
 dup /fontsize exch def /Typewriter-Italic exch sf
 /vg&fontstyles [{cfontC} {cfontCB} {cfontCI} {cfontCBI}] def
} def
/cfontCBI {
 dup /fontsize exch def /Typewriter-BoldItalic exch sf
 /vg&fontstyles [{cfontC} {cfontCB} {cfontCI} {cfontCBI}] def
} def

% Darken or lighten the current color.
/darken {0.7 exch exp 3 copy
         q 4 -1 roll vg&C
         currentrgbcolor 3 {4 -2 roll mul} repeat
         3 array astore Q} def

/displayColorMap
<< /Cr   [1.00 0.00 0.00]       /Cg     [0.00 1.00 0.00]
   /Cb   [0.00 0.00 1.00]       /Cc     [1.00 0.00 0.00 0.00]
   /Cm   [0.00 1.00 0.00 0.00]  /Cy     [0.00 0.00 1.00 0.00]
   /Co   [1.00 0.78 0.00]       /Cp     [1.00 0.67 0.67]
   /Cw   [1   ]                 /Cgrl   [0.75]
   /Cgr  [0.50]                 /Cgrd   [0.25]
   /Ck   [0   ]
   /CGr  [1.00 0.00 0.00]       /CGg    [0.00 1.00 0.00]
   /CGb  [0.00 0.00 1.00]       /CGc    [1.00 0.00 0.00 0.00]
   /CGm  [0.00 1.00 0.00 0.00]  /CGy    [0.00 0.00 1.00 0.00]
   /CGo  [1.00 0.78 0.00]       /CGp    [1.00 0.67 0.67]
   /CGw  [1   ]                 /CGgrl  [0.75]
   /CGgr [0.50]                 /CGgrd  [0.25]
   /CGk  [0   ]
   /CIr  [1.00 0.00 0.00]       /CIg    [0.00 1.00 0.00]
   /CIb  [0.00 0.00 1.00]       /CIc    [1.00 0.00 0.00 0.00]
   /CIm  [0.00 1.00 0.00 0.00]  /CIy    [0.00 0.00 1.00 0.00]
   /CIo  [1.00 0.78 0.00]       /CIp    [1.00 0.67 0.67]
   /CIw  [1   ]                 /CIgrl  [0.75]
   /CIgr [0.50]                 /CIgrd  [0.25]
   /CIk  [0   ]
>> def

/printColorMap
<< /Cr   [1.00 0.33 0.33]       /Cg     [0.33 1.00 0.33]
   /Cb   [0.33 0.33 1.00]       /Cc     [1.00 0.00 0.00 0.00]
   /Cm   [0.00 1.00 0.00 0.00]  /Cy     [0.00 0.00 1.00 0.00]
   /Co   [1.00 0.78 0.00]       /Cp     [1.00 0.67 0.67]
   /Cw   [1   ]                 /Cgrl   [0.75]
   /Cgr  [0.50]                 /Cgrd   [0.25]
   /Ck   [0   ]
   /CGr  [1.00 0.33 0.33]       /CGg    [0.33 1.00 0.33]
   /CGb  [0.33 0.33 1.00]       /CGc    [1.00 0.00 0.00 0.00]
   /CGm  [0.00 1.00 0.00 0.00]  /CGy    [0.00 0.00 1.00 0.00]
   /CGo  [1.00 0.78 0.00]       /CGp    [1.00 0.67 0.67]
   /CGw  [1   ]                 /CGgrl  [0.75]
   /CGgr [0.50]                 /CGgrd  [0.25]
   /CGk  [0   ]
   /CIr  [1.00 0.33 0.33]       /CIg    [0.33 1.00 0.33]
   /CIb  [0.33 0.33 1.00]       /CIc    [1.00 0.00 0.00 0.00]
   /CIm  [0.00 1.00 0.00 0.00]  /CIy    [0.00 0.00 1.00 0.00]
   /CIo  [1.00 0.78 0.00]       /CIp    [1.00 0.67 0.67]
   /CIw  [1   ]                 /CIgrl  [0.75]
   /CIgr [0.50]                 /CIgrd  [0.25]
   /CIk  [0   ]
>> def

/grayColorMap
<< /Cr   [0   ]                 /Cg     [0   ]
   /Cb   [0   ]                 /Cc     [0   ]
   /Cm   [0   ]                 /Cy     [0   ]
   /Co   [0   ]                 /Cp     [0   ]
   /Cw   [0   ]                 /Cgrl   [0   ]
   /Cgr  [0   ]                 /Cgrd   [0   ]
   /Ck   [0   ]
   /CGr  [0.75]                 /CGg    [1   ]
   /CGb  [0.50]                 /CGc    [0.75]
   /CGm  [0.50]                 /CGy    [1   ]
   /CGo  [0.75]                 /CGp    [1   ]
   /CGw  [0   ]                 /CGgrl  [0.25]
   /CGgr [0.50]                 /CGgrd  [0.75]
   /CGk  [1   ]
   /CIr  [1   ]                 /CIg    [1   ]
   /CIb  [1   ]                 /CIc    [1   ]
   /CIm  [1   ]                 /CIy    [1   ]
   /CIo  [1   ]                 /CIp    [1   ]
   /CIw  [1   ]                 /CIgrl  [1   ]
   /CIgr [1   ]                 /CIgrd  [1   ]
   /CIk  [1   ]
>> def

/bwColorMap
<< /Cr   [0   ]                 /Cg     [0   ]
   /Cb   [0   ]                 /Cc     [0   ]
   /Cm   [0   ]                 /Cy     [0   ]
   /Co   [0   ]                 /Cp     [0   ]
   /Cw   [0   ]                 /Cgrl   [0   ]
   /Cgr  [0   ]                 /Cgrd   [0   ]
   /Ck   [0   ]
   /CGr  [1   ]                 /CGg    [1   ]
   /CGb  [1   ]                 /CGc    [1   ]
   /CGm  [1   ]                 /CGy    [1   ]
   /CGo  [1   ]                 /CGp    [1   ]
   /CGw  [0   ]                 /CGgrl  [1   ]
   /CGgr [1   ]                 /CGgrd  [1   ]
   /CGk  [1   ]
   /CIr  [1   ]                 /CIg    [1   ]
   /CIb  [1   ]                 /CIc    [1   ]
   /CIm  [1   ]                 /CIy    [1   ]
   /CIo  [1   ]                 /CIp    [1   ]
   /CIw  [1   ]                 /CIgrl  [1   ]
   /CIgr [1   ]                 /CIgrd  [1   ]
   /CIk  [1   ]
>> def

%
% The following routines handle the alignment of and printing of
% tagged strings.
%

% Predefine the bounding box values.
/bbllx 0 def /bblly 0 def /bburx 0 def /bbury 0 def

% This routine pops the first unicode character off of a string and returns
% the remainder of the string, the character code of first character,
% and a "true" if the string was non-zero length.
% <string>      popfirst <remaining string> <true>
% <null string> popfirst <false>
/popfirst {
  dup length 1 gt
    {dup 0 get /vg&fbyte exch def
     dup 1 get /vg&cbyte exch def
     dup length 2 sub 2 exch getinterval true}
    {pop false} ifelse
} def

% This routine shows a single unicode character given the font and
% character codes.
% <font code> <char code> unicharshow --
/unicharshow {
  2 string
  dup 0 5 -1 roll put
  dup 1 4 -1 roll put
  internalshow
} def

% This is an internal routine to alternate between determining the
% bounding box for stringsize and showing the string for recshow.
% <string> internalshow --
/internalshow {show} def

% This is an internal routine to alternate between determining the
% bounding box for stringsize and stroking various ornaments.
% <string> internalstroke --
/internalstroke {S} def

% Sets up internalshow to use the null device to determine string size.
% -- nullinternalshow --
/nullinternalshow {/internalshow {false charpath flattenpath
                                  pathbbox updatebbox} def} def

% Sets up internalstroke to use the null device to determine string size.
% -- nullinternalstroke --
/nullinternalstroke {
 /internalstroke {flattenpath pathbbox updatebbox} def} def

% This routine tests to see if the character code matches the first
% character of a string.
% <char code> <string> testchar <char code> <true or false>
/testchar {exch dup 3 -1 roll 0 get eq} def

% Raise the text baseline for superscripts.
% -- raise --
/raise {
  0 fontsize 2 div rmoveto
  /fontsize fontsize 2 mul 3 div def
  currentfont /FontName get fontsize sf
} def

% Un-raise the text baseline for superscripts.
% -- unraise --
/unraise {
  /fontsize fontsize 1.5 mul def
  0 fontsize 2 div neg rmoveto
} def

% Lower the text baseline for subscripts.
% -- lower --
/lower {
  0 fontsize 3 div neg rmoveto
  /fontsize fontsize 2 mul 3 div def
  currentfont /FontName get fontsize sf
} def

% Un-lower the text baseline for subscripts.
% -- unlower --
/unlower {
  /fontsize fontsize 1.5 mul def
  0 fontsize 3 div rmoveto
} def

% Compare the top two elements on the stack and leave only the
% larger one.
/maxval {2 copy gt {pop} {exch pop} ifelse} def

% Tokenize a string.  Do not use the usual PostScript token because
% parentheses will not be interpreted correctly because of rescanning
% of the string.
/vg&token {/vg&string exch def /vg&index -1 def /vg&level 0 def
0 2 vg&string length 2 sub {
  dup dup 1 add exch vg&string exch get 8 bitshift vg&string 3 -1 roll get or
  dup 16#f0fe eq {pop 1}{16#f0ff eq {-1}{0} ifelse} ifelse
  /vg&level exch vg&level add def
  vg&level 0 eq {/vg&index exch def exit} if pop
} for
vg&index 0 ge {
  vg&string vg&index 2 add dup vg&string length exch sub getinterval
  vg&index 2 gt {vg&string 2 vg&index 2 sub getinterval}{()} ifelse
  true}
{false} ifelse
} bind def

% Recursively show an unicode string.
% <string> recshow --
/recshow {
  popfirst
  {
    % Test to see if this is a string attribute.
    vg&fbyte 16#f0 and 16#e0 eq
    {
      q

      % Font style.
      currentfont dup /FontStyleBits known {/FontStyleBits get}{pop 0} ifelse
      vg&cbyte or vg&fontstyles exch get fontsize exch exec

      vg&token pop recshow currentpoint Q m recshow
    }
    {
      vg&fbyte 16#F8 and 16#F0 eq {

        % Superscript and/or subscript.
        vg&cbyte 16#00 eq {
          vg&token pop exch vg&token pop 3 -1 roll
          q raise recshow unraise currentpoint pop Q exch
          q lower recshow unlower currentpoint pop Q
          maxval currentpoint exch pop m recshow } if

        % Strikeout.
        vg&cbyte 16#01 eq {
          vg&token pop currentpoint 3 -1 roll recshow
          q 0 J vg&underline vg&uthick w
          currentpoint 4 -2 roll fontsize 3 div add moveto
          fontsize 3 div add lineto internalstroke Q
          recshow} if

        % Underline.
        vg&cbyte 16#02 eq {
          vg&token pop currentpoint 3 -1 roll recshow
          q 0 J vg&underline vg&uthick w
          currentpoint 4 -2 roll vg&uoffset add moveto
          vg&uoffset add lineto internalstroke Q
          recshow} if

        % Dashed underline.
        vg&cbyte 16#03 eq {
          vg&token pop currentpoint 3 -1 roll recshow
          q 0 J [ vg&uthick 5 mul vg&uthick 2 mul] 0 d
          vg&underline vg&uthick w
          currentpoint 4 -2 roll vg&uoffset add moveto
          vg&uoffset add lineto internalstroke Q
          recshow} if

        % Dotted underline.
        vg&cbyte 16#04 eq {
          vg&token pop currentpoint 3 -1 roll recshow
          q 1 J [ 0 vg&uthick 3 mul] 0 d
          vg&underline vg&uthick w
          currentpoint 4 -2 roll vg&uoffset add moveto
          vg&uoffset add lineto internalstroke Q
          recshow} if

        % Thick underline.
        vg&cbyte 16#05 eq {
          vg&token pop currentpoint 3 -1 roll recshow
          q 0 J vg&underline vg&uthick 2 mul w
          currentpoint 4 -2 roll vg&uoffset vg&uthick 2 div sub add moveto
          vg&uoffset vg&uthick 2 div sub add lineto internalstroke Q
          recshow} if

        % Gray thick underline.
        vg&cbyte 16#06 eq {
          vg&token pop currentpoint 3 -1 roll recshow
          q 0 J vg&underline vg&uthick 2 mul w 0.5 setgray
          currentpoint 4 -2 roll vg&uoffset vg&uthick 2 div sub add moveto
          vg&uoffset vg&uthick 2 div sub add lineto internalstroke Q
          recshow} if

        % Overbar.
        vg&cbyte 16#07 eq {
          vg&token pop dup stringsize relative 4 1 roll pop pop exch
          3 -1 roll recshow
          q 0 J vg&underline vg&uthick w
          vg&uoffset neg add dup currentpoint pop exch m l internalstroke Q
          recshow} if
      }
      {
        vg&fbyte vg&cbyte unicharshow recshow
      } ifelse
    } ifelse
  } if
} def

% Get the underline position and thickness from the current font.
/vg&underline {

currentfont dup /FontType get 0 eq {/FDepVector get 0 get} if
dup dup /FontInfo known {
  /FontInfo get dup
  dup /UnderlinePosition known {
    /UnderlinePosition get /vg&uoffset exch def
  }
  {
    pop /vg&uoffset 0 def
  } ifelse
  dup /UnderlineThickness known {
    /UnderlineThickness get /vg&uthick exch def
  }
  {
    pop /vg&uthick 0 def
  } ifelse
}
{
  pop /vg&uoffset 0 def /vg&uthick 0 def
} ifelse
/FontMatrix get
currentfont dup /FontType get 0 eq
{/FontMatrix get matrix concatmatrix}{pop} ifelse
dup 0 vg&uoffset 3 -1 roll transform /vg&uoffset exch def pop
0 vg&uthick 3 -1 roll transform /vg&uthick exch def pop
} def

% Make a frame with the coordinates on the stack.
% <llx> <lly> <urx> <ury> frame --
/frame {4 copy m 3 1 roll exch l 4 -2 roll l l h} def

% Resets the accumulated bounding box to a degenerate box at the
% current point.
% -- resetbbox --
/resetbbox {
  currentpoint 2 copy
  /bbury exch def
  /bburx exch def
  /bblly exch def
  /bbllx exch def
} def

% Update the accumulated bounding box.
% <llx'> <lly'> <urx'> <ury'> updatebbox --
/updatebbox {
  dup bbury gt {/bbury exch def} {pop} ifelse
  dup bburx gt {/bburx exch def} {pop} ifelse
  dup bblly lt {/bblly exch def} {pop} ifelse
  dup bbllx lt {/bbllx exch def} {pop} ifelse
} def

% Set the bounding box to the values on the stack.
% <llx'> <lly'> <urx'> <ury'> updatebbox --
/restorebbox {
  /bbury exch def /bburx exch def /bblly exch def /bbllx exch def
} def

% Push the accumulated bounding box onto the stack.
% -- pushbbox <llx> <lly> <urx> <ury>
/pushbbox {bbllx bblly bburx bbury} def

% Make the relative bounding box relative to the currentpoint.
% <llx'> <lly'> <urx'> <ury'> inflate <llx> <lly> <urx> <ury>
/inflate {
  2 {fontsize 0.2 mul add 4 1 roll} repeat
  2 {fontsize 0.2 mul sub 4 1 roll} repeat
} def

% Make the relative bounding box relative to the currentpoint.
% <llx'> <lly'> <urx'> <ury'> relative <llx> <lly> <urx> <ury>
/relative {
  currentpoint 3 -1 roll add 3 1 roll add exch 4 2 roll
  currentpoint 3 -1 roll add 3 1 roll add exch 4 2 roll
} def

% Returns the size of a string appropriate for recshow.
% <string> stringsize <llx> <lly> <urx> <ury>
/stringsize {
  pushbbox /internalshow load /internalstroke load 7 -1 roll
  q
  nulldevice 0 0 m
  nullinternalshow nullinternalstroke
  resetbbox
  recshow
  /internalstroke exch def /internalshow exch def
  pushbbox 8 -4 roll restorebbox
  Q
} def

% Calculate values for string positioning.
/calcval {4 copy
  3 -1 roll sub /widy exch def sub neg /widx exch def
  pop pop /dy exch def /dx exch def} def

% Utilities to position a string.
% First letter (U=upper, C=center, B=baseline, L=lower)
% Second letter (L=left, C=center, R=right)
/align [
{calcval dx neg widy dy add neg rmoveto} % UL
{calcval dx neg widy 2 div dy add neg rmoveto} % CL
{calcval dx neg 0 rmoveto} % BL
{calcval dx neg dy neg rmoveto} % LL
{calcval widx dx add neg widy dy add neg rmoveto} % UR
{calcval widx dx add neg widy 2 div dy add neg rmoveto} % CR
{calcval widx dx add neg 0 rmoveto} % BR
{calcval widx dx add neg dy neg rmoveto} % LR
{calcval widx 2 div dx add neg widy dy add neg rmoveto} % UC
{calcval widx 2 div dx add neg widy 2 div dy add neg rmoveto} % CC
{calcval widx 2 div dx add neg 0 rmoveto} % BC
{calcval widx 2 div dx add neg dy neg rmoveto} % LC
] def

/vg&str {m q 1 -1 scale dup stringsize 4 copy align 11 -1 roll get exec
         q inflate relative frame exch exec Q recshow Q} def

end /procDict exch def
%%EndProlog

%%BeginSetup
save
procDict begin
printColorMap begin
407 343 setpagesize
0 0 0 0 setmargins
0 0 setorigin
407 343 setsize
naturalsize
portrait
imagescale
cliptobounds
setbasematrix
/Helvetica 10 sf
defaultGraphicsState
%%EndSetup

0.00000 0.00000 0.00000 RG
[ 1.00000 0.00000 0.00000 1.00000 0.00000 0.00000 ] defaultmatrix matrix concatmatrix setmatrix
cliprestore
1.00000 1.00000 1.00000 RG
newpath
0.00000 0.00000 m
407.000 0.00000 l
407.000 343.000 l
0.00000 343.000 l
0.00000 0.00000 l
h
f
0.00000 0.00000 0.00000 RG
0.00000 0.00000 0.00000 RG
[ 1.00000 0.00000 0.00000 1.00000 0.00000 0.00000 ] defaultmatrix matrix concatmatrix setmatrix
cliprestore
1.00000 1.00000 1.00000 RG
newpath
0.00000 0.00000 m
407.000 0.00000 l
407.000 343.000 l
0.00000 343.000 l
0.00000 0.00000 l
h
f
0.00000 0.00000 0.00000 RG
0 0 407 343 rc
q
[ 1.00000 0.00000 0.00000 1.00000 0.00000 0.00000 ] concat
[ 1.00000 0.00000 0.00000 1.00000 -93.0000 -48.0000 ] concat
1.00000 1.00000 1.00000 RG
newpath
93.0000 48.0000 m
500.000 48.0000 l
500.000 391.000 l
93.0000 391.000 l
93.0000 48.0000 l
h
f
0.00000 0.00000 0.00000 RG
[ 1.00000 0.00000 0.00000 1.00000 -93.0000 -48.0000 ] defaultmatrix matrix concatmatrix setmatrix
[ 1.00000 0.00000 0.00000 1.00000 -93.0000 -48.0000 ] defaultmatrix matrix concatmatrix setmatrix
[ 1.00000 0.00000 0.00000 1.00000 0.00000 0.00000 ] defaultmatrix matrix concatmatrix setmatrix
[ 1.00000 0.00000 0.00000 1.00000 -93.0000 -48.0000 ] defaultmatrix matrix concatmatrix setmatrix
1.00000 .800000 0.00000 RG
newpath
108.000 343.000 m
138.000 343.000 l
138.000 373.000 l
108.000 373.000 l
108.000 343.000 l
h
f
0 J
1.45000 M
0.00000 0.00000 0.00000 RG
newpath
108.000 343.000 m
138.000 343.000 l
138.000 373.000 l
108.000 373.000 l
108.000 343.000 l
h
S
2 J
10.0000 M
0 J
1.45000 M
newpath
116.098 353.863 m
117.328 353.863 l
117.328 359.336 l
117.328 360.207 117.489 360.841 117.812 361.237  c
118.134 361.634 118.646 361.832 119.350 361.832  c
120.037 361.832 120.524 361.646 120.812 361.272  c
121.099 360.899 121.242 360.268 121.242 359.377  c
121.242 353.863 l
122.320 353.863 l
122.320 359.359 l
122.320 360.543 122.077 361.404 121.591 361.943  c
121.104 362.482 120.330 362.752 119.268 362.752  c
118.186 362.752 117.387 362.473 116.871 361.914  c
116.355 361.355 116.098 360.492 116.098 359.324  c
h
125.168 362.535 m
125.168 361.668 l
126.902 361.668 l
126.902 354.824 l
125.168 355.258 l
125.168 354.367 l
128.062 353.646 l
128.062 361.668 l
129.797 361.668 l
129.797 362.535 l
h
f
2 J
10.0000 M
1.00000 .800000 0.00000 RG
newpath
168.000 341.000 m
198.000 341.000 l
198.000 371.000 l
168.000 371.000 l
168.000 341.000 l
h
f
0 J
1.45000 M
0.00000 0.00000 0.00000 RG
newpath
168.000 341.000 m
198.000 341.000 l
198.000 371.000 l
168.000 371.000 l
168.000 341.000 l
h
S
2 J
10.0000 M
0 J
1.45000 M
newpath
176.098 351.863 m
177.328 351.863 l
177.328 357.336 l
177.328 358.207 177.489 358.841 177.812 359.237  c
178.134 359.634 178.646 359.832 179.350 359.832  c
180.037 359.832 180.524 359.646 180.812 359.272  c
181.099 358.899 181.242 358.268 181.242 357.377  c
181.242 351.863 l
182.320 351.863 l
182.320 357.359 l
182.320 358.543 182.077 359.404 181.591 359.943  c
181.104 360.482 180.330 360.752 179.268 360.752  c
178.186 360.752 177.387 360.473 176.871 359.914  c
176.355 359.355 176.098 358.492 176.098 357.324  c
h
184.359 360.535 m
184.359 359.521 l
184.695 358.736 185.375 357.881 186.398 356.955  c
187.061 356.363 l
187.912 355.594 188.338 354.830 188.338 354.072  c
188.338 353.588 188.192 353.207 187.901 352.930  c
187.610 352.652 187.211 352.514 186.703 352.514  c
186.102 352.514 185.393 352.746 184.576 353.211  c
184.576 352.191 l
185.346 351.828 186.109 351.646 186.867 351.646  c
187.680 351.646 188.332 351.865 188.824 352.303  c
189.316 352.740 189.562 353.320 189.562 354.043  c
189.562 354.562 189.438 355.023 189.190 355.426  c
188.942 355.828 188.480 356.316 187.805 356.891  c
187.359 357.271 l
186.434 358.057 185.898 358.807 185.754 359.521  c
189.521 359.521 l
189.521 360.535 l
h
f
2 J
10.0000 M
1.00000 .800000 0.00000 RG
newpath
228.000 341.000 m
258.000 341.000 l
258.000 371.000 l
228.000 371.000 l
228.000 341.000 l
h
f
0 J
1.45000 M
0.00000 0.00000 0.00000 RG
newpath
228.000 341.000 m
258.000 341.000 l
258.000 371.000 l
228.000 371.000 l
228.000 341.000 l
h
S
2 J
10.0000 M
0 J
1.45000 M
newpath
236.098 351.863 m
237.328 351.863 l
237.328 357.336 l
237.328 358.207 237.489 358.841 237.812 359.237  c
238.134 359.634 238.646 359.832 239.350 359.832  c
240.037 359.832 240.524 359.646 240.812 359.272  c
241.099 358.899 241.242 358.268 241.242 357.377  c
241.242 351.863 l
242.320 351.863 l
242.320 357.359 l
242.320 358.543 242.077 359.404 241.591 359.943  c
241.104 360.482 240.330 360.752 239.268 360.752  c
238.186 360.752 237.387 360.473 236.871 359.914  c
236.355 359.355 236.098 358.492 236.098 357.324  c
h
244.582 360.471 m
244.582 359.393 l
245.410 359.721 246.062 359.885 246.539 359.885  c
247.090 359.885 247.538 359.724 247.884 359.401  c
248.229 359.079 248.402 358.662 248.402 358.150  c
248.402 356.932 247.549 356.322 245.842 356.322  c
245.385 356.322 l
245.385 355.543 l
245.789 355.537 l
247.391 355.537 248.191 354.973 248.191 353.844  c
248.191 352.957 247.664 352.514 246.609 352.514  c
246.031 352.514 245.395 352.676 244.699 353.000  c
244.699 351.992 l
245.383 351.762 246.047 351.646 246.691 351.646  c
248.465 351.646 249.352 352.316 249.352 353.656  c
249.352 354.676 248.748 355.402 247.541 355.836  c
248.939 356.160 249.639 356.926 249.639 358.133  c
249.639 358.949 249.369 359.590 248.830 360.055  c
248.291 360.520 247.551 360.752 246.609 360.752  c
246.074 360.752 245.398 360.658 244.582 360.471  c
h
f
2 J
10.0000 M
1.00000 .800000 0.00000 RG
newpath
288.000 341.000 m
318.000 341.000 l
318.000 371.000 l
288.000 371.000 l
288.000 341.000 l
h
f
0 J
1.45000 M
0.00000 0.00000 0.00000 RG
newpath
288.000 341.000 m
318.000 341.000 l
318.000 371.000 l
288.000 371.000 l
288.000 341.000 l
h
S
2 J
10.0000 M
0 J
1.45000 M
newpath
296.098 351.863 m
297.328 351.863 l
297.328 357.336 l
297.328 358.207 297.489 358.841 297.812 359.237  c
298.134 359.634 298.646 359.832 299.350 359.832  c
300.037 359.832 300.524 359.646 300.812 359.272  c
301.099 358.899 301.242 358.268 301.242 357.377  c
301.242 351.863 l
302.320 351.863 l
302.320 357.359 l
302.320 358.543 302.077 359.404 301.591 359.943  c
301.104 360.482 300.330 360.752 299.268 360.752  c
298.186 360.752 297.387 360.473 296.871 359.914  c
296.355 359.355 296.098 358.492 296.098 357.324  c
h
307.881 360.535 m
307.881 358.080 l
303.979 358.080 l
303.979 357.207 l
307.881 351.863 l
308.965 351.863 l
308.965 357.137 l
310.125 357.137 l
310.125 358.080 l
308.965 358.080 l
308.965 360.535 l
h
305.109 357.137 m
307.957 357.137 l
307.957 353.281 l
h
f
2 J
10.0000 M
1.00000 .800000 0.00000 RG
newpath
438.000 346.000 m
468.000 346.000 l
468.000 376.000 l
438.000 376.000 l
438.000 346.000 l
h
f
0 J
1.45000 M
0.00000 0.00000 0.00000 RG
newpath
438.000 346.000 m
468.000 346.000 l
468.000 376.000 l
438.000 376.000 l
438.000 346.000 l
h
S
2 J
10.0000 M
0 J
1.45000 M
newpath
446.098 356.863 m
447.328 356.863 l
447.328 362.336 l
447.328 363.207 447.489 363.841 447.812 364.237  c
448.134 364.634 448.646 364.832 449.350 364.832  c
450.037 364.832 450.524 364.646 450.812 364.272  c
451.099 363.899 451.242 363.268 451.242 362.377  c
451.242 356.863 l
452.320 356.863 l
452.320 362.359 l
452.320 363.543 452.077 364.404 451.591 364.943  c
451.104 365.482 450.330 365.752 449.268 365.752  c
448.186 365.752 447.387 365.473 446.871 364.914  c
446.355 364.355 446.098 363.492 446.098 362.324  c
h
454.822 365.570 m
454.822 364.539 l
455.396 364.770 455.943 364.885 456.463 364.885  c
457.033 364.885 457.481 364.717 457.808 364.381  c
458.134 364.045 458.297 363.582 458.297 362.992  c
458.297 361.691 457.400 361.041 455.607 361.041  c
455.404 361.041 455.191 361.055 454.969 361.082  c
454.969 356.863 l
459.357 356.863 l
459.357 357.871 l
455.982 357.871 l
455.982 360.156 l
457.096 360.156 457.965 360.412 458.590 360.924  c
459.215 361.436 459.527 362.145 459.527 363.051  c
459.527 363.895 459.243 364.556 458.675 365.034  c
458.106 365.513 457.318 365.752 456.311 365.752  c
455.873 365.752 455.377 365.691 454.822 365.570  c
h
f
2 J
10.0000 M
1.00000 .800000 0.00000 RG
newpath
217.000 261.000 m
217.000 269.284 210.284 276.000 202.000 276.000  c
193.716 276.000 187.000 269.284 187.000 261.000  c
187.000 252.716 193.716 246.000 202.000 246.000  c
210.284 246.000 217.000 252.716 217.000 261.000  c
h
f
0 J
1.45000 M
0.00000 0.00000 0.00000 RG
newpath
217.000 261.000 m
217.000 269.284 210.284 276.000 202.000 276.000  c
193.716 276.000 187.000 269.284 187.000 261.000  c
187.000 252.716 193.716 246.000 202.000 246.000  c
210.284 246.000 217.000 252.716 217.000 261.000  c
h
S
2 J
10.0000 M
0 J
1.45000 M
newpath
195.531 265.535 m
195.531 256.863 l
198.156 256.863 l
198.988 256.863 199.626 257.047 200.069 257.414  c
200.513 257.781 200.734 258.314 200.734 259.014  c
200.734 260.170 200.150 260.990 198.982 261.475  c
201.877 265.535 l
200.365 265.535 l
197.898 261.867 l
196.750 261.867 l
196.750 265.535 l
h
196.750 260.947 m
197.148 260.947 l
198.695 260.947 199.469 260.340 199.469 259.125  c
199.469 258.230 198.820 257.783 197.523 257.783  c
196.750 257.783 l
h
203.805 265.535 m
203.805 264.668 l
205.539 264.668 l
205.539 257.824 l
203.805 258.258 l
203.805 257.367 l
206.699 256.646 l
206.699 264.668 l
208.434 264.668 l
208.434 265.535 l
h
f
2 J
10.0000 M
1.00000 .800000 0.00000 RG
newpath
298.000 174.000 m
302.500 166.794 l
310.990 166.500 l
307.000 159.000 l
310.990 151.500 l
302.500 151.206 l
298.000 144.000 l
293.500 151.206 l
285.010 151.500 l
289.000 159.000 l
285.010 166.500 l
293.500 166.794 l
h
f*
0 J
1.45000 M
0.00000 0.00000 0.00000 RG
newpath
298.000 174.000 m
302.500 166.794 l
310.990 166.500 l
307.000 159.000 l
310.990 151.500 l
302.500 151.206 l
298.000 144.000 l
293.500 151.206 l
285.010 151.500 l
289.000 159.000 l
285.010 166.500 l
293.500 166.794 l
h
S
2 J
10.0000 M
0 J
1.45000 M
newpath
289.908 158.039 m
289.908 163.535 l
288.748 163.535 l
288.748 158.039 l
287.846 158.039 l
287.846 157.172 l
288.748 157.172 l
288.748 156.410 l
288.748 154.895 289.439 154.137 290.822 154.137  c
291.209 154.137 291.648 154.201 292.141 154.330  c
292.141 155.244 l
291.621 155.084 291.205 155.004 290.893 155.004  c
290.514 155.004 290.255 155.095 290.116 155.276  c
289.978 155.458 289.908 155.795 289.908 156.287  c
289.908 157.172 l
291.496 157.172 l
291.496 158.039 l
h
293.682 163.535 m
291.859 157.172 l
292.990 157.172 l
294.385 162.100 l
295.891 157.172 l
297.045 157.172 l
298.363 162.100 l
299.963 157.172 l
300.953 157.172 l
298.879 163.535 l
297.719 163.535 l
296.371 158.607 l
294.848 163.535 l
h
302.840 163.535 m
302.840 162.668 l
304.574 162.668 l
304.574 155.824 l
302.840 156.258 l
302.840 155.367 l
305.734 154.646 l
305.734 162.668 l
307.469 162.668 l
307.469 163.535 l
h
f
2 J
10.0000 M
1.00000 .800000 0.00000 RG
newpath
403.000 261.000 m
403.000 269.284 396.284 276.000 388.000 276.000  c
379.716 276.000 373.000 269.284 373.000 261.000  c
373.000 252.716 379.716 246.000 388.000 246.000  c
396.284 246.000 403.000 252.716 403.000 261.000  c
h
f
0 J
1.45000 M
0.00000 0.00000 0.00000 RG
newpath
403.000 261.000 m
403.000 269.284 396.284 276.000 388.000 276.000  c
379.716 276.000 373.000 269.284 373.000 261.000  c
373.000 252.716 379.716 246.000 388.000 246.000  c
396.284 246.000 403.000 252.716 403.000 261.000  c
h
S
2 J
10.0000 M
0 J
1.45000 M
newpath
381.531 265.535 m
381.531 256.863 l
384.156 256.863 l
384.988 256.863 385.626 257.047 386.069 257.414  c
386.513 257.781 386.734 258.314 386.734 259.014  c
386.734 260.170 386.150 260.990 384.982 261.475  c
387.877 265.535 l
386.365 265.535 l
383.898 261.867 l
382.750 261.867 l
382.750 265.535 l
h
382.750 260.947 m
383.148 260.947 l
384.695 260.947 385.469 260.340 385.469 259.125  c
385.469 258.230 384.820 257.783 383.523 257.783  c
382.750 257.783 l
h
388.996 265.535 m
388.996 264.521 l
389.332 263.736 390.012 262.881 391.035 261.955  c
391.697 261.363 l
392.549 260.594 392.975 259.830 392.975 259.072  c
392.975 258.588 392.829 258.207 392.538 257.930  c
392.247 257.652 391.848 257.514 391.340 257.514  c
390.738 257.514 390.029 257.746 389.213 258.211  c
389.213 257.191 l
389.982 256.828 390.746 256.646 391.504 256.646  c
392.316 256.646 392.969 256.865 393.461 257.303  c
393.953 257.740 394.199 258.320 394.199 259.043  c
394.199 259.562 394.075 260.023 393.827 260.426  c
393.579 260.828 393.117 261.316 392.441 261.891  c
391.996 262.271 l
391.070 263.057 390.535 263.807 390.391 264.521  c
394.158 264.521 l
394.158 265.535 l
h
f
2 J
10.0000 M
1.00000 .800000 0.00000 RG
newpath
438.000 166.000 m
468.000 166.000 l
468.000 196.000 l
438.000 196.000 l
438.000 166.000 l
h
f
0 J
1.45000 M
0.00000 0.00000 0.00000 RG
newpath
438.000 166.000 m
468.000 166.000 l
468.000 196.000 l
438.000 196.000 l
438.000 166.000 l
h
S
2 J
10.0000 M
0 J
1.45000 M
newpath
446.098 176.863 m
447.328 176.863 l
447.328 182.336 l
447.328 183.207 447.489 183.841 447.812 184.237  c
448.134 184.634 448.646 184.832 449.350 184.832  c
450.037 184.832 450.524 184.646 450.812 184.272  c
451.099 183.899 451.242 183.268 451.242 182.377  c
451.242 176.863 l
452.320 176.863 l
452.320 182.359 l
452.320 183.543 452.077 184.404 451.591 184.943  c
451.104 185.482 450.330 185.752 449.268 185.752  c
448.186 185.752 447.387 185.473 446.871 184.914  c
446.355 184.355 446.098 183.492 446.098 182.324  c
h
456.123 180.812 m
455.275 180.223 454.852 179.570 454.852 178.855  c
454.852 178.199 455.092 177.666 455.572 177.256  c
456.053 176.846 456.680 176.641 457.453 176.641  c
458.168 176.641 458.747 176.814 459.190 177.162  c
459.634 177.510 459.855 177.961 459.855 178.516  c
459.855 179.355 459.316 180.121 458.238 180.812  c
459.547 181.453 460.201 182.279 460.201 183.291  c
460.201 184.018 459.927 184.609 459.378 185.066  c
458.829 185.523 458.121 185.752 457.254 185.752  c
456.402 185.752 455.714 185.536 455.188 185.104  c
454.663 184.673 454.400 184.105 454.400 183.402  c
454.400 182.363 454.975 181.500 456.123 180.812  c
h
457.594 180.449 m
458.402 179.918 458.807 179.326 458.807 178.674  c
458.807 178.326 458.672 178.046 458.402 177.833  c
458.133 177.620 457.777 177.514 457.336 177.514  c
456.910 177.514 456.564 177.618 456.299 177.827  c
456.033 178.036 455.900 178.307 455.900 178.639  c
455.900 178.963 456.021 179.253 456.261 179.509  c
456.501 179.765 456.945 180.078 457.594 180.449  c
h
456.750 181.281 m
456.285 181.641 455.970 181.954 455.804 182.222  c
455.638 182.489 455.555 182.822 455.555 183.221  c
455.555 183.717 455.715 184.118 456.035 184.425  c
456.355 184.731 456.777 184.885 457.301 184.885  c
457.805 184.885 458.216 184.754 458.534 184.492  c
458.853 184.230 459.012 183.891 459.012 183.473  c
459.012 183.137 458.913 182.853 458.716 182.620  c
458.519 182.388 458.137 182.104 457.570 181.768  c
h
f
2 J
10.0000 M
1.00000 .800000 0.00000 RG
newpath
438.000 226.000 m
468.000 226.000 l
468.000 256.000 l
438.000 256.000 l
438.000 226.000 l
h
f
0 J
1.45000 M
0.00000 0.00000 0.00000 RG
newpath
438.000 226.000 m
468.000 226.000 l
468.000 256.000 l
438.000 256.000 l
438.000 226.000 l
h
S
2 J
10.0000 M
0 J
1.45000 M
newpath
446.098 236.863 m
447.328 236.863 l
447.328 242.336 l
447.328 243.207 447.489 243.841 447.812 244.237  c
448.134 244.634 448.646 244.832 449.350 244.832  c
450.037 244.832 450.524 244.646 450.812 244.272  c
451.099 243.899 451.242 243.268 451.242 242.377  c
451.242 236.863 l
452.320 236.863 l
452.320 242.359 l
452.320 243.543 452.077 244.404 451.591 244.943  c
451.104 245.482 450.330 245.752 449.268 245.752  c
448.186 245.752 447.387 245.473 446.871 244.914  c
446.355 244.355 446.098 243.492 446.098 242.324  c
h
455.168 245.535 m
455.281 244.859 455.442 244.275 455.651 243.783  c
455.860 243.291 456.230 242.615 456.762 241.756  c
459.129 237.947 l
454.664 237.947 l
454.664 236.863 l
460.230 236.863 l
460.230 237.947 l
458.008 241.225 456.764 243.754 456.498 245.535  c
h
f
2 J
10.0000 M
1.00000 .800000 0.00000 RG
newpath
438.000 286.000 m
468.000 286.000 l
468.000 316.000 l
438.000 316.000 l
438.000 286.000 l
h
f
0 J
1.45000 M
0.00000 0.00000 0.00000 RG
newpath
438.000 286.000 m
468.000 286.000 l
468.000 316.000 l
438.000 316.000 l
438.000 286.000 l
h
S
2 J
10.0000 M
0 J
1.45000 M
newpath
446.098 296.863 m
447.328 296.863 l
447.328 302.336 l
447.328 303.207 447.489 303.841 447.812 304.237  c
448.134 304.634 448.646 304.832 449.350 304.832  c
450.037 304.832 450.524 304.646 450.812 304.272  c
451.099 303.899 451.242 303.268 451.242 302.377  c
451.242 296.863 l
452.320 296.863 l
452.320 302.359 l
452.320 303.543 452.077 304.404 451.591 304.943  c
451.104 305.482 450.330 305.752 449.268 305.752  c
448.186 305.752 447.387 305.473 446.871 304.914  c
446.355 304.355 446.098 303.492 446.098 302.324  c
h
455.426 301.041 m
455.977 300.326 456.670 299.969 457.506 299.969  c
458.264 299.969 458.884 300.220 459.366 300.722  c
459.849 301.224 460.090 301.867 460.090 302.652  c
460.090 303.555 459.819 304.297 459.278 304.879  c
458.737 305.461 458.051 305.752 457.219 305.752  c
456.262 305.752 455.514 305.367 454.975 304.598  c
454.436 303.828 454.166 302.760 454.166 301.393  c
454.166 299.889 454.476 298.721 455.095 297.889  c
455.714 297.057 456.586 296.641 457.711 296.641  c
458.227 296.641 458.871 296.750 459.645 296.969  c
459.645 297.977 l
458.828 297.664 458.160 297.508 457.641 297.508  c
456.164 297.508 455.426 298.686 455.426 301.041  c
h
458.930 302.910 m
458.930 302.254 458.782 301.738 458.487 301.363  c
458.192 300.988 457.783 300.801 457.260 300.801  c
456.771 300.801 456.352 300.965 456.000 301.293  c
455.648 301.621 455.473 302.016 455.473 302.477  c
455.473 303.203 455.640 303.786 455.974 304.226  c
456.308 304.665 456.750 304.885 457.301 304.885  c
457.797 304.885 458.192 304.706 458.487 304.349  c
458.782 303.991 458.930 303.512 458.930 302.910  c
h
f
2 J
10.0000 M
1.00000 .800000 0.00000 RG
newpath
187.000 152.787 m
195.787 144.000 l
208.213 144.000 l
217.000 152.787 l
217.000 165.213 l
208.213 174.000 l
195.787 174.000 l
187.000 165.213 l
h
f*
0 J
1.45000 M
0.00000 0.00000 0.00000 RG
newpath
187.000 152.787 m
195.787 144.000 l
208.213 144.000 l
217.000 152.787 l
217.000 165.213 l
208.213 174.000 l
195.787 174.000 l
187.000 165.213 l
h
S
2 J
10.0000 M
0 J
1.45000 M
newpath
197.793 163.752 m
197.211 163.752 196.467 163.625 195.561 163.371  c
195.561 162.152 l
196.537 162.605 197.340 162.832 197.969 162.832  c
198.453 162.832 198.843 162.705 199.138 162.451  c
199.433 162.197 199.580 161.863 199.580 161.449  c
199.580 161.109 199.483 160.820 199.290 160.582  c
199.097 160.344 198.740 160.078 198.221 159.785  c
197.623 159.439 l
196.885 159.018 196.364 158.620 196.062 158.247  c
195.759 157.874 195.607 157.439 195.607 156.943  c
195.607 156.275 195.850 155.726 196.334 155.294  c
196.818 154.862 197.436 154.646 198.186 154.646  c
198.854 154.646 199.559 154.758 200.301 154.980  c
200.301 156.105 l
199.387 155.746 198.705 155.566 198.256 155.566  c
197.830 155.566 197.479 155.680 197.201 155.906  c
196.924 156.133 196.785 156.418 196.785 156.762  c
196.785 157.051 196.887 157.307 197.090 157.529  c
197.293 157.752 197.664 158.018 198.203 158.326  c
198.824 158.678 l
199.574 159.104 200.098 159.506 200.395 159.885  c
200.691 160.264 200.840 160.719 200.840 161.250  c
200.840 162.004 200.562 162.609 200.005 163.066  c
199.448 163.523 198.711 163.752 197.793 163.752  c
h
203.242 163.535 m
203.242 162.668 l
204.977 162.668 l
204.977 155.824 l
203.242 156.258 l
203.242 155.367 l
206.137 154.646 l
206.137 162.668 l
207.871 162.668 l
207.871 163.535 l
h
f
2 J
10.0000 M
1.00000 .800000 0.00000 RG
newpath
421.000 67.0000 m
421.000 89.0000 l
421.000 91.2091 422.791 93.0000 425.000 93.0000  c
481.000 93.0000 l
483.209 93.0000 485.000 91.2091 485.000 89.0000  c
485.000 67.0000 l
485.000 64.7909 483.209 63.0000 481.000 63.0000  c
425.000 63.0000 l
422.791 63.0000 421.000 64.7909 421.000 67.0000  c
h
f
0 J
1.45000 M
0.00000 0.00000 0.00000 RG
newpath
421.000 67.0000 m
421.000 89.0000 l
421.000 91.2091 422.791 93.0000 425.000 93.0000  c
481.000 93.0000 l
483.209 93.0000 485.000 91.2091 485.000 89.0000  c
485.000 67.0000 l
485.000 64.7909 483.209 63.0000 481.000 63.0000  c
425.000 63.0000 l
422.791 63.0000 421.000 64.7909 421.000 67.0000  c
h
S
2 J
10.0000 M
0 J
1.45000 M
newpath
449.552 82.3301 m
448.778 82.5645 448.116 82.6816 447.565 82.6816  c
446.628 82.6816 445.863 82.3701 445.271 81.7471  c
444.680 81.1240 444.384 80.3164 444.384 79.3242  c
444.384 78.3594 444.645 77.5684 445.166 76.9512  c
445.688 76.3340 446.354 76.0254 447.167 76.0254  c
447.937 76.0254 448.531 76.2988 448.951 76.8457  c
449.371 77.3926 449.581 78.1699 449.581 79.1777  c
449.575 79.5352 l
445.562 79.5352 l
445.729 81.0469 446.470 81.8027 447.782 81.8027  c
448.263 81.8027 448.853 81.6738 449.552 81.4160  c
h
445.614 78.6680 m
448.421 78.6680 l
448.421 77.4844 447.979 76.8926 447.097 76.8926  c
446.210 76.8926 445.716 77.4844 445.614 78.6680  c
h
450.935 82.5352 m
453.354 79.2480 l
451.005 76.1719 l
452.376 76.1719 l
454.233 78.6211 l
455.915 76.1719 l
457.040 76.1719 l
454.837 79.4004 l
457.233 82.5352 l
455.862 82.5352 l
453.946 80.0156 l
452.095 82.5352 l
h
460.843 82.6816 m
460.257 82.6816 459.800 82.5137 459.472 82.1777  c
459.144 81.8418 458.979 81.3750 458.979 80.7773  c
458.979 77.0391 l
458.183 77.0391 l
458.183 76.1719 l
458.979 76.1719 l
458.979 75.0176 l
460.134 74.9062 l
460.134 76.1719 l
461.798 76.1719 l
461.798 77.0391 l
460.134 77.0391 l
460.134 80.5664 l
460.134 81.3984 460.493 81.8145 461.212 81.8145  c
461.364 81.8145 461.550 81.7891 461.769 81.7383  c
461.769 82.5352 l
461.413 82.6328 461.104 82.6816 460.843 82.6816  c
h
f
2 J
10.0000 M
1.00000 .800000 0.00000 RG
newpath
313.000 78.0000 m
313.000 86.2843 306.284 93.0000 298.000 93.0000  c
289.716 93.0000 283.000 86.2843 283.000 78.0000  c
283.000 69.7157 289.716 63.0000 298.000 63.0000  c
306.284 63.0000 313.000 69.7157 313.000 78.0000  c
h
f
0 J
1.45000 M
0.00000 0.00000 0.00000 RG
newpath
313.000 78.0000 m
313.000 86.2843 306.284 93.0000 298.000 93.0000  c
289.716 93.0000 283.000 86.2843 283.000 78.0000  c
283.000 69.7157 289.716 63.0000 298.000 63.0000  c
306.284 63.0000 313.000 69.7157 313.000 78.0000  c
h
S
2 J
10.0000 M
0 J
1.45000 M
newpath
296.682 82.3301 m
295.908 82.5645 295.246 82.6816 294.695 82.6816  c
293.758 82.6816 292.993 82.3701 292.401 81.7471  c
291.810 81.1240 291.514 80.3164 291.514 79.3242  c
291.514 78.3594 291.774 77.5684 292.296 76.9512  c
292.817 76.3340 293.484 76.0254 294.297 76.0254  c
295.066 76.0254 295.661 76.2988 296.081 76.8457  c
296.501 77.3926 296.711 78.1699 296.711 79.1777  c
296.705 79.5352 l
292.691 79.5352 l
292.859 81.0469 293.600 81.8027 294.912 81.8027  c
295.393 81.8027 295.982 81.6738 296.682 81.4160  c
h
292.744 78.6680 m
295.551 78.6680 l
295.551 77.4844 295.109 76.8926 294.227 76.8926  c
293.340 76.8926 292.846 77.4844 292.744 78.6680  c
h
298.668 82.5352 m
298.668 73.8633 l
301.293 73.8633 l
302.125 73.8633 302.763 74.0469 303.206 74.4141  c
303.649 74.7812 303.871 75.3145 303.871 76.0137  c
303.871 77.1699 303.287 77.9902 302.119 78.4746  c
305.014 82.5352 l
303.502 82.5352 l
301.035 78.8672 l
299.887 78.8672 l
299.887 82.5352 l
h
299.887 77.9473 m
300.285 77.9473 l
301.832 77.9473 302.605 77.3398 302.605 76.1250  c
302.605 75.2305 301.957 74.7832 300.660 74.7832  c
299.887 74.7832 l
h
f
2 J
10.0000 M
0 J
1.45000 M
newpath
135.216 343.000 m
192.528 272.631 l
S
2 J
10.0000 M
0 J
1.45000 M
newpath
186.000 341.000 m
199.058 275.709 l
S
2 J
10.0000 M
0 J
1.45000 M
newpath
236.526 341.000 m
207.944 274.772 l
S
2 J
10.0000 M
0 J
1.45000 M
newpath
288.000 341.891 m
212.926 271.277 l
S
2 J
10.0000 M
0 J
1.45000 M
newpath
290.758 166.695 m
212.280 250.077 l
S
2 J
10.0000 M
0 J
1.45000 M
newpath
304.790 166.695 m
378.076 249.752 l
S
2 J
10.0000 M
0 J
1.45000 M
newpath
443.250 346.000 m
396.175 273.577 l
S
2 J
10.0000 M
0 J
1.45000 M
newpath
217.000 261.000 m
373.000 261.000 l
S
2 J
10.0000 M
0 J
1.45000 M
newpath
440.812 196.000 m
397.459 249.358 l
S
2 J
10.0000 M
0 J
1.45000 M
newpath
438.000 245.615 m
402.337 256.589 l
S
2 J
10.0000 M
0 J
1.45000 M
newpath
438.000 291.769 m
400.775 268.861 l
S
2 J
10.0000 M
0 J
1.45000 M
newpath
216.953 159.000 m
289.017 159.000 l
S
2 J
10.0000 M
0 J
1.45000 M
newpath
313.000 78.0000 m
420.974 78.0000 l
S
2 J
10.0000 M
0 J
1.45000 M
newpath
298.000 93.0000 m
298.000 144.015 l
S
2 J
10.0000 M
Q
[ 1.00000 0.00000 0.00000 1.00000 0.00000 0.00000 ] defaultmatrix matrix concatmatrix setmatrix
cliprestore

%%Trailer
%%EOF
