\relax 
\@writefile{toc}{\contentsline {chapter}{Abstract}{iii}}
\@writefile{toc}{\contentsline {chapter}{Acknowledgements}{iii}}
\@writefile{toc}{\contentsline {chapter}{List of Figures}{vii}}
\@writefile{toc}{\contentsline {chapter}{List of Tables}{viii}}
\@setckpt{Front/Front}{
\setcounter{page}{1}
\setcounter{equation}{0}
\setcounter{enumi}{0}
\setcounter{enumii}{0}
\setcounter{enumiii}{0}
\setcounter{enumiv}{0}
\setcounter{footnote}{0}
\setcounter{mpfootnote}{0}
\setcounter{part}{0}
\setcounter{chapter}{0}
\setcounter{section}{0}
\setcounter{subsection}{0}
\setcounter{subsubsection}{0}
\setcounter{paragraph}{0}
\setcounter{subparagraph}{0}
\setcounter{figure}{0}
\setcounter{table}{0}
\setcounter{lstnumber}{1}
\setcounter{fixmecount}{0}
\setcounter{fxnotecount}{0}
\setcounter{fxwarningcount}{0}
\setcounter{fxerrorcount}{0}
\setcounter{fxfatalcount}{0}
\setcounter{parentequation}{0}
\setcounter{float@type}{8}
\setcounter{subfigure}{0}
\setcounter{lofdepth}{1}
\setcounter{subtable}{0}
\setcounter{lotdepth}{1}
\setcounter{AM@survey}{0}
\setcounter{lstlisting}{0}
}
