%!PS-Adobe-3.0 EPSF-3.0
%%BoundingBox: 0 0 353 240
%%Creator: yExport 1.5
%%Producer: org.freehep.graphicsio.ps.EPSGraphics2D Revision: 12753 
%%For: 
%%Title: 
%%CreationDate: Thursday, March 16, 2017 11:37:50 AM GMT
%%LanguageLevel: 3
%%EndComments
%%BeginProlog
100 dict dup begin

%
% File: org/freehep/graphicsio.ps/PSProlog.txt
% Author: Charles Loomis
%

% Redefinitions which save some space in the output file.  These are also
% the same as the PDF operators.
/q {gsave} def
/Q {grestore} def

/n {newpath} def
/m {moveto} def
/l {lineto} def
/c {curveto} def
/h {closepath} def

/re {4 -2 roll moveto
     dup 0 exch rlineto exch 0 rlineto
     neg 0 exch rlineto closepath} def

/f {fill} def
/f* {eofill} def
/F {gsave vg&FC fill grestore} def
/F* {gsave vg&FC eofill grestore} def

/s {closepath stroke} def
/S {stroke} def

/b {closepath gsave vg&FC fill grestore
    gsave stroke grestore newpath} def
/B {gsave vg&FC fill grestore gsave stroke grestore newpath} def
/b* {closepath gsave vg&FC eofill grestore
    gsave stroke grestore newpath} def
/B* {gsave vg&FC eofill grestore gsave stroke grestore newpath} def

/g {1 array astore /vg&fcolor exch def} def
/G {setgray} def
/k {4 array astore /vg&fcolor exch def} def
/K {setcmykcolor} def
/rg {3 array astore /vg&fcolor exch def} def
/RG {setrgbcolor} def

% Initialize the fill color.
0 0 0 rg

/vg&FC {mark vg&fcolor aload pop
        counttomark 1 eq {G} if
        counttomark 3 eq {RG} if
        counttomark 4 eq {K} if
        cleartomark } def

/vg&DFC {/vg&fcolor exch def} def

/vg&C {mark exch aload pop
       counttomark 1 eq {G} if
       counttomark 3 eq {RG} if
       counttomark 4 eq {K} if
       cleartomark } def

/w {setlinewidth} def
/j {setlinejoin} def
/J {setlinecap} def
/M {setmiterlimit} def
/d {setdash} def
/i {setflat} def

/W {clip} def
/W* {eoclip} def

% Setup the default graphics state.
% (black; 1 pt. linewidth; miter join; butt-ends; solid)
/defaultGraphicsState {0 g 1 w 0 j 0 J [] 0 d} def

% Emulation of the rectangle operators for PostScript implementations
% which do not implement all Level 2 features.  This is an INCOMPLETE
% emulation; only the "x y width height rect..." form is emulated.
/*rf {gsave newpath re fill grestore} def
/*rs {gsave newpath re stroke grestore} def
/*rc {newpath re clip} def
/rf  /rectfill where {pop /rectfill}{/*rf} ifelse load def
/rs  /rectstroke where {pop /rectstroke}{/*rs} ifelse load def
/rc  /rectclip where {pop /rectclip}{/*rc} ifelse load def

% Emulation of the selectfont operator.  This includes a 20% increase in
% the fontsize which is necessary to get sizes similar to the Java fonts.
/*sf {exch findfont exch
      dup type /arraytype eq {makefont}{scalefont} ifelse setfont} bind def
/sf /selectfont where {pop {1.2 mul selectfont}}{{1.2 mul *sf}} ifelse def

% Special version of stroke which allows the dash pattern to continue
% across path segments.  (This may be needed for PostScript although
% modern printers seem to do this correctly.)
/vg&stroke {
  currentdash pop length 0 eq
  {stroke}
  {
    currentdash /vg&doffset exch def pop
    flattenpath
    {m vg&resetdash}
    {2 copy
     currentpoint
     3 -1 roll sub dup mul
     3 1 roll sub dup mul
     add sqrt
     3 1 roll l
     currentdash 3 -1 roll add setdash}
     {}
     {h vg&resetdash}
     pathforall
     stroke
     vg&resetdash
  } ifelse
} def
/vg&resetdash {currentdash pop vg&doffset setdash} def

% Initialize variables for safety.
/delta 0 def
/xv 0 def  /yv 0 def  /width 0 def  /height 0 def

% Initialize to portrait INTERNATIONAL (Letter-height, A4-width) page.
/pw 595 def  /ph 791  def  /po true def /ftp false def

% Initialize margins to 20 points.
/ml 20 def  /mr 20 def  /mt 20 def  /mb 20 def

% Temporary matrices.
/smatrix 0 def  /nmatrix 0 def

% set page size (usage: <page width><page height> setpagesize)
/setpagesize {/ph exch def /pw exch def} def

% set page orientation (usage: portrait or landscape)
/portrait {/po true def} def
/landscape {/po false def} def

% force natural size for image (usage: naturalsize)
/naturalsize {/ftp false def} def

% resize image to fill page (usage: fittopage)
/fittopage {/ftp true def} def

% set margins of the page (usage: <left><bottom><top><right> setmargins)
/setmargins {/mr exch def /mt exch def /mb exch def /ml exch def} def

% set the graphic's size (usage: <width><height> setsize)
/setsize {/gh exch def /gw exch def} def

% set the graphic's origin (usage: <x0><y0> setorigin)
/setorigin {/gy exch def /gx exch def} def

% calculate image center
/imagecenter {pw ml sub mr sub 2 div ml add
              ph mt sub mb sub 2 div mb add} def

% calculate the necessary scaling
/imagescale {po {gw}{gh} ifelse pw ml sub mr sub div
             po {gh}{gw} ifelse ph mt sub mb sub div
             2 copy lt {exch} if pop
             ftp not {1 2 copy lt {exch} if pop} if
             1 exch div /sfactor exch def
             /gw gw sfactor mul def /gh gh sfactor mul def} def

% calculate image origin
/imageorigin {pw ml sub mr sub 2 div ml add
              po {gw}{gh} ifelse 2 div sub
              ph mt sub mb sub 2 div mb add
              po {gh}{gw} ifelse 2 div po {add}{sub} ifelse} def

% calculate the clipping origin
/cliporigin  {pw ml sub mr sub 2 div ml add
              po {gw}{gh} ifelse 2 div sub floor
              ph mt sub mb sub 2 div mb add
              po {gh}{gw} ifelse 2 div sub floor} def

% Set the clipping region to the bounding box.
/cliptobounds {cliporigin po {gw}{gh} ifelse 1 add
                          po {gh}{gw} ifelse 1 add rc} def

% set the base transformation matrix (usage: setbasematrix)
/setbasematrix {imageorigin translate
                po {0}{90} ifelse rotate
                sfactor sfactor neg scale
                /defaultmatrix matrix currentmatrix def} def

% The lower-right bias in drawing 1 pt. wide lines.
/bias  {q 0.5 0.5 translate} def
/unbias {Q} def

% Define the composite fonts used to print Unicode strings.
% Undefine particular values in an encoding array.
/vg&undef { {exch dup 3 -1 roll /.notdef put} forall } def
/vg&redef { {3 -1 roll dup 4 2 roll put} forall } def

% usage: key encoding basefontname vg&newbasefont font
/vg&newbasefont {
findfont dup length dict copy
  begin
    currentdict /FID undef
    /Encoding exch def
    dup /FontName exch def
    currentdict
  end
definefont
} def

% usage: key encoding basefontname vg&newskewedbasefont font
/vg&newskewedbasefont {
findfont dup length dict copy
  begin
    currentdict /FID undef
    /Encoding exch def
    dup /FontName exch def
    exch FontMatrix exch matrix concatmatrix /FontMatrix exch def
    currentdict
  end
definefont
} def

% usage: basekey suffix vg&nconcat name
/vg&nconcat {
  2 {dup length string cvs exch} repeat
  dup length 3 -1 roll dup length 3 -1 roll add string
  dup 0 4 -1 roll dup length 5 1 roll putinterval
  dup 4 -2 roll exch putinterval cvn
} def

%usage: fontname vg&skewmatrix matrix
/vg&skewmatrix {
findfont dup /FontInfo known
  {
    /FontInfo get dup /ItalicAngle known
    {
      [ 1 0 4 -1 roll /ItalicAngle get neg dup sin exch cos div 1 0 0 ]
    }
    {pop matrix} ifelse
  }
  {pop matrix} ifelse
} def

% usage: newfontname basefontname vg&newcompositefont --
/vg&newcompositefont {
/vg&fstyle exch def
/vg&bfont exch def
/vg&fname exch def
<<
/FontStyleBits vg&fstyle
/FontType 0
/FontMatrix matrix
/FontName vg&fname
/FMapType 2
/Encoding [ 0 1 255 {pop 6} for ]
          dup 16#00 0 put % Latin
          dup 16#03 1 put % Greek
          dup 16#20 2 put % Punctuation
          dup 16#21 3 put % Arrows
          dup 16#22 4 put % MathOps
          dup 16#27 5 put % Dingbats

/FDepVector [
vg&bfont /-UC-Latin vg&nconcat UCLatinEncoding
vg&bfont vg&newbasefont

vg&bfont vg&skewmatrix
vg&bfont /-UC-Greek vg&nconcat UCGreekEncoding
/Symbol vg&newskewedbasefont

vg&bfont /-UC-Punctuation vg&nconcat UCPunctuationEncoding
vg&bfont vg&newbasefont

/Arrows-UC findfont
/MathOps-UC findfont
/Dingbats-UC findfont
/Undefined-UC findfont ]
>>
vg&fname exch definefont pop
} def

% Null encoding vector (all elements set to .notdef)
/NullEncoding [ 256 {/.notdef} repeat ] def

% Unicode Latin encoding (unicode codes \u0000-\u00ff)
/UCLatinEncoding
  ISOLatin1Encoding dup length array copy
  dup 16#60 /grave put
  [ 16#90 16#91 16#92 16#93 16#94 16#95 16#96
    16#97 16#98 16#9a 16#9b 16#9d 16#9e 16#9f
  ] vg&undef
  def

% Unicode Greek encoding (unicode codes \u0370-\u03ff)
/UCGreekEncoding
  NullEncoding dup length array copy
  << 16#91 /Alpha    16#92 /Beta      16#93 /Gamma    16#94 /Delta
     16#95 /Epsilon  16#96 /Zeta      16#97 /Eta      16#98 /Theta
     16#99 /Iota     16#9a /Kappa     16#9b /Lambda   16#9c /Mu
     16#9d /Nu       16#9e /Xi        16#9f /Omicron  16#a0 /Pi
     16#a1 /Rho      16#a3 /Sigma     16#a4 /Tau      16#a5 /Upsilon
     16#a6 /Phi      16#a7 /Chi       16#a8 /Psi      16#a9 /Omega
     16#b1 /alpha    16#b2 /beta      16#b3 /gamma    16#b4 /delta
     16#b5 /epsilon  16#b6 /zeta      16#b7 /eta      16#b8 /theta
     16#b9 /iota     16#ba /kappa     16#bb /lambda   16#bc /mu
     16#bd /nu       16#be /xi        16#bf /omicron  16#c0 /pi
     16#c1 /rho      16#c2 /sigma1    16#c3 /sigma    16#c4 /tau
     16#c5 /upsilon  16#c6 /phi1      16#c7 /chi      16#c8 /psi
     16#c9 /omega    16#7e /semicolon 16#87 /dotmath  16#d1 /theta1
     16#d2 /Upsilon1 16#d5 /phi       16#d6 /omega1
  >> vg&redef
  def

% Unicode punctuation encoding (unicode codes \u2000-\u206f)
/UCPunctuationEncoding
  NullEncoding dup length array copy
  << 16#10 /hyphen          16#11 /hyphen              16#12 /endash
     16#13 /emdash          16#18 /quoteleft           16#19 /quoteright
     16#1a /quotesinglbase  16#1b /quotesingle         16#1c /quotedblleft
     16#1d /quotedblright   16#1e /quotedblbase        16#1f /quotedbl
     16#20 /dagger          16#21 /daggerdbl           16#22 /bullet
     16#24 /period          16#26 /ellipsis            16#27 /periodcentered
     16#30 /perthousand     16#44 /fraction
     16#70 /zerosuperior    16#74 /foursuperior        16#75 /fivesuperior
     16#76 /sixsuperior     16#77 /sevensuperior       16#78 /eightsuperior
     16#79 /ninesuperior    16#7b /hyphensuperior      16#7d /parenleftsuperior
     16#7e /parenrightsuperior
     16#80 /zeroinferior    16#84 /fourinferior        16#85 /fiveinferior
     16#81 /oneinferior     16#82 /twoinferior         16#83 /threeinferior
     16#86 /sixinferior     16#87 /seveninferior       16#88 /eightinferior
     16#89 /nineinferior    16#8b /hypheninferior      16#8d /parenleftinferior
     16#8e /parenrightinferior
  >> vg&redef
  def

% Unicode mathematical operators encoding (unicode codes \u2200-\u22ff)
/UCMathOpsEncoding
  NullEncoding dup length array copy
  << 16#00 /universal       16#02 /partialdiff         16#03 /existential
     16#05 /emptyset        16#06 /Delta               16#07 /gradient
     16#08 /element         16#09 /notelement          16#0b /suchthat
     16#0f /product         16#11 /summation           16#12 /minus
     16#15 /fraction        16#17 /asteriskmath        16#19 /bullet
     16#1a /radical         16#1d /proportional        16#1e /infinity
     16#20 /angle           16#23 /bar                 16#27 /logicaland
     16#28 /logicalor       16#29 /intersection        16#2a /union
     16#2b /integral        16#34 /therefore           16#36 /colon
     16#3c /similar         16#45 /congruent           16#48 /approxequal
     16#60 /notequal        16#61 /equivalence         16#64 /lessequal
     16#65 /greaterequal    16#82 /propersubset        16#83 /propersuperset
     16#86 /reflexsubset    16#87 /reflexsuperset      16#95 /circleplus
     16#97 /circlemultiply  16#a5 /perpendicular       16#03 /existential
     16#c0 /logicaland      16#c1 /logicalor           16#c2 /intersection
     16#c3 /union           16#c4 /diamond             16#c5 /dotmath
  >> vg&redef
  def

% Unicode arrows encoding (unicode codes \u2190-\u21ff)
% Also includes those "Letterlike" unicode characters
% which are available in the symbol font. (unicode codes \u2100-\u214f)
/UCArrowsEncoding
  NullEncoding dup length array copy
  << 16#11 /Ifraktur        16#1c /Rfraktur            16#22 /trademarkserif
     16#35 /aleph
     16#90 /arrowleft       16#91 /arrowup             16#92 /arrowright
     16#93 /arrowdown       16#94 /arrowboth           16#d0 /arrowdblleft
     16#d1 /arrowdblup      16#d2 /arrowdblright       16#d3 /arrowdbldown
     16#d4 /arrowdblboth
  >> vg&redef
  def

/ZapfDingbats findfont /Encoding get
dup length array copy /UCDingbatsEncoding exch def
16#20 1 16#7f {
  dup 16#20 sub exch
  UCDingbatsEncoding exch get
  UCDingbatsEncoding 3 1 roll put
} for
16#a0 1 16#ff {
  dup 16#40 sub exch
  UCDingbatsEncoding exch get
  UCDingbatsEncoding 3 1 roll put
} for
UCDingbatsEncoding [ 16#c0 1 16#ff {} for ] vg&undef
[ 16#00  16#05 16#0a 16#0b  16#28 16#4c 16#4e  16#53 16#54 16#55  16#57 16#5f
  16#60  16#68 16#69 16#6a  16#6b 16#6c 16#6d  16#6e 16#6f 16#70  16#71 16#72
  16#73  16#74 16#75 16#95  16#96 16#97 16#b0  16#bf
] vg&undef pop

% Define the base fonts which don't change.
/Undefined-UC NullEncoding       /Helvetica    vg&newbasefont pop
/MathOps-UC   UCMathOpsEncoding  /Symbol       vg&newbasefont pop
/Arrows-UC    UCArrowsEncoding   /Symbol       vg&newbasefont pop
/Dingbats-UC  UCDingbatsEncoding /ZapfDingbats vg&newbasefont pop

% Make the SansSerif composite fonts.
/SansSerif /Helvetica 16#00 vg&newcompositefont
/SansSerif-Bold /Helvetica-Bold 16#01 vg&newcompositefont
/SansSerif-Italic /Helvetica-Oblique 16#02 vg&newcompositefont
/SansSerif-BoldItalic /Helvetica-BoldOblique 16#03 vg&newcompositefont

% Make the Serif composite fonts.
/Serif /Times-Roman 16#00 vg&newcompositefont
/Serif-Bold /Times-Bold 16#01 vg&newcompositefont
/Serif-Italic /Times-Italic 16#02 vg&newcompositefont
/Serif-BoldItalic /Times-BoldItalic 16#03 vg&newcompositefont

% Make the Monospaced composite fonts.
/Monospaced /Courier 16#00 vg&newcompositefont
/Monospaced-Bold /Courier-Bold 16#01 vg&newcompositefont
/Monospaced-Italic /Courier-Oblique 16#02 vg&newcompositefont
/Monospaced-BoldItalic /Courier-BoldOblique 16#03 vg&newcompositefont

% Make the Dialog composite fonts.
/Dialog /Helvetica 16#00 vg&newcompositefont
/Dialog-Bold /Helvetica-Bold 16#01 vg&newcompositefont
/Dialog-Italic /Helvetica-Oblique 16#02 vg&newcompositefont
/Dialog-BoldItalic /Helvetica-BoldOblique 16#03 vg&newcompositefont

% Make the DialogInput composite fonts.
/DialogInput /Courier 16#00 vg&newcompositefont
/DialogInput-Bold /Courier-Bold 16#01 vg&newcompositefont
/DialogInput-Italic /Courier-Oblique 16#02 vg&newcompositefont
/DialogInput-BoldItalic /Courier-BoldOblique 16#03 vg&newcompositefont

% Make the Typewriter composite fonts (JDK 1.1 only).
/Typewriter /Courier 16#00 vg&newcompositefont
/Typewriter-Bold /Courier-Bold 16#01 vg&newcompositefont
/Typewriter-Italic /Courier-Oblique 16#02 vg&newcompositefont
/Typewriter-BoldItalic /Courier-BoldOblique 16#03 vg&newcompositefont


/cfontH {
 dup /fontsize exch def /SansSerif exch sf
 /vg&fontstyles [{cfontH} {cfontHB} {cfontHI} {cfontHBI}] def
} def
/cfontHB {
  dup /fontsize exch def /SansSerif-Bold exch sf
 /vg&fontstyles [{cfontH} {cfontHB} {cfontHI} {cfontHBI}] def
} def
/cfontHI {
 dup /fontsize exch def /SansSerif-Italic exch sf
 /vg&fontstyles [{cfontH} {cfontHB} {cfontHI} {cfontHBI}] def
} def
/cfontHBI {
 dup /fontsize exch def /SansSerif-BoldItalic exch sf
 /vg&fontstyles [{cfontH} {cfontHB} {cfontHI} {cfontHBI}] def
} def

/cfontT {
 dup /fontsize exch def /Serif exch sf
 /vg&fontstyles [{cfontT} {cfontTB} {cfontTI} {cfontTBI}] def
} def
/cfontTB {
 dup /fontsize exch def /Serif-Bold exch sf
 /vg&fontstyles [{cfontT} {cfontTB} {cfontTI} {cfontTBI}] def
} def
/cfontTI {
 dup /fontsize exch def /Serif-Italic exch sf
 /vg&fontstyles [{cfontT} {cfontTB} {cfontTI} {cfontTBI}] def
} def
/cfontTBI {
 dup /fontsize exch def /Serif-BoldItalic exch sf
 /vg&fontstyles [{cfontT} {cfontTB} {cfontTI} {cfontTBI}] def
} def

/cfontC {
 dup /fontsize exch def /Typewriter exch sf
 /vg&fontstyles [{cfontC} {cfontCB} {cfontCI} {cfontCBI}] def
} def
/cfontCB {
 dup /fontsize exch def /Typewriter-Bold exch sf
 /vg&fontstyles [{cfontC} {cfontCB} {cfontCI} {cfontCBI}] def
} def
/cfontCI {
 dup /fontsize exch def /Typewriter-Italic exch sf
 /vg&fontstyles [{cfontC} {cfontCB} {cfontCI} {cfontCBI}] def
} def
/cfontCBI {
 dup /fontsize exch def /Typewriter-BoldItalic exch sf
 /vg&fontstyles [{cfontC} {cfontCB} {cfontCI} {cfontCBI}] def
} def

% Darken or lighten the current color.
/darken {0.7 exch exp 3 copy
         q 4 -1 roll vg&C
         currentrgbcolor 3 {4 -2 roll mul} repeat
         3 array astore Q} def

/displayColorMap
<< /Cr   [1.00 0.00 0.00]       /Cg     [0.00 1.00 0.00]
   /Cb   [0.00 0.00 1.00]       /Cc     [1.00 0.00 0.00 0.00]
   /Cm   [0.00 1.00 0.00 0.00]  /Cy     [0.00 0.00 1.00 0.00]
   /Co   [1.00 0.78 0.00]       /Cp     [1.00 0.67 0.67]
   /Cw   [1   ]                 /Cgrl   [0.75]
   /Cgr  [0.50]                 /Cgrd   [0.25]
   /Ck   [0   ]
   /CGr  [1.00 0.00 0.00]       /CGg    [0.00 1.00 0.00]
   /CGb  [0.00 0.00 1.00]       /CGc    [1.00 0.00 0.00 0.00]
   /CGm  [0.00 1.00 0.00 0.00]  /CGy    [0.00 0.00 1.00 0.00]
   /CGo  [1.00 0.78 0.00]       /CGp    [1.00 0.67 0.67]
   /CGw  [1   ]                 /CGgrl  [0.75]
   /CGgr [0.50]                 /CGgrd  [0.25]
   /CGk  [0   ]
   /CIr  [1.00 0.00 0.00]       /CIg    [0.00 1.00 0.00]
   /CIb  [0.00 0.00 1.00]       /CIc    [1.00 0.00 0.00 0.00]
   /CIm  [0.00 1.00 0.00 0.00]  /CIy    [0.00 0.00 1.00 0.00]
   /CIo  [1.00 0.78 0.00]       /CIp    [1.00 0.67 0.67]
   /CIw  [1   ]                 /CIgrl  [0.75]
   /CIgr [0.50]                 /CIgrd  [0.25]
   /CIk  [0   ]
>> def

/printColorMap
<< /Cr   [1.00 0.33 0.33]       /Cg     [0.33 1.00 0.33]
   /Cb   [0.33 0.33 1.00]       /Cc     [1.00 0.00 0.00 0.00]
   /Cm   [0.00 1.00 0.00 0.00]  /Cy     [0.00 0.00 1.00 0.00]
   /Co   [1.00 0.78 0.00]       /Cp     [1.00 0.67 0.67]
   /Cw   [1   ]                 /Cgrl   [0.75]
   /Cgr  [0.50]                 /Cgrd   [0.25]
   /Ck   [0   ]
   /CGr  [1.00 0.33 0.33]       /CGg    [0.33 1.00 0.33]
   /CGb  [0.33 0.33 1.00]       /CGc    [1.00 0.00 0.00 0.00]
   /CGm  [0.00 1.00 0.00 0.00]  /CGy    [0.00 0.00 1.00 0.00]
   /CGo  [1.00 0.78 0.00]       /CGp    [1.00 0.67 0.67]
   /CGw  [1   ]                 /CGgrl  [0.75]
   /CGgr [0.50]                 /CGgrd  [0.25]
   /CGk  [0   ]
   /CIr  [1.00 0.33 0.33]       /CIg    [0.33 1.00 0.33]
   /CIb  [0.33 0.33 1.00]       /CIc    [1.00 0.00 0.00 0.00]
   /CIm  [0.00 1.00 0.00 0.00]  /CIy    [0.00 0.00 1.00 0.00]
   /CIo  [1.00 0.78 0.00]       /CIp    [1.00 0.67 0.67]
   /CIw  [1   ]                 /CIgrl  [0.75]
   /CIgr [0.50]                 /CIgrd  [0.25]
   /CIk  [0   ]
>> def

/grayColorMap
<< /Cr   [0   ]                 /Cg     [0   ]
   /Cb   [0   ]                 /Cc     [0   ]
   /Cm   [0   ]                 /Cy     [0   ]
   /Co   [0   ]                 /Cp     [0   ]
   /Cw   [0   ]                 /Cgrl   [0   ]
   /Cgr  [0   ]                 /Cgrd   [0   ]
   /Ck   [0   ]
   /CGr  [0.75]                 /CGg    [1   ]
   /CGb  [0.50]                 /CGc    [0.75]
   /CGm  [0.50]                 /CGy    [1   ]
   /CGo  [0.75]                 /CGp    [1   ]
   /CGw  [0   ]                 /CGgrl  [0.25]
   /CGgr [0.50]                 /CGgrd  [0.75]
   /CGk  [1   ]
   /CIr  [1   ]                 /CIg    [1   ]
   /CIb  [1   ]                 /CIc    [1   ]
   /CIm  [1   ]                 /CIy    [1   ]
   /CIo  [1   ]                 /CIp    [1   ]
   /CIw  [1   ]                 /CIgrl  [1   ]
   /CIgr [1   ]                 /CIgrd  [1   ]
   /CIk  [1   ]
>> def

/bwColorMap
<< /Cr   [0   ]                 /Cg     [0   ]
   /Cb   [0   ]                 /Cc     [0   ]
   /Cm   [0   ]                 /Cy     [0   ]
   /Co   [0   ]                 /Cp     [0   ]
   /Cw   [0   ]                 /Cgrl   [0   ]
   /Cgr  [0   ]                 /Cgrd   [0   ]
   /Ck   [0   ]
   /CGr  [1   ]                 /CGg    [1   ]
   /CGb  [1   ]                 /CGc    [1   ]
   /CGm  [1   ]                 /CGy    [1   ]
   /CGo  [1   ]                 /CGp    [1   ]
   /CGw  [0   ]                 /CGgrl  [1   ]
   /CGgr [1   ]                 /CGgrd  [1   ]
   /CGk  [1   ]
   /CIr  [1   ]                 /CIg    [1   ]
   /CIb  [1   ]                 /CIc    [1   ]
   /CIm  [1   ]                 /CIy    [1   ]
   /CIo  [1   ]                 /CIp    [1   ]
   /CIw  [1   ]                 /CIgrl  [1   ]
   /CIgr [1   ]                 /CIgrd  [1   ]
   /CIk  [1   ]
>> def

%
% The following routines handle the alignment of and printing of
% tagged strings.
%

% Predefine the bounding box values.
/bbllx 0 def /bblly 0 def /bburx 0 def /bbury 0 def

% This routine pops the first unicode character off of a string and returns
% the remainder of the string, the character code of first character,
% and a "true" if the string was non-zero length.
% <string>      popfirst <remaining string> <true>
% <null string> popfirst <false>
/popfirst {
  dup length 1 gt
    {dup 0 get /vg&fbyte exch def
     dup 1 get /vg&cbyte exch def
     dup length 2 sub 2 exch getinterval true}
    {pop false} ifelse
} def

% This routine shows a single unicode character given the font and
% character codes.
% <font code> <char code> unicharshow --
/unicharshow {
  2 string
  dup 0 5 -1 roll put
  dup 1 4 -1 roll put
  internalshow
} def

% This is an internal routine to alternate between determining the
% bounding box for stringsize and showing the string for recshow.
% <string> internalshow --
/internalshow {show} def

% This is an internal routine to alternate between determining the
% bounding box for stringsize and stroking various ornaments.
% <string> internalstroke --
/internalstroke {S} def

% Sets up internalshow to use the null device to determine string size.
% -- nullinternalshow --
/nullinternalshow {/internalshow {false charpath flattenpath
                                  pathbbox updatebbox} def} def

% Sets up internalstroke to use the null device to determine string size.
% -- nullinternalstroke --
/nullinternalstroke {
 /internalstroke {flattenpath pathbbox updatebbox} def} def

% This routine tests to see if the character code matches the first
% character of a string.
% <char code> <string> testchar <char code> <true or false>
/testchar {exch dup 3 -1 roll 0 get eq} def

% Raise the text baseline for superscripts.
% -- raise --
/raise {
  0 fontsize 2 div rmoveto
  /fontsize fontsize 2 mul 3 div def
  currentfont /FontName get fontsize sf
} def

% Un-raise the text baseline for superscripts.
% -- unraise --
/unraise {
  /fontsize fontsize 1.5 mul def
  0 fontsize 2 div neg rmoveto
} def

% Lower the text baseline for subscripts.
% -- lower --
/lower {
  0 fontsize 3 div neg rmoveto
  /fontsize fontsize 2 mul 3 div def
  currentfont /FontName get fontsize sf
} def

% Un-lower the text baseline for subscripts.
% -- unlower --
/unlower {
  /fontsize fontsize 1.5 mul def
  0 fontsize 3 div rmoveto
} def

% Compare the top two elements on the stack and leave only the
% larger one.
/maxval {2 copy gt {pop} {exch pop} ifelse} def

% Tokenize a string.  Do not use the usual PostScript token because
% parentheses will not be interpreted correctly because of rescanning
% of the string.
/vg&token {/vg&string exch def /vg&index -1 def /vg&level 0 def
0 2 vg&string length 2 sub {
  dup dup 1 add exch vg&string exch get 8 bitshift vg&string 3 -1 roll get or
  dup 16#f0fe eq {pop 1}{16#f0ff eq {-1}{0} ifelse} ifelse
  /vg&level exch vg&level add def
  vg&level 0 eq {/vg&index exch def exit} if pop
} for
vg&index 0 ge {
  vg&string vg&index 2 add dup vg&string length exch sub getinterval
  vg&index 2 gt {vg&string 2 vg&index 2 sub getinterval}{()} ifelse
  true}
{false} ifelse
} bind def

% Recursively show an unicode string.
% <string> recshow --
/recshow {
  popfirst
  {
    % Test to see if this is a string attribute.
    vg&fbyte 16#f0 and 16#e0 eq
    {
      q

      % Font style.
      currentfont dup /FontStyleBits known {/FontStyleBits get}{pop 0} ifelse
      vg&cbyte or vg&fontstyles exch get fontsize exch exec

      vg&token pop recshow currentpoint Q m recshow
    }
    {
      vg&fbyte 16#F8 and 16#F0 eq {

        % Superscript and/or subscript.
        vg&cbyte 16#00 eq {
          vg&token pop exch vg&token pop 3 -1 roll
          q raise recshow unraise currentpoint pop Q exch
          q lower recshow unlower currentpoint pop Q
          maxval currentpoint exch pop m recshow } if

        % Strikeout.
        vg&cbyte 16#01 eq {
          vg&token pop currentpoint 3 -1 roll recshow
          q 0 J vg&underline vg&uthick w
          currentpoint 4 -2 roll fontsize 3 div add moveto
          fontsize 3 div add lineto internalstroke Q
          recshow} if

        % Underline.
        vg&cbyte 16#02 eq {
          vg&token pop currentpoint 3 -1 roll recshow
          q 0 J vg&underline vg&uthick w
          currentpoint 4 -2 roll vg&uoffset add moveto
          vg&uoffset add lineto internalstroke Q
          recshow} if

        % Dashed underline.
        vg&cbyte 16#03 eq {
          vg&token pop currentpoint 3 -1 roll recshow
          q 0 J [ vg&uthick 5 mul vg&uthick 2 mul] 0 d
          vg&underline vg&uthick w
          currentpoint 4 -2 roll vg&uoffset add moveto
          vg&uoffset add lineto internalstroke Q
          recshow} if

        % Dotted underline.
        vg&cbyte 16#04 eq {
          vg&token pop currentpoint 3 -1 roll recshow
          q 1 J [ 0 vg&uthick 3 mul] 0 d
          vg&underline vg&uthick w
          currentpoint 4 -2 roll vg&uoffset add moveto
          vg&uoffset add lineto internalstroke Q
          recshow} if

        % Thick underline.
        vg&cbyte 16#05 eq {
          vg&token pop currentpoint 3 -1 roll recshow
          q 0 J vg&underline vg&uthick 2 mul w
          currentpoint 4 -2 roll vg&uoffset vg&uthick 2 div sub add moveto
          vg&uoffset vg&uthick 2 div sub add lineto internalstroke Q
          recshow} if

        % Gray thick underline.
        vg&cbyte 16#06 eq {
          vg&token pop currentpoint 3 -1 roll recshow
          q 0 J vg&underline vg&uthick 2 mul w 0.5 setgray
          currentpoint 4 -2 roll vg&uoffset vg&uthick 2 div sub add moveto
          vg&uoffset vg&uthick 2 div sub add lineto internalstroke Q
          recshow} if

        % Overbar.
        vg&cbyte 16#07 eq {
          vg&token pop dup stringsize relative 4 1 roll pop pop exch
          3 -1 roll recshow
          q 0 J vg&underline vg&uthick w
          vg&uoffset neg add dup currentpoint pop exch m l internalstroke Q
          recshow} if
      }
      {
        vg&fbyte vg&cbyte unicharshow recshow
      } ifelse
    } ifelse
  } if
} def

% Get the underline position and thickness from the current font.
/vg&underline {

currentfont dup /FontType get 0 eq {/FDepVector get 0 get} if
dup dup /FontInfo known {
  /FontInfo get dup
  dup /UnderlinePosition known {
    /UnderlinePosition get /vg&uoffset exch def
  }
  {
    pop /vg&uoffset 0 def
  } ifelse
  dup /UnderlineThickness known {
    /UnderlineThickness get /vg&uthick exch def
  }
  {
    pop /vg&uthick 0 def
  } ifelse
}
{
  pop /vg&uoffset 0 def /vg&uthick 0 def
} ifelse
/FontMatrix get
currentfont dup /FontType get 0 eq
{/FontMatrix get matrix concatmatrix}{pop} ifelse
dup 0 vg&uoffset 3 -1 roll transform /vg&uoffset exch def pop
0 vg&uthick 3 -1 roll transform /vg&uthick exch def pop
} def

% Make a frame with the coordinates on the stack.
% <llx> <lly> <urx> <ury> frame --
/frame {4 copy m 3 1 roll exch l 4 -2 roll l l h} def

% Resets the accumulated bounding box to a degenerate box at the
% current point.
% -- resetbbox --
/resetbbox {
  currentpoint 2 copy
  /bbury exch def
  /bburx exch def
  /bblly exch def
  /bbllx exch def
} def

% Update the accumulated bounding box.
% <llx'> <lly'> <urx'> <ury'> updatebbox --
/updatebbox {
  dup bbury gt {/bbury exch def} {pop} ifelse
  dup bburx gt {/bburx exch def} {pop} ifelse
  dup bblly lt {/bblly exch def} {pop} ifelse
  dup bbllx lt {/bbllx exch def} {pop} ifelse
} def

% Set the bounding box to the values on the stack.
% <llx'> <lly'> <urx'> <ury'> updatebbox --
/restorebbox {
  /bbury exch def /bburx exch def /bblly exch def /bbllx exch def
} def

% Push the accumulated bounding box onto the stack.
% -- pushbbox <llx> <lly> <urx> <ury>
/pushbbox {bbllx bblly bburx bbury} def

% Make the relative bounding box relative to the currentpoint.
% <llx'> <lly'> <urx'> <ury'> inflate <llx> <lly> <urx> <ury>
/inflate {
  2 {fontsize 0.2 mul add 4 1 roll} repeat
  2 {fontsize 0.2 mul sub 4 1 roll} repeat
} def

% Make the relative bounding box relative to the currentpoint.
% <llx'> <lly'> <urx'> <ury'> relative <llx> <lly> <urx> <ury>
/relative {
  currentpoint 3 -1 roll add 3 1 roll add exch 4 2 roll
  currentpoint 3 -1 roll add 3 1 roll add exch 4 2 roll
} def

% Returns the size of a string appropriate for recshow.
% <string> stringsize <llx> <lly> <urx> <ury>
/stringsize {
  pushbbox /internalshow load /internalstroke load 7 -1 roll
  q
  nulldevice 0 0 m
  nullinternalshow nullinternalstroke
  resetbbox
  recshow
  /internalstroke exch def /internalshow exch def
  pushbbox 8 -4 roll restorebbox
  Q
} def

% Calculate values for string positioning.
/calcval {4 copy
  3 -1 roll sub /widy exch def sub neg /widx exch def
  pop pop /dy exch def /dx exch def} def

% Utilities to position a string.
% First letter (U=upper, C=center, B=baseline, L=lower)
% Second letter (L=left, C=center, R=right)
/align [
{calcval dx neg widy dy add neg rmoveto} % UL
{calcval dx neg widy 2 div dy add neg rmoveto} % CL
{calcval dx neg 0 rmoveto} % BL
{calcval dx neg dy neg rmoveto} % LL
{calcval widx dx add neg widy dy add neg rmoveto} % UR
{calcval widx dx add neg widy 2 div dy add neg rmoveto} % CR
{calcval widx dx add neg 0 rmoveto} % BR
{calcval widx dx add neg dy neg rmoveto} % LR
{calcval widx 2 div dx add neg widy dy add neg rmoveto} % UC
{calcval widx 2 div dx add neg widy 2 div dy add neg rmoveto} % CC
{calcval widx 2 div dx add neg 0 rmoveto} % BC
{calcval widx 2 div dx add neg dy neg rmoveto} % LC
] def

/vg&str {m q 1 -1 scale dup stringsize 4 copy align 11 -1 roll get exec
         q inflate relative frame exch exec Q recshow Q} def

end /procDict exch def
%%EndProlog

%%BeginSetup
save
procDict begin
printColorMap begin
353 240 setpagesize
0 0 0 0 setmargins
0 0 setorigin
353 240 setsize
naturalsize
portrait
imagescale
cliptobounds
setbasematrix
/Helvetica 10 sf
defaultGraphicsState
%%EndSetup

0.00000 0.00000 0.00000 RG
[ 1.00000 0.00000 0.00000 1.00000 0.00000 0.00000 ] defaultmatrix matrix concatmatrix setmatrix
cliprestore
1.00000 1.00000 1.00000 RG
newpath
0.00000 0.00000 m
353.000 0.00000 l
353.000 240.000 l
0.00000 240.000 l
0.00000 0.00000 l
h
f
0.00000 0.00000 0.00000 RG
0.00000 0.00000 0.00000 RG
[ 1.00000 0.00000 0.00000 1.00000 0.00000 0.00000 ] defaultmatrix matrix concatmatrix setmatrix
cliprestore
1.00000 1.00000 1.00000 RG
newpath
0.00000 0.00000 m
353.000 0.00000 l
353.000 240.000 l
0.00000 240.000 l
0.00000 0.00000 l
h
f
0.00000 0.00000 0.00000 RG
0 0 353 240 rc
q
[ 1.00000 0.00000 0.00000 1.00000 0.00000 0.00000 ] concat
[ 1.00000 0.00000 0.00000 1.00000 -239.000 -163.000 ] concat
1.00000 1.00000 1.00000 RG
newpath
239.000 163.000 m
592.000 163.000 l
592.000 403.000 l
239.000 403.000 l
239.000 163.000 l
h
f
0.00000 0.00000 0.00000 RG
[ 1.00000 0.00000 0.00000 1.00000 -239.000 -163.000 ] defaultmatrix matrix concatmatrix setmatrix
[ 1.00000 0.00000 0.00000 1.00000 -239.000 -163.000 ] defaultmatrix matrix concatmatrix setmatrix
[ 1.00000 0.00000 0.00000 1.00000 0.00000 0.00000 ] defaultmatrix matrix concatmatrix setmatrix
[ 1.00000 0.00000 0.00000 1.00000 -239.000 -163.000 ] defaultmatrix matrix concatmatrix setmatrix
1.00000 .800000 0.00000 RG
newpath
254.512 268.000 m
335.512 268.000 l
335.512 298.000 l
254.512 298.000 l
254.512 268.000 l
h
f
0.00000 0.00000 0.00000 RG
0 J
1.45000 M
newpath
268.612 285.602 m
268.612 276.930 l
273.458 276.930 l
273.458 277.850 l
269.843 277.850 l
269.843 280.756 l
272.878 280.756 l
272.878 281.664 l
269.843 281.664 l
269.843 285.602 l
h
275.081 285.602 m
275.081 279.238 l
276.235 279.238 l
276.235 285.602 l
h
275.081 278.084 m
275.081 276.930 l
276.235 276.930 l
276.235 278.084 l
h
278.550 285.672 m
278.550 276.350 l
279.704 276.350 l
279.704 280.434 l
280.177 279.543 280.886 279.098 281.831 279.098  c
282.597 279.098 283.199 279.377 283.639 279.936  c
284.078 280.494 284.298 281.258 284.298 282.227  c
284.298 283.281 284.049 284.132 283.551 284.778  c
283.053 285.425 282.397 285.748 281.585 285.748  c
280.831 285.748 280.204 285.459 279.704 284.881  c
279.563 285.672 l
h
279.704 284.084 m
280.298 284.615 280.864 284.881 281.403 284.881  c
282.513 284.881 283.067 284.035 283.067 282.344  c
283.067 280.852 282.575 280.105 281.591 280.105  c
280.946 280.105 280.317 280.455 279.704 281.154  c
h
290.766 285.396 m
289.993 285.631 289.331 285.748 288.780 285.748  c
287.843 285.748 287.078 285.437 286.486 284.813  c
285.894 284.190 285.598 283.383 285.598 282.391  c
285.598 281.426 285.859 280.635 286.381 280.018  c
286.902 279.400 287.569 279.092 288.382 279.092  c
289.151 279.092 289.746 279.365 290.166 279.912  c
290.586 280.459 290.796 281.236 290.796 282.244  c
290.790 282.602 l
286.776 282.602 l
286.944 284.113 287.684 284.869 288.997 284.869  c
289.477 284.869 290.067 284.740 290.766 284.482  c
h
286.829 281.734 m
289.636 281.734 l
289.636 280.551 289.194 279.959 288.311 279.959  c
287.425 279.959 286.931 280.551 286.829 281.734  c
h
292.788 285.602 m
292.788 279.238 l
293.942 279.238 l
293.942 280.434 l
294.399 279.543 295.063 279.098 295.934 279.098  c
296.052 279.098 296.175 279.107 296.304 279.127  c
296.304 280.205 l
296.104 280.139 295.929 280.105 295.776 280.105  c
295.046 280.105 294.434 280.539 293.942 281.406  c
293.942 285.602 l
h
297.663 285.602 m
297.663 276.930 l
300.288 276.930 l
301.120 276.930 301.758 277.113 302.201 277.480  c
302.644 277.848 302.866 278.381 302.866 279.080  c
302.866 280.236 302.282 281.057 301.114 281.541  c
304.009 285.602 l
302.497 285.602 l
300.030 281.934 l
298.882 281.934 l
298.882 285.602 l
h
298.882 281.014 m
299.280 281.014 l
300.827 281.014 301.600 280.406 301.600 279.191  c
301.600 278.297 300.952 277.850 299.655 277.850  c
298.882 277.850 l
h
305.286 285.602 m
305.286 279.238 l
306.440 279.238 l
306.440 285.602 l
h
305.286 278.084 m
305.286 276.930 l
306.440 276.930 l
306.440 278.084 l
h
308.755 285.602 m
308.755 279.238 l
309.909 279.238 l
309.909 280.434 l
310.518 279.543 311.264 279.098 312.147 279.098  c
312.698 279.098 313.138 279.272 313.466 279.622  c
313.794 279.972 313.958 280.441 313.958 281.031  c
313.958 285.602 l
312.804 285.602 l
312.804 281.406 l
312.804 280.934 312.734 280.597 312.596 280.396  c
312.457 280.194 312.227 280.094 311.907 280.094  c
311.200 280.094 310.534 280.557 309.909 281.482  c
309.909 285.602 l
h
316.225 287.717 m
316.360 286.715 l
317.028 287.031 317.686 287.189 318.335 287.189  c
319.636 287.189 320.286 286.500 320.286 285.121  c
320.286 284.119 l
319.860 285.010 319.161 285.455 318.188 285.455  c
317.427 285.455 316.821 285.178 316.372 284.623  c
315.923 284.068 315.698 283.320 315.698 282.379  c
315.698 281.410 315.954 280.621 316.466 280.012  c
316.977 279.402 317.639 279.098 318.452 279.098  c
319.163 279.098 319.774 279.387 320.286 279.965  c
320.286 279.238 l
321.446 279.238 l
321.446 283.867 l
321.446 284.863 321.394 285.601 321.291 286.079  c
321.187 286.558 320.993 286.949 320.708 287.254  c
320.204 287.789 319.421 288.057 318.358 288.057  c
317.616 288.057 316.905 287.943 316.225 287.717  c
h
320.286 283.398 m
320.286 280.756 l
319.778 280.229 319.225 279.965 318.628 279.965  c
318.097 279.965 317.681 280.178 317.380 280.604  c
317.079 281.029 316.929 281.613 316.929 282.355  c
316.929 283.750 317.419 284.447 318.399 284.447  c
319.067 284.447 319.696 284.098 320.286 283.398  c
h
f
2 J
10.0000 M
1.00000 .800000 0.00000 RG
0 J
1.45000 M
0.00000 0.00000 0.00000 RG
newpath
254.512 268.000 m
335.512 268.000 l
335.512 298.000 l
254.512 298.000 l
254.512 268.000 l
h
S
2 J
10.0000 M
1.00000 .800000 0.00000 RG
newpath
495.616 178.000 m
576.616 178.000 l
576.616 208.000 l
495.616 208.000 l
495.616 178.000 l
h
f
0.00000 0.00000 0.00000 RG
0 J
1.45000 M
newpath
521.769 197.752 m
521.187 197.752 520.443 197.625 519.537 197.371  c
519.537 196.152 l
520.513 196.605 521.316 196.832 521.945 196.832  c
522.429 196.832 522.819 196.705 523.114 196.451  c
523.409 196.197 523.556 195.863 523.556 195.449  c
523.556 195.109 523.459 194.820 523.266 194.582  c
523.073 194.344 522.716 194.078 522.197 193.785  c
521.599 193.439 l
520.861 193.018 520.340 192.620 520.038 192.247  c
519.735 191.874 519.583 191.439 519.583 190.943  c
519.583 190.275 519.826 189.726 520.310 189.294  c
520.794 188.862 521.412 188.646 522.162 188.646  c
522.830 188.646 523.535 188.758 524.277 188.980  c
524.277 190.105 l
523.363 189.746 522.681 189.566 522.232 189.566  c
521.806 189.566 521.455 189.680 521.177 189.906  c
520.900 190.133 520.761 190.418 520.761 190.762  c
520.761 191.051 520.863 191.307 521.066 191.529  c
521.269 191.752 521.640 192.018 522.179 192.326  c
522.800 192.678 l
523.550 193.104 524.074 193.506 524.371 193.885  c
524.667 194.264 524.816 194.719 524.816 195.250  c
524.816 196.004 524.538 196.609 523.981 197.066  c
523.424 197.523 522.687 197.752 521.769 197.752  c
h
526.568 199.850 m
526.568 191.172 l
527.722 191.172 l
527.722 192.367 l
528.195 191.477 528.904 191.031 529.849 191.031  c
530.615 191.031 531.217 191.311 531.657 191.869  c
532.096 192.428 532.316 193.191 532.316 194.160  c
532.316 195.215 532.067 196.065 531.569 196.712  c
531.071 197.358 530.416 197.682 529.603 197.682  c
528.849 197.682 528.222 197.393 527.722 196.814  c
527.722 199.850 l
h
527.722 196.018 m
528.316 196.549 528.882 196.814 529.421 196.814  c
530.531 196.814 531.085 195.969 531.085 194.277  c
531.085 192.785 530.593 192.039 529.609 192.039  c
528.964 192.039 528.335 192.389 527.722 193.088  c
h
534.121 197.535 m
534.121 191.172 l
535.275 191.172 l
535.275 192.367 l
535.732 191.477 536.396 191.031 537.267 191.031  c
537.384 191.031 537.507 191.041 537.636 191.061  c
537.636 192.139 l
537.437 192.072 537.261 192.039 537.109 192.039  c
536.378 192.039 535.767 192.473 535.275 193.340  c
535.275 197.535 l
h
539.031 197.535 m
539.031 191.172 l
540.185 191.172 l
540.185 197.535 l
h
539.031 190.018 m
539.031 188.863 l
540.185 188.863 l
540.185 190.018 l
h
542.500 197.535 m
542.500 191.172 l
543.654 191.172 l
543.654 192.367 l
544.263 191.477 545.009 191.031 545.892 191.031  c
546.443 191.031 546.882 191.206 547.210 191.556  c
547.539 191.905 547.703 192.375 547.703 192.965  c
547.703 197.535 l
546.548 197.535 l
546.548 193.340 l
546.548 192.867 546.479 192.530 546.340 192.329  c
546.202 192.128 545.972 192.027 545.652 192.027  c
544.945 192.027 544.279 192.490 543.654 193.416  c
543.654 197.535 l
h
551.857 197.682 m
551.271 197.682 550.814 197.514 550.486 197.178  c
550.158 196.842 549.994 196.375 549.994 195.777  c
549.994 192.039 l
549.197 192.039 l
549.197 191.172 l
549.994 191.172 l
549.994 190.018 l
551.148 189.906 l
551.148 191.172 l
552.812 191.172 l
552.812 192.039 l
551.148 192.039 l
551.148 195.566 l
551.148 196.398 551.507 196.814 552.226 196.814  c
552.378 196.814 552.564 196.789 552.783 196.738  c
552.783 197.535 l
552.427 197.633 552.119 197.682 551.857 197.682  c
h
f
2 J
10.0000 M
1.00000 .800000 0.00000 RG
0 J
1.45000 M
0.00000 0.00000 0.00000 RG
newpath
495.616 178.000 m
576.616 178.000 l
576.616 208.000 l
495.616 208.000 l
495.616 178.000 l
h
S
2 J
10.0000 M
1.00000 .800000 0.00000 RG
newpath
495.616 268.000 m
576.616 268.000 l
576.616 298.000 l
495.616 298.000 l
495.616 268.000 l
h
f
0.00000 0.00000 0.00000 RG
0 J
1.45000 M
newpath
526.858 287.535 m
526.858 279.783 l
523.782 279.783 l
523.782 278.863 l
531.165 278.863 l
531.165 279.783 l
528.088 279.783 l
528.088 287.535 l
h
532.383 287.535 m
532.383 278.863 l
535.266 278.863 l
536.125 278.863 536.820 278.959 537.349 279.150  c
537.878 279.342 538.336 279.666 538.723 280.123  c
539.336 280.850 539.643 281.807 539.643 282.994  c
539.643 284.436 539.262 285.553 538.500 286.346  c
537.739 287.139 536.667 287.535 535.284 287.535  c
h
533.614 286.615 m
535.190 286.615 l
536.315 286.615 537.112 286.312 537.581 285.707  c
538.084 285.062 538.336 284.197 538.336 283.111  c
538.336 282.092 538.088 281.291 537.592 280.709  c
537.292 280.354 536.932 280.110 536.514 279.979  c
536.096 279.849 535.467 279.783 534.627 279.783  c
533.614 279.783 l
h
545.086 287.752 m
543.739 287.752 542.698 287.356 541.963 286.565  c
541.229 285.774 540.862 284.654 540.862 283.205  c
540.862 281.760 541.236 280.639 541.984 279.842  c
542.732 279.045 543.786 278.646 545.145 278.646  c
545.922 278.646 546.833 278.773 547.875 279.027  c
547.875 280.182 l
546.688 279.771 545.772 279.566 545.127 279.566  c
544.186 279.566 543.458 279.885 542.942 280.521  c
542.426 281.158 542.168 282.057 542.168 283.217  c
542.168 284.322 542.444 285.194 542.995 285.833  c
543.545 286.472 544.297 286.791 545.250 286.791  c
546.071 286.791 546.950 286.539 547.887 286.035  c
547.887 287.090 l
547.032 287.531 546.098 287.752 545.086 287.752  c
h
f
2 J
10.0000 M
1.00000 .800000 0.00000 RG
0 J
1.45000 M
0.00000 0.00000 0.00000 RG
newpath
495.616 268.000 m
576.616 268.000 l
576.616 298.000 l
495.616 298.000 l
495.616 268.000 l
h
S
2 J
10.0000 M
1.00000 .800000 0.00000 RG
newpath
254.512 178.000 m
335.512 178.000 l
335.512 208.000 l
254.512 208.000 l
254.512 178.000 l
h
f
0.00000 0.00000 0.00000 RG
0 J
1.45000 M
newpath
285.528 199.469 m
285.528 191.717 l
282.452 191.717 l
282.452 190.797 l
289.835 190.797 l
289.835 191.717 l
286.759 191.717 l
286.759 199.469 l
h
294.370 198.660 m
293.679 199.297 293.013 199.615 292.372 199.615  c
291.845 199.615 291.407 199.450 291.059 199.120  c
290.712 198.790 290.538 198.373 290.538 197.869  c
290.538 197.174 290.830 196.640 291.414 196.267  c
291.998 195.894 292.835 195.707 293.925 195.707  c
294.200 195.707 l
294.200 194.939 l
294.200 194.201 293.821 193.832 293.063 193.832  c
292.454 193.832 291.796 194.020 291.089 194.395  c
291.089 193.439 l
291.866 193.123 292.595 192.965 293.274 192.965  c
293.985 192.965 294.510 193.125 294.848 193.445  c
295.185 193.766 295.354 194.264 295.354 194.939  c
295.354 197.822 l
295.354 198.482 295.557 198.812 295.964 198.812  c
296.014 198.812 296.089 198.805 296.186 198.789  c
296.268 199.428 l
296.007 199.553 295.718 199.615 295.401 199.615  c
294.862 199.615 294.518 199.297 294.370 198.660  c
h
294.200 198.033 m
294.200 196.387 l
293.813 196.375 l
293.181 196.375 292.669 196.495 292.278 196.735  c
291.888 196.976 291.692 197.291 291.692 197.682  c
291.692 197.959 291.790 198.193 291.985 198.385  c
292.181 198.576 292.419 198.672 292.700 198.672  c
293.181 198.672 293.681 198.459 294.200 198.033  c
h
299.626 199.615 m
299.040 199.615 298.583 199.447 298.255 199.111  c
297.927 198.775 297.763 198.309 297.763 197.711  c
297.763 193.973 l
296.966 193.973 l
296.966 193.105 l
297.763 193.105 l
297.763 191.951 l
298.917 191.840 l
298.917 193.105 l
300.581 193.105 l
300.581 193.973 l
298.917 193.973 l
298.917 197.500 l
298.917 198.332 299.276 198.748 299.995 198.748  c
300.147 198.748 300.333 198.723 300.552 198.672  c
300.552 199.469 l
300.196 199.566 299.888 199.615 299.626 199.615  c
h
305.485 198.660 m
304.794 199.297 304.128 199.615 303.487 199.615  c
302.960 199.615 302.522 199.450 302.175 199.120  c
301.827 198.790 301.653 198.373 301.653 197.869  c
301.653 197.174 301.945 196.640 302.529 196.267  c
303.113 195.894 303.950 195.707 305.040 195.707  c
305.315 195.707 l
305.315 194.939 l
305.315 194.201 304.936 193.832 304.179 193.832  c
303.569 193.832 302.911 194.020 302.204 194.395  c
302.204 193.439 l
302.981 193.123 303.710 192.965 304.389 192.965  c
305.100 192.965 305.625 193.125 305.963 193.445  c
306.301 193.766 306.470 194.264 306.470 194.939  c
306.470 197.822 l
306.470 198.482 306.673 198.812 307.079 198.812  c
307.130 198.812 307.204 198.805 307.302 198.789  c
307.384 199.428 l
307.122 199.553 306.833 199.615 306.516 199.615  c
305.977 199.615 305.634 199.297 305.485 198.660  c
h
305.315 198.033 m
305.315 196.387 l
304.929 196.375 l
304.296 196.375 303.784 196.495 303.393 196.735  c
303.003 196.976 302.807 197.291 302.807 197.682  c
302.807 197.959 302.905 198.193 303.100 198.385  c
303.296 198.576 303.534 198.672 303.815 198.672  c
304.296 198.672 304.796 198.459 305.315 198.033  c
h
f
2 J
10.0000 M
1.00000 .800000 0.00000 RG
0 J
1.45000 M
0.00000 0.00000 0.00000 RG
newpath
254.512 178.000 m
335.512 178.000 l
335.512 208.000 l
254.512 208.000 l
254.512 178.000 l
h
S
2 J
10.0000 M
1.00000 .800000 0.00000 RG
newpath
254.512 358.000 m
335.512 358.000 l
335.512 388.000 l
254.512 388.000 l
254.512 358.000 l
h
f
0.00000 0.00000 0.00000 RG
0 J
1.45000 M
newpath
284.655 375.602 m
284.655 366.930 l
285.886 366.930 l
285.886 374.682 l
289.788 374.682 l
289.788 375.602 l
h
291.048 375.602 m
291.048 366.930 l
292.278 366.930 l
292.278 375.602 l
h
296.210 375.818 m
295.628 375.818 294.884 375.691 293.977 375.438  c
293.977 374.219 l
294.954 374.672 295.757 374.898 296.386 374.898  c
296.870 374.898 297.260 374.771 297.555 374.518  c
297.849 374.264 297.997 373.930 297.997 373.516  c
297.997 373.176 297.900 372.887 297.707 372.648  c
297.514 372.410 297.157 372.145 296.638 371.852  c
296.040 371.506 l
295.302 371.084 294.781 370.687 294.478 370.313  c
294.176 369.940 294.024 369.506 294.024 369.010  c
294.024 368.342 294.266 367.792 294.751 367.360  c
295.235 366.929 295.852 366.713 296.602 366.713  c
297.270 366.713 297.975 366.824 298.718 367.047  c
298.718 368.172 l
297.804 367.812 297.122 367.633 296.673 367.633  c
296.247 367.633 295.895 367.746 295.618 367.973  c
295.341 368.199 295.202 368.484 295.202 368.828  c
295.202 369.117 295.304 369.373 295.507 369.596  c
295.710 369.818 296.081 370.084 296.620 370.393  c
297.241 370.744 l
297.991 371.170 298.514 371.572 298.811 371.951  c
299.108 372.330 299.257 372.785 299.257 373.316  c
299.257 374.070 298.978 374.676 298.422 375.133  c
297.865 375.590 297.128 375.818 296.210 375.818  c
h
300.973 375.602 m
300.973 366.930 l
303.335 366.930 l
304.382 366.930 305.134 367.106 305.591 367.460  c
306.048 367.813 306.276 368.395 306.276 369.203  c
306.276 370.125 305.964 370.848 305.339 371.371  c
304.714 371.895 303.847 372.156 302.737 372.156  c
302.192 372.156 l
302.192 375.602 l
h
302.192 371.225 m
302.690 371.225 l
303.421 371.225 303.985 371.057 304.384 370.721  c
304.782 370.385 304.981 369.910 304.981 369.297  c
304.981 368.777 304.825 368.406 304.513 368.184  c
304.200 367.961 303.679 367.850 302.948 367.850  c
302.192 367.850 l
h
f
2 J
10.0000 M
1.00000 .800000 0.00000 RG
0 J
1.45000 M
0.00000 0.00000 0.00000 RG
newpath
254.512 358.000 m
335.512 358.000 l
335.512 388.000 l
254.512 388.000 l
254.512 358.000 l
h
S
2 J
10.0000 M
1.00000 .800000 0.00000 RG
newpath
495.616 358.000 m
576.616 358.000 l
576.616 388.000 l
495.616 388.000 l
495.616 358.000 l
h
f
0.00000 0.00000 0.00000 RG
0 J
1.45000 M
newpath
525.165 375.602 m
525.165 366.930 l
527.790 366.930 l
528.622 366.930 529.259 367.113 529.703 367.480  c
530.146 367.848 530.368 368.381 530.368 369.080  c
530.368 370.236 529.784 371.057 528.616 371.541  c
531.510 375.602 l
529.999 375.602 l
527.532 371.934 l
526.383 371.934 l
526.383 375.602 l
h
526.383 371.014 m
526.782 371.014 l
528.329 371.014 529.102 370.406 529.102 369.191  c
529.102 368.297 528.454 367.850 527.157 367.850  c
526.383 367.850 l
h
532.747 375.602 m
532.747 366.930 l
533.977 366.930 l
533.977 375.602 l
h
537.909 375.818 m
537.327 375.818 536.583 375.691 535.676 375.438  c
535.676 374.219 l
536.653 374.672 537.456 374.898 538.084 374.898  c
538.569 374.898 538.958 374.771 539.253 374.518  c
539.548 374.264 539.696 373.930 539.696 373.516  c
539.696 373.176 539.599 372.887 539.406 372.648  c
539.212 372.410 538.856 372.145 538.336 371.852  c
537.739 371.506 l
537.000 371.084 536.480 370.687 536.177 370.313  c
535.875 369.940 535.723 369.506 535.723 369.010  c
535.723 368.342 535.965 367.792 536.450 367.360  c
536.934 366.929 537.551 366.713 538.301 366.713  c
538.969 366.713 539.674 366.824 540.417 367.047  c
540.417 368.172 l
539.502 367.812 538.821 367.633 538.372 367.633  c
537.946 367.633 537.594 367.746 537.317 367.973  c
537.040 368.199 536.901 368.484 536.901 368.828  c
536.901 369.117 537.002 369.373 537.206 369.596  c
537.409 369.818 537.780 370.084 538.319 370.393  c
538.940 370.744 l
539.690 371.170 540.213 371.572 540.510 371.951  c
540.807 372.330 540.956 372.785 540.956 373.316  c
540.956 374.070 540.677 374.676 540.121 375.133  c
539.564 375.590 538.827 375.818 537.909 375.818  c
h
542.672 375.602 m
542.672 366.930 l
545.034 366.930 l
546.081 366.930 546.833 367.106 547.290 367.460  c
547.747 367.813 547.975 368.395 547.975 369.203  c
547.975 370.125 547.663 370.848 547.038 371.371  c
546.413 371.895 545.545 372.156 544.436 372.156  c
543.891 372.156 l
543.891 375.602 l
h
543.891 371.225 m
544.389 371.225 l
545.120 371.225 545.684 371.057 546.083 370.721  c
546.481 370.385 546.680 369.910 546.680 369.297  c
546.680 368.777 546.524 368.406 546.211 368.184  c
545.899 367.961 545.377 367.850 544.647 367.850  c
543.891 367.850 l
h
f
2 J
10.0000 M
1.00000 .800000 0.00000 RG
0 J
1.45000 M
0.00000 0.00000 0.00000 RG
newpath
495.616 358.000 m
576.616 358.000 l
576.616 388.000 l
495.616 388.000 l
495.616 358.000 l
h
S
2 J
10.0000 M
0 J
1.45000 M
newpath
335.196 268.000 m
488.437 210.798 l
S
newpath
495.932 208.000 m
482.941 207.512 l
487.500 211.147 l
486.438 216.881 l
h
f
newpath
392.018 242.682 m
391.158 242.682 390.445 242.363 389.879 241.727  c
389.313 241.090 389.029 240.287 389.029 239.318  c
389.029 238.283 389.310 237.477 389.870 236.898  c
390.431 236.320 391.213 236.031 392.217 236.031  c
392.713 236.031 393.268 236.100 393.881 236.236  c
393.881 237.203 l
393.229 237.012 392.697 236.916 392.287 236.916  c
391.697 236.916 391.224 237.138 390.866 237.581  c
390.509 238.024 390.330 238.615 390.330 239.354  c
390.330 240.068 390.514 240.646 390.881 241.088  c
391.248 241.529 391.729 241.750 392.322 241.750  c
392.850 241.750 393.393 241.615 393.951 241.346  c
393.951 242.342 l
393.205 242.568 392.561 242.682 392.018 242.682  c
h
399.658 242.535 m
399.658 241.340 l
399.045 242.234 398.301 242.682 397.426 242.682  c
396.871 242.682 396.430 242.507 396.102 242.157  c
395.774 241.808 395.610 241.336 395.610 240.742  c
395.610 236.172 l
396.764 236.172 l
396.764 240.367 l
396.764 240.844 396.833 241.183 396.972 241.384  c
397.111 241.585 397.342 241.686 397.666 241.686  c
398.369 241.686 399.033 241.223 399.658 240.297  c
399.658 236.172 l
400.813 236.172 l
400.813 242.535 l
h
404.815 242.682 m
404.287 242.682 403.647 242.559 402.893 242.312  c
402.893 241.252 l
403.647 241.627 404.303 241.814 404.862 241.814  c
405.194 241.814 405.469 241.725 405.688 241.545  c
405.906 241.365 406.016 241.141 406.016 240.871  c
406.016 240.477 405.709 240.150 405.096 239.893  c
404.422 239.605 l
403.426 239.191 402.928 238.596 402.928 237.818  c
402.928 237.264 403.124 236.827 403.517 236.509  c
403.909 236.190 404.447 236.031 405.131 236.031  c
405.487 236.031 405.926 236.080 406.449 236.178  c
406.690 236.225 l
406.690 237.186 l
406.045 236.994 405.533 236.898 405.154 236.898  c
404.412 236.898 404.041 237.168 404.041 237.707  c
404.041 238.055 404.322 238.348 404.885 238.586  c
405.442 238.820 l
406.070 239.086 406.516 239.366 406.778 239.661  c
407.039 239.956 407.170 240.324 407.170 240.766  c
407.170 241.324 406.949 241.783 406.508 242.143  c
406.067 242.502 405.502 242.682 404.815 242.682  c
h
411.154 242.682 m
410.569 242.682 410.112 242.514 409.783 242.178  c
409.455 241.842 409.291 241.375 409.291 240.777  c
409.291 237.039 l
408.494 237.039 l
408.494 236.172 l
409.291 236.172 l
409.291 235.018 l
410.445 234.906 l
410.445 236.172 l
412.110 236.172 l
412.110 237.039 l
410.445 237.039 l
410.445 240.566 l
410.445 241.398 410.805 241.814 411.524 241.814  c
411.676 241.814 411.862 241.789 412.080 241.738  c
412.080 242.535 l
411.725 242.633 411.416 242.682 411.154 242.682  c
h
416.223 242.682 m
415.313 242.682 414.586 242.380 414.043 241.776  c
413.500 241.173 413.229 240.365 413.229 239.354  c
413.229 238.330 413.501 237.521 414.046 236.925  c
414.591 236.329 415.330 236.031 416.264 236.031  c
417.197 236.031 417.937 236.329 418.482 236.925  c
419.027 237.521 419.299 238.326 419.299 239.342  c
419.299 240.381 419.026 241.197 418.479 241.791  c
417.932 242.385 417.180 242.682 416.223 242.682  c
h
416.240 241.814 m
417.463 241.814 418.074 240.990 418.074 239.342  c
418.074 237.713 417.471 236.898 416.264 236.898  c
415.061 236.898 414.459 237.717 414.459 239.354  c
414.459 240.994 415.053 241.814 416.240 241.814  c
h
421.104 242.535 m
421.104 236.172 l
422.258 236.172 l
422.258 237.367 l
422.820 236.477 423.543 236.031 424.426 236.031  c
425.278 236.031 425.858 236.477 426.166 237.367  c
426.713 236.473 427.424 236.025 428.299 236.025  c
428.862 236.025 429.297 236.190 429.606 236.521  c
429.914 236.851 430.069 237.312 430.069 237.906  c
430.069 242.535 l
428.908 242.535 l
428.908 238.088 l
428.908 237.361 428.621 236.998 428.047 236.998  c
427.449 236.998 426.822 237.422 426.166 238.270  c
426.166 242.535 l
425.006 242.535 l
425.006 238.088 l
425.006 237.357 424.713 236.992 424.127 236.992  c
423.545 236.992 422.922 237.418 422.258 238.270  c
422.258 242.535 l
h
436.971 242.330 m
436.197 242.564 435.535 242.682 434.985 242.682  c
434.047 242.682 433.282 242.370 432.691 241.747  c
432.099 241.124 431.803 240.316 431.803 239.324  c
431.803 238.359 432.064 237.568 432.585 236.951  c
433.107 236.334 433.774 236.025 434.586 236.025  c
435.356 236.025 435.950 236.299 436.370 236.846  c
436.790 237.393 437.000 238.170 437.000 239.178  c
436.994 239.535 l
432.981 239.535 l
433.149 241.047 433.889 241.803 435.201 241.803  c
435.682 241.803 436.272 241.674 436.971 241.416  c
h
433.033 238.668 m
435.840 238.668 l
435.840 237.484 435.399 236.893 434.516 236.893  c
433.629 236.893 433.135 237.484 433.033 238.668  c
h
438.992 242.535 m
438.992 236.172 l
440.147 236.172 l
440.147 237.367 l
440.604 236.477 441.268 236.031 442.139 236.031  c
442.256 236.031 442.379 236.041 442.508 236.061  c
442.508 237.139 l
442.309 237.072 442.133 237.039 441.981 237.039  c
441.250 237.039 440.639 237.473 440.147 238.340  c
440.147 242.535 l
h
f
2 J
10.0000 M
0 J
1.45000 M
newpath
335.512 283.000 m
487.616 283.000 l
S
newpath
495.616 283.000 m
483.616 278.000 l
486.616 283.000 l
483.616 288.000 l
h
f
newpath
398.117 287.535 m
398.117 278.283 l
399.272 278.283 l
399.272 282.367 l
399.881 281.477 400.627 281.031 401.510 281.031  c
402.061 281.031 402.500 281.206 402.828 281.556  c
403.156 281.905 403.320 282.375 403.320 282.965  c
403.320 287.535 l
402.166 287.535 l
402.166 283.340 l
402.166 282.867 402.097 282.530 401.958 282.329  c
401.820 282.128 401.590 282.027 401.270 282.027  c
400.563 282.027 399.897 282.490 399.272 283.416  c
399.272 287.535 l
h
405.934 289.850 m
406.965 287.535 l
404.504 281.172 l
405.752 281.172 l
407.574 285.965 l
409.520 281.172 l
410.610 281.172 l
407.135 289.850 l
h
411.834 287.605 m
411.834 278.283 l
412.988 278.283 l
412.988 282.367 l
413.461 281.477 414.170 281.031 415.115 281.031  c
415.881 281.031 416.484 281.311 416.923 281.869  c
417.362 282.428 417.582 283.191 417.582 284.160  c
417.582 285.215 417.333 286.065 416.835 286.712  c
416.337 287.358 415.682 287.682 414.869 287.682  c
414.115 287.682 413.488 287.393 412.988 286.814  c
412.848 287.605 l
h
412.988 286.018 m
413.582 286.549 414.149 286.814 414.688 286.814  c
415.797 286.814 416.352 285.969 416.352 284.277  c
416.352 282.785 415.860 282.039 414.875 282.039  c
414.231 282.039 413.602 282.389 412.988 283.088  c
h
419.387 287.535 m
419.387 281.172 l
420.541 281.172 l
420.541 282.367 l
420.998 281.477 421.662 281.031 422.533 281.031  c
422.651 281.031 422.774 281.041 422.903 281.061  c
422.903 282.139 l
422.703 282.072 422.528 282.039 422.375 282.039  c
421.645 282.039 421.033 282.473 420.541 283.340  c
420.541 287.535 l
h
424.297 287.535 m
424.297 281.172 l
425.451 281.172 l
425.451 287.535 l
h
424.297 280.018 m
424.297 278.863 l
425.451 278.863 l
425.451 280.018 l
h
431.850 287.535 m
431.850 286.340 l
431.381 287.234 430.674 287.682 429.729 287.682  c
428.963 287.682 428.361 287.402 427.921 286.844  c
427.482 286.285 427.262 285.521 427.262 284.553  c
427.262 283.494 427.511 282.643 428.009 281.998  c
428.507 281.354 429.162 281.031 429.975 281.031  c
430.729 281.031 431.354 281.320 431.850 281.898  c
431.850 278.283 l
433.010 278.283 l
433.010 287.535 l
h
431.850 282.689 m
431.252 282.162 430.686 281.898 430.151 281.898  c
429.045 281.898 428.492 282.744 428.492 284.436  c
428.492 285.924 428.985 286.668 429.969 286.668  c
430.610 286.668 431.237 286.318 431.850 285.619  c
h
f
2 J
10.0000 M
0 J
1.45000 M
newpath
536.116 208.000 m
536.116 260.000 l
S
newpath
536.116 268.000 m
541.116 256.000 l
536.116 259.000 l
531.116 256.000 l
h
f
newpath
512.939 244.850 m
512.939 236.172 l
514.093 236.172 l
514.093 237.367 l
514.566 236.477 515.275 236.031 516.220 236.031  c
516.986 236.031 517.588 236.311 518.028 236.869  c
518.467 237.428 518.687 238.191 518.687 239.160  c
518.687 240.215 518.438 241.065 517.940 241.712  c
517.442 242.358 516.787 242.682 515.974 242.682  c
515.220 242.682 514.593 242.393 514.093 241.814  c
514.093 244.850 l
h
514.093 241.018 m
514.687 241.549 515.253 241.814 515.792 241.814  c
516.902 241.814 517.457 240.969 517.457 239.277  c
517.457 237.785 516.964 237.039 515.980 237.039  c
515.335 237.039 514.707 237.389 514.093 238.088  c
h
520.492 242.535 m
520.492 236.172 l
521.646 236.172 l
521.646 237.367 l
522.103 236.477 522.767 236.031 523.638 236.031  c
523.755 236.031 523.878 236.041 524.007 236.061  c
524.007 237.139 l
523.808 237.072 523.632 237.039 523.480 237.039  c
522.750 237.039 522.138 237.473 521.646 238.340  c
521.646 242.535 l
h
527.892 242.682 m
526.982 242.682 526.255 242.380 525.712 241.776  c
525.169 241.173 524.898 240.365 524.898 239.354  c
524.898 238.330 525.170 237.521 525.715 236.925  c
526.260 236.329 527.000 236.031 527.933 236.031  c
528.867 236.031 529.606 236.329 530.151 236.925  c
530.696 237.521 530.968 238.326 530.968 239.342  c
530.968 240.381 530.695 241.197 530.148 241.791  c
529.601 242.385 528.849 242.682 527.892 242.682  c
h
527.910 241.814 m
529.132 241.814 529.744 240.990 529.744 239.342  c
529.744 237.713 529.140 236.898 527.933 236.898  c
526.730 236.898 526.128 237.717 526.128 239.354  c
526.128 240.994 526.722 241.814 527.910 241.814  c
h
534.091 242.535 m
531.724 236.172 l
532.878 236.172 l
534.730 241.123 l
536.681 236.172 l
537.759 236.172 l
535.246 242.535 l
h
538.984 242.535 m
538.984 236.172 l
540.138 236.172 l
540.138 242.535 l
h
538.984 235.018 m
538.984 233.863 l
540.138 233.863 l
540.138 235.018 l
h
546.537 242.535 m
546.537 241.340 l
546.068 242.234 545.361 242.682 544.416 242.682  c
543.650 242.682 543.047 242.402 542.608 241.844  c
542.168 241.285 541.949 240.521 541.949 239.553  c
541.949 238.494 542.198 237.643 542.696 236.998  c
543.194 236.354 543.849 236.031 544.662 236.031  c
545.416 236.031 546.041 236.320 546.537 236.898  c
546.537 233.283 l
547.697 233.283 l
547.697 242.535 l
h
546.537 237.689 m
545.939 237.162 545.373 236.898 544.837 236.898  c
543.732 236.898 543.179 237.744 543.179 239.436  c
543.179 240.924 543.671 241.668 544.656 241.668  c
545.296 241.668 545.923 241.318 546.537 240.619  c
h
554.669 242.330 m
553.896 242.564 553.234 242.682 552.683 242.682  c
551.746 242.682 550.981 242.370 550.389 241.747  c
549.797 241.124 549.501 240.316 549.501 239.324  c
549.501 238.359 549.762 237.568 550.284 236.951  c
550.805 236.334 551.472 236.025 552.285 236.025  c
553.054 236.025 553.649 236.299 554.069 236.846  c
554.489 237.393 554.699 238.170 554.699 239.178  c
554.693 239.535 l
550.679 239.535 l
550.847 241.047 551.587 241.803 552.900 241.803  c
553.380 241.803 553.970 241.674 554.669 241.416  c
h
550.732 238.668 m
553.539 238.668 l
553.539 237.484 553.097 236.893 552.214 236.893  c
551.328 236.893 550.833 237.484 550.732 238.668  c
h
556.691 242.535 m
556.691 236.172 l
557.845 236.172 l
557.845 237.367 l
558.302 236.477 558.966 236.031 559.837 236.031  c
559.955 236.031 560.078 236.041 560.207 236.061  c
560.207 237.139 l
560.007 237.072 559.832 237.039 559.679 237.039  c
558.949 237.039 558.337 237.473 557.845 238.340  c
557.845 242.535 l
h
f
2 J
10.0000 M
0 J
1.45000 M
newpath
335.512 193.000 m
495.616 193.000 l
S
newpath
403.801 199.850 m
403.801 191.172 l
404.955 191.172 l
404.955 192.367 l
405.428 191.477 406.137 191.031 407.082 191.031  c
407.848 191.031 408.450 191.311 408.890 191.869  c
409.329 192.428 409.549 193.191 409.549 194.160  c
409.549 195.215 409.300 196.065 408.802 196.712  c
408.304 197.358 407.649 197.682 406.836 197.682  c
406.082 197.682 405.455 197.393 404.955 196.814  c
404.955 199.850 l
h
404.955 196.018 m
405.549 196.549 406.115 196.814 406.654 196.814  c
407.764 196.814 408.319 195.969 408.319 194.277  c
408.319 192.785 407.826 192.039 406.842 192.039  c
406.197 192.039 405.569 192.389 404.955 193.088  c
h
416.018 197.330 m
415.244 197.564 414.582 197.682 414.031 197.682  c
413.094 197.682 412.329 197.370 411.737 196.747  c
411.146 196.124 410.850 195.316 410.850 194.324  c
410.850 193.359 411.111 192.568 411.632 191.951  c
412.154 191.334 412.820 191.025 413.633 191.025  c
414.403 191.025 414.997 191.299 415.417 191.846  c
415.837 192.393 416.047 193.170 416.047 194.178  c
416.041 194.535 l
412.028 194.535 l
412.195 196.047 412.936 196.803 414.248 196.803  c
414.729 196.803 415.319 196.674 416.018 196.416  c
h
412.080 193.668 m
414.887 193.668 l
414.887 192.484 414.445 191.893 413.563 191.893  c
412.676 191.893 412.182 192.484 412.080 193.668  c
h
422.703 197.330 m
421.930 197.564 421.268 197.682 420.717 197.682  c
419.779 197.682 419.015 197.370 418.423 196.747  c
417.831 196.124 417.535 195.316 417.535 194.324  c
417.535 193.359 417.796 192.568 418.318 191.951  c
418.839 191.334 419.506 191.025 420.319 191.025  c
421.088 191.025 421.683 191.299 422.103 191.846  c
422.523 192.393 422.733 193.170 422.733 194.178  c
422.727 194.535 l
418.713 194.535 l
418.881 196.047 419.621 196.803 420.934 196.803  c
421.414 196.803 422.004 196.674 422.703 196.416  c
h
418.766 193.668 m
421.572 193.668 l
421.572 192.484 421.131 191.893 420.248 191.893  c
419.362 191.893 418.867 192.484 418.766 193.668  c
h
424.725 197.535 m
424.725 191.172 l
425.879 191.172 l
425.879 192.367 l
426.336 191.477 427.000 191.031 427.871 191.031  c
427.988 191.031 428.112 191.041 428.240 191.061  c
428.240 192.139 l
428.041 192.072 427.865 192.039 427.713 192.039  c
426.983 192.039 426.371 192.473 425.879 193.340  c
425.879 197.535 l
h
f
2 J
10.0000 M
0 J
1.45000 M
newpath
295.012 208.000 m
295.012 260.000 l
S
newpath
295.012 268.000 m
300.012 256.000 l
295.012 259.000 l
290.012 256.000 l
h
f
newpath
271.835 244.850 m
271.835 236.172 l
272.989 236.172 l
272.989 237.367 l
273.462 236.477 274.171 236.031 275.116 236.031  c
275.882 236.031 276.484 236.311 276.924 236.869  c
277.363 237.428 277.583 238.191 277.583 239.160  c
277.583 240.215 277.334 241.065 276.836 241.712  c
276.338 242.358 275.682 242.682 274.870 242.682  c
274.116 242.682 273.489 242.393 272.989 241.814  c
272.989 244.850 l
h
272.989 241.018 m
273.583 241.549 274.149 241.814 274.688 241.814  c
275.798 241.814 276.352 240.969 276.352 239.277  c
276.352 237.785 275.860 237.039 274.876 237.039  c
274.231 237.039 273.602 237.389 272.989 238.088  c
h
279.388 242.535 m
279.388 236.172 l
280.542 236.172 l
280.542 237.367 l
280.999 236.477 281.663 236.031 282.534 236.031  c
282.651 236.031 282.774 236.041 282.903 236.061  c
282.903 237.139 l
282.704 237.072 282.528 237.039 282.376 237.039  c
281.645 237.039 281.034 237.473 280.542 238.340  c
280.542 242.535 l
h
286.788 242.682 m
285.878 242.682 285.151 242.380 284.608 241.776  c
284.065 241.173 283.794 240.365 283.794 239.354  c
283.794 238.330 284.066 237.521 284.611 236.925  c
285.156 236.329 285.895 236.031 286.829 236.031  c
287.763 236.031 288.502 236.329 289.047 236.925  c
289.592 237.521 289.864 238.326 289.864 239.342  c
289.864 240.381 289.591 241.197 289.044 241.791  c
288.497 242.385 287.745 242.682 286.788 242.682  c
h
286.806 241.814 m
288.028 241.814 288.639 240.990 288.639 239.342  c
288.639 237.713 288.036 236.898 286.829 236.898  c
285.626 236.898 285.024 237.717 285.024 239.354  c
285.024 240.994 285.618 241.814 286.806 241.814  c
h
292.987 242.535 m
290.620 236.172 l
291.774 236.172 l
293.626 241.123 l
295.577 236.172 l
296.655 236.172 l
294.141 242.535 l
h
297.880 242.535 m
297.880 236.172 l
299.034 236.172 l
299.034 242.535 l
h
297.880 235.018 m
297.880 233.863 l
299.034 233.863 l
299.034 235.018 l
h
305.432 242.535 m
305.432 241.340 l
304.964 242.234 304.257 242.682 303.311 242.682  c
302.546 242.682 301.943 242.402 301.504 241.844  c
301.064 241.285 300.845 240.521 300.845 239.553  c
300.845 238.494 301.094 237.643 301.592 236.998  c
302.090 236.354 302.745 236.031 303.557 236.031  c
304.311 236.031 304.936 236.320 305.432 236.898  c
305.432 233.283 l
306.593 233.283 l
306.593 242.535 l
h
305.432 237.689 m
304.835 237.162 304.268 236.898 303.733 236.898  c
302.628 236.898 302.075 237.744 302.075 239.436  c
302.075 240.924 302.567 241.668 303.552 241.668  c
304.192 241.668 304.819 241.318 305.432 240.619  c
h
313.565 242.330 m
312.792 242.564 312.130 242.682 311.579 242.682  c
310.641 242.682 309.877 242.370 309.285 241.747  c
308.693 241.124 308.397 240.316 308.397 239.324  c
308.397 238.359 308.658 237.568 309.180 236.951  c
309.701 236.334 310.368 236.025 311.181 236.025  c
311.950 236.025 312.545 236.299 312.965 236.846  c
313.385 237.393 313.595 238.170 313.595 239.178  c
313.589 239.535 l
309.575 239.535 l
309.743 241.047 310.483 241.803 311.796 241.803  c
312.276 241.803 312.866 241.674 313.565 241.416  c
h
309.628 238.668 m
312.434 238.668 l
312.434 237.484 311.993 236.893 311.110 236.893  c
310.223 236.893 309.729 237.484 309.628 238.668  c
h
315.587 242.535 m
315.587 236.172 l
316.741 236.172 l
316.741 237.367 l
317.198 236.477 317.862 236.031 318.733 236.031  c
318.850 236.031 318.973 236.041 319.102 236.061  c
319.102 237.139 l
318.903 237.072 318.727 237.039 318.575 237.039  c
317.845 237.039 317.233 237.473 316.741 238.340  c
316.741 242.535 l
h
f
2 J
10.0000 M
0 J
1.45000 M
newpath
295.012 358.000 m
295.012 306.000 l
S
newpath
295.012 298.000 m
290.012 310.000 l
295.012 307.000 l
300.012 310.000 l
h
f
newpath
271.466 332.682 m
270.606 332.682 269.893 332.363 269.327 331.727  c
268.761 331.090 268.477 330.287 268.477 329.318  c
268.477 328.283 268.758 327.477 269.318 326.898  c
269.879 326.320 270.661 326.031 271.665 326.031  c
272.161 326.031 272.716 326.100 273.329 326.236  c
273.329 327.203 l
272.677 327.012 272.145 326.916 271.735 326.916  c
271.145 326.916 270.672 327.138 270.314 327.581  c
269.957 328.024 269.778 328.615 269.778 329.354  c
269.778 330.068 269.962 330.646 270.329 331.088  c
270.696 331.529 271.177 331.750 271.770 331.750  c
272.298 331.750 272.841 331.615 273.399 331.346  c
273.399 332.342 l
272.653 332.568 272.009 332.682 271.466 332.682  c
h
279.106 332.535 m
279.106 331.340 l
278.493 332.234 277.749 332.682 276.874 332.682  c
276.319 332.682 275.878 332.507 275.550 332.157  c
275.222 331.808 275.057 331.336 275.057 330.742  c
275.057 326.172 l
276.212 326.172 l
276.212 330.367 l
276.212 330.844 276.281 331.183 276.420 331.384  c
276.558 331.585 276.790 331.686 277.114 331.686  c
277.817 331.686 278.481 331.223 279.106 330.297  c
279.106 326.172 l
280.261 326.172 l
280.261 332.535 l
h
284.263 332.682 m
283.735 332.682 283.095 332.559 282.341 332.312  c
282.341 331.252 l
283.095 331.627 283.751 331.814 284.309 331.814  c
284.641 331.814 284.917 331.725 285.136 331.545  c
285.354 331.365 285.464 331.141 285.464 330.871  c
285.464 330.477 285.157 330.150 284.544 329.893  c
283.870 329.605 l
282.874 329.191 282.376 328.596 282.376 327.818  c
282.376 327.264 282.572 326.827 282.965 326.509  c
283.357 326.190 283.895 326.031 284.579 326.031  c
284.934 326.031 285.374 326.080 285.897 326.178  c
286.138 326.225 l
286.138 327.186 l
285.493 326.994 284.981 326.898 284.602 326.898  c
283.860 326.898 283.489 327.168 283.489 327.707  c
283.489 328.055 283.770 328.348 284.333 328.586  c
284.889 328.820 l
285.518 329.086 285.964 329.366 286.225 329.661  c
286.487 329.956 286.618 330.324 286.618 330.766  c
286.618 331.324 286.397 331.783 285.956 332.143  c
285.514 332.502 284.950 332.682 284.263 332.682  c
h
290.602 332.682 m
290.016 332.682 289.559 332.514 289.231 332.178  c
288.903 331.842 288.739 331.375 288.739 330.777  c
288.739 327.039 l
287.942 327.039 l
287.942 326.172 l
288.739 326.172 l
288.739 325.018 l
289.893 324.906 l
289.893 326.172 l
291.557 326.172 l
291.557 327.039 l
289.893 327.039 l
289.893 330.566 l
289.893 331.398 290.253 331.814 290.972 331.814  c
291.124 331.814 291.309 331.789 291.528 331.738  c
291.528 332.535 l
291.173 332.633 290.864 332.682 290.602 332.682  c
h
295.671 332.682 m
294.761 332.682 294.034 332.380 293.491 331.776  c
292.948 331.173 292.677 330.365 292.677 329.354  c
292.677 328.330 292.949 327.521 293.494 326.925  c
294.039 326.329 294.778 326.031 295.712 326.031  c
296.645 326.031 297.385 326.329 297.930 326.925  c
298.474 327.521 298.747 328.326 298.747 329.342  c
298.747 330.381 298.473 331.197 297.927 331.791  c
297.380 332.385 296.628 332.682 295.671 332.682  c
h
295.688 331.814 m
296.911 331.814 297.522 330.990 297.522 329.342  c
297.522 327.713 296.919 326.898 295.712 326.898  c
294.509 326.898 293.907 327.717 293.907 329.354  c
293.907 330.994 294.501 331.814 295.688 331.814  c
h
300.552 332.535 m
300.552 326.172 l
301.706 326.172 l
301.706 327.367 l
302.268 326.477 302.991 326.031 303.874 326.031  c
304.725 326.031 305.306 326.477 305.614 327.367  c
306.161 326.473 306.872 326.025 307.747 326.025  c
308.309 326.025 308.745 326.190 309.054 326.521  c
309.362 326.851 309.516 327.312 309.516 327.906  c
309.516 332.535 l
308.356 332.535 l
308.356 328.088 l
308.356 327.361 308.069 326.998 307.495 326.998  c
306.897 326.998 306.270 327.422 305.614 328.270  c
305.614 332.535 l
304.454 332.535 l
304.454 328.088 l
304.454 327.357 304.161 326.992 303.575 326.992  c
302.993 326.992 302.370 327.418 301.706 328.270  c
301.706 332.535 l
h
316.419 332.330 m
315.645 332.564 314.983 332.682 314.432 332.682  c
313.495 332.682 312.730 332.370 312.139 331.747  c
311.547 331.124 311.251 330.316 311.251 329.324  c
311.251 328.359 311.512 327.568 312.033 326.951  c
312.555 326.334 313.222 326.025 314.034 326.025  c
314.804 326.025 315.398 326.299 315.818 326.846  c
316.238 327.393 316.448 328.170 316.448 329.178  c
316.442 329.535 l
312.429 329.535 l
312.597 331.047 313.337 331.803 314.649 331.803  c
315.130 331.803 315.720 331.674 316.419 331.416  c
h
312.481 328.668 m
315.288 328.668 l
315.288 327.484 314.847 326.893 313.964 326.893  c
313.077 326.893 312.583 327.484 312.481 328.668  c
h
318.440 332.535 m
318.440 326.172 l
319.595 326.172 l
319.595 327.367 l
320.052 326.477 320.716 326.031 321.587 326.031  c
321.704 326.031 321.827 326.041 321.956 326.061  c
321.956 327.139 l
321.757 327.072 321.581 327.039 321.429 327.039  c
320.698 327.039 320.087 327.473 319.595 328.340  c
319.595 332.535 l
h
f
2 J
10.0000 M
0 J
1.45000 M
newpath
335.512 373.000 m
495.616 373.000 l
S
newpath
398.903 377.682 m
398.375 377.682 397.735 377.559 396.981 377.312  c
396.981 376.252 l
397.735 376.627 398.391 376.814 398.949 376.814  c
399.281 376.814 399.557 376.725 399.776 376.545  c
399.994 376.365 400.104 376.141 400.104 375.871  c
400.104 375.477 399.797 375.150 399.184 374.893  c
398.510 374.605 l
397.514 374.191 397.016 373.596 397.016 372.818  c
397.016 372.264 397.212 371.827 397.605 371.509  c
397.997 371.190 398.535 371.031 399.219 371.031  c
399.574 371.031 400.014 371.080 400.537 371.178  c
400.778 371.225 l
400.778 372.186 l
400.133 371.994 399.621 371.898 399.242 371.898  c
398.500 371.898 398.129 372.168 398.129 372.707  c
398.129 373.055 398.410 373.348 398.973 373.586  c
399.529 373.820 l
400.158 374.086 400.604 374.366 400.865 374.661  c
401.127 374.956 401.258 375.324 401.258 375.766  c
401.258 376.324 401.037 376.783 400.596 377.143  c
400.154 377.502 399.590 377.682 398.903 377.682  c
h
403.332 377.535 m
403.332 371.172 l
404.487 371.172 l
404.487 377.535 l
h
403.332 370.018 m
403.332 368.863 l
404.487 368.863 l
404.487 370.018 l
h
406.801 377.605 m
406.801 368.283 l
407.955 368.283 l
407.955 372.367 l
408.428 371.477 409.137 371.031 410.082 371.031  c
410.848 371.031 411.450 371.311 411.890 371.869  c
412.329 372.428 412.549 373.191 412.549 374.160  c
412.549 375.215 412.300 376.065 411.802 376.712  c
411.304 377.358 410.649 377.682 409.836 377.682  c
409.082 377.682 408.455 377.393 407.955 376.814  c
407.815 377.605 l
h
407.955 376.018 m
408.549 376.549 409.115 376.814 409.654 376.814  c
410.764 376.814 411.319 375.969 411.319 374.277  c
411.319 372.785 410.826 372.039 409.842 372.039  c
409.197 372.039 408.569 372.389 407.955 373.088  c
h
414.354 377.535 m
414.354 368.283 l
415.508 368.283 l
415.508 377.535 l
h
417.822 377.535 m
417.822 371.172 l
418.977 371.172 l
418.977 377.535 l
h
417.822 370.018 m
417.822 368.863 l
418.977 368.863 l
418.977 370.018 l
h
421.291 377.535 m
421.291 371.172 l
422.445 371.172 l
422.445 372.367 l
423.055 371.477 423.801 371.031 424.684 371.031  c
425.235 371.031 425.674 371.206 426.002 371.556  c
426.330 371.905 426.494 372.375 426.494 372.965  c
426.494 377.535 l
425.340 377.535 l
425.340 373.340 l
425.340 372.867 425.271 372.530 425.132 372.329  c
424.993 372.128 424.764 372.027 424.444 372.027  c
423.737 372.027 423.070 372.490 422.445 373.416  c
422.445 377.535 l
h
428.762 379.650 m
428.897 378.648 l
429.565 378.965 430.223 379.123 430.871 379.123  c
432.172 379.123 432.822 378.434 432.822 377.055  c
432.822 376.053 l
432.397 376.943 431.697 377.389 430.725 377.389  c
429.963 377.389 429.358 377.111 428.908 376.557  c
428.459 376.002 428.235 375.254 428.235 374.312  c
428.235 373.344 428.490 372.555 429.002 371.945  c
429.514 371.336 430.176 371.031 430.988 371.031  c
431.699 371.031 432.311 371.320 432.822 371.898  c
432.822 371.172 l
433.983 371.172 l
433.983 375.801 l
433.983 376.797 433.931 377.534 433.827 378.013  c
433.724 378.491 433.529 378.883 433.244 379.188  c
432.740 379.723 431.957 379.990 430.895 379.990  c
430.153 379.990 429.442 379.877 428.762 379.650  c
h
432.822 375.332 m
432.822 372.689 l
432.315 372.162 431.762 371.898 431.164 371.898  c
430.633 371.898 430.217 372.111 429.916 372.537  c
429.615 372.963 429.465 373.547 429.465 374.289  c
429.465 375.684 429.955 376.381 430.936 376.381  c
431.604 376.381 432.233 376.031 432.822 375.332  c
h
f
2 J
10.0000 M
0 J
1.45000 M
newpath
536.116 298.000 m
536.116 350.000 l
S
newpath
536.116 358.000 m
541.116 346.000 l
536.116 349.000 l
531.116 346.000 l
h
f
newpath
512.939 334.850 m
512.939 326.172 l
514.093 326.172 l
514.093 327.367 l
514.566 326.477 515.275 326.031 516.220 326.031  c
516.986 326.031 517.588 326.311 518.028 326.869  c
518.467 327.428 518.687 328.191 518.687 329.160  c
518.687 330.215 518.438 331.065 517.940 331.712  c
517.442 332.358 516.787 332.682 515.974 332.682  c
515.220 332.682 514.593 332.393 514.093 331.814  c
514.093 334.850 l
h
514.093 331.018 m
514.687 331.549 515.253 331.814 515.792 331.814  c
516.902 331.814 517.457 330.969 517.457 329.277  c
517.457 327.785 516.964 327.039 515.980 327.039  c
515.335 327.039 514.707 327.389 514.093 328.088  c
h
520.492 332.535 m
520.492 326.172 l
521.646 326.172 l
521.646 327.367 l
522.103 326.477 522.767 326.031 523.638 326.031  c
523.755 326.031 523.878 326.041 524.007 326.061  c
524.007 327.139 l
523.808 327.072 523.632 327.039 523.480 327.039  c
522.750 327.039 522.138 327.473 521.646 328.340  c
521.646 332.535 l
h
527.892 332.682 m
526.982 332.682 526.255 332.380 525.712 331.776  c
525.169 331.173 524.898 330.365 524.898 329.354  c
524.898 328.330 525.170 327.521 525.715 326.925  c
526.260 326.329 527.000 326.031 527.933 326.031  c
528.867 326.031 529.606 326.329 530.151 326.925  c
530.696 327.521 530.968 328.326 530.968 329.342  c
530.968 330.381 530.695 331.197 530.148 331.791  c
529.601 332.385 528.849 332.682 527.892 332.682  c
h
527.910 331.814 m
529.132 331.814 529.744 330.990 529.744 329.342  c
529.744 327.713 529.140 326.898 527.933 326.898  c
526.730 326.898 526.128 327.717 526.128 329.354  c
526.128 330.994 526.722 331.814 527.910 331.814  c
h
534.091 332.535 m
531.724 326.172 l
532.878 326.172 l
534.730 331.123 l
536.681 326.172 l
537.759 326.172 l
535.246 332.535 l
h
538.984 332.535 m
538.984 326.172 l
540.138 326.172 l
540.138 332.535 l
h
538.984 325.018 m
538.984 323.863 l
540.138 323.863 l
540.138 325.018 l
h
546.537 332.535 m
546.537 331.340 l
546.068 332.234 545.361 332.682 544.416 332.682  c
543.650 332.682 543.047 332.402 542.608 331.844  c
542.168 331.285 541.949 330.521 541.949 329.553  c
541.949 328.494 542.198 327.643 542.696 326.998  c
543.194 326.354 543.849 326.031 544.662 326.031  c
545.416 326.031 546.041 326.320 546.537 326.898  c
546.537 323.283 l
547.697 323.283 l
547.697 332.535 l
h
546.537 327.689 m
545.939 327.162 545.373 326.898 544.837 326.898  c
543.732 326.898 543.179 327.744 543.179 329.436  c
543.179 330.924 543.671 331.668 544.656 331.668  c
545.296 331.668 545.923 331.318 546.537 330.619  c
h
554.669 332.330 m
553.896 332.564 553.234 332.682 552.683 332.682  c
551.746 332.682 550.981 332.370 550.389 331.747  c
549.797 331.124 549.501 330.316 549.501 329.324  c
549.501 328.359 549.762 327.568 550.284 326.951  c
550.805 326.334 551.472 326.025 552.285 326.025  c
553.054 326.025 553.649 326.299 554.069 326.846  c
554.489 327.393 554.699 328.170 554.699 329.178  c
554.693 329.535 l
550.679 329.535 l
550.847 331.047 551.587 331.803 552.900 331.803  c
553.380 331.803 553.970 331.674 554.669 331.416  c
h
550.732 328.668 m
553.539 328.668 l
553.539 327.484 553.097 326.893 552.214 326.893  c
551.328 326.893 550.833 327.484 550.732 328.668  c
h
556.691 332.535 m
556.691 326.172 l
557.845 326.172 l
557.845 327.367 l
558.302 326.477 558.966 326.031 559.837 326.031  c
559.955 326.031 560.078 326.041 560.207 326.061  c
560.207 327.139 l
560.007 327.072 559.832 327.039 559.679 327.039  c
558.949 327.039 558.337 327.473 557.845 328.340  c
557.845 332.535 l
h
f
2 J
10.0000 M
Q
[ 1.00000 0.00000 0.00000 1.00000 0.00000 0.00000 ] defaultmatrix matrix concatmatrix setmatrix
cliprestore

%%Trailer
%%EOF
