%!PS-Adobe-3.0 EPSF-3.0
%%BoundingBox: 0 0 632 628
%%Creator: yExport 1.5
%%Producer: org.freehep.graphicsio.ps.EPSGraphics2D Revision: 12753 
%%For: 
%%Title: 
%%CreationDate: Friday, October 18, 2019 9:36:24 AM WAT
%%LanguageLevel: 3
%%EndComments
%%BeginProlog
100 dict dup begin

%
% File: org/freehep/graphicsio.ps/PSProlog.txt
% Author: Charles Loomis
%

% Redefinitions which save some space in the output file.  These are also
% the same as the PDF operators.
/q {gsave} def
/Q {grestore} def

/n {newpath} def
/m {moveto} def
/l {lineto} def
/c {curveto} def
/h {closepath} def

/re {4 -2 roll moveto
     dup 0 exch rlineto exch 0 rlineto
     neg 0 exch rlineto closepath} def

/f {fill} def
/f* {eofill} def
/F {gsave vg&FC fill grestore} def
/F* {gsave vg&FC eofill grestore} def

/s {closepath stroke} def
/S {stroke} def

/b {closepath gsave vg&FC fill grestore
    gsave stroke grestore newpath} def
/B {gsave vg&FC fill grestore gsave stroke grestore newpath} def
/b* {closepath gsave vg&FC eofill grestore
    gsave stroke grestore newpath} def
/B* {gsave vg&FC eofill grestore gsave stroke grestore newpath} def

/g {1 array astore /vg&fcolor exch def} def
/G {setgray} def
/k {4 array astore /vg&fcolor exch def} def
/K {setcmykcolor} def
/rg {3 array astore /vg&fcolor exch def} def
/RG {setrgbcolor} def

% Initialize the fill color.
0 0 0 rg

/vg&FC {mark vg&fcolor aload pop
        counttomark 1 eq {G} if
        counttomark 3 eq {RG} if
        counttomark 4 eq {K} if
        cleartomark } def

/vg&DFC {/vg&fcolor exch def} def

/vg&C {mark exch aload pop
       counttomark 1 eq {G} if
       counttomark 3 eq {RG} if
       counttomark 4 eq {K} if
       cleartomark } def

/w {setlinewidth} def
/j {setlinejoin} def
/J {setlinecap} def
/M {setmiterlimit} def
/d {setdash} def
/i {setflat} def

/W {clip} def
/W* {eoclip} def

% Setup the default graphics state.
% (black; 1 pt. linewidth; miter join; butt-ends; solid)
/defaultGraphicsState {0 g 1 w 0 j 0 J [] 0 d} def

% Emulation of the rectangle operators for PostScript implementations
% which do not implement all Level 2 features.  This is an INCOMPLETE
% emulation; only the "x y width height rect..." form is emulated.
/*rf {gsave newpath re fill grestore} def
/*rs {gsave newpath re stroke grestore} def
/*rc {newpath re clip} def
/rf  /rectfill where {pop /rectfill}{/*rf} ifelse load def
/rs  /rectstroke where {pop /rectstroke}{/*rs} ifelse load def
/rc  /rectclip where {pop /rectclip}{/*rc} ifelse load def

% Emulation of the selectfont operator.  This includes a 20% increase in
% the fontsize which is necessary to get sizes similar to the Java fonts.
/*sf {exch findfont exch
      dup type /arraytype eq {makefont}{scalefont} ifelse setfont} bind def
/sf /selectfont where {pop {1.2 mul selectfont}}{{1.2 mul *sf}} ifelse def

% Special version of stroke which allows the dash pattern to continue
% across path segments.  (This may be needed for PostScript although
% modern printers seem to do this correctly.)
/vg&stroke {
  currentdash pop length 0 eq
  {stroke}
  {
    currentdash /vg&doffset exch def pop
    flattenpath
    {m vg&resetdash}
    {2 copy
     currentpoint
     3 -1 roll sub dup mul
     3 1 roll sub dup mul
     add sqrt
     3 1 roll l
     currentdash 3 -1 roll add setdash}
     {}
     {h vg&resetdash}
     pathforall
     stroke
     vg&resetdash
  } ifelse
} def
/vg&resetdash {currentdash pop vg&doffset setdash} def

% Initialize variables for safety.
/delta 0 def
/xv 0 def  /yv 0 def  /width 0 def  /height 0 def

% Initialize to portrait INTERNATIONAL (Letter-height, A4-width) page.
/pw 595 def  /ph 791  def  /po true def /ftp false def

% Initialize margins to 20 points.
/ml 20 def  /mr 20 def  /mt 20 def  /mb 20 def

% Temporary matrices.
/smatrix 0 def  /nmatrix 0 def

% set page size (usage: <page width><page height> setpagesize)
/setpagesize {/ph exch def /pw exch def} def

% set page orientation (usage: portrait or landscape)
/portrait {/po true def} def
/landscape {/po false def} def

% force natural size for image (usage: naturalsize)
/naturalsize {/ftp false def} def

% resize image to fill page (usage: fittopage)
/fittopage {/ftp true def} def

% set margins of the page (usage: <left><bottom><top><right> setmargins)
/setmargins {/mr exch def /mt exch def /mb exch def /ml exch def} def

% set the graphic's size (usage: <width><height> setsize)
/setsize {/gh exch def /gw exch def} def

% set the graphic's origin (usage: <x0><y0> setorigin)
/setorigin {/gy exch def /gx exch def} def

% calculate image center
/imagecenter {pw ml sub mr sub 2 div ml add
              ph mt sub mb sub 2 div mb add} def

% calculate the necessary scaling
/imagescale {po {gw}{gh} ifelse pw ml sub mr sub div
             po {gh}{gw} ifelse ph mt sub mb sub div
             2 copy lt {exch} if pop
             ftp not {1 2 copy lt {exch} if pop} if
             1 exch div /sfactor exch def
             /gw gw sfactor mul def /gh gh sfactor mul def} def

% calculate image origin
/imageorigin {pw ml sub mr sub 2 div ml add
              po {gw}{gh} ifelse 2 div sub
              ph mt sub mb sub 2 div mb add
              po {gh}{gw} ifelse 2 div po {add}{sub} ifelse} def

% calculate the clipping origin
/cliporigin  {pw ml sub mr sub 2 div ml add
              po {gw}{gh} ifelse 2 div sub floor
              ph mt sub mb sub 2 div mb add
              po {gh}{gw} ifelse 2 div sub floor} def

% Set the clipping region to the bounding box.
/cliptobounds {cliporigin po {gw}{gh} ifelse 1 add
                          po {gh}{gw} ifelse 1 add rc} def

% set the base transformation matrix (usage: setbasematrix)
/setbasematrix {imageorigin translate
                po {0}{90} ifelse rotate
                sfactor sfactor neg scale
                /defaultmatrix matrix currentmatrix def} def

% The lower-right bias in drawing 1 pt. wide lines.
/bias  {q 0.5 0.5 translate} def
/unbias {Q} def

% Define the composite fonts used to print Unicode strings.
% Undefine particular values in an encoding array.
/vg&undef { {exch dup 3 -1 roll /.notdef put} forall } def
/vg&redef { {3 -1 roll dup 4 2 roll put} forall } def

% usage: key encoding basefontname vg&newbasefont font
/vg&newbasefont {
findfont dup length dict copy
  begin
    currentdict /FID undef
    /Encoding exch def
    dup /FontName exch def
    currentdict
  end
definefont
} def

% usage: key encoding basefontname vg&newskewedbasefont font
/vg&newskewedbasefont {
findfont dup length dict copy
  begin
    currentdict /FID undef
    /Encoding exch def
    dup /FontName exch def
    exch FontMatrix exch matrix concatmatrix /FontMatrix exch def
    currentdict
  end
definefont
} def

% usage: basekey suffix vg&nconcat name
/vg&nconcat {
  2 {dup length string cvs exch} repeat
  dup length 3 -1 roll dup length 3 -1 roll add string
  dup 0 4 -1 roll dup length 5 1 roll putinterval
  dup 4 -2 roll exch putinterval cvn
} def

%usage: fontname vg&skewmatrix matrix
/vg&skewmatrix {
findfont dup /FontInfo known
  {
    /FontInfo get dup /ItalicAngle known
    {
      [ 1 0 4 -1 roll /ItalicAngle get neg dup sin exch cos div 1 0 0 ]
    }
    {pop matrix} ifelse
  }
  {pop matrix} ifelse
} def

% usage: newfontname basefontname vg&newcompositefont --
/vg&newcompositefont {
/vg&fstyle exch def
/vg&bfont exch def
/vg&fname exch def
<<
/FontStyleBits vg&fstyle
/FontType 0
/FontMatrix matrix
/FontName vg&fname
/FMapType 2
/Encoding [ 0 1 255 {pop 6} for ]
          dup 16#00 0 put % Latin
          dup 16#03 1 put % Greek
          dup 16#20 2 put % Punctuation
          dup 16#21 3 put % Arrows
          dup 16#22 4 put % MathOps
          dup 16#27 5 put % Dingbats

/FDepVector [
vg&bfont /-UC-Latin vg&nconcat UCLatinEncoding
vg&bfont vg&newbasefont

vg&bfont vg&skewmatrix
vg&bfont /-UC-Greek vg&nconcat UCGreekEncoding
/Symbol vg&newskewedbasefont

vg&bfont /-UC-Punctuation vg&nconcat UCPunctuationEncoding
vg&bfont vg&newbasefont

/Arrows-UC findfont
/MathOps-UC findfont
/Dingbats-UC findfont
/Undefined-UC findfont ]
>>
vg&fname exch definefont pop
} def

% Null encoding vector (all elements set to .notdef)
/NullEncoding [ 256 {/.notdef} repeat ] def

% Unicode Latin encoding (unicode codes \u0000-\u00ff)
/UCLatinEncoding
  ISOLatin1Encoding dup length array copy
  dup 16#60 /grave put
  [ 16#90 16#91 16#92 16#93 16#94 16#95 16#96
    16#97 16#98 16#9a 16#9b 16#9d 16#9e 16#9f
  ] vg&undef
  def

% Unicode Greek encoding (unicode codes \u0370-\u03ff)
/UCGreekEncoding
  NullEncoding dup length array copy
  << 16#91 /Alpha    16#92 /Beta      16#93 /Gamma    16#94 /Delta
     16#95 /Epsilon  16#96 /Zeta      16#97 /Eta      16#98 /Theta
     16#99 /Iota     16#9a /Kappa     16#9b /Lambda   16#9c /Mu
     16#9d /Nu       16#9e /Xi        16#9f /Omicron  16#a0 /Pi
     16#a1 /Rho      16#a3 /Sigma     16#a4 /Tau      16#a5 /Upsilon
     16#a6 /Phi      16#a7 /Chi       16#a8 /Psi      16#a9 /Omega
     16#b1 /alpha    16#b2 /beta      16#b3 /gamma    16#b4 /delta
     16#b5 /epsilon  16#b6 /zeta      16#b7 /eta      16#b8 /theta
     16#b9 /iota     16#ba /kappa     16#bb /lambda   16#bc /mu
     16#bd /nu       16#be /xi        16#bf /omicron  16#c0 /pi
     16#c1 /rho      16#c2 /sigma1    16#c3 /sigma    16#c4 /tau
     16#c5 /upsilon  16#c6 /phi1      16#c7 /chi      16#c8 /psi
     16#c9 /omega    16#7e /semicolon 16#87 /dotmath  16#d1 /theta1
     16#d2 /Upsilon1 16#d5 /phi       16#d6 /omega1
  >> vg&redef
  def

% Unicode punctuation encoding (unicode codes \u2000-\u206f)
/UCPunctuationEncoding
  NullEncoding dup length array copy
  << 16#10 /hyphen          16#11 /hyphen              16#12 /endash
     16#13 /emdash          16#18 /quoteleft           16#19 /quoteright
     16#1a /quotesinglbase  16#1b /quotesingle         16#1c /quotedblleft
     16#1d /quotedblright   16#1e /quotedblbase        16#1f /quotedbl
     16#20 /dagger          16#21 /daggerdbl           16#22 /bullet
     16#24 /period          16#26 /ellipsis            16#27 /periodcentered
     16#30 /perthousand     16#44 /fraction
     16#70 /zerosuperior    16#74 /foursuperior        16#75 /fivesuperior
     16#76 /sixsuperior     16#77 /sevensuperior       16#78 /eightsuperior
     16#79 /ninesuperior    16#7b /hyphensuperior      16#7d /parenleftsuperior
     16#7e /parenrightsuperior
     16#80 /zeroinferior    16#84 /fourinferior        16#85 /fiveinferior
     16#81 /oneinferior     16#82 /twoinferior         16#83 /threeinferior
     16#86 /sixinferior     16#87 /seveninferior       16#88 /eightinferior
     16#89 /nineinferior    16#8b /hypheninferior      16#8d /parenleftinferior
     16#8e /parenrightinferior
  >> vg&redef
  def

% Unicode mathematical operators encoding (unicode codes \u2200-\u22ff)
/UCMathOpsEncoding
  NullEncoding dup length array copy
  << 16#00 /universal       16#02 /partialdiff         16#03 /existential
     16#05 /emptyset        16#06 /Delta               16#07 /gradient
     16#08 /element         16#09 /notelement          16#0b /suchthat
     16#0f /product         16#11 /summation           16#12 /minus
     16#15 /fraction        16#17 /asteriskmath        16#19 /bullet
     16#1a /radical         16#1d /proportional        16#1e /infinity
     16#20 /angle           16#23 /bar                 16#27 /logicaland
     16#28 /logicalor       16#29 /intersection        16#2a /union
     16#2b /integral        16#34 /therefore           16#36 /colon
     16#3c /similar         16#45 /congruent           16#48 /approxequal
     16#60 /notequal        16#61 /equivalence         16#64 /lessequal
     16#65 /greaterequal    16#82 /propersubset        16#83 /propersuperset
     16#86 /reflexsubset    16#87 /reflexsuperset      16#95 /circleplus
     16#97 /circlemultiply  16#a5 /perpendicular       16#03 /existential
     16#c0 /logicaland      16#c1 /logicalor           16#c2 /intersection
     16#c3 /union           16#c4 /diamond             16#c5 /dotmath
  >> vg&redef
  def

% Unicode arrows encoding (unicode codes \u2190-\u21ff)
% Also includes those "Letterlike" unicode characters
% which are available in the symbol font. (unicode codes \u2100-\u214f)
/UCArrowsEncoding
  NullEncoding dup length array copy
  << 16#11 /Ifraktur        16#1c /Rfraktur            16#22 /trademarkserif
     16#35 /aleph
     16#90 /arrowleft       16#91 /arrowup             16#92 /arrowright
     16#93 /arrowdown       16#94 /arrowboth           16#d0 /arrowdblleft
     16#d1 /arrowdblup      16#d2 /arrowdblright       16#d3 /arrowdbldown
     16#d4 /arrowdblboth
  >> vg&redef
  def

/ZapfDingbats findfont /Encoding get
dup length array copy /UCDingbatsEncoding exch def
16#20 1 16#7f {
  dup 16#20 sub exch
  UCDingbatsEncoding exch get
  UCDingbatsEncoding 3 1 roll put
} for
16#a0 1 16#ff {
  dup 16#40 sub exch
  UCDingbatsEncoding exch get
  UCDingbatsEncoding 3 1 roll put
} for
UCDingbatsEncoding [ 16#c0 1 16#ff {} for ] vg&undef
[ 16#00  16#05 16#0a 16#0b  16#28 16#4c 16#4e  16#53 16#54 16#55  16#57 16#5f
  16#60  16#68 16#69 16#6a  16#6b 16#6c 16#6d  16#6e 16#6f 16#70  16#71 16#72
  16#73  16#74 16#75 16#95  16#96 16#97 16#b0  16#bf
] vg&undef pop

% Define the base fonts which don't change.
/Undefined-UC NullEncoding       /Helvetica    vg&newbasefont pop
/MathOps-UC   UCMathOpsEncoding  /Symbol       vg&newbasefont pop
/Arrows-UC    UCArrowsEncoding   /Symbol       vg&newbasefont pop
/Dingbats-UC  UCDingbatsEncoding /ZapfDingbats vg&newbasefont pop

% Make the SansSerif composite fonts.
/SansSerif /Helvetica 16#00 vg&newcompositefont
/SansSerif-Bold /Helvetica-Bold 16#01 vg&newcompositefont
/SansSerif-Italic /Helvetica-Oblique 16#02 vg&newcompositefont
/SansSerif-BoldItalic /Helvetica-BoldOblique 16#03 vg&newcompositefont

% Make the Serif composite fonts.
/Serif /Times-Roman 16#00 vg&newcompositefont
/Serif-Bold /Times-Bold 16#01 vg&newcompositefont
/Serif-Italic /Times-Italic 16#02 vg&newcompositefont
/Serif-BoldItalic /Times-BoldItalic 16#03 vg&newcompositefont

% Make the Monospaced composite fonts.
/Monospaced /Courier 16#00 vg&newcompositefont
/Monospaced-Bold /Courier-Bold 16#01 vg&newcompositefont
/Monospaced-Italic /Courier-Oblique 16#02 vg&newcompositefont
/Monospaced-BoldItalic /Courier-BoldOblique 16#03 vg&newcompositefont

% Make the Dialog composite fonts.
/Dialog /Helvetica 16#00 vg&newcompositefont
/Dialog-Bold /Helvetica-Bold 16#01 vg&newcompositefont
/Dialog-Italic /Helvetica-Oblique 16#02 vg&newcompositefont
/Dialog-BoldItalic /Helvetica-BoldOblique 16#03 vg&newcompositefont

% Make the DialogInput composite fonts.
/DialogInput /Courier 16#00 vg&newcompositefont
/DialogInput-Bold /Courier-Bold 16#01 vg&newcompositefont
/DialogInput-Italic /Courier-Oblique 16#02 vg&newcompositefont
/DialogInput-BoldItalic /Courier-BoldOblique 16#03 vg&newcompositefont

% Make the Typewriter composite fonts (JDK 1.1 only).
/Typewriter /Courier 16#00 vg&newcompositefont
/Typewriter-Bold /Courier-Bold 16#01 vg&newcompositefont
/Typewriter-Italic /Courier-Oblique 16#02 vg&newcompositefont
/Typewriter-BoldItalic /Courier-BoldOblique 16#03 vg&newcompositefont


/cfontH {
 dup /fontsize exch def /SansSerif exch sf
 /vg&fontstyles [{cfontH} {cfontHB} {cfontHI} {cfontHBI}] def
} def
/cfontHB {
  dup /fontsize exch def /SansSerif-Bold exch sf
 /vg&fontstyles [{cfontH} {cfontHB} {cfontHI} {cfontHBI}] def
} def
/cfontHI {
 dup /fontsize exch def /SansSerif-Italic exch sf
 /vg&fontstyles [{cfontH} {cfontHB} {cfontHI} {cfontHBI}] def
} def
/cfontHBI {
 dup /fontsize exch def /SansSerif-BoldItalic exch sf
 /vg&fontstyles [{cfontH} {cfontHB} {cfontHI} {cfontHBI}] def
} def

/cfontT {
 dup /fontsize exch def /Serif exch sf
 /vg&fontstyles [{cfontT} {cfontTB} {cfontTI} {cfontTBI}] def
} def
/cfontTB {
 dup /fontsize exch def /Serif-Bold exch sf
 /vg&fontstyles [{cfontT} {cfontTB} {cfontTI} {cfontTBI}] def
} def
/cfontTI {
 dup /fontsize exch def /Serif-Italic exch sf
 /vg&fontstyles [{cfontT} {cfontTB} {cfontTI} {cfontTBI}] def
} def
/cfontTBI {
 dup /fontsize exch def /Serif-BoldItalic exch sf
 /vg&fontstyles [{cfontT} {cfontTB} {cfontTI} {cfontTBI}] def
} def

/cfontC {
 dup /fontsize exch def /Typewriter exch sf
 /vg&fontstyles [{cfontC} {cfontCB} {cfontCI} {cfontCBI}] def
} def
/cfontCB {
 dup /fontsize exch def /Typewriter-Bold exch sf
 /vg&fontstyles [{cfontC} {cfontCB} {cfontCI} {cfontCBI}] def
} def
/cfontCI {
 dup /fontsize exch def /Typewriter-Italic exch sf
 /vg&fontstyles [{cfontC} {cfontCB} {cfontCI} {cfontCBI}] def
} def
/cfontCBI {
 dup /fontsize exch def /Typewriter-BoldItalic exch sf
 /vg&fontstyles [{cfontC} {cfontCB} {cfontCI} {cfontCBI}] def
} def

% Darken or lighten the current color.
/darken {0.7 exch exp 3 copy
         q 4 -1 roll vg&C
         currentrgbcolor 3 {4 -2 roll mul} repeat
         3 array astore Q} def

/displayColorMap
<< /Cr   [1.00 0.00 0.00]       /Cg     [0.00 1.00 0.00]
   /Cb   [0.00 0.00 1.00]       /Cc     [1.00 0.00 0.00 0.00]
   /Cm   [0.00 1.00 0.00 0.00]  /Cy     [0.00 0.00 1.00 0.00]
   /Co   [1.00 0.78 0.00]       /Cp     [1.00 0.67 0.67]
   /Cw   [1   ]                 /Cgrl   [0.75]
   /Cgr  [0.50]                 /Cgrd   [0.25]
   /Ck   [0   ]
   /CGr  [1.00 0.00 0.00]       /CGg    [0.00 1.00 0.00]
   /CGb  [0.00 0.00 1.00]       /CGc    [1.00 0.00 0.00 0.00]
   /CGm  [0.00 1.00 0.00 0.00]  /CGy    [0.00 0.00 1.00 0.00]
   /CGo  [1.00 0.78 0.00]       /CGp    [1.00 0.67 0.67]
   /CGw  [1   ]                 /CGgrl  [0.75]
   /CGgr [0.50]                 /CGgrd  [0.25]
   /CGk  [0   ]
   /CIr  [1.00 0.00 0.00]       /CIg    [0.00 1.00 0.00]
   /CIb  [0.00 0.00 1.00]       /CIc    [1.00 0.00 0.00 0.00]
   /CIm  [0.00 1.00 0.00 0.00]  /CIy    [0.00 0.00 1.00 0.00]
   /CIo  [1.00 0.78 0.00]       /CIp    [1.00 0.67 0.67]
   /CIw  [1   ]                 /CIgrl  [0.75]
   /CIgr [0.50]                 /CIgrd  [0.25]
   /CIk  [0   ]
>> def

/printColorMap
<< /Cr   [1.00 0.33 0.33]       /Cg     [0.33 1.00 0.33]
   /Cb   [0.33 0.33 1.00]       /Cc     [1.00 0.00 0.00 0.00]
   /Cm   [0.00 1.00 0.00 0.00]  /Cy     [0.00 0.00 1.00 0.00]
   /Co   [1.00 0.78 0.00]       /Cp     [1.00 0.67 0.67]
   /Cw   [1   ]                 /Cgrl   [0.75]
   /Cgr  [0.50]                 /Cgrd   [0.25]
   /Ck   [0   ]
   /CGr  [1.00 0.33 0.33]       /CGg    [0.33 1.00 0.33]
   /CGb  [0.33 0.33 1.00]       /CGc    [1.00 0.00 0.00 0.00]
   /CGm  [0.00 1.00 0.00 0.00]  /CGy    [0.00 0.00 1.00 0.00]
   /CGo  [1.00 0.78 0.00]       /CGp    [1.00 0.67 0.67]
   /CGw  [1   ]                 /CGgrl  [0.75]
   /CGgr [0.50]                 /CGgrd  [0.25]
   /CGk  [0   ]
   /CIr  [1.00 0.33 0.33]       /CIg    [0.33 1.00 0.33]
   /CIb  [0.33 0.33 1.00]       /CIc    [1.00 0.00 0.00 0.00]
   /CIm  [0.00 1.00 0.00 0.00]  /CIy    [0.00 0.00 1.00 0.00]
   /CIo  [1.00 0.78 0.00]       /CIp    [1.00 0.67 0.67]
   /CIw  [1   ]                 /CIgrl  [0.75]
   /CIgr [0.50]                 /CIgrd  [0.25]
   /CIk  [0   ]
>> def

/grayColorMap
<< /Cr   [0   ]                 /Cg     [0   ]
   /Cb   [0   ]                 /Cc     [0   ]
   /Cm   [0   ]                 /Cy     [0   ]
   /Co   [0   ]                 /Cp     [0   ]
   /Cw   [0   ]                 /Cgrl   [0   ]
   /Cgr  [0   ]                 /Cgrd   [0   ]
   /Ck   [0   ]
   /CGr  [0.75]                 /CGg    [1   ]
   /CGb  [0.50]                 /CGc    [0.75]
   /CGm  [0.50]                 /CGy    [1   ]
   /CGo  [0.75]                 /CGp    [1   ]
   /CGw  [0   ]                 /CGgrl  [0.25]
   /CGgr [0.50]                 /CGgrd  [0.75]
   /CGk  [1   ]
   /CIr  [1   ]                 /CIg    [1   ]
   /CIb  [1   ]                 /CIc    [1   ]
   /CIm  [1   ]                 /CIy    [1   ]
   /CIo  [1   ]                 /CIp    [1   ]
   /CIw  [1   ]                 /CIgrl  [1   ]
   /CIgr [1   ]                 /CIgrd  [1   ]
   /CIk  [1   ]
>> def

/bwColorMap
<< /Cr   [0   ]                 /Cg     [0   ]
   /Cb   [0   ]                 /Cc     [0   ]
   /Cm   [0   ]                 /Cy     [0   ]
   /Co   [0   ]                 /Cp     [0   ]
   /Cw   [0   ]                 /Cgrl   [0   ]
   /Cgr  [0   ]                 /Cgrd   [0   ]
   /Ck   [0   ]
   /CGr  [1   ]                 /CGg    [1   ]
   /CGb  [1   ]                 /CGc    [1   ]
   /CGm  [1   ]                 /CGy    [1   ]
   /CGo  [1   ]                 /CGp    [1   ]
   /CGw  [0   ]                 /CGgrl  [1   ]
   /CGgr [1   ]                 /CGgrd  [1   ]
   /CGk  [1   ]
   /CIr  [1   ]                 /CIg    [1   ]
   /CIb  [1   ]                 /CIc    [1   ]
   /CIm  [1   ]                 /CIy    [1   ]
   /CIo  [1   ]                 /CIp    [1   ]
   /CIw  [1   ]                 /CIgrl  [1   ]
   /CIgr [1   ]                 /CIgrd  [1   ]
   /CIk  [1   ]
>> def

%
% The following routines handle the alignment of and printing of
% tagged strings.
%

% Predefine the bounding box values.
/bbllx 0 def /bblly 0 def /bburx 0 def /bbury 0 def

% This routine pops the first unicode character off of a string and returns
% the remainder of the string, the character code of first character,
% and a "true" if the string was non-zero length.
% <string>      popfirst <remaining string> <true>
% <null string> popfirst <false>
/popfirst {
  dup length 1 gt
    {dup 0 get /vg&fbyte exch def
     dup 1 get /vg&cbyte exch def
     dup length 2 sub 2 exch getinterval true}
    {pop false} ifelse
} def

% This routine shows a single unicode character given the font and
% character codes.
% <font code> <char code> unicharshow --
/unicharshow {
  2 string
  dup 0 5 -1 roll put
  dup 1 4 -1 roll put
  internalshow
} def

% This is an internal routine to alternate between determining the
% bounding box for stringsize and showing the string for recshow.
% <string> internalshow --
/internalshow {show} def

% This is an internal routine to alternate between determining the
% bounding box for stringsize and stroking various ornaments.
% <string> internalstroke --
/internalstroke {S} def

% Sets up internalshow to use the null device to determine string size.
% -- nullinternalshow --
/nullinternalshow {/internalshow {false charpath flattenpath
                                  pathbbox updatebbox} def} def

% Sets up internalstroke to use the null device to determine string size.
% -- nullinternalstroke --
/nullinternalstroke {
 /internalstroke {flattenpath pathbbox updatebbox} def} def

% This routine tests to see if the character code matches the first
% character of a string.
% <char code> <string> testchar <char code> <true or false>
/testchar {exch dup 3 -1 roll 0 get eq} def

% Raise the text baseline for superscripts.
% -- raise --
/raise {
  0 fontsize 2 div rmoveto
  /fontsize fontsize 2 mul 3 div def
  currentfont /FontName get fontsize sf
} def

% Un-raise the text baseline for superscripts.
% -- unraise --
/unraise {
  /fontsize fontsize 1.5 mul def
  0 fontsize 2 div neg rmoveto
} def

% Lower the text baseline for subscripts.
% -- lower --
/lower {
  0 fontsize 3 div neg rmoveto
  /fontsize fontsize 2 mul 3 div def
  currentfont /FontName get fontsize sf
} def

% Un-lower the text baseline for subscripts.
% -- unlower --
/unlower {
  /fontsize fontsize 1.5 mul def
  0 fontsize 3 div rmoveto
} def

% Compare the top two elements on the stack and leave only the
% larger one.
/maxval {2 copy gt {pop} {exch pop} ifelse} def

% Tokenize a string.  Do not use the usual PostScript token because
% parentheses will not be interpreted correctly because of rescanning
% of the string.
/vg&token {/vg&string exch def /vg&index -1 def /vg&level 0 def
0 2 vg&string length 2 sub {
  dup dup 1 add exch vg&string exch get 8 bitshift vg&string 3 -1 roll get or
  dup 16#f0fe eq {pop 1}{16#f0ff eq {-1}{0} ifelse} ifelse
  /vg&level exch vg&level add def
  vg&level 0 eq {/vg&index exch def exit} if pop
} for
vg&index 0 ge {
  vg&string vg&index 2 add dup vg&string length exch sub getinterval
  vg&index 2 gt {vg&string 2 vg&index 2 sub getinterval}{()} ifelse
  true}
{false} ifelse
} bind def

% Recursively show an unicode string.
% <string> recshow --
/recshow {
  popfirst
  {
    % Test to see if this is a string attribute.
    vg&fbyte 16#f0 and 16#e0 eq
    {
      q

      % Font style.
      currentfont dup /FontStyleBits known {/FontStyleBits get}{pop 0} ifelse
      vg&cbyte or vg&fontstyles exch get fontsize exch exec

      vg&token pop recshow currentpoint Q m recshow
    }
    {
      vg&fbyte 16#F8 and 16#F0 eq {

        % Superscript and/or subscript.
        vg&cbyte 16#00 eq {
          vg&token pop exch vg&token pop 3 -1 roll
          q raise recshow unraise currentpoint pop Q exch
          q lower recshow unlower currentpoint pop Q
          maxval currentpoint exch pop m recshow } if

        % Strikeout.
        vg&cbyte 16#01 eq {
          vg&token pop currentpoint 3 -1 roll recshow
          q 0 J vg&underline vg&uthick w
          currentpoint 4 -2 roll fontsize 3 div add moveto
          fontsize 3 div add lineto internalstroke Q
          recshow} if

        % Underline.
        vg&cbyte 16#02 eq {
          vg&token pop currentpoint 3 -1 roll recshow
          q 0 J vg&underline vg&uthick w
          currentpoint 4 -2 roll vg&uoffset add moveto
          vg&uoffset add lineto internalstroke Q
          recshow} if

        % Dashed underline.
        vg&cbyte 16#03 eq {
          vg&token pop currentpoint 3 -1 roll recshow
          q 0 J [ vg&uthick 5 mul vg&uthick 2 mul] 0 d
          vg&underline vg&uthick w
          currentpoint 4 -2 roll vg&uoffset add moveto
          vg&uoffset add lineto internalstroke Q
          recshow} if

        % Dotted underline.
        vg&cbyte 16#04 eq {
          vg&token pop currentpoint 3 -1 roll recshow
          q 1 J [ 0 vg&uthick 3 mul] 0 d
          vg&underline vg&uthick w
          currentpoint 4 -2 roll vg&uoffset add moveto
          vg&uoffset add lineto internalstroke Q
          recshow} if

        % Thick underline.
        vg&cbyte 16#05 eq {
          vg&token pop currentpoint 3 -1 roll recshow
          q 0 J vg&underline vg&uthick 2 mul w
          currentpoint 4 -2 roll vg&uoffset vg&uthick 2 div sub add moveto
          vg&uoffset vg&uthick 2 div sub add lineto internalstroke Q
          recshow} if

        % Gray thick underline.
        vg&cbyte 16#06 eq {
          vg&token pop currentpoint 3 -1 roll recshow
          q 0 J vg&underline vg&uthick 2 mul w 0.5 setgray
          currentpoint 4 -2 roll vg&uoffset vg&uthick 2 div sub add moveto
          vg&uoffset vg&uthick 2 div sub add lineto internalstroke Q
          recshow} if

        % Overbar.
        vg&cbyte 16#07 eq {
          vg&token pop dup stringsize relative 4 1 roll pop pop exch
          3 -1 roll recshow
          q 0 J vg&underline vg&uthick w
          vg&uoffset neg add dup currentpoint pop exch m l internalstroke Q
          recshow} if
      }
      {
        vg&fbyte vg&cbyte unicharshow recshow
      } ifelse
    } ifelse
  } if
} def

% Get the underline position and thickness from the current font.
/vg&underline {

currentfont dup /FontType get 0 eq {/FDepVector get 0 get} if
dup dup /FontInfo known {
  /FontInfo get dup
  dup /UnderlinePosition known {
    /UnderlinePosition get /vg&uoffset exch def
  }
  {
    pop /vg&uoffset 0 def
  } ifelse
  dup /UnderlineThickness known {
    /UnderlineThickness get /vg&uthick exch def
  }
  {
    pop /vg&uthick 0 def
  } ifelse
}
{
  pop /vg&uoffset 0 def /vg&uthick 0 def
} ifelse
/FontMatrix get
currentfont dup /FontType get 0 eq
{/FontMatrix get matrix concatmatrix}{pop} ifelse
dup 0 vg&uoffset 3 -1 roll transform /vg&uoffset exch def pop
0 vg&uthick 3 -1 roll transform /vg&uthick exch def pop
} def

% Make a frame with the coordinates on the stack.
% <llx> <lly> <urx> <ury> frame --
/frame {4 copy m 3 1 roll exch l 4 -2 roll l l h} def

% Resets the accumulated bounding box to a degenerate box at the
% current point.
% -- resetbbox --
/resetbbox {
  currentpoint 2 copy
  /bbury exch def
  /bburx exch def
  /bblly exch def
  /bbllx exch def
} def

% Update the accumulated bounding box.
% <llx'> <lly'> <urx'> <ury'> updatebbox --
/updatebbox {
  dup bbury gt {/bbury exch def} {pop} ifelse
  dup bburx gt {/bburx exch def} {pop} ifelse
  dup bblly lt {/bblly exch def} {pop} ifelse
  dup bbllx lt {/bbllx exch def} {pop} ifelse
} def

% Set the bounding box to the values on the stack.
% <llx'> <lly'> <urx'> <ury'> updatebbox --
/restorebbox {
  /bbury exch def /bburx exch def /bblly exch def /bbllx exch def
} def

% Push the accumulated bounding box onto the stack.
% -- pushbbox <llx> <lly> <urx> <ury>
/pushbbox {bbllx bblly bburx bbury} def

% Make the relative bounding box relative to the currentpoint.
% <llx'> <lly'> <urx'> <ury'> inflate <llx> <lly> <urx> <ury>
/inflate {
  2 {fontsize 0.2 mul add 4 1 roll} repeat
  2 {fontsize 0.2 mul sub 4 1 roll} repeat
} def

% Make the relative bounding box relative to the currentpoint.
% <llx'> <lly'> <urx'> <ury'> relative <llx> <lly> <urx> <ury>
/relative {
  currentpoint 3 -1 roll add 3 1 roll add exch 4 2 roll
  currentpoint 3 -1 roll add 3 1 roll add exch 4 2 roll
} def

% Returns the size of a string appropriate for recshow.
% <string> stringsize <llx> <lly> <urx> <ury>
/stringsize {
  pushbbox /internalshow load /internalstroke load 7 -1 roll
  q
  nulldevice 0 0 m
  nullinternalshow nullinternalstroke
  resetbbox
  recshow
  /internalstroke exch def /internalshow exch def
  pushbbox 8 -4 roll restorebbox
  Q
} def

% Calculate values for string positioning.
/calcval {4 copy
  3 -1 roll sub /widy exch def sub neg /widx exch def
  pop pop /dy exch def /dx exch def} def

% Utilities to position a string.
% First letter (U=upper, C=center, B=baseline, L=lower)
% Second letter (L=left, C=center, R=right)
/align [
{calcval dx neg widy dy add neg rmoveto} % UL
{calcval dx neg widy 2 div dy add neg rmoveto} % CL
{calcval dx neg 0 rmoveto} % BL
{calcval dx neg dy neg rmoveto} % LL
{calcval widx dx add neg widy dy add neg rmoveto} % UR
{calcval widx dx add neg widy 2 div dy add neg rmoveto} % CR
{calcval widx dx add neg 0 rmoveto} % BR
{calcval widx dx add neg dy neg rmoveto} % LR
{calcval widx 2 div dx add neg widy dy add neg rmoveto} % UC
{calcval widx 2 div dx add neg widy 2 div dy add neg rmoveto} % CC
{calcval widx 2 div dx add neg 0 rmoveto} % BC
{calcval widx 2 div dx add neg dy neg rmoveto} % LC
] def

/vg&str {m q 1 -1 scale dup stringsize 4 copy align 11 -1 roll get exec
         q inflate relative frame exch exec Q recshow Q} def

end /procDict exch def
%%EndProlog

%%BeginSetup
save
procDict begin
printColorMap begin
632 628 setpagesize
0 0 0 0 setmargins
0 0 setorigin
632 628 setsize
naturalsize
portrait
imagescale
cliptobounds
setbasematrix
/Helvetica 10 sf
defaultGraphicsState
%%EndSetup

0.00000 0.00000 0.00000 RG
[ 1.00000 0.00000 0.00000 1.00000 0.00000 0.00000 ] defaultmatrix matrix concatmatrix setmatrix
cliprestore
1.00000 1.00000 1.00000 RG
newpath
0.00000 0.00000 m
632.000 0.00000 l
632.000 628.000 l
0.00000 628.000 l
0.00000 0.00000 l
h
f
0.00000 0.00000 0.00000 RG
0.00000 0.00000 0.00000 RG
[ 1.00000 0.00000 0.00000 1.00000 0.00000 0.00000 ] defaultmatrix matrix concatmatrix setmatrix
cliprestore
1.00000 1.00000 1.00000 RG
newpath
0.00000 0.00000 m
632.000 0.00000 l
632.000 628.000 l
0.00000 628.000 l
0.00000 0.00000 l
h
f
0.00000 0.00000 0.00000 RG
0 0 632 628 rc
q
[ 1.00000 0.00000 0.00000 1.00000 0.00000 0.00000 ] concat
[ 1.00000 0.00000 0.00000 1.00000 -166.000 -42.0000 ] concat
1.00000 1.00000 1.00000 RG
newpath
166.000 42.0000 m
798.000 42.0000 l
798.000 670.000 l
166.000 670.000 l
166.000 42.0000 l
h
f
0.00000 0.00000 0.00000 RG
[ 1.00000 0.00000 0.00000 1.00000 -166.000 -42.0000 ] defaultmatrix matrix concatmatrix setmatrix
[ 1.00000 0.00000 0.00000 1.00000 -166.000 -42.0000 ] defaultmatrix matrix concatmatrix setmatrix
[ 1.00000 0.00000 0.00000 1.00000 0.00000 0.00000 ] defaultmatrix matrix concatmatrix setmatrix
[ 1.00000 0.00000 0.00000 1.00000 -166.000 -42.0000 ] defaultmatrix matrix concatmatrix setmatrix
1.00000 .800000 0.00000 RG
newpath
366.000 444.000 m
366.000 452.284 359.284 459.000 351.000 459.000  c
342.716 459.000 336.000 452.284 336.000 444.000  c
336.000 435.716 342.716 429.000 351.000 429.000  c
359.284 429.000 366.000 435.716 366.000 444.000  c
h
f
0 J
1.45000 M
0.00000 0.00000 0.00000 RG
newpath
366.000 444.000 m
366.000 452.284 359.284 459.000 351.000 459.000  c
342.716 459.000 336.000 452.284 336.000 444.000  c
336.000 435.716 342.716 429.000 351.000 429.000  c
359.284 429.000 366.000 435.716 366.000 444.000  c
h
S
2 J
10.0000 M
0 J
1.45000 M
newpath
344.531 448.535 m
344.531 439.863 l
347.156 439.863 l
347.988 439.863 348.626 440.047 349.069 440.414  c
349.513 440.781 349.734 441.314 349.734 442.014  c
349.734 443.170 349.150 443.990 347.982 444.475  c
350.877 448.535 l
349.365 448.535 l
346.898 444.867 l
345.750 444.867 l
345.750 448.535 l
h
345.750 443.947 m
346.148 443.947 l
347.695 443.947 348.469 443.340 348.469 442.125  c
348.469 441.230 347.820 440.783 346.523 440.783  c
345.750 440.783 l
h
352.805 448.535 m
352.805 447.668 l
354.539 447.668 l
354.539 440.824 l
352.805 441.258 l
352.805 440.367 l
355.699 439.646 l
355.699 447.668 l
357.434 447.668 l
357.434 448.535 l
h
f
2 J
10.0000 M
1.00000 .800000 0.00000 RG
newpath
573.000 443.000 m
573.000 451.284 566.284 458.000 558.000 458.000  c
549.716 458.000 543.000 451.284 543.000 443.000  c
543.000 434.716 549.716 428.000 558.000 428.000  c
566.284 428.000 573.000 434.716 573.000 443.000  c
h
f
0 J
1.45000 M
0.00000 0.00000 0.00000 RG
newpath
573.000 443.000 m
573.000 451.284 566.284 458.000 558.000 458.000  c
549.716 458.000 543.000 451.284 543.000 443.000  c
543.000 434.716 549.716 428.000 558.000 428.000  c
566.284 428.000 573.000 434.716 573.000 443.000  c
h
S
2 J
10.0000 M
0 J
1.45000 M
newpath
551.531 447.535 m
551.531 438.863 l
554.156 438.863 l
554.988 438.863 555.626 439.047 556.069 439.414  c
556.513 439.781 556.734 440.314 556.734 441.014  c
556.734 442.170 556.150 442.990 554.982 443.475  c
557.877 447.535 l
556.365 447.535 l
553.898 443.867 l
552.750 443.867 l
552.750 447.535 l
h
552.750 442.947 m
553.148 442.947 l
554.695 442.947 555.469 442.340 555.469 441.125  c
555.469 440.230 554.820 439.783 553.523 439.783  c
552.750 439.783 l
h
558.996 447.535 m
558.996 446.521 l
559.332 445.736 560.012 444.881 561.035 443.955  c
561.697 443.363 l
562.549 442.594 562.975 441.830 562.975 441.072  c
562.975 440.588 562.829 440.207 562.538 439.930  c
562.247 439.652 561.848 439.514 561.340 439.514  c
560.738 439.514 560.029 439.746 559.213 440.211  c
559.213 439.191 l
559.982 438.828 560.746 438.646 561.504 438.646  c
562.316 438.646 562.969 438.865 563.461 439.303  c
563.953 439.740 564.199 440.320 564.199 441.043  c
564.199 441.562 564.075 442.023 563.827 442.426  c
563.579 442.828 563.117 443.316 562.441 443.891  c
561.996 444.271 l
561.070 445.057 560.535 445.807 560.391 446.521  c
564.158 446.521 l
564.158 447.535 l
h
f
2 J
10.0000 M
1.00000 .800000 0.00000 RG
newpath
366.000 279.000 m
366.000 287.284 359.284 294.000 351.000 294.000  c
342.716 294.000 336.000 287.284 336.000 279.000  c
336.000 270.716 342.716 264.000 351.000 264.000  c
359.284 264.000 366.000 270.716 366.000 279.000  c
h
f
0 J
1.45000 M
0.00000 0.00000 0.00000 RG
newpath
366.000 279.000 m
366.000 287.284 359.284 294.000 351.000 294.000  c
342.716 294.000 336.000 287.284 336.000 279.000  c
336.000 270.716 342.716 264.000 351.000 264.000  c
359.284 264.000 366.000 270.716 366.000 279.000  c
h
S
2 J
10.0000 M
0 J
1.45000 M
newpath
344.531 283.535 m
344.531 274.863 l
347.156 274.863 l
347.988 274.863 348.626 275.047 349.069 275.414  c
349.513 275.781 349.734 276.314 349.734 277.014  c
349.734 278.170 349.150 278.990 347.982 279.475  c
350.877 283.535 l
349.365 283.535 l
346.898 279.867 l
345.750 279.867 l
345.750 283.535 l
h
345.750 278.947 m
346.148 278.947 l
347.695 278.947 348.469 278.340 348.469 277.125  c
348.469 276.230 347.820 275.783 346.523 275.783  c
345.750 275.783 l
h
352.219 283.471 m
352.219 282.393 l
353.047 282.721 353.699 282.885 354.176 282.885  c
354.727 282.885 355.175 282.724 355.521 282.401  c
355.866 282.079 356.039 281.662 356.039 281.150  c
356.039 279.932 355.186 279.322 353.479 279.322  c
353.021 279.322 l
353.021 278.543 l
353.426 278.537 l
355.027 278.537 355.828 277.973 355.828 276.844  c
355.828 275.957 355.301 275.514 354.246 275.514  c
353.668 275.514 353.031 275.676 352.336 276.000  c
352.336 274.992 l
353.020 274.762 353.684 274.646 354.328 274.646  c
356.102 274.646 356.988 275.316 356.988 276.656  c
356.988 277.676 356.385 278.402 355.178 278.836  c
356.576 279.160 357.275 279.926 357.275 281.133  c
357.275 281.949 357.006 282.590 356.467 283.055  c
355.928 283.520 355.188 283.752 354.246 283.752  c
353.711 283.752 353.035 283.658 352.219 283.471  c
h
f
2 J
10.0000 M
1.00000 .800000 0.00000 RG
newpath
573.000 279.000 m
573.000 287.284 566.284 294.000 558.000 294.000  c
549.716 294.000 543.000 287.284 543.000 279.000  c
543.000 270.716 549.716 264.000 558.000 264.000  c
566.284 264.000 573.000 270.716 573.000 279.000  c
h
f
0 J
1.45000 M
0.00000 0.00000 0.00000 RG
newpath
573.000 279.000 m
573.000 287.284 566.284 294.000 558.000 294.000  c
549.716 294.000 543.000 287.284 543.000 279.000  c
543.000 270.716 549.716 264.000 558.000 264.000  c
566.284 264.000 573.000 270.716 573.000 279.000  c
h
S
2 J
10.0000 M
0 J
1.45000 M
newpath
551.531 283.535 m
551.531 274.863 l
554.156 274.863 l
554.988 274.863 555.626 275.047 556.069 275.414  c
556.513 275.781 556.734 276.314 556.734 277.014  c
556.734 278.170 556.150 278.990 554.982 279.475  c
557.877 283.535 l
556.365 283.535 l
553.898 279.867 l
552.750 279.867 l
552.750 283.535 l
h
552.750 278.947 m
553.148 278.947 l
554.695 278.947 555.469 278.340 555.469 277.125  c
555.469 276.230 554.820 275.783 553.523 275.783  c
552.750 275.783 l
h
562.518 283.535 m
562.518 281.080 l
558.615 281.080 l
558.615 280.207 l
562.518 274.863 l
563.602 274.863 l
563.602 280.137 l
564.762 280.137 l
564.762 281.080 l
563.602 281.080 l
563.602 283.535 l
h
559.746 280.137 m
562.594 280.137 l
562.594 276.281 l
h
f
2 J
10.0000 M
1.00000 .800000 0.00000 RG
newpath
769.500 359.250 m
769.500 369.605 760.770 378.000 750.000 378.000  c
739.230 378.000 730.500 369.605 730.500 359.250  c
730.500 348.895 739.230 340.500 750.000 340.500  c
760.770 340.500 769.500 348.895 769.500 359.250  c
h
f
0 J
1.45000 M
0.00000 0.00000 0.00000 RG
newpath
769.500 359.250 m
769.500 369.605 760.770 378.000 750.000 378.000  c
739.230 378.000 730.500 369.605 730.500 359.250  c
730.500 348.895 739.230 340.500 750.000 340.500  c
760.770 340.500 769.500 348.895 769.500 359.250  c
h
S
2 J
10.0000 M
0 J
1.45000 M
newpath
737.801 363.785 m
735.979 357.422 l
737.109 357.422 l
738.504 362.350 l
740.010 357.422 l
741.164 357.422 l
742.482 362.350 l
744.082 357.422 l
745.072 357.422 l
742.998 363.785 l
741.838 363.785 l
740.490 358.857 l
738.967 363.785 l
h
746.309 363.785 m
746.309 357.422 l
747.463 357.422 l
747.463 363.785 l
h
746.309 356.268 m
746.309 355.113 l
747.463 355.113 l
747.463 356.268 l
h
751.154 358.289 m
751.154 363.785 l
749.994 363.785 l
749.994 358.289 l
749.092 358.289 l
749.092 357.422 l
749.994 357.422 l
749.994 356.660 l
749.994 355.145 750.686 354.387 752.068 354.387  c
752.455 354.387 752.895 354.451 753.387 354.580  c
753.387 355.494 l
752.867 355.334 752.451 355.254 752.139 355.254  c
751.760 355.254 751.501 355.345 751.362 355.526  c
751.224 355.708 751.154 356.045 751.154 356.537  c
751.154 357.422 l
752.742 357.422 l
752.742 358.289 l
h
754.189 363.785 m
754.189 357.422 l
755.344 357.422 l
755.344 363.785 l
h
754.189 356.268 m
754.189 355.113 l
755.344 355.113 l
755.344 356.268 l
h
758.309 363.785 m
758.309 362.918 l
760.043 362.918 l
760.043 356.074 l
758.309 356.508 l
758.309 355.617 l
761.203 354.896 l
761.203 362.918 l
762.938 362.918 l
762.938 363.785 l
h
f
2 J
10.0000 M
1.00000 .800000 0.00000 RG
newpath
695.500 135.938 m
695.500 146.293 686.770 154.688 676.000 154.688  c
665.230 154.688 656.500 146.293 656.500 135.938  c
656.500 125.582 665.230 117.188 676.000 117.188  c
686.770 117.188 695.500 125.582 695.500 135.938  c
h
f
0 J
1.45000 M
0.00000 0.00000 0.00000 RG
newpath
695.500 135.938 m
695.500 146.293 686.770 154.688 676.000 154.688  c
665.230 154.688 656.500 146.293 656.500 135.938  c
656.500 125.582 665.230 117.188 676.000 117.188  c
686.770 117.188 695.500 125.582 695.500 135.938  c
h
S
2 J
10.0000 M
0 J
1.45000 M
newpath
663.801 140.473 m
661.979 134.109 l
663.109 134.109 l
664.504 139.037 l
666.010 134.109 l
667.164 134.109 l
668.482 139.037 l
670.082 134.109 l
671.072 134.109 l
668.998 140.473 l
667.838 140.473 l
666.490 135.545 l
664.967 140.473 l
h
672.309 140.473 m
672.309 134.109 l
673.463 134.109 l
673.463 140.473 l
h
672.309 132.955 m
672.309 131.801 l
673.463 131.801 l
673.463 132.955 l
h
677.154 134.977 m
677.154 140.473 l
675.994 140.473 l
675.994 134.977 l
675.092 134.977 l
675.092 134.109 l
675.994 134.109 l
675.994 133.348 l
675.994 131.832 676.686 131.074 678.068 131.074  c
678.455 131.074 678.895 131.139 679.387 131.268  c
679.387 132.182 l
678.867 132.021 678.451 131.941 678.139 131.941  c
677.760 131.941 677.501 132.032 677.362 132.214  c
677.224 132.396 677.154 132.732 677.154 133.225  c
677.154 134.109 l
678.742 134.109 l
678.742 134.977 l
h
680.189 140.473 m
680.189 134.109 l
681.344 134.109 l
681.344 140.473 l
h
680.189 132.955 m
680.189 131.801 l
681.344 131.801 l
681.344 132.955 l
h
683.500 140.473 m
683.500 139.459 l
683.836 138.674 684.516 137.818 685.539 136.893  c
686.201 136.301 l
687.053 135.531 687.479 134.768 687.479 134.010  c
687.479 133.525 687.333 133.145 687.042 132.867  c
686.751 132.590 686.352 132.451 685.844 132.451  c
685.242 132.451 684.533 132.684 683.717 133.148  c
683.717 132.129 l
684.486 131.766 685.250 131.584 686.008 131.584  c
686.820 131.584 687.473 131.803 687.965 132.240  c
688.457 132.678 688.703 133.258 688.703 133.980  c
688.703 134.500 688.579 134.961 688.331 135.363  c
688.083 135.766 687.621 136.254 686.945 136.828  c
686.500 137.209 l
685.574 137.994 685.039 138.744 684.895 139.459  c
688.662 139.459 l
688.662 140.473 l
h
f
2 J
10.0000 M
1.00000 .800000 0.00000 RG
newpath
304.000 135.938 m
304.000 146.293 295.270 154.688 284.500 154.688  c
273.730 154.688 265.000 146.293 265.000 135.938  c
265.000 125.582 273.730 117.188 284.500 117.188  c
295.270 117.188 304.000 125.582 304.000 135.938  c
h
f
0 J
1.45000 M
0.00000 0.00000 0.00000 RG
newpath
304.000 135.938 m
304.000 146.293 295.270 154.688 284.500 154.688  c
273.730 154.688 265.000 146.293 265.000 135.938  c
265.000 125.582 273.730 117.188 284.500 117.188  c
295.270 117.188 304.000 125.582 304.000 135.938  c
h
S
2 J
10.0000 M
0 J
1.45000 M
newpath
272.301 140.473 m
270.479 134.109 l
271.609 134.109 l
273.004 139.037 l
274.510 134.109 l
275.664 134.109 l
276.982 139.037 l
278.582 134.109 l
279.572 134.109 l
277.498 140.473 l
276.338 140.473 l
274.990 135.545 l
273.467 140.473 l
h
280.809 140.473 m
280.809 134.109 l
281.963 134.109 l
281.963 140.473 l
h
280.809 132.955 m
280.809 131.801 l
281.963 131.801 l
281.963 132.955 l
h
285.654 134.977 m
285.654 140.473 l
284.494 140.473 l
284.494 134.977 l
283.592 134.977 l
283.592 134.109 l
284.494 134.109 l
284.494 133.348 l
284.494 131.832 285.186 131.074 286.568 131.074  c
286.955 131.074 287.395 131.139 287.887 131.268  c
287.887 132.182 l
287.367 132.021 286.951 131.941 286.639 131.941  c
286.260 131.941 286.001 132.032 285.862 132.214  c
285.724 132.396 285.654 132.732 285.654 133.225  c
285.654 134.109 l
287.242 134.109 l
287.242 134.977 l
h
288.689 140.473 m
288.689 134.109 l
289.844 134.109 l
289.844 140.473 l
h
288.689 132.955 m
288.689 131.801 l
289.844 131.801 l
289.844 132.955 l
h
292.223 140.408 m
292.223 139.330 l
293.051 139.658 293.703 139.822 294.180 139.822  c
294.730 139.822 295.179 139.661 295.524 139.339  c
295.870 139.017 296.043 138.600 296.043 138.088  c
296.043 136.869 295.189 136.260 293.482 136.260  c
293.025 136.260 l
293.025 135.480 l
293.430 135.475 l
295.031 135.475 295.832 134.910 295.832 133.781  c
295.832 132.895 295.305 132.451 294.250 132.451  c
293.672 132.451 293.035 132.613 292.340 132.938  c
292.340 131.930 l
293.023 131.699 293.688 131.584 294.332 131.584  c
296.105 131.584 296.992 132.254 296.992 133.594  c
296.992 134.613 296.389 135.340 295.182 135.773  c
296.580 136.098 297.279 136.863 297.279 138.070  c
297.279 138.887 297.010 139.527 296.471 139.992  c
295.932 140.457 295.191 140.689 294.250 140.689  c
293.715 140.689 293.039 140.596 292.223 140.408  c
h
f
2 J
10.0000 M
1.00000 .800000 0.00000 RG
newpath
478.000 534.000 m
478.000 545.046 469.270 554.000 458.500 554.000  c
447.730 554.000 439.000 545.046 439.000 534.000  c
439.000 522.954 447.730 514.000 458.500 514.000  c
469.270 514.000 478.000 522.954 478.000 534.000  c
h
f
0 J
1.45000 M
0.00000 0.00000 0.00000 RG
newpath
478.000 534.000 m
478.000 545.046 469.270 554.000 458.500 554.000  c
447.730 554.000 439.000 545.046 439.000 534.000  c
439.000 522.954 447.730 514.000 458.500 514.000  c
469.270 514.000 478.000 522.954 478.000 534.000  c
h
S
2 J
10.0000 M
0 J
1.45000 M
newpath
455.825 538.535 m
455.825 529.863 l
458.450 529.863 l
459.282 529.863 459.920 530.047 460.363 530.414  c
460.807 530.781 461.028 531.314 461.028 532.014  c
461.028 533.170 460.444 533.990 459.276 534.475  c
462.171 538.535 l
460.659 538.535 l
458.192 534.867 l
457.044 534.867 l
457.044 538.535 l
h
457.044 533.947 m
457.442 533.947 l
458.989 533.947 459.763 533.340 459.763 532.125  c
459.763 531.230 459.114 530.783 457.817 530.783  c
457.044 530.783 l
h
f
2 J
10.0000 M
1.00000 .800000 0.00000 RG
newpath
458.500 655.000 m
464.350 644.192 l
475.388 643.750 l
470.200 632.500 l
475.388 621.250 l
464.350 620.808 l
458.500 610.000 l
452.650 620.808 l
441.612 621.250 l
446.800 632.500 l
441.612 643.750 l
452.650 644.192 l
h
f*
0 J
1.45000 M
0.00000 0.00000 0.00000 RG
newpath
458.500 655.000 m
464.350 644.192 l
475.388 643.750 l
470.200 632.500 l
475.388 621.250 l
464.350 620.808 l
458.500 610.000 l
452.650 620.808 l
441.612 621.250 l
446.800 632.500 l
441.612 643.750 l
452.650 644.192 l
h
S
2 J
10.0000 M
0 J
1.45000 M
newpath
452.236 637.182 m
451.377 637.182 450.664 636.863 450.098 636.227  c
449.531 635.590 449.248 634.787 449.248 633.818  c
449.248 632.783 449.528 631.977 450.089 631.398  c
450.649 630.820 451.432 630.531 452.436 630.531  c
452.932 630.531 453.486 630.600 454.100 630.736  c
454.100 631.703 l
453.447 631.512 452.916 631.416 452.506 631.416  c
451.916 631.416 451.442 631.638 451.085 632.081  c
450.728 632.524 450.549 633.115 450.549 633.854  c
450.549 634.568 450.732 635.146 451.100 635.588  c
451.467 636.029 451.947 636.250 452.541 636.250  c
453.068 636.250 453.611 636.115 454.170 635.846  c
454.170 636.842 l
453.424 637.068 452.779 637.182 452.236 637.182  c
h
457.275 631.539 m
457.275 637.035 l
456.115 637.035 l
456.115 631.539 l
455.213 631.539 l
455.213 630.672 l
456.115 630.672 l
456.115 629.910 l
456.115 628.395 456.807 627.637 458.189 627.637  c
458.576 627.637 459.016 627.701 459.508 627.830  c
459.508 628.744 l
458.988 628.584 458.572 628.504 458.260 628.504  c
457.881 628.504 457.622 628.595 457.483 628.776  c
457.345 628.958 457.275 629.295 457.275 629.787  c
457.275 630.672 l
458.863 630.672 l
458.863 631.539 l
h
461.049 637.035 m
459.227 630.672 l
460.357 630.672 l
461.752 635.600 l
463.258 630.672 l
464.412 630.672 l
465.730 635.600 l
467.330 630.672 l
468.320 630.672 l
466.246 637.035 l
465.086 637.035 l
463.738 632.107 l
462.215 637.035 l
h
f
2 J
10.0000 M
1.00000 .800000 0.00000 RG
newpath
636.500 381.750 m
642.350 370.941 l
653.387 370.500 l
648.200 359.250 l
653.387 348.000 l
642.350 347.559 l
636.500 336.750 l
630.650 347.559 l
619.613 348.000 l
624.800 359.250 l
619.613 370.500 l
630.650 370.941 l
h
f*
0 J
1.45000 M
0.00000 0.00000 0.00000 RG
newpath
636.500 381.750 m
642.350 370.941 l
653.387 370.500 l
648.200 359.250 l
653.387 348.000 l
642.350 347.559 l
636.500 336.750 l
630.650 347.559 l
619.613 348.000 l
624.800 359.250 l
619.613 370.500 l
630.650 370.941 l
h
S
2 J
10.0000 M
0 J
1.45000 M
newpath
628.408 358.289 m
628.408 363.785 l
627.248 363.785 l
627.248 358.289 l
626.346 358.289 l
626.346 357.422 l
627.248 357.422 l
627.248 356.660 l
627.248 355.145 627.939 354.387 629.322 354.387  c
629.709 354.387 630.148 354.451 630.641 354.580  c
630.641 355.494 l
630.121 355.334 629.705 355.254 629.393 355.254  c
629.014 355.254 628.755 355.345 628.616 355.526  c
628.478 355.708 628.408 356.045 628.408 356.537  c
628.408 357.422 l
629.996 357.422 l
629.996 358.289 l
h
632.182 363.785 m
630.359 357.422 l
631.490 357.422 l
632.885 362.350 l
634.391 357.422 l
635.545 357.422 l
636.863 362.350 l
638.463 357.422 l
639.453 357.422 l
637.379 363.785 l
636.219 363.785 l
634.871 358.857 l
633.348 363.785 l
h
641.340 363.785 m
641.340 362.918 l
643.074 362.918 l
643.074 356.074 l
641.340 356.508 l
641.340 355.617 l
644.234 354.896 l
644.234 362.918 l
645.969 362.918 l
645.969 363.785 l
h
f
2 J
10.0000 M
1.00000 .800000 0.00000 RG
newpath
604.500 230.375 m
610.350 221.368 l
621.387 221.000 l
616.200 211.625 l
621.387 202.250 l
610.350 201.882 l
604.500 192.875 l
598.650 201.882 l
587.613 202.250 l
592.800 211.625 l
587.613 221.000 l
598.650 221.368 l
h
f*
0 J
1.45000 M
0.00000 0.00000 0.00000 RG
newpath
604.500 230.375 m
610.350 221.368 l
621.387 221.000 l
616.200 211.625 l
621.387 202.250 l
610.350 201.882 l
604.500 192.875 l
598.650 201.882 l
587.613 202.250 l
592.800 211.625 l
587.613 221.000 l
598.650 221.368 l
h
S
2 J
10.0000 M
0 J
1.45000 M
newpath
596.408 210.664 m
596.408 216.160 l
595.248 216.160 l
595.248 210.664 l
594.346 210.664 l
594.346 209.797 l
595.248 209.797 l
595.248 209.035 l
595.248 207.520 595.939 206.762 597.322 206.762  c
597.709 206.762 598.148 206.826 598.641 206.955  c
598.641 207.869 l
598.121 207.709 597.705 207.629 597.393 207.629  c
597.014 207.629 596.755 207.720 596.616 207.901  c
596.478 208.083 596.408 208.420 596.408 208.912  c
596.408 209.797 l
597.996 209.797 l
597.996 210.664 l
h
600.182 216.160 m
598.359 209.797 l
599.490 209.797 l
600.885 214.725 l
602.391 209.797 l
603.545 209.797 l
604.863 214.725 l
606.463 209.797 l
607.453 209.797 l
605.379 216.160 l
604.219 216.160 l
602.871 211.232 l
601.348 216.160 l
h
608.531 216.160 m
608.531 215.146 l
608.867 214.361 609.547 213.506 610.570 212.580  c
611.232 211.988 l
612.084 211.219 612.510 210.455 612.510 209.697  c
612.510 209.213 612.364 208.832 612.073 208.555  c
611.782 208.277 611.383 208.139 610.875 208.139  c
610.273 208.139 609.564 208.371 608.748 208.836  c
608.748 207.816 l
609.518 207.453 610.281 207.271 611.039 207.271  c
611.852 207.271 612.504 207.490 612.996 207.928  c
613.488 208.365 613.734 208.945 613.734 209.668  c
613.734 210.188 613.610 210.648 613.362 211.051  c
613.114 211.453 612.652 211.941 611.977 212.516  c
611.531 212.896 l
610.605 213.682 610.070 214.432 609.926 215.146  c
613.693 215.146 l
613.693 216.160 l
h
f
2 J
10.0000 M
1.00000 .800000 0.00000 RG
newpath
319.500 230.375 m
325.350 219.566 l
336.388 219.125 l
331.200 207.875 l
336.388 196.625 l
325.350 196.184 l
319.500 185.375 l
313.650 196.184 l
302.612 196.625 l
307.800 207.875 l
302.612 219.125 l
313.650 219.566 l
h
f*
0 J
1.45000 M
0.00000 0.00000 0.00000 RG
newpath
319.500 230.375 m
325.350 219.566 l
336.388 219.125 l
331.200 207.875 l
336.388 196.625 l
325.350 196.184 l
319.500 185.375 l
313.650 196.184 l
302.612 196.625 l
307.800 207.875 l
302.612 219.125 l
313.650 219.566 l
h
S
2 J
10.0000 M
0 J
1.45000 M
newpath
311.408 206.914 m
311.408 212.410 l
310.248 212.410 l
310.248 206.914 l
309.346 206.914 l
309.346 206.047 l
310.248 206.047 l
310.248 205.285 l
310.248 203.770 310.939 203.012 312.322 203.012  c
312.709 203.012 313.148 203.076 313.641 203.205  c
313.641 204.119 l
313.121 203.959 312.705 203.879 312.393 203.879  c
312.014 203.879 311.755 203.970 311.616 204.151  c
311.478 204.333 311.408 204.670 311.408 205.162  c
311.408 206.047 l
312.996 206.047 l
312.996 206.914 l
h
315.182 212.410 m
313.359 206.047 l
314.490 206.047 l
315.885 210.975 l
317.391 206.047 l
318.545 206.047 l
319.863 210.975 l
321.463 206.047 l
322.453 206.047 l
320.379 212.410 l
319.219 212.410 l
317.871 207.482 l
316.348 212.410 l
h
323.754 212.346 m
323.754 211.268 l
324.582 211.596 325.234 211.760 325.711 211.760  c
326.262 211.760 326.710 211.599 327.056 211.276  c
327.401 210.954 327.574 210.537 327.574 210.025  c
327.574 208.807 326.721 208.197 325.014 208.197  c
324.557 208.197 l
324.557 207.418 l
324.961 207.412 l
326.562 207.412 327.363 206.848 327.363 205.719  c
327.363 204.832 326.836 204.389 325.781 204.389  c
325.203 204.389 324.566 204.551 323.871 204.875  c
323.871 203.867 l
324.555 203.637 325.219 203.521 325.863 203.521  c
327.637 203.521 328.523 204.191 328.523 205.531  c
328.523 206.551 327.920 207.277 326.713 207.711  c
328.111 208.035 328.811 208.801 328.811 210.008  c
328.811 210.824 328.541 211.465 328.002 211.930  c
327.463 212.395 326.723 212.627 325.781 212.627  c
325.246 212.627 324.570 212.533 323.754 212.346  c
h
f
2 J
10.0000 M
1.00000 .800000 0.00000 RG
newpath
717.500 301.500 m
733.750 256.500 l
766.250 256.500 l
782.500 301.500 l
h
f*
0 J
1.45000 M
0.00000 0.00000 0.00000 RG
newpath
717.500 301.500 m
733.750 256.500 l
766.250 256.500 l
782.500 301.500 l
h
S
2 J
10.0000 M
0 J
1.45000 M
newpath
732.662 283.752 m
732.080 283.752 731.336 283.625 730.430 283.371  c
730.430 282.152 l
731.406 282.605 732.209 282.832 732.838 282.832  c
733.322 282.832 733.712 282.705 734.007 282.451  c
734.302 282.197 734.449 281.863 734.449 281.449  c
734.449 281.109 734.353 280.820 734.159 280.582  c
733.966 280.344 733.609 280.078 733.090 279.785  c
732.492 279.439 l
731.754 279.018 731.233 278.620 730.931 278.247  c
730.628 277.874 730.477 277.439 730.477 276.943  c
730.477 276.275 730.719 275.726 731.203 275.294  c
731.688 274.862 732.305 274.646 733.055 274.646  c
733.723 274.646 734.428 274.758 735.170 274.980  c
735.170 276.105 l
734.256 275.746 733.574 275.566 733.125 275.566  c
732.699 275.566 732.348 275.680 732.070 275.906  c
731.793 276.133 731.654 276.418 731.654 276.762  c
731.654 277.051 731.756 277.307 731.959 277.529  c
732.162 277.752 732.533 278.018 733.072 278.326  c
733.693 278.678 l
734.443 279.104 734.967 279.506 735.264 279.885  c
735.561 280.264 735.709 280.719 735.709 281.250  c
735.709 282.004 735.431 282.609 734.874 283.066  c
734.317 283.523 733.580 283.752 732.662 283.752  c
h
741.141 283.752 m
739.793 283.752 738.752 283.356 738.018 282.565  c
737.283 281.774 736.916 280.654 736.916 279.205  c
736.916 277.760 737.290 276.639 738.038 275.842  c
738.786 275.045 739.840 274.646 741.199 274.646  c
741.977 274.646 742.887 274.773 743.930 275.027  c
743.930 276.182 l
742.742 275.771 741.826 275.566 741.182 275.566  c
740.240 275.566 739.512 275.885 738.996 276.521  c
738.480 277.158 738.223 278.057 738.223 279.217  c
738.223 280.322 738.498 281.194 739.049 281.833  c
739.600 282.472 740.352 282.791 741.305 282.791  c
742.125 282.791 743.004 282.539 743.941 282.035  c
743.941 283.090 l
743.086 283.531 742.152 283.752 741.141 283.752  c
h
750.123 280.219 m
748.646 276.480 l
747.164 280.219 l
h
751.424 283.535 m
750.480 281.133 l
746.807 281.133 l
745.852 283.535 l
744.709 283.535 l
748.148 274.863 l
749.367 274.863 l
752.754 283.535 l
h
754.008 283.535 m
754.008 274.863 l
756.891 274.863 l
757.750 274.863 758.444 274.959 758.974 275.150  c
759.503 275.342 759.961 275.666 760.348 276.123  c
760.961 276.850 761.268 277.807 761.268 278.994  c
761.268 280.436 760.887 281.553 760.125 282.346  c
759.363 283.139 758.291 283.535 756.908 283.535  c
h
755.238 282.615 m
756.814 282.615 l
757.939 282.615 758.736 282.312 759.205 281.707  c
759.709 281.062 759.961 280.197 759.961 279.111  c
759.961 278.092 759.713 277.291 759.217 276.709  c
758.916 276.354 758.557 276.110 758.139 275.979  c
757.721 275.849 757.092 275.783 756.252 275.783  c
755.238 275.783 l
h
767.391 280.219 m
765.914 276.480 l
764.432 280.219 l
h
768.691 283.535 m
767.748 281.133 l
764.074 281.133 l
763.119 283.535 l
761.977 283.535 l
765.416 274.863 l
766.635 274.863 l
770.021 283.535 l
h
f
2 J
10.0000 M
1.00000 .800000 0.00000 RG
newpath
717.500 462.000 m
733.750 417.000 l
766.250 417.000 l
782.500 462.000 l
h
f*
0 J
1.45000 M
0.00000 0.00000 0.00000 RG
newpath
717.500 462.000 m
733.750 417.000 l
766.250 417.000 l
782.500 462.000 l
h
S
2 J
10.0000 M
0 J
1.45000 M
newpath
739.775 443.227 m
739.084 443.863 738.418 444.182 737.777 444.182  c
737.250 444.182 736.812 444.017 736.465 443.687  c
736.117 443.356 735.943 442.939 735.943 442.436  c
735.943 441.740 736.235 441.206 736.819 440.833  c
737.403 440.460 738.240 440.273 739.330 440.273  c
739.605 440.273 l
739.605 439.506 l
739.605 438.768 739.227 438.398 738.469 438.398  c
737.859 438.398 737.201 438.586 736.494 438.961  c
736.494 438.006 l
737.271 437.689 738.000 437.531 738.680 437.531  c
739.391 437.531 739.915 437.691 740.253 438.012  c
740.591 438.332 740.760 438.830 740.760 439.506  c
740.760 442.389 l
740.760 443.049 740.963 443.379 741.369 443.379  c
741.420 443.379 741.494 443.371 741.592 443.355  c
741.674 443.994 l
741.412 444.119 741.123 444.182 740.807 444.182  c
740.268 444.182 739.924 443.863 739.775 443.227  c
h
739.605 442.600 m
739.605 440.953 l
739.219 440.941 l
738.586 440.941 738.074 441.062 737.684 441.302  c
737.293 441.542 737.098 441.857 737.098 442.248  c
737.098 442.525 737.195 442.760 737.391 442.951  c
737.586 443.143 737.824 443.238 738.105 443.238  c
738.586 443.238 739.086 443.025 739.605 442.600  c
h
743.121 446.350 m
743.121 437.672 l
744.275 437.672 l
744.275 438.867 l
744.748 437.977 745.457 437.531 746.402 437.531  c
747.168 437.531 747.771 437.811 748.210 438.369  c
748.649 438.928 748.869 439.691 748.869 440.660  c
748.869 441.715 748.620 442.565 748.122 443.212  c
747.624 443.858 746.969 444.182 746.156 444.182  c
745.402 444.182 744.775 443.893 744.275 443.314  c
744.275 446.350 l
h
744.275 442.518 m
744.869 443.049 745.436 443.314 745.975 443.314  c
747.084 443.314 747.639 442.469 747.639 440.777  c
747.639 439.285 747.146 438.539 746.162 438.539  c
745.518 438.539 744.889 438.889 744.275 439.588  c
h
750.674 446.350 m
750.674 437.672 l
751.828 437.672 l
751.828 438.867 l
752.301 437.977 753.010 437.531 753.955 437.531  c
754.721 437.531 755.323 437.811 755.763 438.369  c
756.202 438.928 756.422 439.691 756.422 440.660  c
756.422 441.715 756.173 442.565 755.675 443.212  c
755.177 443.858 754.521 444.182 753.709 444.182  c
752.955 444.182 752.328 443.893 751.828 443.314  c
751.828 446.350 l
h
751.828 442.518 m
752.422 443.049 752.988 443.314 753.527 443.314  c
754.637 443.314 755.191 442.469 755.191 440.777  c
755.191 439.285 754.699 438.539 753.715 438.539  c
753.070 438.539 752.441 438.889 751.828 439.588  c
h
758.068 444.035 m
758.068 443.021 l
758.404 442.236 759.084 441.381 760.107 440.455  c
760.770 439.863 l
761.621 439.094 762.047 438.330 762.047 437.572  c
762.047 437.088 761.901 436.707 761.610 436.430  c
761.319 436.152 760.920 436.014 760.412 436.014  c
759.811 436.014 759.102 436.246 758.285 436.711  c
758.285 435.691 l
759.055 435.328 759.818 435.146 760.576 435.146  c
761.389 435.146 762.041 435.365 762.533 435.803  c
763.025 436.240 763.271 436.820 763.271 437.543  c
763.271 438.062 763.147 438.523 762.899 438.926  c
762.651 439.328 762.189 439.816 761.514 440.391  c
761.068 440.771 l
760.143 441.557 759.607 442.307 759.463 443.021  c
763.230 443.021 l
763.230 444.035 l
h
f
2 J
10.0000 M
1.00000 .800000 0.00000 RG
newpath
181.000 353.000 m
246.000 353.000 l
246.000 383.000 l
181.000 383.000 l
181.000 353.000 l
h
f
0 J
1.45000 M
0.00000 0.00000 0.00000 RG
newpath
181.000 353.000 m
246.000 353.000 l
246.000 383.000 l
181.000 383.000 l
181.000 353.000 l
h
S
2 J
10.0000 M
0 J
1.45000 M
newpath
202.259 372.535 m
202.259 371.340 l
201.646 372.234 200.901 372.682 200.026 372.682  c
199.472 372.682 199.030 372.507 198.702 372.157  c
198.374 371.808 198.210 371.336 198.210 370.742  c
198.210 366.172 l
199.364 366.172 l
199.364 370.367 l
199.364 370.844 199.434 371.183 199.572 371.384  c
199.711 371.585 199.942 371.686 200.267 371.686  c
200.970 371.686 201.634 371.223 202.259 370.297  c
202.259 366.172 l
203.413 366.172 l
203.413 372.535 l
h
207.415 372.682 m
206.888 372.682 206.247 372.559 205.493 372.312  c
205.493 371.252 l
206.247 371.627 206.903 371.814 207.462 371.814  c
207.794 371.814 208.069 371.725 208.288 371.545  c
208.507 371.365 208.616 371.141 208.616 370.871  c
208.616 370.477 208.310 370.150 207.696 369.893  c
207.022 369.605 l
206.026 369.191 205.528 368.596 205.528 367.818  c
205.528 367.264 205.725 366.827 206.117 366.509  c
206.510 366.190 207.048 366.031 207.731 366.031  c
208.087 366.031 208.526 366.080 209.050 366.178  c
209.290 366.225 l
209.290 367.186 l
208.646 366.994 208.134 366.898 207.755 366.898  c
207.013 366.898 206.642 367.168 206.642 367.707  c
206.642 368.055 206.923 368.348 207.485 368.586  c
208.042 368.820 l
208.671 369.086 209.116 369.366 209.378 369.661  c
209.640 369.956 209.771 370.324 209.771 370.766  c
209.771 371.324 209.550 371.783 209.108 372.143  c
208.667 372.502 208.103 372.682 207.415 372.682  c
h
216.509 372.330 m
215.735 372.564 215.073 372.682 214.522 372.682  c
213.585 372.682 212.820 372.370 212.229 371.747  c
211.637 371.124 211.341 370.316 211.341 369.324  c
211.341 368.359 211.602 367.568 212.123 366.951  c
212.645 366.334 213.312 366.025 214.124 366.025  c
214.894 366.025 215.488 366.299 215.908 366.846  c
216.328 367.393 216.538 368.170 216.538 369.178  c
216.532 369.535 l
212.519 369.535 l
212.687 371.047 213.427 371.803 214.739 371.803  c
215.220 371.803 215.810 371.674 216.509 371.416  c
h
212.571 368.668 m
215.378 368.668 l
215.378 367.484 214.937 366.893 214.054 366.893  c
213.167 366.893 212.673 367.484 212.571 368.668  c
h
218.530 372.535 m
218.530 366.172 l
219.685 366.172 l
219.685 367.367 l
220.142 366.477 220.806 366.031 221.677 366.031  c
221.794 366.031 221.917 366.041 222.046 366.061  c
222.046 367.139 l
221.847 367.072 221.671 367.039 221.519 367.039  c
220.788 367.039 220.177 367.473 219.685 368.340  c
219.685 372.535 l
h
224.091 372.535 m
224.091 371.668 l
225.825 371.668 l
225.825 364.824 l
224.091 365.258 l
224.091 364.367 l
226.985 363.646 l
226.985 371.668 l
228.720 371.668 l
228.720 372.535 l
h
f
2 J
10.0000 M
1.00000 .800000 0.00000 RG
newpath
181.000 474.000 m
246.000 474.000 l
246.000 504.000 l
181.000 504.000 l
181.000 474.000 l
h
f
0 J
1.45000 M
0.00000 0.00000 0.00000 RG
newpath
181.000 474.000 m
246.000 474.000 l
246.000 504.000 l
181.000 504.000 l
181.000 474.000 l
h
S
2 J
10.0000 M
0 J
1.45000 M
newpath
202.259 493.535 m
202.259 492.340 l
201.646 493.234 200.901 493.682 200.026 493.682  c
199.472 493.682 199.030 493.507 198.702 493.157  c
198.374 492.808 198.210 492.336 198.210 491.742  c
198.210 487.172 l
199.364 487.172 l
199.364 491.367 l
199.364 491.844 199.434 492.183 199.572 492.384  c
199.711 492.585 199.942 492.686 200.267 492.686  c
200.970 492.686 201.634 492.223 202.259 491.297  c
202.259 487.172 l
203.413 487.172 l
203.413 493.535 l
h
207.415 493.682 m
206.888 493.682 206.247 493.559 205.493 493.312  c
205.493 492.252 l
206.247 492.627 206.903 492.814 207.462 492.814  c
207.794 492.814 208.069 492.725 208.288 492.545  c
208.507 492.365 208.616 492.141 208.616 491.871  c
208.616 491.477 208.310 491.150 207.696 490.893  c
207.022 490.605 l
206.026 490.191 205.528 489.596 205.528 488.818  c
205.528 488.264 205.725 487.827 206.117 487.509  c
206.510 487.190 207.048 487.031 207.731 487.031  c
208.087 487.031 208.526 487.080 209.050 487.178  c
209.290 487.225 l
209.290 488.186 l
208.646 487.994 208.134 487.898 207.755 487.898  c
207.013 487.898 206.642 488.168 206.642 488.707  c
206.642 489.055 206.923 489.348 207.485 489.586  c
208.042 489.820 l
208.671 490.086 209.116 490.366 209.378 490.661  c
209.640 490.956 209.771 491.324 209.771 491.766  c
209.771 492.324 209.550 492.783 209.108 493.143  c
208.667 493.502 208.103 493.682 207.415 493.682  c
h
216.509 493.330 m
215.735 493.564 215.073 493.682 214.522 493.682  c
213.585 493.682 212.820 493.370 212.229 492.747  c
211.637 492.124 211.341 491.316 211.341 490.324  c
211.341 489.359 211.602 488.568 212.123 487.951  c
212.645 487.334 213.312 487.025 214.124 487.025  c
214.894 487.025 215.488 487.299 215.908 487.846  c
216.328 488.393 216.538 489.170 216.538 490.178  c
216.532 490.535 l
212.519 490.535 l
212.687 492.047 213.427 492.803 214.739 492.803  c
215.220 492.803 215.810 492.674 216.509 492.416  c
h
212.571 489.668 m
215.378 489.668 l
215.378 488.484 214.937 487.893 214.054 487.893  c
213.167 487.893 212.673 488.484 212.571 489.668  c
h
218.530 493.535 m
218.530 487.172 l
219.685 487.172 l
219.685 488.367 l
220.142 487.477 220.806 487.031 221.677 487.031  c
221.794 487.031 221.917 487.041 222.046 487.061  c
222.046 488.139 l
221.847 488.072 221.671 488.039 221.519 488.039  c
220.788 488.039 220.177 488.473 219.685 489.340  c
219.685 493.535 l
h
223.282 493.535 m
223.282 492.521 l
223.618 491.736 224.298 490.881 225.321 489.955  c
225.983 489.363 l
226.835 488.594 227.261 487.830 227.261 487.072  c
227.261 486.588 227.115 486.207 226.824 485.930  c
226.533 485.652 226.134 485.514 225.626 485.514  c
225.024 485.514 224.315 485.746 223.499 486.211  c
223.499 485.191 l
224.269 484.828 225.032 484.646 225.790 484.646  c
226.603 484.646 227.255 484.865 227.747 485.303  c
228.239 485.740 228.485 486.320 228.485 487.043  c
228.485 487.562 228.361 488.023 228.113 488.426  c
227.865 488.828 227.403 489.316 226.728 489.891  c
226.282 490.271 l
225.356 491.057 224.821 491.807 224.677 492.521  c
228.444 492.521 l
228.444 493.535 l
h
f
2 J
10.0000 M
1.00000 .800000 0.00000 RG
newpath
717.500 214.000 m
733.750 169.000 l
766.250 169.000 l
782.500 214.000 l
h
f*
0 J
1.45000 M
0.00000 0.00000 0.00000 RG
newpath
717.500 214.000 m
733.750 169.000 l
766.250 169.000 l
782.500 214.000 l
h
S
2 J
10.0000 M
0 J
1.45000 M
newpath
743.569 195.227 m
742.878 195.863 742.212 196.182 741.571 196.182  c
741.044 196.182 740.606 196.017 740.259 195.687  c
739.911 195.356 739.737 194.939 739.737 194.436  c
739.737 193.740 740.029 193.206 740.613 192.833  c
741.197 192.460 742.034 192.273 743.124 192.273  c
743.399 192.273 l
743.399 191.506 l
743.399 190.768 743.021 190.398 742.263 190.398  c
741.653 190.398 740.995 190.586 740.288 190.961  c
740.288 190.006 l
741.065 189.689 741.794 189.531 742.474 189.531  c
743.185 189.531 743.709 189.691 744.047 190.012  c
744.385 190.332 744.554 190.830 744.554 191.506  c
744.554 194.389 l
744.554 195.049 744.757 195.379 745.163 195.379  c
745.214 195.379 745.288 195.371 745.386 195.355  c
745.468 195.994 l
745.206 196.119 744.917 196.182 744.601 196.182  c
744.062 196.182 743.718 195.863 743.569 195.227  c
h
743.399 194.600 m
743.399 192.953 l
743.013 192.941 l
742.380 192.941 741.868 193.062 741.478 193.302  c
741.087 193.542 740.892 193.857 740.892 194.248  c
740.892 194.525 740.989 194.760 741.185 194.951  c
741.380 195.143 741.618 195.238 741.899 195.238  c
742.380 195.238 742.880 195.025 743.399 194.600  c
h
746.915 198.350 m
746.915 189.672 l
748.069 189.672 l
748.069 190.867 l
748.542 189.977 749.251 189.531 750.196 189.531  c
750.962 189.531 751.564 189.811 752.004 190.369  c
752.443 190.928 752.663 191.691 752.663 192.660  c
752.663 193.715 752.414 194.565 751.916 195.212  c
751.418 195.858 750.763 196.182 749.950 196.182  c
749.196 196.182 748.569 195.893 748.069 195.314  c
748.069 198.350 l
h
748.069 194.518 m
748.663 195.049 749.229 195.314 749.769 195.314  c
750.878 195.314 751.433 194.469 751.433 192.777  c
751.433 191.285 750.940 190.539 749.956 190.539  c
749.312 190.539 748.683 190.889 748.069 191.588  c
h
754.468 198.350 m
754.468 189.672 l
755.622 189.672 l
755.622 190.867 l
756.095 189.977 756.804 189.531 757.749 189.531  c
758.515 189.531 759.117 189.811 759.557 190.369  c
759.996 190.928 760.216 191.691 760.216 192.660  c
760.216 193.715 759.967 194.565 759.469 195.212  c
758.971 195.858 758.315 196.182 757.503 196.182  c
756.749 196.182 756.122 195.893 755.622 195.314  c
755.622 198.350 l
h
755.622 194.518 m
756.216 195.049 756.782 195.314 757.321 195.314  c
758.431 195.314 758.985 194.469 758.985 192.777  c
758.985 191.285 758.493 190.539 757.509 190.539  c
756.864 190.539 756.235 190.889 755.622 191.588  c
h
f
2 J
10.0000 M
1.00000 .800000 0.00000 RG
newpath
717.500 102.875 m
733.750 57.8750 l
766.250 57.8750 l
782.500 102.875 l
h
f*
0 J
1.45000 M
0.00000 0.00000 0.00000 RG
newpath
717.500 102.875 m
733.750 57.8750 l
766.250 57.8750 l
782.500 102.875 l
h
S
2 J
10.0000 M
0 J
1.45000 M
newpath
742.166 84.9102 m
742.166 78.5469 l
743.320 78.5469 l
743.320 79.7422 l
743.930 78.8516 744.676 78.4062 745.559 78.4062  c
746.109 78.4062 746.549 78.5811 746.877 78.9307  c
747.205 79.2803 747.369 79.7500 747.369 80.3398  c
747.369 84.9102 l
746.215 84.9102 l
746.215 80.7148 l
746.215 80.2422 746.146 79.9053 746.007 79.7041  c
745.868 79.5029 745.639 79.4023 745.318 79.4023  c
744.611 79.4023 743.945 79.8652 743.320 80.7910  c
743.320 84.9102 l
h
750.990 79.4141 m
750.990 84.9102 l
749.830 84.9102 l
749.830 79.4141 l
748.928 79.4141 l
748.928 78.5469 l
749.830 78.5469 l
749.830 77.7852 l
749.830 76.2695 750.521 75.5117 751.904 75.5117  c
752.291 75.5117 752.730 75.5762 753.223 75.7051  c
753.223 76.6191 l
752.703 76.4590 752.287 76.3789 751.975 76.3789  c
751.596 76.3789 751.337 76.4697 751.198 76.6514  c
751.060 76.8330 750.990 77.1699 750.990 77.6621  c
750.990 78.5469 l
752.578 78.5469 l
752.578 79.4141 l
h
755.713 85.0566 m
755.186 85.0566 754.545 84.9336 753.791 84.6875  c
753.791 83.6270 l
754.545 84.0020 755.201 84.1895 755.760 84.1895  c
756.092 84.1895 756.367 84.0996 756.586 83.9199  c
756.805 83.7402 756.914 83.5156 756.914 83.2461  c
756.914 82.8516 756.607 82.5254 755.994 82.2676  c
755.320 81.9805 l
754.324 81.5664 753.826 80.9707 753.826 80.1934  c
753.826 79.6387 754.022 79.2021 754.415 78.8838  c
754.808 78.5654 755.346 78.4062 756.029 78.4062  c
756.385 78.4062 756.824 78.4551 757.348 78.5527  c
757.588 78.5996 l
757.588 79.5605 l
756.943 79.3691 756.432 79.2734 756.053 79.2734  c
755.311 79.2734 754.939 79.5430 754.939 80.0820  c
754.939 80.4297 755.221 80.7227 755.783 80.9609  c
756.340 81.1953 l
756.969 81.4609 757.414 81.7412 757.676 82.0361  c
757.938 82.3311 758.068 82.6992 758.068 83.1406  c
758.068 83.6992 757.848 84.1582 757.406 84.5176  c
756.965 84.8770 756.400 85.0566 755.713 85.0566  c
h
f
2 J
10.0000 M
1.00000 .800000 0.00000 RG
newpath
181.000 180.688 m
197.250 135.688 l
229.750 135.688 l
246.000 180.688 l
h
f*
0 J
1.45000 M
0.00000 0.00000 0.00000 RG
newpath
181.000 180.688 m
197.250 135.688 l
229.750 135.688 l
246.000 180.688 l
h
S
2 J
10.0000 M
0 J
1.45000 M
newpath
201.523 162.723 m
199.701 156.359 l
200.832 156.359 l
202.227 161.287 l
203.732 156.359 l
204.887 156.359 l
206.205 161.287 l
207.805 156.359 l
208.795 156.359 l
206.721 162.723 l
205.561 162.723 l
204.213 157.795 l
202.689 162.723 l
h
210.770 162.723 m
208.947 156.359 l
210.078 156.359 l
211.473 161.287 l
212.979 156.359 l
214.133 156.359 l
215.451 161.287 l
217.051 156.359 l
218.041 156.359 l
215.967 162.723 l
214.807 162.723 l
213.459 157.795 l
211.936 162.723 l
h
220.016 162.723 m
218.193 156.359 l
219.324 156.359 l
220.719 161.287 l
222.225 156.359 l
223.379 156.359 l
224.697 161.287 l
226.297 156.359 l
227.287 156.359 l
225.213 162.723 l
224.053 162.723 l
222.705 157.795 l
221.182 162.723 l
h
f
2 J
10.0000 M
1.00000 .800000 0.00000 RG
newpath
323.000 129.000 m
339.250 84.0000 l
371.750 84.0000 l
388.000 129.000 l
h
f*
0 J
1.45000 M
0.00000 0.00000 0.00000 RG
newpath
323.000 129.000 m
339.250 84.0000 l
371.750 84.0000 l
388.000 129.000 l
h
S
2 J
10.0000 M
0 J
1.45000 M
newpath
353.186 111.035 m
353.186 109.840 l
352.717 110.734 352.010 111.182 351.064 111.182  c
350.299 111.182 349.696 110.902 349.257 110.344  c
348.817 109.785 348.598 109.021 348.598 108.053  c
348.598 106.994 348.847 106.143 349.345 105.498  c
349.843 104.854 350.498 104.531 351.311 104.531  c
352.064 104.531 352.689 104.820 353.186 105.398  c
353.186 101.783 l
354.346 101.783 l
354.346 111.035 l
h
353.186 106.189 m
352.588 105.662 352.021 105.398 351.486 105.398  c
350.381 105.398 349.828 106.244 349.828 107.936  c
349.828 109.424 350.320 110.168 351.305 110.168  c
351.945 110.168 352.572 109.818 353.186 109.119  c
h
356.654 111.105 m
356.654 101.783 l
357.809 101.783 l
357.809 105.867 l
358.281 104.977 358.990 104.531 359.936 104.531  c
360.701 104.531 361.304 104.811 361.743 105.369  c
362.183 105.928 362.402 106.691 362.402 107.660  c
362.402 108.715 362.153 109.565 361.655 110.212  c
361.157 110.858 360.502 111.182 359.689 111.182  c
358.936 111.182 358.309 110.893 357.809 110.314  c
357.668 111.105 l
h
357.809 109.518 m
358.402 110.049 358.969 110.314 359.508 110.314  c
360.617 110.314 361.172 109.469 361.172 107.777  c
361.172 106.285 360.680 105.539 359.695 105.539  c
359.051 105.539 358.422 105.889 357.809 106.588  c
h
f
2 J
10.0000 M
0 J
1.45000 M
newpath
366.000 443.928 m
535.000 443.111 l
S
newpath
543.000 443.072 m
530.976 438.131 l
534.000 443.116 l
531.024 448.130 l
h
f
2 J
10.0000 M
0 J
1.45000 M
newpath
351.000 429.000 m
351.000 302.000 l
S
newpath
351.000 294.000 m
346.000 306.000 l
351.000 303.000 l
356.000 306.000 l
h
f
2 J
10.0000 M
0 J
1.45000 M
newpath
558.000 428.000 m
558.000 302.000 l
S
newpath
558.000 294.000 m
553.000 306.000 l
558.000 303.000 l
563.000 306.000 l
h
f
2 J
10.0000 M
0 J
1.45000 M
newpath
366.000 279.000 m
535.000 279.000 l
S
newpath
543.000 279.000 m
531.000 274.000 l
534.000 279.000 l
531.000 284.000 l
h
f
2 J
10.0000 M
0 J
1.45000 M
newpath
546.931 453.123 m
478.957 515.290 l
S
newpath
473.054 520.689 m
485.284 516.280 l
479.695 514.615 l
478.535 508.901 l
h
f
2 J
10.0000 M
0 J
1.45000 M
newpath
362.501 453.629 m
437.260 516.217 l
S
newpath
443.394 521.353 m
437.402 509.816 l
436.493 515.575 l
430.983 517.483 l
h
f
2 J
10.0000 M
0 J
1.45000 M
newpath
458.500 554.000 m
458.500 602.000 l
S
newpath
458.500 610.000 m
463.500 598.000 l
458.500 601.000 l
453.500 598.000 l
h
f
2 J
10.0000 M
0 J
1.45000 M
newpath
568.258 432.056 m
620.266 376.569 l
S
newpath
625.737 370.733 m
613.883 376.069 l
619.582 377.299 l
621.179 382.907 l
h
f
2 J
10.0000 M
0 J
1.45000 M
newpath
648.221 359.250 m
722.500 359.250 l
S
newpath
730.500 359.250 m
718.500 354.250 l
721.500 359.250 l
718.500 364.250 l
h
f
2 J
10.0000 M
0 J
1.45000 M
newpath
566.520 266.655 m
593.261 227.909 l
S
newpath
597.805 221.325 m
586.874 228.361 l
592.693 228.732 l
595.104 234.041 l
h
f
2 J
10.0000 M
0 J
1.45000 M
newpath
613.595 201.998 m
657.395 155.632 l
S
newpath
662.889 149.817 m
651.014 155.106 l
656.708 156.359 l
658.283 161.973 l
h
f
2 J
10.0000 M
0 J
1.45000 M
newpath
344.926 265.285 m
328.215 227.552 l
S
newpath
324.975 220.237 m
325.263 233.234 l
328.620 228.466 l
334.406 229.185 l
h
f
2 J
10.0000 M
0 J
1.45000 M
newpath
313.741 196.038 m
296.263 160.115 l
S
newpath
292.763 152.921 m
293.517 165.899 l
296.700 161.014 l
302.509 161.524 l
h
f
2 J
10.0000 M
0 J
1.45000 M
newpath
750.000 301.531 m
750.000 340.500 l
S
2 J
10.0000 M
0 J
1.45000 M
newpath
750.000 378.000 m
750.000 417.008 l
S
2 J
10.0000 M
0 J
1.45000 M
newpath
337.872 436.744 m
240.638 383.000 l
S
2 J
10.0000 M
0 J
1.45000 M
newpath
246.000 478.364 m
336.744 448.666 l
S
2 J
10.0000 M
0 J
1.45000 M
newpath
691.369 147.477 m
730.848 177.120 l
S
2 J
10.0000 M
0 J
1.45000 M
newpath
691.369 124.398 m
720.026 102.881 l
S
2 J
10.0000 M
0 J
1.45000 M
newpath
265.960 141.748 m
235.401 151.324 l
S
2 J
10.0000 M
0 J
1.45000 M
newpath
302.406 128.513 m
326.853 118.377 l
S
2 J
10.0000 M
Q
[ 1.00000 0.00000 0.00000 1.00000 0.00000 0.00000 ] defaultmatrix matrix concatmatrix setmatrix
cliprestore

%%Trailer
%%EOF
