%!PS-Adobe-3.0 EPSF-3.0
%%BoundingBox: 0 0 730 271
%%Creator: yExport 1.5
%%Producer: org.freehep.graphicsio.ps.EPSGraphics2D Revision: 12753 
%%For: 
%%Title: 
%%CreationDate: Monday, February 13, 2017 10:22:10 PM GMT
%%LanguageLevel: 3
%%EndComments
%%BeginProlog
100 dict dup begin

%
% File: org/freehep/graphicsio.ps/PSProlog.txt
% Author: Charles Loomis
%

% Redefinitions which save some space in the output file.  These are also
% the same as the PDF operators.
/q {gsave} def
/Q {grestore} def

/n {newpath} def
/m {moveto} def
/l {lineto} def
/c {curveto} def
/h {closepath} def

/re {4 -2 roll moveto
     dup 0 exch rlineto exch 0 rlineto
     neg 0 exch rlineto closepath} def

/f {fill} def
/f* {eofill} def
/F {gsave vg&FC fill grestore} def
/F* {gsave vg&FC eofill grestore} def

/s {closepath stroke} def
/S {stroke} def

/b {closepath gsave vg&FC fill grestore
    gsave stroke grestore newpath} def
/B {gsave vg&FC fill grestore gsave stroke grestore newpath} def
/b* {closepath gsave vg&FC eofill grestore
    gsave stroke grestore newpath} def
/B* {gsave vg&FC eofill grestore gsave stroke grestore newpath} def

/g {1 array astore /vg&fcolor exch def} def
/G {setgray} def
/k {4 array astore /vg&fcolor exch def} def
/K {setcmykcolor} def
/rg {3 array astore /vg&fcolor exch def} def
/RG {setrgbcolor} def

% Initialize the fill color.
0 0 0 rg

/vg&FC {mark vg&fcolor aload pop
        counttomark 1 eq {G} if
        counttomark 3 eq {RG} if
        counttomark 4 eq {K} if
        cleartomark } def

/vg&DFC {/vg&fcolor exch def} def

/vg&C {mark exch aload pop
       counttomark 1 eq {G} if
       counttomark 3 eq {RG} if
       counttomark 4 eq {K} if
       cleartomark } def

/w {setlinewidth} def
/j {setlinejoin} def
/J {setlinecap} def
/M {setmiterlimit} def
/d {setdash} def
/i {setflat} def

/W {clip} def
/W* {eoclip} def

% Setup the default graphics state.
% (black; 1 pt. linewidth; miter join; butt-ends; solid)
/defaultGraphicsState {0 g 1 w 0 j 0 J [] 0 d} def

% Emulation of the rectangle operators for PostScript implementations
% which do not implement all Level 2 features.  This is an INCOMPLETE
% emulation; only the "x y width height rect..." form is emulated.
/*rf {gsave newpath re fill grestore} def
/*rs {gsave newpath re stroke grestore} def
/*rc {newpath re clip} def
/rf  /rectfill where {pop /rectfill}{/*rf} ifelse load def
/rs  /rectstroke where {pop /rectstroke}{/*rs} ifelse load def
/rc  /rectclip where {pop /rectclip}{/*rc} ifelse load def

% Emulation of the selectfont operator.  This includes a 20% increase in
% the fontsize which is necessary to get sizes similar to the Java fonts.
/*sf {exch findfont exch
      dup type /arraytype eq {makefont}{scalefont} ifelse setfont} bind def
/sf /selectfont where {pop {1.2 mul selectfont}}{{1.2 mul *sf}} ifelse def

% Special version of stroke which allows the dash pattern to continue
% across path segments.  (This may be needed for PostScript although
% modern printers seem to do this correctly.)
/vg&stroke {
  currentdash pop length 0 eq
  {stroke}
  {
    currentdash /vg&doffset exch def pop
    flattenpath
    {m vg&resetdash}
    {2 copy
     currentpoint
     3 -1 roll sub dup mul
     3 1 roll sub dup mul
     add sqrt
     3 1 roll l
     currentdash 3 -1 roll add setdash}
     {}
     {h vg&resetdash}
     pathforall
     stroke
     vg&resetdash
  } ifelse
} def
/vg&resetdash {currentdash pop vg&doffset setdash} def

% Initialize variables for safety.
/delta 0 def
/xv 0 def  /yv 0 def  /width 0 def  /height 0 def

% Initialize to portrait INTERNATIONAL (Letter-height, A4-width) page.
/pw 595 def  /ph 791  def  /po true def /ftp false def

% Initialize margins to 20 points.
/ml 20 def  /mr 20 def  /mt 20 def  /mb 20 def

% Temporary matrices.
/smatrix 0 def  /nmatrix 0 def

% set page size (usage: <page width><page height> setpagesize)
/setpagesize {/ph exch def /pw exch def} def

% set page orientation (usage: portrait or landscape)
/portrait {/po true def} def
/landscape {/po false def} def

% force natural size for image (usage: naturalsize)
/naturalsize {/ftp false def} def

% resize image to fill page (usage: fittopage)
/fittopage {/ftp true def} def

% set margins of the page (usage: <left><bottom><top><right> setmargins)
/setmargins {/mr exch def /mt exch def /mb exch def /ml exch def} def

% set the graphic's size (usage: <width><height> setsize)
/setsize {/gh exch def /gw exch def} def

% set the graphic's origin (usage: <x0><y0> setorigin)
/setorigin {/gy exch def /gx exch def} def

% calculate image center
/imagecenter {pw ml sub mr sub 2 div ml add
              ph mt sub mb sub 2 div mb add} def

% calculate the necessary scaling
/imagescale {po {gw}{gh} ifelse pw ml sub mr sub div
             po {gh}{gw} ifelse ph mt sub mb sub div
             2 copy lt {exch} if pop
             ftp not {1 2 copy lt {exch} if pop} if
             1 exch div /sfactor exch def
             /gw gw sfactor mul def /gh gh sfactor mul def} def

% calculate image origin
/imageorigin {pw ml sub mr sub 2 div ml add
              po {gw}{gh} ifelse 2 div sub
              ph mt sub mb sub 2 div mb add
              po {gh}{gw} ifelse 2 div po {add}{sub} ifelse} def

% calculate the clipping origin
/cliporigin  {pw ml sub mr sub 2 div ml add
              po {gw}{gh} ifelse 2 div sub floor
              ph mt sub mb sub 2 div mb add
              po {gh}{gw} ifelse 2 div sub floor} def

% Set the clipping region to the bounding box.
/cliptobounds {cliporigin po {gw}{gh} ifelse 1 add
                          po {gh}{gw} ifelse 1 add rc} def

% set the base transformation matrix (usage: setbasematrix)
/setbasematrix {imageorigin translate
                po {0}{90} ifelse rotate
                sfactor sfactor neg scale
                /defaultmatrix matrix currentmatrix def} def

% The lower-right bias in drawing 1 pt. wide lines.
/bias  {q 0.5 0.5 translate} def
/unbias {Q} def

% Define the composite fonts used to print Unicode strings.
% Undefine particular values in an encoding array.
/vg&undef { {exch dup 3 -1 roll /.notdef put} forall } def
/vg&redef { {3 -1 roll dup 4 2 roll put} forall } def

% usage: key encoding basefontname vg&newbasefont font
/vg&newbasefont {
findfont dup length dict copy
  begin
    currentdict /FID undef
    /Encoding exch def
    dup /FontName exch def
    currentdict
  end
definefont
} def

% usage: key encoding basefontname vg&newskewedbasefont font
/vg&newskewedbasefont {
findfont dup length dict copy
  begin
    currentdict /FID undef
    /Encoding exch def
    dup /FontName exch def
    exch FontMatrix exch matrix concatmatrix /FontMatrix exch def
    currentdict
  end
definefont
} def

% usage: basekey suffix vg&nconcat name
/vg&nconcat {
  2 {dup length string cvs exch} repeat
  dup length 3 -1 roll dup length 3 -1 roll add string
  dup 0 4 -1 roll dup length 5 1 roll putinterval
  dup 4 -2 roll exch putinterval cvn
} def

%usage: fontname vg&skewmatrix matrix
/vg&skewmatrix {
findfont dup /FontInfo known
  {
    /FontInfo get dup /ItalicAngle known
    {
      [ 1 0 4 -1 roll /ItalicAngle get neg dup sin exch cos div 1 0 0 ]
    }
    {pop matrix} ifelse
  }
  {pop matrix} ifelse
} def

% usage: newfontname basefontname vg&newcompositefont --
/vg&newcompositefont {
/vg&fstyle exch def
/vg&bfont exch def
/vg&fname exch def
<<
/FontStyleBits vg&fstyle
/FontType 0
/FontMatrix matrix
/FontName vg&fname
/FMapType 2
/Encoding [ 0 1 255 {pop 6} for ]
          dup 16#00 0 put % Latin
          dup 16#03 1 put % Greek
          dup 16#20 2 put % Punctuation
          dup 16#21 3 put % Arrows
          dup 16#22 4 put % MathOps
          dup 16#27 5 put % Dingbats

/FDepVector [
vg&bfont /-UC-Latin vg&nconcat UCLatinEncoding
vg&bfont vg&newbasefont

vg&bfont vg&skewmatrix
vg&bfont /-UC-Greek vg&nconcat UCGreekEncoding
/Symbol vg&newskewedbasefont

vg&bfont /-UC-Punctuation vg&nconcat UCPunctuationEncoding
vg&bfont vg&newbasefont

/Arrows-UC findfont
/MathOps-UC findfont
/Dingbats-UC findfont
/Undefined-UC findfont ]
>>
vg&fname exch definefont pop
} def

% Null encoding vector (all elements set to .notdef)
/NullEncoding [ 256 {/.notdef} repeat ] def

% Unicode Latin encoding (unicode codes \u0000-\u00ff)
/UCLatinEncoding
  ISOLatin1Encoding dup length array copy
  dup 16#60 /grave put
  [ 16#90 16#91 16#92 16#93 16#94 16#95 16#96
    16#97 16#98 16#9a 16#9b 16#9d 16#9e 16#9f
  ] vg&undef
  def

% Unicode Greek encoding (unicode codes \u0370-\u03ff)
/UCGreekEncoding
  NullEncoding dup length array copy
  << 16#91 /Alpha    16#92 /Beta      16#93 /Gamma    16#94 /Delta
     16#95 /Epsilon  16#96 /Zeta      16#97 /Eta      16#98 /Theta
     16#99 /Iota     16#9a /Kappa     16#9b /Lambda   16#9c /Mu
     16#9d /Nu       16#9e /Xi        16#9f /Omicron  16#a0 /Pi
     16#a1 /Rho      16#a3 /Sigma     16#a4 /Tau      16#a5 /Upsilon
     16#a6 /Phi      16#a7 /Chi       16#a8 /Psi      16#a9 /Omega
     16#b1 /alpha    16#b2 /beta      16#b3 /gamma    16#b4 /delta
     16#b5 /epsilon  16#b6 /zeta      16#b7 /eta      16#b8 /theta
     16#b9 /iota     16#ba /kappa     16#bb /lambda   16#bc /mu
     16#bd /nu       16#be /xi        16#bf /omicron  16#c0 /pi
     16#c1 /rho      16#c2 /sigma1    16#c3 /sigma    16#c4 /tau
     16#c5 /upsilon  16#c6 /phi1      16#c7 /chi      16#c8 /psi
     16#c9 /omega    16#7e /semicolon 16#87 /dotmath  16#d1 /theta1
     16#d2 /Upsilon1 16#d5 /phi       16#d6 /omega1
  >> vg&redef
  def

% Unicode punctuation encoding (unicode codes \u2000-\u206f)
/UCPunctuationEncoding
  NullEncoding dup length array copy
  << 16#10 /hyphen          16#11 /hyphen              16#12 /endash
     16#13 /emdash          16#18 /quoteleft           16#19 /quoteright
     16#1a /quotesinglbase  16#1b /quotesingle         16#1c /quotedblleft
     16#1d /quotedblright   16#1e /quotedblbase        16#1f /quotedbl
     16#20 /dagger          16#21 /daggerdbl           16#22 /bullet
     16#24 /period          16#26 /ellipsis            16#27 /periodcentered
     16#30 /perthousand     16#44 /fraction
     16#70 /zerosuperior    16#74 /foursuperior        16#75 /fivesuperior
     16#76 /sixsuperior     16#77 /sevensuperior       16#78 /eightsuperior
     16#79 /ninesuperior    16#7b /hyphensuperior      16#7d /parenleftsuperior
     16#7e /parenrightsuperior
     16#80 /zeroinferior    16#84 /fourinferior        16#85 /fiveinferior
     16#81 /oneinferior     16#82 /twoinferior         16#83 /threeinferior
     16#86 /sixinferior     16#87 /seveninferior       16#88 /eightinferior
     16#89 /nineinferior    16#8b /hypheninferior      16#8d /parenleftinferior
     16#8e /parenrightinferior
  >> vg&redef
  def

% Unicode mathematical operators encoding (unicode codes \u2200-\u22ff)
/UCMathOpsEncoding
  NullEncoding dup length array copy
  << 16#00 /universal       16#02 /partialdiff         16#03 /existential
     16#05 /emptyset        16#06 /Delta               16#07 /gradient
     16#08 /element         16#09 /notelement          16#0b /suchthat
     16#0f /product         16#11 /summation           16#12 /minus
     16#15 /fraction        16#17 /asteriskmath        16#19 /bullet
     16#1a /radical         16#1d /proportional        16#1e /infinity
     16#20 /angle           16#23 /bar                 16#27 /logicaland
     16#28 /logicalor       16#29 /intersection        16#2a /union
     16#2b /integral        16#34 /therefore           16#36 /colon
     16#3c /similar         16#45 /congruent           16#48 /approxequal
     16#60 /notequal        16#61 /equivalence         16#64 /lessequal
     16#65 /greaterequal    16#82 /propersubset        16#83 /propersuperset
     16#86 /reflexsubset    16#87 /reflexsuperset      16#95 /circleplus
     16#97 /circlemultiply  16#a5 /perpendicular       16#03 /existential
     16#c0 /logicaland      16#c1 /logicalor           16#c2 /intersection
     16#c3 /union           16#c4 /diamond             16#c5 /dotmath
  >> vg&redef
  def

% Unicode arrows encoding (unicode codes \u2190-\u21ff)
% Also includes those "Letterlike" unicode characters
% which are available in the symbol font. (unicode codes \u2100-\u214f)
/UCArrowsEncoding
  NullEncoding dup length array copy
  << 16#11 /Ifraktur        16#1c /Rfraktur            16#22 /trademarkserif
     16#35 /aleph
     16#90 /arrowleft       16#91 /arrowup             16#92 /arrowright
     16#93 /arrowdown       16#94 /arrowboth           16#d0 /arrowdblleft
     16#d1 /arrowdblup      16#d2 /arrowdblright       16#d3 /arrowdbldown
     16#d4 /arrowdblboth
  >> vg&redef
  def

/ZapfDingbats findfont /Encoding get
dup length array copy /UCDingbatsEncoding exch def
16#20 1 16#7f {
  dup 16#20 sub exch
  UCDingbatsEncoding exch get
  UCDingbatsEncoding 3 1 roll put
} for
16#a0 1 16#ff {
  dup 16#40 sub exch
  UCDingbatsEncoding exch get
  UCDingbatsEncoding 3 1 roll put
} for
UCDingbatsEncoding [ 16#c0 1 16#ff {} for ] vg&undef
[ 16#00  16#05 16#0a 16#0b  16#28 16#4c 16#4e  16#53 16#54 16#55  16#57 16#5f
  16#60  16#68 16#69 16#6a  16#6b 16#6c 16#6d  16#6e 16#6f 16#70  16#71 16#72
  16#73  16#74 16#75 16#95  16#96 16#97 16#b0  16#bf
] vg&undef pop

% Define the base fonts which don't change.
/Undefined-UC NullEncoding       /Helvetica    vg&newbasefont pop
/MathOps-UC   UCMathOpsEncoding  /Symbol       vg&newbasefont pop
/Arrows-UC    UCArrowsEncoding   /Symbol       vg&newbasefont pop
/Dingbats-UC  UCDingbatsEncoding /ZapfDingbats vg&newbasefont pop

% Make the SansSerif composite fonts.
/SansSerif /Helvetica 16#00 vg&newcompositefont
/SansSerif-Bold /Helvetica-Bold 16#01 vg&newcompositefont
/SansSerif-Italic /Helvetica-Oblique 16#02 vg&newcompositefont
/SansSerif-BoldItalic /Helvetica-BoldOblique 16#03 vg&newcompositefont

% Make the Serif composite fonts.
/Serif /Times-Roman 16#00 vg&newcompositefont
/Serif-Bold /Times-Bold 16#01 vg&newcompositefont
/Serif-Italic /Times-Italic 16#02 vg&newcompositefont
/Serif-BoldItalic /Times-BoldItalic 16#03 vg&newcompositefont

% Make the Monospaced composite fonts.
/Monospaced /Courier 16#00 vg&newcompositefont
/Monospaced-Bold /Courier-Bold 16#01 vg&newcompositefont
/Monospaced-Italic /Courier-Oblique 16#02 vg&newcompositefont
/Monospaced-BoldItalic /Courier-BoldOblique 16#03 vg&newcompositefont

% Make the Dialog composite fonts.
/Dialog /Helvetica 16#00 vg&newcompositefont
/Dialog-Bold /Helvetica-Bold 16#01 vg&newcompositefont
/Dialog-Italic /Helvetica-Oblique 16#02 vg&newcompositefont
/Dialog-BoldItalic /Helvetica-BoldOblique 16#03 vg&newcompositefont

% Make the DialogInput composite fonts.
/DialogInput /Courier 16#00 vg&newcompositefont
/DialogInput-Bold /Courier-Bold 16#01 vg&newcompositefont
/DialogInput-Italic /Courier-Oblique 16#02 vg&newcompositefont
/DialogInput-BoldItalic /Courier-BoldOblique 16#03 vg&newcompositefont

% Make the Typewriter composite fonts (JDK 1.1 only).
/Typewriter /Courier 16#00 vg&newcompositefont
/Typewriter-Bold /Courier-Bold 16#01 vg&newcompositefont
/Typewriter-Italic /Courier-Oblique 16#02 vg&newcompositefont
/Typewriter-BoldItalic /Courier-BoldOblique 16#03 vg&newcompositefont


/cfontH {
 dup /fontsize exch def /SansSerif exch sf
 /vg&fontstyles [{cfontH} {cfontHB} {cfontHI} {cfontHBI}] def
} def
/cfontHB {
  dup /fontsize exch def /SansSerif-Bold exch sf
 /vg&fontstyles [{cfontH} {cfontHB} {cfontHI} {cfontHBI}] def
} def
/cfontHI {
 dup /fontsize exch def /SansSerif-Italic exch sf
 /vg&fontstyles [{cfontH} {cfontHB} {cfontHI} {cfontHBI}] def
} def
/cfontHBI {
 dup /fontsize exch def /SansSerif-BoldItalic exch sf
 /vg&fontstyles [{cfontH} {cfontHB} {cfontHI} {cfontHBI}] def
} def

/cfontT {
 dup /fontsize exch def /Serif exch sf
 /vg&fontstyles [{cfontT} {cfontTB} {cfontTI} {cfontTBI}] def
} def
/cfontTB {
 dup /fontsize exch def /Serif-Bold exch sf
 /vg&fontstyles [{cfontT} {cfontTB} {cfontTI} {cfontTBI}] def
} def
/cfontTI {
 dup /fontsize exch def /Serif-Italic exch sf
 /vg&fontstyles [{cfontT} {cfontTB} {cfontTI} {cfontTBI}] def
} def
/cfontTBI {
 dup /fontsize exch def /Serif-BoldItalic exch sf
 /vg&fontstyles [{cfontT} {cfontTB} {cfontTI} {cfontTBI}] def
} def

/cfontC {
 dup /fontsize exch def /Typewriter exch sf
 /vg&fontstyles [{cfontC} {cfontCB} {cfontCI} {cfontCBI}] def
} def
/cfontCB {
 dup /fontsize exch def /Typewriter-Bold exch sf
 /vg&fontstyles [{cfontC} {cfontCB} {cfontCI} {cfontCBI}] def
} def
/cfontCI {
 dup /fontsize exch def /Typewriter-Italic exch sf
 /vg&fontstyles [{cfontC} {cfontCB} {cfontCI} {cfontCBI}] def
} def
/cfontCBI {
 dup /fontsize exch def /Typewriter-BoldItalic exch sf
 /vg&fontstyles [{cfontC} {cfontCB} {cfontCI} {cfontCBI}] def
} def

% Darken or lighten the current color.
/darken {0.7 exch exp 3 copy
         q 4 -1 roll vg&C
         currentrgbcolor 3 {4 -2 roll mul} repeat
         3 array astore Q} def

/displayColorMap
<< /Cr   [1.00 0.00 0.00]       /Cg     [0.00 1.00 0.00]
   /Cb   [0.00 0.00 1.00]       /Cc     [1.00 0.00 0.00 0.00]
   /Cm   [0.00 1.00 0.00 0.00]  /Cy     [0.00 0.00 1.00 0.00]
   /Co   [1.00 0.78 0.00]       /Cp     [1.00 0.67 0.67]
   /Cw   [1   ]                 /Cgrl   [0.75]
   /Cgr  [0.50]                 /Cgrd   [0.25]
   /Ck   [0   ]
   /CGr  [1.00 0.00 0.00]       /CGg    [0.00 1.00 0.00]
   /CGb  [0.00 0.00 1.00]       /CGc    [1.00 0.00 0.00 0.00]
   /CGm  [0.00 1.00 0.00 0.00]  /CGy    [0.00 0.00 1.00 0.00]
   /CGo  [1.00 0.78 0.00]       /CGp    [1.00 0.67 0.67]
   /CGw  [1   ]                 /CGgrl  [0.75]
   /CGgr [0.50]                 /CGgrd  [0.25]
   /CGk  [0   ]
   /CIr  [1.00 0.00 0.00]       /CIg    [0.00 1.00 0.00]
   /CIb  [0.00 0.00 1.00]       /CIc    [1.00 0.00 0.00 0.00]
   /CIm  [0.00 1.00 0.00 0.00]  /CIy    [0.00 0.00 1.00 0.00]
   /CIo  [1.00 0.78 0.00]       /CIp    [1.00 0.67 0.67]
   /CIw  [1   ]                 /CIgrl  [0.75]
   /CIgr [0.50]                 /CIgrd  [0.25]
   /CIk  [0   ]
>> def

/printColorMap
<< /Cr   [1.00 0.33 0.33]       /Cg     [0.33 1.00 0.33]
   /Cb   [0.33 0.33 1.00]       /Cc     [1.00 0.00 0.00 0.00]
   /Cm   [0.00 1.00 0.00 0.00]  /Cy     [0.00 0.00 1.00 0.00]
   /Co   [1.00 0.78 0.00]       /Cp     [1.00 0.67 0.67]
   /Cw   [1   ]                 /Cgrl   [0.75]
   /Cgr  [0.50]                 /Cgrd   [0.25]
   /Ck   [0   ]
   /CGr  [1.00 0.33 0.33]       /CGg    [0.33 1.00 0.33]
   /CGb  [0.33 0.33 1.00]       /CGc    [1.00 0.00 0.00 0.00]
   /CGm  [0.00 1.00 0.00 0.00]  /CGy    [0.00 0.00 1.00 0.00]
   /CGo  [1.00 0.78 0.00]       /CGp    [1.00 0.67 0.67]
   /CGw  [1   ]                 /CGgrl  [0.75]
   /CGgr [0.50]                 /CGgrd  [0.25]
   /CGk  [0   ]
   /CIr  [1.00 0.33 0.33]       /CIg    [0.33 1.00 0.33]
   /CIb  [0.33 0.33 1.00]       /CIc    [1.00 0.00 0.00 0.00]
   /CIm  [0.00 1.00 0.00 0.00]  /CIy    [0.00 0.00 1.00 0.00]
   /CIo  [1.00 0.78 0.00]       /CIp    [1.00 0.67 0.67]
   /CIw  [1   ]                 /CIgrl  [0.75]
   /CIgr [0.50]                 /CIgrd  [0.25]
   /CIk  [0   ]
>> def

/grayColorMap
<< /Cr   [0   ]                 /Cg     [0   ]
   /Cb   [0   ]                 /Cc     [0   ]
   /Cm   [0   ]                 /Cy     [0   ]
   /Co   [0   ]                 /Cp     [0   ]
   /Cw   [0   ]                 /Cgrl   [0   ]
   /Cgr  [0   ]                 /Cgrd   [0   ]
   /Ck   [0   ]
   /CGr  [0.75]                 /CGg    [1   ]
   /CGb  [0.50]                 /CGc    [0.75]
   /CGm  [0.50]                 /CGy    [1   ]
   /CGo  [0.75]                 /CGp    [1   ]
   /CGw  [0   ]                 /CGgrl  [0.25]
   /CGgr [0.50]                 /CGgrd  [0.75]
   /CGk  [1   ]
   /CIr  [1   ]                 /CIg    [1   ]
   /CIb  [1   ]                 /CIc    [1   ]
   /CIm  [1   ]                 /CIy    [1   ]
   /CIo  [1   ]                 /CIp    [1   ]
   /CIw  [1   ]                 /CIgrl  [1   ]
   /CIgr [1   ]                 /CIgrd  [1   ]
   /CIk  [1   ]
>> def

/bwColorMap
<< /Cr   [0   ]                 /Cg     [0   ]
   /Cb   [0   ]                 /Cc     [0   ]
   /Cm   [0   ]                 /Cy     [0   ]
   /Co   [0   ]                 /Cp     [0   ]
   /Cw   [0   ]                 /Cgrl   [0   ]
   /Cgr  [0   ]                 /Cgrd   [0   ]
   /Ck   [0   ]
   /CGr  [1   ]                 /CGg    [1   ]
   /CGb  [1   ]                 /CGc    [1   ]
   /CGm  [1   ]                 /CGy    [1   ]
   /CGo  [1   ]                 /CGp    [1   ]
   /CGw  [0   ]                 /CGgrl  [1   ]
   /CGgr [1   ]                 /CGgrd  [1   ]
   /CGk  [1   ]
   /CIr  [1   ]                 /CIg    [1   ]
   /CIb  [1   ]                 /CIc    [1   ]
   /CIm  [1   ]                 /CIy    [1   ]
   /CIo  [1   ]                 /CIp    [1   ]
   /CIw  [1   ]                 /CIgrl  [1   ]
   /CIgr [1   ]                 /CIgrd  [1   ]
   /CIk  [1   ]
>> def

%
% The following routines handle the alignment of and printing of
% tagged strings.
%

% Predefine the bounding box values.
/bbllx 0 def /bblly 0 def /bburx 0 def /bbury 0 def

% This routine pops the first unicode character off of a string and returns
% the remainder of the string, the character code of first character,
% and a "true" if the string was non-zero length.
% <string>      popfirst <remaining string> <true>
% <null string> popfirst <false>
/popfirst {
  dup length 1 gt
    {dup 0 get /vg&fbyte exch def
     dup 1 get /vg&cbyte exch def
     dup length 2 sub 2 exch getinterval true}
    {pop false} ifelse
} def

% This routine shows a single unicode character given the font and
% character codes.
% <font code> <char code> unicharshow --
/unicharshow {
  2 string
  dup 0 5 -1 roll put
  dup 1 4 -1 roll put
  internalshow
} def

% This is an internal routine to alternate between determining the
% bounding box for stringsize and showing the string for recshow.
% <string> internalshow --
/internalshow {show} def

% This is an internal routine to alternate between determining the
% bounding box for stringsize and stroking various ornaments.
% <string> internalstroke --
/internalstroke {S} def

% Sets up internalshow to use the null device to determine string size.
% -- nullinternalshow --
/nullinternalshow {/internalshow {false charpath flattenpath
                                  pathbbox updatebbox} def} def

% Sets up internalstroke to use the null device to determine string size.
% -- nullinternalstroke --
/nullinternalstroke {
 /internalstroke {flattenpath pathbbox updatebbox} def} def

% This routine tests to see if the character code matches the first
% character of a string.
% <char code> <string> testchar <char code> <true or false>
/testchar {exch dup 3 -1 roll 0 get eq} def

% Raise the text baseline for superscripts.
% -- raise --
/raise {
  0 fontsize 2 div rmoveto
  /fontsize fontsize 2 mul 3 div def
  currentfont /FontName get fontsize sf
} def

% Un-raise the text baseline for superscripts.
% -- unraise --
/unraise {
  /fontsize fontsize 1.5 mul def
  0 fontsize 2 div neg rmoveto
} def

% Lower the text baseline for subscripts.
% -- lower --
/lower {
  0 fontsize 3 div neg rmoveto
  /fontsize fontsize 2 mul 3 div def
  currentfont /FontName get fontsize sf
} def

% Un-lower the text baseline for subscripts.
% -- unlower --
/unlower {
  /fontsize fontsize 1.5 mul def
  0 fontsize 3 div rmoveto
} def

% Compare the top two elements on the stack and leave only the
% larger one.
/maxval {2 copy gt {pop} {exch pop} ifelse} def

% Tokenize a string.  Do not use the usual PostScript token because
% parentheses will not be interpreted correctly because of rescanning
% of the string.
/vg&token {/vg&string exch def /vg&index -1 def /vg&level 0 def
0 2 vg&string length 2 sub {
  dup dup 1 add exch vg&string exch get 8 bitshift vg&string 3 -1 roll get or
  dup 16#f0fe eq {pop 1}{16#f0ff eq {-1}{0} ifelse} ifelse
  /vg&level exch vg&level add def
  vg&level 0 eq {/vg&index exch def exit} if pop
} for
vg&index 0 ge {
  vg&string vg&index 2 add dup vg&string length exch sub getinterval
  vg&index 2 gt {vg&string 2 vg&index 2 sub getinterval}{()} ifelse
  true}
{false} ifelse
} bind def

% Recursively show an unicode string.
% <string> recshow --
/recshow {
  popfirst
  {
    % Test to see if this is a string attribute.
    vg&fbyte 16#f0 and 16#e0 eq
    {
      q

      % Font style.
      currentfont dup /FontStyleBits known {/FontStyleBits get}{pop 0} ifelse
      vg&cbyte or vg&fontstyles exch get fontsize exch exec

      vg&token pop recshow currentpoint Q m recshow
    }
    {
      vg&fbyte 16#F8 and 16#F0 eq {

        % Superscript and/or subscript.
        vg&cbyte 16#00 eq {
          vg&token pop exch vg&token pop 3 -1 roll
          q raise recshow unraise currentpoint pop Q exch
          q lower recshow unlower currentpoint pop Q
          maxval currentpoint exch pop m recshow } if

        % Strikeout.
        vg&cbyte 16#01 eq {
          vg&token pop currentpoint 3 -1 roll recshow
          q 0 J vg&underline vg&uthick w
          currentpoint 4 -2 roll fontsize 3 div add moveto
          fontsize 3 div add lineto internalstroke Q
          recshow} if

        % Underline.
        vg&cbyte 16#02 eq {
          vg&token pop currentpoint 3 -1 roll recshow
          q 0 J vg&underline vg&uthick w
          currentpoint 4 -2 roll vg&uoffset add moveto
          vg&uoffset add lineto internalstroke Q
          recshow} if

        % Dashed underline.
        vg&cbyte 16#03 eq {
          vg&token pop currentpoint 3 -1 roll recshow
          q 0 J [ vg&uthick 5 mul vg&uthick 2 mul] 0 d
          vg&underline vg&uthick w
          currentpoint 4 -2 roll vg&uoffset add moveto
          vg&uoffset add lineto internalstroke Q
          recshow} if

        % Dotted underline.
        vg&cbyte 16#04 eq {
          vg&token pop currentpoint 3 -1 roll recshow
          q 1 J [ 0 vg&uthick 3 mul] 0 d
          vg&underline vg&uthick w
          currentpoint 4 -2 roll vg&uoffset add moveto
          vg&uoffset add lineto internalstroke Q
          recshow} if

        % Thick underline.
        vg&cbyte 16#05 eq {
          vg&token pop currentpoint 3 -1 roll recshow
          q 0 J vg&underline vg&uthick 2 mul w
          currentpoint 4 -2 roll vg&uoffset vg&uthick 2 div sub add moveto
          vg&uoffset vg&uthick 2 div sub add lineto internalstroke Q
          recshow} if

        % Gray thick underline.
        vg&cbyte 16#06 eq {
          vg&token pop currentpoint 3 -1 roll recshow
          q 0 J vg&underline vg&uthick 2 mul w 0.5 setgray
          currentpoint 4 -2 roll vg&uoffset vg&uthick 2 div sub add moveto
          vg&uoffset vg&uthick 2 div sub add lineto internalstroke Q
          recshow} if

        % Overbar.
        vg&cbyte 16#07 eq {
          vg&token pop dup stringsize relative 4 1 roll pop pop exch
          3 -1 roll recshow
          q 0 J vg&underline vg&uthick w
          vg&uoffset neg add dup currentpoint pop exch m l internalstroke Q
          recshow} if
      }
      {
        vg&fbyte vg&cbyte unicharshow recshow
      } ifelse
    } ifelse
  } if
} def

% Get the underline position and thickness from the current font.
/vg&underline {

currentfont dup /FontType get 0 eq {/FDepVector get 0 get} if
dup dup /FontInfo known {
  /FontInfo get dup
  dup /UnderlinePosition known {
    /UnderlinePosition get /vg&uoffset exch def
  }
  {
    pop /vg&uoffset 0 def
  } ifelse
  dup /UnderlineThickness known {
    /UnderlineThickness get /vg&uthick exch def
  }
  {
    pop /vg&uthick 0 def
  } ifelse
}
{
  pop /vg&uoffset 0 def /vg&uthick 0 def
} ifelse
/FontMatrix get
currentfont dup /FontType get 0 eq
{/FontMatrix get matrix concatmatrix}{pop} ifelse
dup 0 vg&uoffset 3 -1 roll transform /vg&uoffset exch def pop
0 vg&uthick 3 -1 roll transform /vg&uthick exch def pop
} def

% Make a frame with the coordinates on the stack.
% <llx> <lly> <urx> <ury> frame --
/frame {4 copy m 3 1 roll exch l 4 -2 roll l l h} def

% Resets the accumulated bounding box to a degenerate box at the
% current point.
% -- resetbbox --
/resetbbox {
  currentpoint 2 copy
  /bbury exch def
  /bburx exch def
  /bblly exch def
  /bbllx exch def
} def

% Update the accumulated bounding box.
% <llx'> <lly'> <urx'> <ury'> updatebbox --
/updatebbox {
  dup bbury gt {/bbury exch def} {pop} ifelse
  dup bburx gt {/bburx exch def} {pop} ifelse
  dup bblly lt {/bblly exch def} {pop} ifelse
  dup bbllx lt {/bbllx exch def} {pop} ifelse
} def

% Set the bounding box to the values on the stack.
% <llx'> <lly'> <urx'> <ury'> updatebbox --
/restorebbox {
  /bbury exch def /bburx exch def /bblly exch def /bbllx exch def
} def

% Push the accumulated bounding box onto the stack.
% -- pushbbox <llx> <lly> <urx> <ury>
/pushbbox {bbllx bblly bburx bbury} def

% Make the relative bounding box relative to the currentpoint.
% <llx'> <lly'> <urx'> <ury'> inflate <llx> <lly> <urx> <ury>
/inflate {
  2 {fontsize 0.2 mul add 4 1 roll} repeat
  2 {fontsize 0.2 mul sub 4 1 roll} repeat
} def

% Make the relative bounding box relative to the currentpoint.
% <llx'> <lly'> <urx'> <ury'> relative <llx> <lly> <urx> <ury>
/relative {
  currentpoint 3 -1 roll add 3 1 roll add exch 4 2 roll
  currentpoint 3 -1 roll add 3 1 roll add exch 4 2 roll
} def

% Returns the size of a string appropriate for recshow.
% <string> stringsize <llx> <lly> <urx> <ury>
/stringsize {
  pushbbox /internalshow load /internalstroke load 7 -1 roll
  q
  nulldevice 0 0 m
  nullinternalshow nullinternalstroke
  resetbbox
  recshow
  /internalstroke exch def /internalshow exch def
  pushbbox 8 -4 roll restorebbox
  Q
} def

% Calculate values for string positioning.
/calcval {4 copy
  3 -1 roll sub /widy exch def sub neg /widx exch def
  pop pop /dy exch def /dx exch def} def

% Utilities to position a string.
% First letter (U=upper, C=center, B=baseline, L=lower)
% Second letter (L=left, C=center, R=right)
/align [
{calcval dx neg widy dy add neg rmoveto} % UL
{calcval dx neg widy 2 div dy add neg rmoveto} % CL
{calcval dx neg 0 rmoveto} % BL
{calcval dx neg dy neg rmoveto} % LL
{calcval widx dx add neg widy dy add neg rmoveto} % UR
{calcval widx dx add neg widy 2 div dy add neg rmoveto} % CR
{calcval widx dx add neg 0 rmoveto} % BR
{calcval widx dx add neg dy neg rmoveto} % LR
{calcval widx 2 div dx add neg widy dy add neg rmoveto} % UC
{calcval widx 2 div dx add neg widy 2 div dy add neg rmoveto} % CC
{calcval widx 2 div dx add neg 0 rmoveto} % BC
{calcval widx 2 div dx add neg dy neg rmoveto} % LC
] def

/vg&str {m q 1 -1 scale dup stringsize 4 copy align 11 -1 roll get exec
         q inflate relative frame exch exec Q recshow Q} def

end /procDict exch def
%%EndProlog

%%BeginSetup
save
procDict begin
printColorMap begin
730 271 setpagesize
0 0 0 0 setmargins
0 0 setorigin
730 271 setsize
naturalsize
portrait
imagescale
cliptobounds
setbasematrix
/Helvetica 10 sf
defaultGraphicsState
%%EndSetup

0.00000 0.00000 0.00000 RG
[ 1.00000 0.00000 0.00000 1.00000 0.00000 0.00000 ] defaultmatrix matrix concatmatrix setmatrix
cliprestore
1.00000 1.00000 1.00000 RG
newpath
0.00000 0.00000 m
730.000 0.00000 l
730.000 271.000 l
0.00000 271.000 l
0.00000 0.00000 l
h
f
0.00000 0.00000 0.00000 RG
0.00000 0.00000 0.00000 RG
[ 1.00000 0.00000 0.00000 1.00000 0.00000 0.00000 ] defaultmatrix matrix concatmatrix setmatrix
cliprestore
1.00000 1.00000 1.00000 RG
newpath
0.00000 0.00000 m
730.000 0.00000 l
730.000 271.000 l
0.00000 271.000 l
0.00000 0.00000 l
h
f
0.00000 0.00000 0.00000 RG
0 0 730 271 rc
q
[ 1.00000 0.00000 0.00000 1.00000 0.00000 0.00000 ] concat
[ 1.00000 0.00000 0.00000 1.00000 -213.000 -202.000 ] concat
1.00000 1.00000 1.00000 RG
newpath
213.000 202.000 m
943.000 202.000 l
943.000 473.000 l
213.000 473.000 l
213.000 202.000 l
h
f
0.00000 0.00000 0.00000 RG
[ 1.00000 0.00000 0.00000 1.00000 -213.000 -202.000 ] defaultmatrix matrix concatmatrix setmatrix
[ 1.00000 0.00000 0.00000 1.00000 -213.000 -202.000 ] defaultmatrix matrix concatmatrix setmatrix
[ 1.00000 0.00000 0.00000 1.00000 0.00000 0.00000 ] defaultmatrix matrix concatmatrix setmatrix
[ 1.00000 0.00000 0.00000 1.00000 -213.000 -202.000 ] defaultmatrix matrix concatmatrix setmatrix
1.00000 .800000 0.00000 RG
newpath
228.000 217.000 m
327.000 217.000 l
327.000 247.000 l
228.000 247.000 l
228.000 217.000 l
h
f
0 J
1.45000 M
0.00000 0.00000 0.00000 RG
newpath
228.000 217.000 m
327.000 217.000 l
327.000 247.000 l
228.000 247.000 l
228.000 217.000 l
h
S
2 J
10.0000 M
0 J
1.45000 M
newpath
233.892 236.535 m
233.892 227.863 l
236.253 227.863 l
237.300 227.863 238.052 228.040 238.509 228.394  c
238.966 228.747 239.194 229.328 239.194 230.137  c
239.194 231.059 238.882 231.781 238.257 232.305  c
237.632 232.828 236.765 233.090 235.655 233.090  c
235.110 233.090 l
235.110 236.535 l
h
235.110 232.158 m
235.608 232.158 l
236.339 232.158 236.903 231.990 237.302 231.654  c
237.700 231.318 237.899 230.844 237.899 230.230  c
237.899 229.711 237.743 229.340 237.431 229.117  c
237.118 228.895 236.597 228.783 235.866 228.783  c
235.110 228.783 l
h
243.050 236.682 m
242.140 236.682 241.413 236.380 240.870 235.776  c
240.327 235.173 240.056 234.365 240.056 233.354  c
240.056 232.330 240.328 231.521 240.873 230.925  c
241.418 230.329 242.157 230.031 243.091 230.031  c
244.024 230.031 244.764 230.329 245.309 230.925  c
245.854 231.521 246.126 232.326 246.126 233.342  c
246.126 234.381 245.853 235.197 245.306 235.791  c
244.759 236.385 244.007 236.682 243.050 236.682  c
h
243.067 235.814 m
244.290 235.814 244.901 234.990 244.901 233.342  c
244.901 231.713 244.298 230.898 243.091 230.898  c
241.888 230.898 241.286 231.717 241.286 233.354  c
241.286 234.994 241.880 235.814 243.067 235.814  c
h
247.931 236.535 m
247.931 227.283 l
249.085 227.283 l
249.085 236.535 l
h
251.399 236.535 m
251.399 230.172 l
252.554 230.172 l
252.554 236.535 l
h
251.399 229.018 m
251.399 227.863 l
252.554 227.863 l
252.554 229.018 l
h
257.353 236.682 m
256.493 236.682 255.780 236.363 255.214 235.727  c
254.647 235.090 254.364 234.287 254.364 233.318  c
254.364 232.283 254.645 231.477 255.205 230.898  c
255.766 230.320 256.548 230.031 257.552 230.031  c
258.048 230.031 258.603 230.100 259.216 230.236  c
259.216 231.203 l
258.563 231.012 258.032 230.916 257.622 230.916  c
257.032 230.916 256.559 231.138 256.201 231.581  c
255.844 232.024 255.665 232.615 255.665 233.354  c
255.665 234.068 255.849 234.646 256.216 235.088  c
256.583 235.529 257.063 235.750 257.657 235.750  c
258.185 235.750 258.728 235.615 259.286 235.346  c
259.286 236.342 l
258.540 236.568 257.896 236.682 257.353 236.682  c
h
261.384 238.850 m
262.415 236.535 l
259.954 230.172 l
261.202 230.172 l
263.024 234.965 l
264.970 230.172 l
266.060 230.172 l
262.585 238.850 l
h
271.040 236.535 m
271.040 227.863 l
272.271 227.863 l
272.271 236.535 l
h
274.538 236.535 m
274.538 230.172 l
275.692 230.172 l
275.692 231.367 l
276.302 230.477 277.048 230.031 277.931 230.031  c
278.481 230.031 278.921 230.206 279.249 230.556  c
279.577 230.905 279.741 231.375 279.741 231.965  c
279.741 236.535 l
278.587 236.535 l
278.587 232.340 l
278.587 231.867 278.518 231.530 278.379 231.329  c
278.240 231.128 278.011 231.027 277.690 231.027  c
276.983 231.027 276.317 231.490 275.692 232.416  c
275.692 236.535 l
h
283.896 236.682 m
283.310 236.682 282.853 236.514 282.524 236.178  c
282.196 235.842 282.032 235.375 282.032 234.777  c
282.032 231.039 l
281.235 231.039 l
281.235 230.172 l
282.032 230.172 l
282.032 229.018 l
283.187 228.906 l
283.187 230.172 l
284.851 230.172 l
284.851 231.039 l
283.187 231.039 l
283.187 234.566 l
283.187 235.398 283.546 235.814 284.265 235.814  c
284.417 235.814 284.603 235.789 284.821 235.738  c
284.821 236.535 l
284.466 236.633 284.157 236.682 283.896 236.682  c
h
291.138 236.330 m
290.364 236.564 289.702 236.682 289.151 236.682  c
288.214 236.682 287.449 236.370 286.857 235.747  c
286.266 235.124 285.970 234.316 285.970 233.324  c
285.970 232.359 286.230 231.568 286.752 230.951  c
287.273 230.334 287.940 230.025 288.753 230.025  c
289.522 230.025 290.117 230.299 290.537 230.846  c
290.957 231.393 291.167 232.170 291.167 233.178  c
291.161 233.535 l
287.147 233.535 l
287.315 235.047 288.056 235.803 289.368 235.803  c
289.849 235.803 290.438 235.674 291.138 235.416  c
h
287.200 232.668 m
290.007 232.668 l
290.007 231.484 289.565 230.893 288.683 230.893  c
287.796 230.893 287.302 231.484 287.200 232.668  c
h
293.159 236.535 m
293.159 230.172 l
294.313 230.172 l
294.313 231.367 l
294.923 230.477 295.669 230.031 296.552 230.031  c
297.103 230.031 297.542 230.206 297.870 230.556  c
298.198 230.905 298.362 231.375 298.362 231.965  c
298.362 236.535 l
297.208 236.535 l
297.208 232.340 l
297.208 231.867 297.139 231.530 297.000 231.329  c
296.861 231.128 296.632 231.027 296.312 231.027  c
295.604 231.027 294.938 231.490 294.313 232.416  c
294.313 236.535 l
h
302.517 236.682 m
301.931 236.682 301.474 236.514 301.146 236.178  c
300.817 235.842 300.653 235.375 300.653 234.777  c
300.653 231.039 l
299.856 231.039 l
299.856 230.172 l
300.653 230.172 l
300.653 229.018 l
301.808 228.906 l
301.808 230.172 l
303.472 230.172 l
303.472 231.039 l
301.808 231.039 l
301.808 234.566 l
301.808 235.398 302.167 235.814 302.886 235.814  c
303.038 235.814 303.224 235.789 303.442 235.738  c
303.442 236.535 l
303.087 236.633 302.778 236.682 302.517 236.682  c
h
305.095 236.535 m
305.095 230.172 l
306.249 230.172 l
306.249 236.535 l
h
305.095 229.018 m
305.095 227.863 l
306.249 227.863 l
306.249 229.018 l
h
311.054 236.682 m
310.144 236.682 309.417 236.380 308.874 235.776  c
308.331 235.173 308.060 234.365 308.060 233.354  c
308.060 232.330 308.332 231.521 308.877 230.925  c
309.422 230.329 310.161 230.031 311.095 230.031  c
312.028 230.031 312.768 230.329 313.312 230.925  c
313.857 231.521 314.130 232.326 314.130 233.342  c
314.130 234.381 313.856 235.197 313.310 235.791  c
312.763 236.385 312.011 236.682 311.054 236.682  c
h
311.071 235.814 m
312.294 235.814 312.905 234.990 312.905 233.342  c
312.905 231.713 312.302 230.898 311.095 230.898  c
309.892 230.898 309.290 231.717 309.290 233.354  c
309.290 234.994 309.884 235.814 311.071 235.814  c
h
315.935 236.535 m
315.935 230.172 l
317.089 230.172 l
317.089 231.367 l
317.698 230.477 318.444 230.031 319.327 230.031  c
319.878 230.031 320.317 230.206 320.646 230.556  c
320.974 230.905 321.138 231.375 321.138 231.965  c
321.138 236.535 l
319.983 236.535 l
319.983 232.340 l
319.983 231.867 319.914 231.530 319.775 231.329  c
319.637 231.128 319.407 231.027 319.087 231.027  c
318.380 231.027 317.714 231.490 317.089 232.416  c
317.089 236.535 l
h
f
2 J
10.0000 M
1.00000 .800000 0.00000 RG
newpath
228.000 352.000 m
327.000 352.000 l
327.000 382.000 l
228.000 382.000 l
228.000 352.000 l
h
f
0 J
1.45000 M
0.00000 0.00000 0.00000 RG
newpath
228.000 352.000 m
327.000 352.000 l
327.000 382.000 l
228.000 382.000 l
228.000 352.000 l
h
S
2 J
10.0000 M
0 J
1.45000 M
newpath
233.130 371.535 m
233.130 362.863 l
234.337 362.863 l
238.702 369.561 l
238.702 362.863 l
239.757 362.863 l
239.757 371.535 l
238.556 371.535 l
234.185 364.838 l
234.185 371.535 l
h
246.694 371.330 m
245.921 371.564 245.259 371.682 244.708 371.682  c
243.771 371.682 243.006 371.370 242.414 370.747  c
241.822 370.124 241.526 369.316 241.526 368.324  c
241.526 367.359 241.787 366.568 242.309 365.951  c
242.830 365.334 243.497 365.025 244.310 365.025  c
245.079 365.025 245.674 365.299 246.094 365.846  c
246.514 366.393 246.724 367.170 246.724 368.178  c
246.718 368.535 l
242.704 368.535 l
242.872 370.047 243.612 370.803 244.925 370.803  c
245.405 370.803 245.995 370.674 246.694 370.416  c
h
242.757 367.668 m
245.563 367.668 l
245.563 366.484 245.122 365.893 244.239 365.893  c
243.353 365.893 242.858 366.484 242.757 367.668  c
h
250.626 371.682 m
250.040 371.682 249.583 371.514 249.255 371.178  c
248.927 370.842 248.763 370.375 248.763 369.777  c
248.763 366.039 l
247.966 366.039 l
247.966 365.172 l
248.763 365.172 l
248.763 364.018 l
249.917 363.906 l
249.917 365.172 l
251.581 365.172 l
251.581 366.039 l
249.917 366.039 l
249.917 369.566 l
249.917 370.398 250.276 370.814 250.995 370.814  c
251.147 370.814 251.333 370.789 251.552 370.738  c
251.552 371.535 l
251.196 371.633 250.888 371.682 250.626 371.682  c
h
253.942 371.535 m
252.120 365.172 l
253.251 365.172 l
254.646 370.100 l
256.151 365.172 l
257.306 365.172 l
258.624 370.100 l
260.224 365.172 l
261.214 365.172 l
259.140 371.535 l
257.979 371.535 l
256.632 366.607 l
255.108 371.535 l
h
264.940 371.682 m
264.030 371.682 263.304 371.380 262.761 370.776  c
262.218 370.173 261.946 369.365 261.946 368.354  c
261.946 367.330 262.219 366.521 262.764 365.925  c
263.309 365.329 264.048 365.031 264.981 365.031  c
265.915 365.031 266.654 365.329 267.199 365.925  c
267.744 366.521 268.017 367.326 268.017 368.342  c
268.017 369.381 267.743 370.197 267.196 370.791  c
266.649 371.385 265.897 371.682 264.940 371.682  c
h
264.958 370.814 m
266.181 370.814 266.792 369.990 266.792 368.342  c
266.792 366.713 266.188 365.898 264.981 365.898  c
263.778 365.898 263.177 366.717 263.177 368.354  c
263.177 369.994 263.771 370.814 264.958 370.814  c
h
269.821 371.535 m
269.821 365.172 l
270.976 365.172 l
270.976 366.367 l
271.433 365.477 272.097 365.031 272.968 365.031  c
273.085 365.031 273.208 365.041 273.337 365.061  c
273.337 366.139 l
273.138 366.072 272.962 366.039 272.810 366.039  c
272.079 366.039 271.468 366.473 270.976 367.340  c
270.976 371.535 l
h
274.731 371.535 m
274.731 362.283 l
275.886 362.283 l
275.886 368.260 l
278.581 365.172 l
279.823 365.172 l
277.251 368.143 l
280.356 371.535 l
278.880 371.535 l
275.886 368.271 l
275.886 371.535 l
h
285.507 371.535 m
285.507 362.863 l
286.737 362.863 l
286.737 370.615 l
290.640 370.615 l
290.640 371.535 l
h
295.222 370.727 m
294.530 371.363 293.864 371.682 293.224 371.682  c
292.696 371.682 292.259 371.517 291.911 371.187  c
291.563 370.856 291.390 370.439 291.390 369.936  c
291.390 369.240 291.682 368.706 292.266 368.333  c
292.850 367.960 293.687 367.773 294.776 367.773  c
295.052 367.773 l
295.052 367.006 l
295.052 366.268 294.673 365.898 293.915 365.898  c
293.306 365.898 292.647 366.086 291.940 366.461  c
291.940 365.506 l
292.718 365.189 293.446 365.031 294.126 365.031  c
294.837 365.031 295.361 365.191 295.699 365.512  c
296.037 365.832 296.206 366.330 296.206 367.006  c
296.206 369.889 l
296.206 370.549 296.409 370.879 296.815 370.879  c
296.866 370.879 296.940 370.871 297.038 370.855  c
297.120 371.494 l
296.858 371.619 296.569 371.682 296.253 371.682  c
295.714 371.682 295.370 371.363 295.222 370.727  c
h
295.052 370.100 m
295.052 368.453 l
294.665 368.441 l
294.032 368.441 293.521 368.562 293.130 368.802  c
292.739 369.042 292.544 369.357 292.544 369.748  c
292.544 370.025 292.642 370.260 292.837 370.451  c
293.032 370.643 293.271 370.738 293.552 370.738  c
294.032 370.738 294.532 370.525 295.052 370.100  c
h
298.937 373.850 m
299.968 371.535 l
297.507 365.172 l
298.755 365.172 l
300.577 369.965 l
302.522 365.172 l
303.612 365.172 l
300.138 373.850 l
h
307.327 371.682 m
306.417 371.682 305.690 371.380 305.147 370.776  c
304.604 370.173 304.333 369.365 304.333 368.354  c
304.333 367.330 304.605 366.521 305.150 365.925  c
305.695 365.329 306.435 365.031 307.368 365.031  c
308.302 365.031 309.041 365.329 309.586 365.925  c
310.131 366.521 310.403 367.326 310.403 368.342  c
310.403 369.381 310.130 370.197 309.583 370.791  c
309.036 371.385 308.284 371.682 307.327 371.682  c
h
307.345 370.814 m
308.567 370.814 309.179 369.990 309.179 368.342  c
309.179 366.713 308.575 365.898 307.368 365.898  c
306.165 365.898 305.563 366.717 305.563 368.354  c
305.563 369.994 306.157 370.814 307.345 370.814  c
h
316.187 371.535 m
316.187 370.340 l
315.573 371.234 314.829 371.682 313.954 371.682  c
313.399 371.682 312.958 371.507 312.630 371.157  c
312.302 370.808 312.138 370.336 312.138 369.742  c
312.138 365.172 l
313.292 365.172 l
313.292 369.367 l
313.292 369.844 313.361 370.183 313.500 370.384  c
313.639 370.585 313.870 370.686 314.194 370.686  c
314.897 370.686 315.562 370.223 316.187 369.297  c
316.187 365.172 l
317.341 365.172 l
317.341 371.535 l
h
321.565 371.682 m
320.979 371.682 320.522 371.514 320.194 371.178  c
319.866 370.842 319.702 370.375 319.702 369.777  c
319.702 366.039 l
318.905 366.039 l
318.905 365.172 l
319.702 365.172 l
319.702 364.018 l
320.856 363.906 l
320.856 365.172 l
322.521 365.172 l
322.521 366.039 l
320.856 366.039 l
320.856 369.566 l
320.856 370.398 321.216 370.814 321.935 370.814  c
322.087 370.814 322.272 370.789 322.491 370.738  c
322.491 371.535 l
322.136 371.633 321.827 371.682 321.565 371.682  c
h
f
2 J
10.0000 M
1.00000 .800000 0.00000 RG
newpath
580.000 284.500 m
679.000 284.500 l
679.000 314.500 l
580.000 314.500 l
580.000 284.500 l
h
f
0 J
1.45000 M
0.00000 0.00000 0.00000 RG
newpath
580.000 284.500 m
679.000 284.500 l
679.000 314.500 l
580.000 314.500 l
580.000 284.500 l
h
S
2 J
10.0000 M
0 J
1.45000 M
newpath
612.156 304.035 m
612.156 295.363 l
613.363 295.363 l
617.729 302.061 l
617.729 295.363 l
618.783 295.363 l
618.783 304.035 l
617.582 304.035 l
613.211 297.338 l
613.211 304.035 l
h
625.721 303.830 m
624.947 304.064 624.285 304.182 623.734 304.182  c
622.797 304.182 622.032 303.870 621.440 303.247  c
620.849 302.624 620.553 301.816 620.553 300.824  c
620.553 299.859 620.813 299.068 621.335 298.451  c
621.856 297.834 622.523 297.525 623.336 297.525  c
624.105 297.525 624.700 297.799 625.120 298.346  c
625.540 298.893 625.750 299.670 625.750 300.678  c
625.744 301.035 l
621.730 301.035 l
621.898 302.547 622.639 303.303 623.951 303.303  c
624.432 303.303 625.021 303.174 625.721 302.916  c
h
621.783 300.168 m
624.590 300.168 l
624.590 298.984 624.148 298.393 623.266 298.393  c
622.379 298.393 621.885 298.984 621.783 300.168  c
h
627.707 304.035 m
627.707 295.363 l
630.068 295.363 l
631.115 295.363 631.867 295.540 632.324 295.894  c
632.781 296.247 633.010 296.828 633.010 297.637  c
633.010 298.559 632.697 299.281 632.072 299.805  c
631.447 300.328 630.580 300.590 629.471 300.590  c
628.926 300.590 l
628.926 304.035 l
h
628.926 299.658 m
629.424 299.658 l
630.154 299.658 630.719 299.490 631.117 299.154  c
631.516 298.818 631.715 298.344 631.715 297.730  c
631.715 297.211 631.559 296.840 631.246 296.617  c
630.934 296.395 630.412 296.283 629.682 296.283  c
628.926 296.283 l
h
638.734 300.719 m
637.258 296.980 l
635.775 300.719 l
h
640.035 304.035 m
639.092 301.633 l
635.418 301.633 l
634.463 304.035 l
633.320 304.035 l
636.760 295.363 l
637.979 295.363 l
641.365 304.035 l
h
644.318 304.252 m
643.736 304.252 642.992 304.125 642.086 303.871  c
642.086 302.652 l
643.062 303.105 643.865 303.332 644.494 303.332  c
644.979 303.332 645.368 303.205 645.663 302.951  c
645.958 302.697 646.105 302.363 646.105 301.949  c
646.105 301.609 646.009 301.320 645.815 301.082  c
645.622 300.844 645.266 300.578 644.746 300.285  c
644.148 299.939 l
643.410 299.518 642.890 299.120 642.587 298.747  c
642.284 298.374 642.133 297.939 642.133 297.443  c
642.133 296.775 642.375 296.226 642.859 295.794  c
643.344 295.362 643.961 295.146 644.711 295.146  c
645.379 295.146 646.084 295.258 646.826 295.480  c
646.826 296.605 l
645.912 296.246 645.230 296.066 644.781 296.066  c
644.355 296.066 644.004 296.180 643.727 296.406  c
643.449 296.633 643.311 296.918 643.311 297.262  c
643.311 297.551 643.412 297.807 643.615 298.029  c
643.818 298.252 644.189 298.518 644.729 298.826  c
645.350 299.178 l
646.100 299.604 646.623 300.006 646.920 300.385  c
647.217 300.764 647.365 301.219 647.365 301.750  c
647.365 302.504 647.087 303.109 646.530 303.566  c
645.974 304.023 645.236 304.252 644.318 304.252  c
h
f
2 J
10.0000 M
1.00000 .800000 0.00000 RG
newpath
421.000 428.000 m
550.000 428.000 l
550.000 458.000 l
421.000 458.000 l
421.000 428.000 l
h
f
0 J
1.45000 M
0.00000 0.00000 0.00000 RG
newpath
421.000 428.000 m
550.000 428.000 l
550.000 458.000 l
421.000 458.000 l
421.000 428.000 l
h
S
2 J
10.0000 M
0 J
1.45000 M
newpath
433.056 444.219 m
431.579 440.480 l
430.097 444.219 l
h
434.356 447.535 m
433.413 445.133 l
429.739 445.133 l
428.784 447.535 l
427.642 447.535 l
431.081 438.863 l
432.300 438.863 l
435.687 447.535 l
h
436.976 447.535 m
436.976 441.172 l
438.130 441.172 l
438.130 442.367 l
438.739 441.477 439.485 441.031 440.368 441.031  c
440.919 441.031 441.358 441.206 441.687 441.556  c
442.015 441.905 442.179 442.375 442.179 442.965  c
442.179 447.535 l
441.024 447.535 l
441.024 443.340 l
441.024 442.867 440.955 442.530 440.816 442.329  c
440.678 442.128 440.448 442.027 440.128 442.027  c
439.421 442.027 438.755 442.490 438.130 443.416  c
438.130 447.535 l
h
446.913 447.682 m
446.003 447.682 445.276 447.380 444.733 446.776  c
444.190 446.173 443.919 445.365 443.919 444.354  c
443.919 443.330 444.191 442.521 444.736 441.925  c
445.281 441.329 446.021 441.031 446.954 441.031  c
447.888 441.031 448.627 441.329 449.172 441.925  c
449.717 442.521 449.989 443.326 449.989 444.342  c
449.989 445.381 449.716 446.197 449.169 446.791  c
448.622 447.385 447.870 447.682 446.913 447.682  c
h
446.931 446.814 m
448.153 446.814 448.765 445.990 448.765 444.342  c
448.765 442.713 448.161 441.898 446.954 441.898  c
445.751 441.898 445.149 442.717 445.149 444.354  c
445.149 445.994 445.743 446.814 446.931 446.814  c
h
451.794 447.535 m
451.794 441.172 l
452.948 441.172 l
452.948 442.367 l
453.511 441.477 454.233 441.031 455.116 441.031  c
455.968 441.031 456.548 441.477 456.856 442.367  c
457.403 441.473 458.114 441.025 458.989 441.025  c
459.552 441.025 459.987 441.190 460.296 441.521  c
460.604 441.851 460.759 442.312 460.759 442.906  c
460.759 447.535 l
459.599 447.535 l
459.599 443.088 l
459.599 442.361 459.312 441.998 458.737 441.998  c
458.140 441.998 457.513 442.422 456.856 443.270  c
456.856 447.535 l
455.696 447.535 l
455.696 443.088 l
455.696 442.357 455.403 441.992 454.817 441.992  c
454.235 441.992 453.612 442.418 452.948 443.270  c
452.948 447.535 l
h
466.278 446.727 m
465.587 447.363 464.921 447.682 464.280 447.682  c
463.753 447.682 463.315 447.517 462.968 447.187  c
462.620 446.856 462.446 446.439 462.446 445.936  c
462.446 445.240 462.738 444.706 463.322 444.333  c
463.906 443.960 464.743 443.773 465.833 443.773  c
466.108 443.773 l
466.108 443.006 l
466.108 442.268 465.729 441.898 464.972 441.898  c
464.362 441.898 463.704 442.086 462.997 442.461  c
462.997 441.506 l
463.774 441.189 464.503 441.031 465.183 441.031  c
465.894 441.031 466.418 441.191 466.756 441.512  c
467.094 441.832 467.263 442.330 467.263 443.006  c
467.263 445.889 l
467.263 446.549 467.466 446.879 467.872 446.879  c
467.923 446.879 467.997 446.871 468.095 446.855  c
468.177 447.494 l
467.915 447.619 467.626 447.682 467.310 447.682  c
466.771 447.682 466.427 447.363 466.278 446.727  c
h
466.108 446.100 m
466.108 444.453 l
465.722 444.441 l
465.089 444.441 464.577 444.562 464.187 444.802  c
463.796 445.042 463.601 445.357 463.601 445.748  c
463.601 446.025 463.698 446.260 463.894 446.451  c
464.089 446.643 464.327 446.738 464.608 446.738  c
465.089 446.738 465.589 446.525 466.108 446.100  c
h
469.624 447.535 m
469.624 438.283 l
470.778 438.283 l
470.778 447.535 l
h
473.462 449.850 m
474.493 447.535 l
472.032 441.172 l
473.280 441.172 l
475.103 445.965 l
477.048 441.172 l
478.138 441.172 l
474.663 449.850 l
h
483.124 447.535 m
483.124 438.863 l
485.749 438.863 l
486.581 438.863 487.219 439.047 487.662 439.414  c
488.105 439.781 488.327 440.314 488.327 441.014  c
488.327 442.170 487.743 442.990 486.575 443.475  c
489.470 447.535 l
487.958 447.535 l
485.491 443.867 l
484.343 443.867 l
484.343 447.535 l
h
484.343 442.947 m
484.741 442.947 l
486.288 442.947 487.062 442.340 487.062 441.125  c
487.062 440.230 486.413 439.783 485.116 439.783  c
484.343 439.783 l
h
495.411 447.330 m
494.638 447.564 493.976 447.682 493.425 447.682  c
492.487 447.682 491.723 447.370 491.131 446.747  c
490.539 446.124 490.243 445.316 490.243 444.324  c
490.243 443.359 490.504 442.568 491.025 441.951  c
491.547 441.334 492.214 441.025 493.026 441.025  c
493.796 441.025 494.391 441.299 494.811 441.846  c
495.230 442.393 495.440 443.170 495.440 444.178  c
495.435 444.535 l
491.421 444.535 l
491.589 446.047 492.329 446.803 493.642 446.803  c
494.122 446.803 494.712 446.674 495.411 446.416  c
h
491.474 443.668 m
494.280 443.668 l
494.280 442.484 493.839 441.893 492.956 441.893  c
492.069 441.893 491.575 442.484 491.474 443.668  c
h
499.120 447.682 m
498.593 447.682 497.952 447.559 497.198 447.312  c
497.198 446.252 l
497.952 446.627 498.608 446.814 499.167 446.814  c
499.499 446.814 499.774 446.725 499.993 446.545  c
500.212 446.365 500.321 446.141 500.321 445.871  c
500.321 445.477 500.015 445.150 499.401 444.893  c
498.728 444.605 l
497.731 444.191 497.233 443.596 497.233 442.818  c
497.233 442.264 497.430 441.827 497.822 441.509  c
498.215 441.190 498.753 441.031 499.437 441.031  c
499.792 441.031 500.231 441.080 500.755 441.178  c
500.995 441.225 l
500.995 442.186 l
500.351 441.994 499.839 441.898 499.460 441.898  c
498.718 441.898 498.347 442.168 498.347 442.707  c
498.347 443.055 498.628 443.348 499.190 443.586  c
499.747 443.820 l
500.376 444.086 500.821 444.366 501.083 444.661  c
501.345 444.956 501.476 445.324 501.476 445.766  c
501.476 446.324 501.255 446.783 500.813 447.143  c
500.372 447.502 499.808 447.682 499.120 447.682  c
h
506.040 447.682 m
505.130 447.682 504.403 447.380 503.860 446.776  c
503.317 446.173 503.046 445.365 503.046 444.354  c
503.046 443.330 503.318 442.521 503.863 441.925  c
504.408 441.329 505.147 441.031 506.081 441.031  c
507.015 441.031 507.754 441.329 508.299 441.925  c
508.844 442.521 509.116 443.326 509.116 444.342  c
509.116 445.381 508.843 446.197 508.296 446.791  c
507.749 447.385 506.997 447.682 506.040 447.682  c
h
506.058 446.814 m
507.280 446.814 507.892 445.990 507.892 444.342  c
507.892 442.713 507.288 441.898 506.081 441.898  c
504.878 441.898 504.276 442.717 504.276 444.354  c
504.276 445.994 504.870 446.814 506.058 446.814  c
h
510.921 447.535 m
510.921 438.283 l
512.075 438.283 l
512.075 447.535 l
h
518.368 447.535 m
518.368 446.340 l
517.755 447.234 517.011 447.682 516.136 447.682  c
515.581 447.682 515.140 447.507 514.812 447.157  c
514.483 446.808 514.319 446.336 514.319 445.742  c
514.319 441.172 l
515.474 441.172 l
515.474 445.367 l
515.474 445.844 515.543 446.183 515.682 446.384  c
515.820 446.585 516.052 446.686 516.376 446.686  c
517.079 446.686 517.743 446.223 518.368 445.297  c
518.368 441.172 l
519.522 441.172 l
519.522 447.535 l
h
523.747 447.682 m
523.161 447.682 522.704 447.514 522.376 447.178  c
522.048 446.842 521.884 446.375 521.884 445.777  c
521.884 442.039 l
521.087 442.039 l
521.087 441.172 l
521.884 441.172 l
521.884 440.018 l
523.038 439.906 l
523.038 441.172 l
524.702 441.172 l
524.702 442.039 l
523.038 442.039 l
523.038 445.566 l
523.038 446.398 523.397 446.814 524.116 446.814  c
524.269 446.814 524.454 446.789 524.673 446.738  c
524.673 447.535 l
524.317 447.633 524.009 447.682 523.747 447.682  c
h
526.325 447.535 m
526.325 441.172 l
527.479 441.172 l
527.479 447.535 l
h
526.325 440.018 m
526.325 438.863 l
527.479 438.863 l
527.479 440.018 l
h
532.284 447.682 m
531.374 447.682 530.647 447.380 530.104 446.776  c
529.562 446.173 529.290 445.365 529.290 444.354  c
529.290 443.330 529.562 442.521 530.107 441.925  c
530.652 441.329 531.392 441.031 532.325 441.031  c
533.259 441.031 533.998 441.329 534.543 441.925  c
535.088 442.521 535.360 443.326 535.360 444.342  c
535.360 445.381 535.087 446.197 534.540 446.791  c
533.993 447.385 533.241 447.682 532.284 447.682  c
h
532.302 446.814 m
533.524 446.814 534.136 445.990 534.136 444.342  c
534.136 442.713 533.532 441.898 532.325 441.898  c
531.122 441.898 530.521 442.717 530.521 444.354  c
530.521 445.994 531.114 446.814 532.302 446.814  c
h
537.165 447.535 m
537.165 441.172 l
538.319 441.172 l
538.319 442.367 l
538.929 441.477 539.675 441.031 540.558 441.031  c
541.108 441.031 541.548 441.206 541.876 441.556  c
542.204 441.905 542.368 442.375 542.368 442.965  c
542.368 447.535 l
541.214 447.535 l
541.214 443.340 l
541.214 442.867 541.145 442.530 541.006 442.329  c
540.867 442.128 540.638 442.027 540.317 442.027  c
539.610 442.027 538.944 442.490 538.319 443.416  c
538.319 447.535 l
h
f
2 J
10.0000 M
1.00000 .800000 0.00000 RG
newpath
709.000 428.000 m
808.000 428.000 l
808.000 458.000 l
709.000 458.000 l
709.000 428.000 l
h
f
0 J
1.45000 M
0.00000 0.00000 0.00000 RG
newpath
709.000 428.000 m
808.000 428.000 l
808.000 458.000 l
709.000 458.000 l
709.000 428.000 l
h
S
2 J
10.0000 M
0 J
1.45000 M
newpath
727.949 447.752 m
726.602 447.752 725.561 447.356 724.826 446.565  c
724.092 445.774 723.725 444.654 723.725 443.205  c
723.725 441.760 724.099 440.639 724.847 439.842  c
725.595 439.045 726.648 438.646 728.008 438.646  c
728.785 438.646 729.695 438.773 730.738 439.027  c
730.738 440.182 l
729.551 439.771 728.635 439.566 727.990 439.566  c
727.049 439.566 726.320 439.885 725.805 440.521  c
725.289 441.158 725.031 442.057 725.031 443.217  c
725.031 444.322 725.307 445.194 725.857 445.833  c
726.408 446.472 727.160 446.791 728.113 446.791  c
728.934 446.791 729.812 446.539 730.750 446.035  c
730.750 447.090 l
729.895 447.531 728.961 447.752 727.949 447.752  c
h
735.062 447.682 m
734.152 447.682 733.426 447.380 732.883 446.776  c
732.340 446.173 732.068 445.365 732.068 444.354  c
732.068 443.330 732.341 442.521 732.886 441.925  c
733.431 441.329 734.170 441.031 735.104 441.031  c
736.037 441.031 736.776 441.329 737.321 441.925  c
737.866 442.521 738.139 443.326 738.139 444.342  c
738.139 445.381 737.865 446.197 737.318 446.791  c
736.771 447.385 736.020 447.682 735.062 447.682  c
h
735.080 446.814 m
736.303 446.814 736.914 445.990 736.914 444.342  c
736.914 442.713 736.311 441.898 735.104 441.898  c
733.900 441.898 733.299 442.717 733.299 444.354  c
733.299 445.994 733.893 446.814 735.080 446.814  c
h
739.943 447.535 m
739.943 441.172 l
741.098 441.172 l
741.098 442.367 l
741.660 441.477 742.383 441.031 743.266 441.031  c
744.117 441.031 744.697 441.477 745.006 442.367  c
745.553 441.473 746.264 441.025 747.139 441.025  c
747.701 441.025 748.137 441.190 748.445 441.521  c
748.754 441.851 748.908 442.312 748.908 442.906  c
748.908 447.535 l
747.748 447.535 l
747.748 443.088 l
747.748 442.361 747.461 441.998 746.887 441.998  c
746.289 441.998 745.662 442.422 745.006 443.270  c
745.006 447.535 l
743.846 447.535 l
743.846 443.088 l
743.846 442.357 743.553 441.992 742.967 441.992  c
742.385 441.992 741.762 442.418 741.098 443.270  c
741.098 447.535 l
h
751.146 449.850 m
751.146 441.172 l
752.301 441.172 l
752.301 442.367 l
752.773 441.477 753.482 441.031 754.428 441.031  c
755.193 441.031 755.796 441.311 756.235 441.869  c
756.675 442.428 756.895 443.191 756.895 444.160  c
756.895 445.215 756.646 446.065 756.147 446.712  c
755.649 447.358 754.994 447.682 754.182 447.682  c
753.428 447.682 752.801 447.393 752.301 446.814  c
752.301 449.850 l
h
752.301 446.018 m
752.895 446.549 753.461 446.814 754.000 446.814  c
755.109 446.814 755.664 445.969 755.664 444.277  c
755.664 442.785 755.172 442.039 754.188 442.039  c
753.543 442.039 752.914 442.389 752.301 443.088  c
h
758.699 447.535 m
758.699 441.172 l
759.854 441.172 l
759.854 447.535 l
h
758.699 440.018 m
758.699 438.863 l
759.854 438.863 l
759.854 440.018 l
h
762.168 447.535 m
762.168 438.283 l
763.322 438.283 l
763.322 447.535 l
h
768.918 446.727 m
768.227 447.363 767.561 447.682 766.920 447.682  c
766.393 447.682 765.955 447.517 765.607 447.187  c
765.260 446.856 765.086 446.439 765.086 445.936  c
765.086 445.240 765.378 444.706 765.962 444.333  c
766.546 443.960 767.383 443.773 768.473 443.773  c
768.748 443.773 l
768.748 443.006 l
768.748 442.268 768.369 441.898 767.611 441.898  c
767.002 441.898 766.344 442.086 765.637 442.461  c
765.637 441.506 l
766.414 441.189 767.143 441.031 767.822 441.031  c
768.533 441.031 769.058 441.191 769.396 441.512  c
769.733 441.832 769.902 442.330 769.902 443.006  c
769.902 445.889 l
769.902 446.549 770.105 446.879 770.512 446.879  c
770.562 446.879 770.637 446.871 770.734 446.855  c
770.816 447.494 l
770.555 447.619 770.266 447.682 769.949 447.682  c
769.410 447.682 769.066 447.363 768.918 446.727  c
h
768.748 446.100 m
768.748 444.453 l
768.361 444.441 l
767.729 444.441 767.217 444.562 766.826 444.802  c
766.436 445.042 766.240 445.357 766.240 445.748  c
766.240 446.025 766.338 446.260 766.533 446.451  c
766.729 446.643 766.967 446.738 767.248 446.738  c
767.729 446.738 768.229 446.525 768.748 446.100  c
h
774.174 447.682 m
773.588 447.682 773.131 447.514 772.803 447.178  c
772.475 446.842 772.311 446.375 772.311 445.777  c
772.311 442.039 l
771.514 442.039 l
771.514 441.172 l
772.311 441.172 l
772.311 440.018 l
773.465 439.906 l
773.465 441.172 l
775.129 441.172 l
775.129 442.039 l
773.465 442.039 l
773.465 445.566 l
773.465 446.398 773.824 446.814 774.543 446.814  c
774.695 446.814 774.881 446.789 775.100 446.738  c
775.100 447.535 l
774.744 447.633 774.436 447.682 774.174 447.682  c
h
776.752 447.535 m
776.752 441.172 l
777.906 441.172 l
777.906 447.535 l
h
776.752 440.018 m
776.752 438.863 l
777.906 438.863 l
777.906 440.018 l
h
782.711 447.682 m
781.801 447.682 781.074 447.380 780.531 446.776  c
779.988 446.173 779.717 445.365 779.717 444.354  c
779.717 443.330 779.989 442.521 780.534 441.925  c
781.079 441.329 781.818 441.031 782.752 441.031  c
783.686 441.031 784.425 441.329 784.970 441.925  c
785.515 442.521 785.787 443.326 785.787 444.342  c
785.787 445.381 785.514 446.197 784.967 446.791  c
784.420 447.385 783.668 447.682 782.711 447.682  c
h
782.729 446.814 m
783.951 446.814 784.562 445.990 784.562 444.342  c
784.562 442.713 783.959 441.898 782.752 441.898  c
781.549 441.898 780.947 442.717 780.947 444.354  c
780.947 445.994 781.541 446.814 782.729 446.814  c
h
787.592 447.535 m
787.592 441.172 l
788.746 441.172 l
788.746 442.367 l
789.355 441.477 790.102 441.031 790.984 441.031  c
791.535 441.031 791.975 441.206 792.303 441.556  c
792.631 441.905 792.795 442.375 792.795 442.965  c
792.795 447.535 l
791.641 447.535 l
791.641 443.340 l
791.641 442.867 791.571 442.530 791.433 442.329  c
791.294 442.128 791.064 442.027 790.744 442.027  c
790.037 442.027 789.371 442.490 788.746 443.416  c
788.746 447.535 l
h
f
2 J
10.0000 M
0 J
1.45000 M
newpath
327.000 367.000 m
441.000 367.000 l
441.000 299.500 l
572.000 299.500 l
S
newpath
580.000 299.500 m
568.000 294.500 l
571.000 299.500 l
568.000 304.500 l
h
f
2 J
10.0000 M
0 J
1.45000 M
newpath
327.000 232.000 m
442.000 232.000 l
442.000 299.500 l
572.021 299.500 l
S
newpath
580.021 299.500 m
568.021 294.500 l
571.021 299.500 l
568.021 304.500 l
h
f
2 J
10.0000 M
0 J
1.45000 M
newpath
614.448 314.500 m
500.552 428.000 l
S
2 J
10.0000 M
0 J
1.45000 M
newpath
642.984 314.500 m
745.016 428.000 l
S
2 J
10.0000 M
0 J
1.45000 M
newpath
550.000 443.000 m
701.000 443.000 l
S
newpath
709.000 443.000 m
697.000 438.000 l
700.000 443.000 l
697.000 448.000 l
h
f
2 J
10.0000 M
1.00000 .800000 0.00000 RG
newpath
829.000 284.500 m
928.000 284.500 l
928.000 314.500 l
829.000 314.500 l
829.000 284.500 l
h
f
0 J
1.45000 M
0.00000 0.00000 0.00000 RG
newpath
829.000 284.500 m
928.000 284.500 l
928.000 314.500 l
829.000 314.500 l
829.000 284.500 l
h
S
2 J
10.0000 M
0 J
1.45000 M
newpath
839.066 304.252 m
837.719 304.252 836.678 303.856 835.943 303.065  c
835.209 302.274 834.842 301.154 834.842 299.705  c
834.842 298.260 835.216 297.139 835.964 296.342  c
836.712 295.545 837.766 295.146 839.125 295.146  c
839.902 295.146 840.812 295.273 841.855 295.527  c
841.855 296.682 l
840.668 296.271 839.752 296.066 839.107 296.066  c
838.166 296.066 837.438 296.385 836.922 297.021  c
836.406 297.658 836.148 298.557 836.148 299.717  c
836.148 300.822 836.424 301.694 836.975 302.333  c
837.525 302.972 838.277 303.291 839.230 303.291  c
840.051 303.291 840.930 303.039 841.867 302.535  c
841.867 303.590 l
841.012 304.031 840.078 304.252 839.066 304.252  c
h
843.689 304.035 m
843.689 297.672 l
844.844 297.672 l
844.844 304.035 l
h
843.689 296.518 m
843.689 295.363 l
844.844 295.363 l
844.844 296.518 l
h
848.846 304.182 m
848.318 304.182 847.678 304.059 846.924 303.812  c
846.924 302.752 l
847.678 303.127 848.334 303.314 848.893 303.314  c
849.225 303.314 849.500 303.225 849.719 303.045  c
849.938 302.865 850.047 302.641 850.047 302.371  c
850.047 301.977 849.740 301.650 849.127 301.393  c
848.453 301.105 l
847.457 300.691 846.959 300.096 846.959 299.318  c
846.959 298.764 847.155 298.327 847.548 298.009  c
847.940 297.690 848.479 297.531 849.162 297.531  c
849.518 297.531 849.957 297.580 850.480 297.678  c
850.721 297.725 l
850.721 298.686 l
850.076 298.494 849.564 298.398 849.186 298.398  c
848.443 298.398 848.072 298.668 848.072 299.207  c
848.072 299.555 848.354 299.848 848.916 300.086  c
849.473 300.320 l
850.102 300.586 850.547 300.866 850.809 301.161  c
851.070 301.456 851.201 301.824 851.201 302.266  c
851.201 302.824 850.980 303.283 850.539 303.643  c
850.098 304.002 849.533 304.182 848.846 304.182  c
h
855.760 304.182 m
854.900 304.182 854.188 303.863 853.621 303.227  c
853.055 302.590 852.771 301.787 852.771 300.818  c
852.771 299.783 853.052 298.977 853.612 298.398  c
854.173 297.820 854.955 297.531 855.959 297.531  c
856.455 297.531 857.010 297.600 857.623 297.736  c
857.623 298.703 l
856.971 298.512 856.439 298.416 856.029 298.416  c
855.439 298.416 854.966 298.638 854.608 299.081  c
854.251 299.524 854.072 300.115 854.072 300.854  c
854.072 301.568 854.256 302.146 854.623 302.588  c
854.990 303.029 855.471 303.250 856.064 303.250  c
856.592 303.250 857.135 303.115 857.693 302.846  c
857.693 303.842 l
856.947 304.068 856.303 304.182 855.760 304.182  c
h
861.912 304.182 m
861.002 304.182 860.275 303.880 859.732 303.276  c
859.189 302.673 858.918 301.865 858.918 300.854  c
858.918 299.830 859.190 299.021 859.735 298.425  c
860.280 297.829 861.020 297.531 861.953 297.531  c
862.887 297.531 863.626 297.829 864.171 298.425  c
864.716 299.021 864.988 299.826 864.988 300.842  c
864.988 301.881 864.715 302.697 864.168 303.291  c
863.621 303.885 862.869 304.182 861.912 304.182  c
h
861.930 303.314 m
863.152 303.314 863.764 302.490 863.764 300.842  c
863.764 299.213 863.160 298.398 861.953 298.398  c
860.750 298.398 860.148 299.217 860.148 300.854  c
860.148 302.494 860.742 303.314 861.930 303.314  c
h
872.922 304.035 m
869.646 295.363 l
870.877 295.363 l
873.561 302.465 l
876.150 295.363 l
877.229 295.363 l
874.082 304.035 l
h
878.395 304.035 m
878.395 295.363 l
879.625 295.363 l
879.625 304.035 l
h
881.857 304.035 m
881.857 295.363 l
884.482 295.363 l
885.314 295.363 885.952 295.547 886.396 295.914  c
886.839 296.281 887.061 296.814 887.061 297.514  c
887.061 298.670 886.477 299.490 885.309 299.975  c
888.203 304.035 l
886.691 304.035 l
884.225 300.367 l
883.076 300.367 l
883.076 304.035 l
h
883.076 299.447 m
883.475 299.447 l
885.021 299.447 885.795 298.840 885.795 297.625  c
885.795 296.730 885.146 296.283 883.850 296.283  c
883.076 296.283 l
h
889.445 304.035 m
889.445 295.363 l
890.676 295.363 l
890.676 303.115 l
894.578 303.115 l
894.578 304.035 l
h
898.615 304.035 m
901.492 299.682 l
898.756 295.363 l
900.209 295.363 l
902.295 298.633 l
904.486 295.363 l
905.646 295.363 l
902.875 299.553 l
905.717 304.035 l
904.264 304.035 l
902.061 300.596 l
899.781 304.035 l
h
907.152 304.035 m
907.152 295.363 l
908.857 295.363 l
911.260 302.072 l
913.732 295.363 l
915.256 295.363 l
915.256 304.035 l
914.107 304.035 l
914.107 296.980 l
911.717 303.455 l
910.527 303.455 l
908.207 296.963 l
908.207 304.035 l
h
917.488 304.035 m
917.488 295.363 l
918.719 295.363 l
918.719 303.115 l
922.621 303.115 l
922.621 304.035 l
h
f
2 J
10.0000 M
0 J
1.45000 M
newpath
679.000 299.500 m
821.000 299.500 l
S
newpath
829.000 299.500 m
817.000 294.500 l
820.000 299.500 l
817.000 304.500 l
h
f
2 J
10.0000 M
Q
[ 1.00000 0.00000 0.00000 1.00000 0.00000 0.00000 ] defaultmatrix matrix concatmatrix setmatrix
cliprestore

%%Trailer
%%EOF
