%!PS-Adobe-3.0 EPSF-3.0
%%BoundingBox: 0 0 664 460
%%Creator: yExport 1.5
%%Producer: org.freehep.graphicsio.ps.EPSGraphics2D Revision: 12753 
%%For: 
%%Title: 
%%CreationDate: Wednesday, March 1, 2017 9:53:00 PM GMT
%%LanguageLevel: 3
%%EndComments
%%BeginProlog
100 dict dup begin

%
% File: org/freehep/graphicsio.ps/PSProlog.txt
% Author: Charles Loomis
%

% Redefinitions which save some space in the output file.  These are also
% the same as the PDF operators.
/q {gsave} def
/Q {grestore} def

/n {newpath} def
/m {moveto} def
/l {lineto} def
/c {curveto} def
/h {closepath} def

/re {4 -2 roll moveto
     dup 0 exch rlineto exch 0 rlineto
     neg 0 exch rlineto closepath} def

/f {fill} def
/f* {eofill} def
/F {gsave vg&FC fill grestore} def
/F* {gsave vg&FC eofill grestore} def

/s {closepath stroke} def
/S {stroke} def

/b {closepath gsave vg&FC fill grestore
    gsave stroke grestore newpath} def
/B {gsave vg&FC fill grestore gsave stroke grestore newpath} def
/b* {closepath gsave vg&FC eofill grestore
    gsave stroke grestore newpath} def
/B* {gsave vg&FC eofill grestore gsave stroke grestore newpath} def

/g {1 array astore /vg&fcolor exch def} def
/G {setgray} def
/k {4 array astore /vg&fcolor exch def} def
/K {setcmykcolor} def
/rg {3 array astore /vg&fcolor exch def} def
/RG {setrgbcolor} def

% Initialize the fill color.
0 0 0 rg

/vg&FC {mark vg&fcolor aload pop
        counttomark 1 eq {G} if
        counttomark 3 eq {RG} if
        counttomark 4 eq {K} if
        cleartomark } def

/vg&DFC {/vg&fcolor exch def} def

/vg&C {mark exch aload pop
       counttomark 1 eq {G} if
       counttomark 3 eq {RG} if
       counttomark 4 eq {K} if
       cleartomark } def

/w {setlinewidth} def
/j {setlinejoin} def
/J {setlinecap} def
/M {setmiterlimit} def
/d {setdash} def
/i {setflat} def

/W {clip} def
/W* {eoclip} def

% Setup the default graphics state.
% (black; 1 pt. linewidth; miter join; butt-ends; solid)
/defaultGraphicsState {0 g 1 w 0 j 0 J [] 0 d} def

% Emulation of the rectangle operators for PostScript implementations
% which do not implement all Level 2 features.  This is an INCOMPLETE
% emulation; only the "x y width height rect..." form is emulated.
/*rf {gsave newpath re fill grestore} def
/*rs {gsave newpath re stroke grestore} def
/*rc {newpath re clip} def
/rf  /rectfill where {pop /rectfill}{/*rf} ifelse load def
/rs  /rectstroke where {pop /rectstroke}{/*rs} ifelse load def
/rc  /rectclip where {pop /rectclip}{/*rc} ifelse load def

% Emulation of the selectfont operator.  This includes a 20% increase in
% the fontsize which is necessary to get sizes similar to the Java fonts.
/*sf {exch findfont exch
      dup type /arraytype eq {makefont}{scalefont} ifelse setfont} bind def
/sf /selectfont where {pop {1.2 mul selectfont}}{{1.2 mul *sf}} ifelse def

% Special version of stroke which allows the dash pattern to continue
% across path segments.  (This may be needed for PostScript although
% modern printers seem to do this correctly.)
/vg&stroke {
  currentdash pop length 0 eq
  {stroke}
  {
    currentdash /vg&doffset exch def pop
    flattenpath
    {m vg&resetdash}
    {2 copy
     currentpoint
     3 -1 roll sub dup mul
     3 1 roll sub dup mul
     add sqrt
     3 1 roll l
     currentdash 3 -1 roll add setdash}
     {}
     {h vg&resetdash}
     pathforall
     stroke
     vg&resetdash
  } ifelse
} def
/vg&resetdash {currentdash pop vg&doffset setdash} def

% Initialize variables for safety.
/delta 0 def
/xv 0 def  /yv 0 def  /width 0 def  /height 0 def

% Initialize to portrait INTERNATIONAL (Letter-height, A4-width) page.
/pw 595 def  /ph 791  def  /po true def /ftp false def

% Initialize margins to 20 points.
/ml 20 def  /mr 20 def  /mt 20 def  /mb 20 def

% Temporary matrices.
/smatrix 0 def  /nmatrix 0 def

% set page size (usage: <page width><page height> setpagesize)
/setpagesize {/ph exch def /pw exch def} def

% set page orientation (usage: portrait or landscape)
/portrait {/po true def} def
/landscape {/po false def} def

% force natural size for image (usage: naturalsize)
/naturalsize {/ftp false def} def

% resize image to fill page (usage: fittopage)
/fittopage {/ftp true def} def

% set margins of the page (usage: <left><bottom><top><right> setmargins)
/setmargins {/mr exch def /mt exch def /mb exch def /ml exch def} def

% set the graphic's size (usage: <width><height> setsize)
/setsize {/gh exch def /gw exch def} def

% set the graphic's origin (usage: <x0><y0> setorigin)
/setorigin {/gy exch def /gx exch def} def

% calculate image center
/imagecenter {pw ml sub mr sub 2 div ml add
              ph mt sub mb sub 2 div mb add} def

% calculate the necessary scaling
/imagescale {po {gw}{gh} ifelse pw ml sub mr sub div
             po {gh}{gw} ifelse ph mt sub mb sub div
             2 copy lt {exch} if pop
             ftp not {1 2 copy lt {exch} if pop} if
             1 exch div /sfactor exch def
             /gw gw sfactor mul def /gh gh sfactor mul def} def

% calculate image origin
/imageorigin {pw ml sub mr sub 2 div ml add
              po {gw}{gh} ifelse 2 div sub
              ph mt sub mb sub 2 div mb add
              po {gh}{gw} ifelse 2 div po {add}{sub} ifelse} def

% calculate the clipping origin
/cliporigin  {pw ml sub mr sub 2 div ml add
              po {gw}{gh} ifelse 2 div sub floor
              ph mt sub mb sub 2 div mb add
              po {gh}{gw} ifelse 2 div sub floor} def

% Set the clipping region to the bounding box.
/cliptobounds {cliporigin po {gw}{gh} ifelse 1 add
                          po {gh}{gw} ifelse 1 add rc} def

% set the base transformation matrix (usage: setbasematrix)
/setbasematrix {imageorigin translate
                po {0}{90} ifelse rotate
                sfactor sfactor neg scale
                /defaultmatrix matrix currentmatrix def} def

% The lower-right bias in drawing 1 pt. wide lines.
/bias  {q 0.5 0.5 translate} def
/unbias {Q} def

% Define the composite fonts used to print Unicode strings.
% Undefine particular values in an encoding array.
/vg&undef { {exch dup 3 -1 roll /.notdef put} forall } def
/vg&redef { {3 -1 roll dup 4 2 roll put} forall } def

% usage: key encoding basefontname vg&newbasefont font
/vg&newbasefont {
findfont dup length dict copy
  begin
    currentdict /FID undef
    /Encoding exch def
    dup /FontName exch def
    currentdict
  end
definefont
} def

% usage: key encoding basefontname vg&newskewedbasefont font
/vg&newskewedbasefont {
findfont dup length dict copy
  begin
    currentdict /FID undef
    /Encoding exch def
    dup /FontName exch def
    exch FontMatrix exch matrix concatmatrix /FontMatrix exch def
    currentdict
  end
definefont
} def

% usage: basekey suffix vg&nconcat name
/vg&nconcat {
  2 {dup length string cvs exch} repeat
  dup length 3 -1 roll dup length 3 -1 roll add string
  dup 0 4 -1 roll dup length 5 1 roll putinterval
  dup 4 -2 roll exch putinterval cvn
} def

%usage: fontname vg&skewmatrix matrix
/vg&skewmatrix {
findfont dup /FontInfo known
  {
    /FontInfo get dup /ItalicAngle known
    {
      [ 1 0 4 -1 roll /ItalicAngle get neg dup sin exch cos div 1 0 0 ]
    }
    {pop matrix} ifelse
  }
  {pop matrix} ifelse
} def

% usage: newfontname basefontname vg&newcompositefont --
/vg&newcompositefont {
/vg&fstyle exch def
/vg&bfont exch def
/vg&fname exch def
<<
/FontStyleBits vg&fstyle
/FontType 0
/FontMatrix matrix
/FontName vg&fname
/FMapType 2
/Encoding [ 0 1 255 {pop 6} for ]
          dup 16#00 0 put % Latin
          dup 16#03 1 put % Greek
          dup 16#20 2 put % Punctuation
          dup 16#21 3 put % Arrows
          dup 16#22 4 put % MathOps
          dup 16#27 5 put % Dingbats

/FDepVector [
vg&bfont /-UC-Latin vg&nconcat UCLatinEncoding
vg&bfont vg&newbasefont

vg&bfont vg&skewmatrix
vg&bfont /-UC-Greek vg&nconcat UCGreekEncoding
/Symbol vg&newskewedbasefont

vg&bfont /-UC-Punctuation vg&nconcat UCPunctuationEncoding
vg&bfont vg&newbasefont

/Arrows-UC findfont
/MathOps-UC findfont
/Dingbats-UC findfont
/Undefined-UC findfont ]
>>
vg&fname exch definefont pop
} def

% Null encoding vector (all elements set to .notdef)
/NullEncoding [ 256 {/.notdef} repeat ] def

% Unicode Latin encoding (unicode codes \u0000-\u00ff)
/UCLatinEncoding
  ISOLatin1Encoding dup length array copy
  dup 16#60 /grave put
  [ 16#90 16#91 16#92 16#93 16#94 16#95 16#96
    16#97 16#98 16#9a 16#9b 16#9d 16#9e 16#9f
  ] vg&undef
  def

% Unicode Greek encoding (unicode codes \u0370-\u03ff)
/UCGreekEncoding
  NullEncoding dup length array copy
  << 16#91 /Alpha    16#92 /Beta      16#93 /Gamma    16#94 /Delta
     16#95 /Epsilon  16#96 /Zeta      16#97 /Eta      16#98 /Theta
     16#99 /Iota     16#9a /Kappa     16#9b /Lambda   16#9c /Mu
     16#9d /Nu       16#9e /Xi        16#9f /Omicron  16#a0 /Pi
     16#a1 /Rho      16#a3 /Sigma     16#a4 /Tau      16#a5 /Upsilon
     16#a6 /Phi      16#a7 /Chi       16#a8 /Psi      16#a9 /Omega
     16#b1 /alpha    16#b2 /beta      16#b3 /gamma    16#b4 /delta
     16#b5 /epsilon  16#b6 /zeta      16#b7 /eta      16#b8 /theta
     16#b9 /iota     16#ba /kappa     16#bb /lambda   16#bc /mu
     16#bd /nu       16#be /xi        16#bf /omicron  16#c0 /pi
     16#c1 /rho      16#c2 /sigma1    16#c3 /sigma    16#c4 /tau
     16#c5 /upsilon  16#c6 /phi1      16#c7 /chi      16#c8 /psi
     16#c9 /omega    16#7e /semicolon 16#87 /dotmath  16#d1 /theta1
     16#d2 /Upsilon1 16#d5 /phi       16#d6 /omega1
  >> vg&redef
  def

% Unicode punctuation encoding (unicode codes \u2000-\u206f)
/UCPunctuationEncoding
  NullEncoding dup length array copy
  << 16#10 /hyphen          16#11 /hyphen              16#12 /endash
     16#13 /emdash          16#18 /quoteleft           16#19 /quoteright
     16#1a /quotesinglbase  16#1b /quotesingle         16#1c /quotedblleft
     16#1d /quotedblright   16#1e /quotedblbase        16#1f /quotedbl
     16#20 /dagger          16#21 /daggerdbl           16#22 /bullet
     16#24 /period          16#26 /ellipsis            16#27 /periodcentered
     16#30 /perthousand     16#44 /fraction
     16#70 /zerosuperior    16#74 /foursuperior        16#75 /fivesuperior
     16#76 /sixsuperior     16#77 /sevensuperior       16#78 /eightsuperior
     16#79 /ninesuperior    16#7b /hyphensuperior      16#7d /parenleftsuperior
     16#7e /parenrightsuperior
     16#80 /zeroinferior    16#84 /fourinferior        16#85 /fiveinferior
     16#81 /oneinferior     16#82 /twoinferior         16#83 /threeinferior
     16#86 /sixinferior     16#87 /seveninferior       16#88 /eightinferior
     16#89 /nineinferior    16#8b /hypheninferior      16#8d /parenleftinferior
     16#8e /parenrightinferior
  >> vg&redef
  def

% Unicode mathematical operators encoding (unicode codes \u2200-\u22ff)
/UCMathOpsEncoding
  NullEncoding dup length array copy
  << 16#00 /universal       16#02 /partialdiff         16#03 /existential
     16#05 /emptyset        16#06 /Delta               16#07 /gradient
     16#08 /element         16#09 /notelement          16#0b /suchthat
     16#0f /product         16#11 /summation           16#12 /minus
     16#15 /fraction        16#17 /asteriskmath        16#19 /bullet
     16#1a /radical         16#1d /proportional        16#1e /infinity
     16#20 /angle           16#23 /bar                 16#27 /logicaland
     16#28 /logicalor       16#29 /intersection        16#2a /union
     16#2b /integral        16#34 /therefore           16#36 /colon
     16#3c /similar         16#45 /congruent           16#48 /approxequal
     16#60 /notequal        16#61 /equivalence         16#64 /lessequal
     16#65 /greaterequal    16#82 /propersubset        16#83 /propersuperset
     16#86 /reflexsubset    16#87 /reflexsuperset      16#95 /circleplus
     16#97 /circlemultiply  16#a5 /perpendicular       16#03 /existential
     16#c0 /logicaland      16#c1 /logicalor           16#c2 /intersection
     16#c3 /union           16#c4 /diamond             16#c5 /dotmath
  >> vg&redef
  def

% Unicode arrows encoding (unicode codes \u2190-\u21ff)
% Also includes those "Letterlike" unicode characters
% which are available in the symbol font. (unicode codes \u2100-\u214f)
/UCArrowsEncoding
  NullEncoding dup length array copy
  << 16#11 /Ifraktur        16#1c /Rfraktur            16#22 /trademarkserif
     16#35 /aleph
     16#90 /arrowleft       16#91 /arrowup             16#92 /arrowright
     16#93 /arrowdown       16#94 /arrowboth           16#d0 /arrowdblleft
     16#d1 /arrowdblup      16#d2 /arrowdblright       16#d3 /arrowdbldown
     16#d4 /arrowdblboth
  >> vg&redef
  def

/ZapfDingbats findfont /Encoding get
dup length array copy /UCDingbatsEncoding exch def
16#20 1 16#7f {
  dup 16#20 sub exch
  UCDingbatsEncoding exch get
  UCDingbatsEncoding 3 1 roll put
} for
16#a0 1 16#ff {
  dup 16#40 sub exch
  UCDingbatsEncoding exch get
  UCDingbatsEncoding 3 1 roll put
} for
UCDingbatsEncoding [ 16#c0 1 16#ff {} for ] vg&undef
[ 16#00  16#05 16#0a 16#0b  16#28 16#4c 16#4e  16#53 16#54 16#55  16#57 16#5f
  16#60  16#68 16#69 16#6a  16#6b 16#6c 16#6d  16#6e 16#6f 16#70  16#71 16#72
  16#73  16#74 16#75 16#95  16#96 16#97 16#b0  16#bf
] vg&undef pop

% Define the base fonts which don't change.
/Undefined-UC NullEncoding       /Helvetica    vg&newbasefont pop
/MathOps-UC   UCMathOpsEncoding  /Symbol       vg&newbasefont pop
/Arrows-UC    UCArrowsEncoding   /Symbol       vg&newbasefont pop
/Dingbats-UC  UCDingbatsEncoding /ZapfDingbats vg&newbasefont pop

% Make the SansSerif composite fonts.
/SansSerif /Helvetica 16#00 vg&newcompositefont
/SansSerif-Bold /Helvetica-Bold 16#01 vg&newcompositefont
/SansSerif-Italic /Helvetica-Oblique 16#02 vg&newcompositefont
/SansSerif-BoldItalic /Helvetica-BoldOblique 16#03 vg&newcompositefont

% Make the Serif composite fonts.
/Serif /Times-Roman 16#00 vg&newcompositefont
/Serif-Bold /Times-Bold 16#01 vg&newcompositefont
/Serif-Italic /Times-Italic 16#02 vg&newcompositefont
/Serif-BoldItalic /Times-BoldItalic 16#03 vg&newcompositefont

% Make the Monospaced composite fonts.
/Monospaced /Courier 16#00 vg&newcompositefont
/Monospaced-Bold /Courier-Bold 16#01 vg&newcompositefont
/Monospaced-Italic /Courier-Oblique 16#02 vg&newcompositefont
/Monospaced-BoldItalic /Courier-BoldOblique 16#03 vg&newcompositefont

% Make the Dialog composite fonts.
/Dialog /Helvetica 16#00 vg&newcompositefont
/Dialog-Bold /Helvetica-Bold 16#01 vg&newcompositefont
/Dialog-Italic /Helvetica-Oblique 16#02 vg&newcompositefont
/Dialog-BoldItalic /Helvetica-BoldOblique 16#03 vg&newcompositefont

% Make the DialogInput composite fonts.
/DialogInput /Courier 16#00 vg&newcompositefont
/DialogInput-Bold /Courier-Bold 16#01 vg&newcompositefont
/DialogInput-Italic /Courier-Oblique 16#02 vg&newcompositefont
/DialogInput-BoldItalic /Courier-BoldOblique 16#03 vg&newcompositefont

% Make the Typewriter composite fonts (JDK 1.1 only).
/Typewriter /Courier 16#00 vg&newcompositefont
/Typewriter-Bold /Courier-Bold 16#01 vg&newcompositefont
/Typewriter-Italic /Courier-Oblique 16#02 vg&newcompositefont
/Typewriter-BoldItalic /Courier-BoldOblique 16#03 vg&newcompositefont


/cfontH {
 dup /fontsize exch def /SansSerif exch sf
 /vg&fontstyles [{cfontH} {cfontHB} {cfontHI} {cfontHBI}] def
} def
/cfontHB {
  dup /fontsize exch def /SansSerif-Bold exch sf
 /vg&fontstyles [{cfontH} {cfontHB} {cfontHI} {cfontHBI}] def
} def
/cfontHI {
 dup /fontsize exch def /SansSerif-Italic exch sf
 /vg&fontstyles [{cfontH} {cfontHB} {cfontHI} {cfontHBI}] def
} def
/cfontHBI {
 dup /fontsize exch def /SansSerif-BoldItalic exch sf
 /vg&fontstyles [{cfontH} {cfontHB} {cfontHI} {cfontHBI}] def
} def

/cfontT {
 dup /fontsize exch def /Serif exch sf
 /vg&fontstyles [{cfontT} {cfontTB} {cfontTI} {cfontTBI}] def
} def
/cfontTB {
 dup /fontsize exch def /Serif-Bold exch sf
 /vg&fontstyles [{cfontT} {cfontTB} {cfontTI} {cfontTBI}] def
} def
/cfontTI {
 dup /fontsize exch def /Serif-Italic exch sf
 /vg&fontstyles [{cfontT} {cfontTB} {cfontTI} {cfontTBI}] def
} def
/cfontTBI {
 dup /fontsize exch def /Serif-BoldItalic exch sf
 /vg&fontstyles [{cfontT} {cfontTB} {cfontTI} {cfontTBI}] def
} def

/cfontC {
 dup /fontsize exch def /Typewriter exch sf
 /vg&fontstyles [{cfontC} {cfontCB} {cfontCI} {cfontCBI}] def
} def
/cfontCB {
 dup /fontsize exch def /Typewriter-Bold exch sf
 /vg&fontstyles [{cfontC} {cfontCB} {cfontCI} {cfontCBI}] def
} def
/cfontCI {
 dup /fontsize exch def /Typewriter-Italic exch sf
 /vg&fontstyles [{cfontC} {cfontCB} {cfontCI} {cfontCBI}] def
} def
/cfontCBI {
 dup /fontsize exch def /Typewriter-BoldItalic exch sf
 /vg&fontstyles [{cfontC} {cfontCB} {cfontCI} {cfontCBI}] def
} def

% Darken or lighten the current color.
/darken {0.7 exch exp 3 copy
         q 4 -1 roll vg&C
         currentrgbcolor 3 {4 -2 roll mul} repeat
         3 array astore Q} def

/displayColorMap
<< /Cr   [1.00 0.00 0.00]       /Cg     [0.00 1.00 0.00]
   /Cb   [0.00 0.00 1.00]       /Cc     [1.00 0.00 0.00 0.00]
   /Cm   [0.00 1.00 0.00 0.00]  /Cy     [0.00 0.00 1.00 0.00]
   /Co   [1.00 0.78 0.00]       /Cp     [1.00 0.67 0.67]
   /Cw   [1   ]                 /Cgrl   [0.75]
   /Cgr  [0.50]                 /Cgrd   [0.25]
   /Ck   [0   ]
   /CGr  [1.00 0.00 0.00]       /CGg    [0.00 1.00 0.00]
   /CGb  [0.00 0.00 1.00]       /CGc    [1.00 0.00 0.00 0.00]
   /CGm  [0.00 1.00 0.00 0.00]  /CGy    [0.00 0.00 1.00 0.00]
   /CGo  [1.00 0.78 0.00]       /CGp    [1.00 0.67 0.67]
   /CGw  [1   ]                 /CGgrl  [0.75]
   /CGgr [0.50]                 /CGgrd  [0.25]
   /CGk  [0   ]
   /CIr  [1.00 0.00 0.00]       /CIg    [0.00 1.00 0.00]
   /CIb  [0.00 0.00 1.00]       /CIc    [1.00 0.00 0.00 0.00]
   /CIm  [0.00 1.00 0.00 0.00]  /CIy    [0.00 0.00 1.00 0.00]
   /CIo  [1.00 0.78 0.00]       /CIp    [1.00 0.67 0.67]
   /CIw  [1   ]                 /CIgrl  [0.75]
   /CIgr [0.50]                 /CIgrd  [0.25]
   /CIk  [0   ]
>> def

/printColorMap
<< /Cr   [1.00 0.33 0.33]       /Cg     [0.33 1.00 0.33]
   /Cb   [0.33 0.33 1.00]       /Cc     [1.00 0.00 0.00 0.00]
   /Cm   [0.00 1.00 0.00 0.00]  /Cy     [0.00 0.00 1.00 0.00]
   /Co   [1.00 0.78 0.00]       /Cp     [1.00 0.67 0.67]
   /Cw   [1   ]                 /Cgrl   [0.75]
   /Cgr  [0.50]                 /Cgrd   [0.25]
   /Ck   [0   ]
   /CGr  [1.00 0.33 0.33]       /CGg    [0.33 1.00 0.33]
   /CGb  [0.33 0.33 1.00]       /CGc    [1.00 0.00 0.00 0.00]
   /CGm  [0.00 1.00 0.00 0.00]  /CGy    [0.00 0.00 1.00 0.00]
   /CGo  [1.00 0.78 0.00]       /CGp    [1.00 0.67 0.67]
   /CGw  [1   ]                 /CGgrl  [0.75]
   /CGgr [0.50]                 /CGgrd  [0.25]
   /CGk  [0   ]
   /CIr  [1.00 0.33 0.33]       /CIg    [0.33 1.00 0.33]
   /CIb  [0.33 0.33 1.00]       /CIc    [1.00 0.00 0.00 0.00]
   /CIm  [0.00 1.00 0.00 0.00]  /CIy    [0.00 0.00 1.00 0.00]
   /CIo  [1.00 0.78 0.00]       /CIp    [1.00 0.67 0.67]
   /CIw  [1   ]                 /CIgrl  [0.75]
   /CIgr [0.50]                 /CIgrd  [0.25]
   /CIk  [0   ]
>> def

/grayColorMap
<< /Cr   [0   ]                 /Cg     [0   ]
   /Cb   [0   ]                 /Cc     [0   ]
   /Cm   [0   ]                 /Cy     [0   ]
   /Co   [0   ]                 /Cp     [0   ]
   /Cw   [0   ]                 /Cgrl   [0   ]
   /Cgr  [0   ]                 /Cgrd   [0   ]
   /Ck   [0   ]
   /CGr  [0.75]                 /CGg    [1   ]
   /CGb  [0.50]                 /CGc    [0.75]
   /CGm  [0.50]                 /CGy    [1   ]
   /CGo  [0.75]                 /CGp    [1   ]
   /CGw  [0   ]                 /CGgrl  [0.25]
   /CGgr [0.50]                 /CGgrd  [0.75]
   /CGk  [1   ]
   /CIr  [1   ]                 /CIg    [1   ]
   /CIb  [1   ]                 /CIc    [1   ]
   /CIm  [1   ]                 /CIy    [1   ]
   /CIo  [1   ]                 /CIp    [1   ]
   /CIw  [1   ]                 /CIgrl  [1   ]
   /CIgr [1   ]                 /CIgrd  [1   ]
   /CIk  [1   ]
>> def

/bwColorMap
<< /Cr   [0   ]                 /Cg     [0   ]
   /Cb   [0   ]                 /Cc     [0   ]
   /Cm   [0   ]                 /Cy     [0   ]
   /Co   [0   ]                 /Cp     [0   ]
   /Cw   [0   ]                 /Cgrl   [0   ]
   /Cgr  [0   ]                 /Cgrd   [0   ]
   /Ck   [0   ]
   /CGr  [1   ]                 /CGg    [1   ]
   /CGb  [1   ]                 /CGc    [1   ]
   /CGm  [1   ]                 /CGy    [1   ]
   /CGo  [1   ]                 /CGp    [1   ]
   /CGw  [0   ]                 /CGgrl  [1   ]
   /CGgr [1   ]                 /CGgrd  [1   ]
   /CGk  [1   ]
   /CIr  [1   ]                 /CIg    [1   ]
   /CIb  [1   ]                 /CIc    [1   ]
   /CIm  [1   ]                 /CIy    [1   ]
   /CIo  [1   ]                 /CIp    [1   ]
   /CIw  [1   ]                 /CIgrl  [1   ]
   /CIgr [1   ]                 /CIgrd  [1   ]
   /CIk  [1   ]
>> def

%
% The following routines handle the alignment of and printing of
% tagged strings.
%

% Predefine the bounding box values.
/bbllx 0 def /bblly 0 def /bburx 0 def /bbury 0 def

% This routine pops the first unicode character off of a string and returns
% the remainder of the string, the character code of first character,
% and a "true" if the string was non-zero length.
% <string>      popfirst <remaining string> <true>
% <null string> popfirst <false>
/popfirst {
  dup length 1 gt
    {dup 0 get /vg&fbyte exch def
     dup 1 get /vg&cbyte exch def
     dup length 2 sub 2 exch getinterval true}
    {pop false} ifelse
} def

% This routine shows a single unicode character given the font and
% character codes.
% <font code> <char code> unicharshow --
/unicharshow {
  2 string
  dup 0 5 -1 roll put
  dup 1 4 -1 roll put
  internalshow
} def

% This is an internal routine to alternate between determining the
% bounding box for stringsize and showing the string for recshow.
% <string> internalshow --
/internalshow {show} def

% This is an internal routine to alternate between determining the
% bounding box for stringsize and stroking various ornaments.
% <string> internalstroke --
/internalstroke {S} def

% Sets up internalshow to use the null device to determine string size.
% -- nullinternalshow --
/nullinternalshow {/internalshow {false charpath flattenpath
                                  pathbbox updatebbox} def} def

% Sets up internalstroke to use the null device to determine string size.
% -- nullinternalstroke --
/nullinternalstroke {
 /internalstroke {flattenpath pathbbox updatebbox} def} def

% This routine tests to see if the character code matches the first
% character of a string.
% <char code> <string> testchar <char code> <true or false>
/testchar {exch dup 3 -1 roll 0 get eq} def

% Raise the text baseline for superscripts.
% -- raise --
/raise {
  0 fontsize 2 div rmoveto
  /fontsize fontsize 2 mul 3 div def
  currentfont /FontName get fontsize sf
} def

% Un-raise the text baseline for superscripts.
% -- unraise --
/unraise {
  /fontsize fontsize 1.5 mul def
  0 fontsize 2 div neg rmoveto
} def

% Lower the text baseline for subscripts.
% -- lower --
/lower {
  0 fontsize 3 div neg rmoveto
  /fontsize fontsize 2 mul 3 div def
  currentfont /FontName get fontsize sf
} def

% Un-lower the text baseline for subscripts.
% -- unlower --
/unlower {
  /fontsize fontsize 1.5 mul def
  0 fontsize 3 div rmoveto
} def

% Compare the top two elements on the stack and leave only the
% larger one.
/maxval {2 copy gt {pop} {exch pop} ifelse} def

% Tokenize a string.  Do not use the usual PostScript token because
% parentheses will not be interpreted correctly because of rescanning
% of the string.
/vg&token {/vg&string exch def /vg&index -1 def /vg&level 0 def
0 2 vg&string length 2 sub {
  dup dup 1 add exch vg&string exch get 8 bitshift vg&string 3 -1 roll get or
  dup 16#f0fe eq {pop 1}{16#f0ff eq {-1}{0} ifelse} ifelse
  /vg&level exch vg&level add def
  vg&level 0 eq {/vg&index exch def exit} if pop
} for
vg&index 0 ge {
  vg&string vg&index 2 add dup vg&string length exch sub getinterval
  vg&index 2 gt {vg&string 2 vg&index 2 sub getinterval}{()} ifelse
  true}
{false} ifelse
} bind def

% Recursively show an unicode string.
% <string> recshow --
/recshow {
  popfirst
  {
    % Test to see if this is a string attribute.
    vg&fbyte 16#f0 and 16#e0 eq
    {
      q

      % Font style.
      currentfont dup /FontStyleBits known {/FontStyleBits get}{pop 0} ifelse
      vg&cbyte or vg&fontstyles exch get fontsize exch exec

      vg&token pop recshow currentpoint Q m recshow
    }
    {
      vg&fbyte 16#F8 and 16#F0 eq {

        % Superscript and/or subscript.
        vg&cbyte 16#00 eq {
          vg&token pop exch vg&token pop 3 -1 roll
          q raise recshow unraise currentpoint pop Q exch
          q lower recshow unlower currentpoint pop Q
          maxval currentpoint exch pop m recshow } if

        % Strikeout.
        vg&cbyte 16#01 eq {
          vg&token pop currentpoint 3 -1 roll recshow
          q 0 J vg&underline vg&uthick w
          currentpoint 4 -2 roll fontsize 3 div add moveto
          fontsize 3 div add lineto internalstroke Q
          recshow} if

        % Underline.
        vg&cbyte 16#02 eq {
          vg&token pop currentpoint 3 -1 roll recshow
          q 0 J vg&underline vg&uthick w
          currentpoint 4 -2 roll vg&uoffset add moveto
          vg&uoffset add lineto internalstroke Q
          recshow} if

        % Dashed underline.
        vg&cbyte 16#03 eq {
          vg&token pop currentpoint 3 -1 roll recshow
          q 0 J [ vg&uthick 5 mul vg&uthick 2 mul] 0 d
          vg&underline vg&uthick w
          currentpoint 4 -2 roll vg&uoffset add moveto
          vg&uoffset add lineto internalstroke Q
          recshow} if

        % Dotted underline.
        vg&cbyte 16#04 eq {
          vg&token pop currentpoint 3 -1 roll recshow
          q 1 J [ 0 vg&uthick 3 mul] 0 d
          vg&underline vg&uthick w
          currentpoint 4 -2 roll vg&uoffset add moveto
          vg&uoffset add lineto internalstroke Q
          recshow} if

        % Thick underline.
        vg&cbyte 16#05 eq {
          vg&token pop currentpoint 3 -1 roll recshow
          q 0 J vg&underline vg&uthick 2 mul w
          currentpoint 4 -2 roll vg&uoffset vg&uthick 2 div sub add moveto
          vg&uoffset vg&uthick 2 div sub add lineto internalstroke Q
          recshow} if

        % Gray thick underline.
        vg&cbyte 16#06 eq {
          vg&token pop currentpoint 3 -1 roll recshow
          q 0 J vg&underline vg&uthick 2 mul w 0.5 setgray
          currentpoint 4 -2 roll vg&uoffset vg&uthick 2 div sub add moveto
          vg&uoffset vg&uthick 2 div sub add lineto internalstroke Q
          recshow} if

        % Overbar.
        vg&cbyte 16#07 eq {
          vg&token pop dup stringsize relative 4 1 roll pop pop exch
          3 -1 roll recshow
          q 0 J vg&underline vg&uthick w
          vg&uoffset neg add dup currentpoint pop exch m l internalstroke Q
          recshow} if
      }
      {
        vg&fbyte vg&cbyte unicharshow recshow
      } ifelse
    } ifelse
  } if
} def

% Get the underline position and thickness from the current font.
/vg&underline {

currentfont dup /FontType get 0 eq {/FDepVector get 0 get} if
dup dup /FontInfo known {
  /FontInfo get dup
  dup /UnderlinePosition known {
    /UnderlinePosition get /vg&uoffset exch def
  }
  {
    pop /vg&uoffset 0 def
  } ifelse
  dup /UnderlineThickness known {
    /UnderlineThickness get /vg&uthick exch def
  }
  {
    pop /vg&uthick 0 def
  } ifelse
}
{
  pop /vg&uoffset 0 def /vg&uthick 0 def
} ifelse
/FontMatrix get
currentfont dup /FontType get 0 eq
{/FontMatrix get matrix concatmatrix}{pop} ifelse
dup 0 vg&uoffset 3 -1 roll transform /vg&uoffset exch def pop
0 vg&uthick 3 -1 roll transform /vg&uthick exch def pop
} def

% Make a frame with the coordinates on the stack.
% <llx> <lly> <urx> <ury> frame --
/frame {4 copy m 3 1 roll exch l 4 -2 roll l l h} def

% Resets the accumulated bounding box to a degenerate box at the
% current point.
% -- resetbbox --
/resetbbox {
  currentpoint 2 copy
  /bbury exch def
  /bburx exch def
  /bblly exch def
  /bbllx exch def
} def

% Update the accumulated bounding box.
% <llx'> <lly'> <urx'> <ury'> updatebbox --
/updatebbox {
  dup bbury gt {/bbury exch def} {pop} ifelse
  dup bburx gt {/bburx exch def} {pop} ifelse
  dup bblly lt {/bblly exch def} {pop} ifelse
  dup bbllx lt {/bbllx exch def} {pop} ifelse
} def

% Set the bounding box to the values on the stack.
% <llx'> <lly'> <urx'> <ury'> updatebbox --
/restorebbox {
  /bbury exch def /bburx exch def /bblly exch def /bbllx exch def
} def

% Push the accumulated bounding box onto the stack.
% -- pushbbox <llx> <lly> <urx> <ury>
/pushbbox {bbllx bblly bburx bbury} def

% Make the relative bounding box relative to the currentpoint.
% <llx'> <lly'> <urx'> <ury'> inflate <llx> <lly> <urx> <ury>
/inflate {
  2 {fontsize 0.2 mul add 4 1 roll} repeat
  2 {fontsize 0.2 mul sub 4 1 roll} repeat
} def

% Make the relative bounding box relative to the currentpoint.
% <llx'> <lly'> <urx'> <ury'> relative <llx> <lly> <urx> <ury>
/relative {
  currentpoint 3 -1 roll add 3 1 roll add exch 4 2 roll
  currentpoint 3 -1 roll add 3 1 roll add exch 4 2 roll
} def

% Returns the size of a string appropriate for recshow.
% <string> stringsize <llx> <lly> <urx> <ury>
/stringsize {
  pushbbox /internalshow load /internalstroke load 7 -1 roll
  q
  nulldevice 0 0 m
  nullinternalshow nullinternalstroke
  resetbbox
  recshow
  /internalstroke exch def /internalshow exch def
  pushbbox 8 -4 roll restorebbox
  Q
} def

% Calculate values for string positioning.
/calcval {4 copy
  3 -1 roll sub /widy exch def sub neg /widx exch def
  pop pop /dy exch def /dx exch def} def

% Utilities to position a string.
% First letter (U=upper, C=center, B=baseline, L=lower)
% Second letter (L=left, C=center, R=right)
/align [
{calcval dx neg widy dy add neg rmoveto} % UL
{calcval dx neg widy 2 div dy add neg rmoveto} % CL
{calcval dx neg 0 rmoveto} % BL
{calcval dx neg dy neg rmoveto} % LL
{calcval widx dx add neg widy dy add neg rmoveto} % UR
{calcval widx dx add neg widy 2 div dy add neg rmoveto} % CR
{calcval widx dx add neg 0 rmoveto} % BR
{calcval widx dx add neg dy neg rmoveto} % LR
{calcval widx 2 div dx add neg widy dy add neg rmoveto} % UC
{calcval widx 2 div dx add neg widy 2 div dy add neg rmoveto} % CC
{calcval widx 2 div dx add neg 0 rmoveto} % BC
{calcval widx 2 div dx add neg dy neg rmoveto} % LC
] def

/vg&str {m q 1 -1 scale dup stringsize 4 copy align 11 -1 roll get exec
         q inflate relative frame exch exec Q recshow Q} def

end /procDict exch def
%%EndProlog

%%BeginSetup
save
procDict begin
printColorMap begin
664 460 setpagesize
0 0 0 0 setmargins
0 0 setorigin
664 460 setsize
naturalsize
portrait
imagescale
cliptobounds
setbasematrix
/Helvetica 10 sf
defaultGraphicsState
%%EndSetup

0.00000 0.00000 0.00000 RG
[ 1.00000 0.00000 0.00000 1.00000 0.00000 0.00000 ] defaultmatrix matrix concatmatrix setmatrix
cliprestore
1.00000 1.00000 1.00000 RG
newpath
0.00000 0.00000 m
664.000 0.00000 l
664.000 460.000 l
0.00000 460.000 l
0.00000 0.00000 l
h
f
0.00000 0.00000 0.00000 RG
0.00000 0.00000 0.00000 RG
[ 1.00000 0.00000 0.00000 1.00000 0.00000 0.00000 ] defaultmatrix matrix concatmatrix setmatrix
cliprestore
1.00000 1.00000 1.00000 RG
newpath
0.00000 0.00000 m
664.000 0.00000 l
664.000 460.000 l
0.00000 460.000 l
0.00000 0.00000 l
h
f
0.00000 0.00000 0.00000 RG
0 0 664 460 rc
q
[ 1.00000 0.00000 0.00000 1.00000 0.00000 0.00000 ] concat
[ 1.00000 0.00000 0.00000 1.00000 -313.000 -141.000 ] concat
1.00000 1.00000 1.00000 RG
newpath
313.000 141.000 m
977.000 141.000 l
977.000 601.000 l
313.000 601.000 l
313.000 141.000 l
h
f
0.00000 0.00000 0.00000 RG
[ 1.00000 0.00000 0.00000 1.00000 -313.000 -141.000 ] defaultmatrix matrix concatmatrix setmatrix
[ 1.00000 0.00000 0.00000 1.00000 -313.000 -141.000 ] defaultmatrix matrix concatmatrix setmatrix
[ 1.00000 0.00000 0.00000 1.00000 0.00000 0.00000 ] defaultmatrix matrix concatmatrix setmatrix
[ 1.00000 0.00000 0.00000 1.00000 -313.000 -141.000 ] defaultmatrix matrix concatmatrix setmatrix
.792157 .925490 1.00000 RG
newpath
422.000 341.834 m
422.000 581.500 l
422.000 583.709 423.791 585.500 426.000 585.500  c
837.000 585.500 l
839.209 585.500 841.000 583.709 841.000 581.500  c
841.000 341.834 l
841.000 339.625 839.209 337.834 837.000 337.834  c
426.000 337.834 l
423.791 337.834 422.000 339.625 422.000 341.834  c
h
f
.600000 .800000 1.00000 RG
newpath
422.000 337.834 m
841.000 337.834 l
841.000 359.500 l
422.000 359.500 l
422.000 337.834 l
h
f
.792157 .925490 1.00000 RG
0.00000 0.00000 0.00000 RG
0 J
1.45000 M
newpath
780.040 350.190 m
778.194 345.518 l
776.341 350.190 l
h
781.666 354.336 m
780.487 351.333 l
775.895 351.333 l
774.701 354.336 l
773.272 354.336 l
777.572 343.496 l
779.095 343.496 l
783.329 354.336 l
h
787.020 354.607 m
786.292 354.607 785.362 354.448 784.229 354.131  c
784.229 352.607 l
785.450 353.174 786.454 353.457 787.240 353.457  c
787.845 353.457 788.332 353.298 788.701 352.981  c
789.070 352.664 789.254 352.246 789.254 351.729  c
789.254 351.304 789.133 350.942 788.891 350.645  c
788.650 350.347 788.204 350.015 787.555 349.648  c
786.808 349.216 l
785.885 348.689 785.234 348.192 784.856 347.726  c
784.477 347.260 784.288 346.716 784.288 346.096  c
784.288 345.261 784.591 344.574 785.196 344.034  c
785.802 343.495 786.573 343.225 787.511 343.225  c
788.346 343.225 789.227 343.364 790.155 343.643  c
790.155 345.049 l
789.012 344.600 788.160 344.375 787.599 344.375  c
787.066 344.375 786.627 344.517 786.280 344.800  c
785.934 345.083 785.760 345.439 785.760 345.869  c
785.760 346.230 785.887 346.550 786.141 346.829  c
786.395 347.107 786.859 347.439 787.533 347.825  c
788.309 348.264 l
789.247 348.796 789.901 349.299 790.272 349.773  c
790.643 350.247 790.829 350.815 790.829 351.479  c
790.829 352.422 790.481 353.179 789.785 353.750  c
789.089 354.321 788.167 354.607 787.020 354.607  c
h
793.099 354.255 m
793.099 352.908 l
794.134 353.318 794.950 353.523 795.545 353.523  c
796.234 353.523 796.794 353.322 797.226 352.919  c
797.658 352.516 797.875 351.995 797.875 351.355  c
797.875 349.832 796.808 349.070 794.674 349.070  c
794.103 349.070 l
794.103 348.096 l
794.608 348.088 l
796.610 348.088 797.611 347.383 797.611 345.972  c
797.611 344.863 796.952 344.309 795.633 344.309  c
794.911 344.309 794.115 344.512 793.246 344.917  c
793.246 343.657 l
794.100 343.369 794.930 343.225 795.736 343.225  c
797.953 343.225 799.061 344.062 799.061 345.737  c
799.061 347.012 798.307 347.920 796.798 348.462  c
798.546 348.867 799.420 349.824 799.420 351.333  c
799.420 352.354 799.083 353.154 798.409 353.735  c
797.735 354.316 796.810 354.607 795.633 354.607  c
794.964 354.607 794.120 354.490 793.099 354.255  c
h
804.510 348.433 m
803.451 347.695 802.921 346.880 802.921 345.986  c
802.921 345.166 803.221 344.500 803.822 343.987  c
804.422 343.474 805.206 343.218 806.173 343.218  c
807.066 343.218 807.790 343.435 808.344 343.870  c
808.899 344.304 809.176 344.868 809.176 345.562  c
809.176 346.611 808.502 347.568 807.154 348.433  c
808.790 349.233 809.608 350.266 809.608 351.531  c
809.608 352.439 809.265 353.179 808.579 353.750  c
807.893 354.321 807.008 354.607 805.924 354.607  c
804.859 354.607 803.999 354.337 803.342 353.798  c
802.685 353.258 802.357 352.549 802.357 351.670  c
802.357 350.371 803.075 349.292 804.510 348.433  c
h
806.349 347.979 m
807.359 347.314 807.865 346.575 807.865 345.759  c
807.865 345.325 807.696 344.974 807.359 344.708  c
807.022 344.442 806.578 344.309 806.026 344.309  c
805.494 344.309 805.062 344.440 804.730 344.701  c
804.398 344.962 804.232 345.300 804.232 345.715  c
804.232 346.121 804.382 346.483 804.682 346.803  c
804.983 347.123 805.538 347.515 806.349 347.979  c
h
805.294 349.019 m
804.713 349.468 804.319 349.860 804.111 350.194  c
803.904 350.529 803.800 350.945 803.800 351.443  c
803.800 352.063 804.000 352.565 804.400 352.948  c
804.801 353.331 805.328 353.523 805.982 353.523  c
806.612 353.523 807.126 353.359 807.524 353.032  c
807.922 352.705 808.121 352.280 808.121 351.758  c
808.121 351.338 807.998 350.983 807.751 350.692  c
807.505 350.402 807.027 350.046 806.319 349.626  c
h
812.252 354.270 m
812.252 353.047 l
813.170 353.364 813.951 353.523 814.596 353.523  c
815.494 353.523 816.196 353.141 816.701 352.377  c
817.207 351.613 817.459 350.549 817.459 349.187  c
816.727 350.090 815.895 350.542 814.962 350.542  c
814.049 350.542 813.275 350.206 812.640 349.535  c
812.005 348.864 811.688 348.044 811.688 347.078  c
811.688 345.969 812.026 345.050 812.702 344.320  c
813.379 343.590 814.229 343.225 815.255 343.225  c
816.432 343.225 817.359 343.698 818.038 344.642  c
818.717 345.587 819.056 346.880 819.056 348.521  c
819.056 350.386 818.642 351.866 817.815 352.963  c
816.987 354.059 815.868 354.607 814.457 354.607  c
813.890 354.607 813.155 354.495 812.252 354.270  c
h
813.131 346.792 m
813.131 347.632 813.318 348.293 813.691 348.777  c
814.065 349.260 814.576 349.502 815.226 349.502  c
815.836 349.502 816.357 349.294 816.789 348.879  c
817.221 348.464 817.438 347.964 817.438 347.378  c
817.438 346.455 817.229 345.712 816.811 345.148  c
816.394 344.584 815.846 344.302 815.167 344.302  c
814.537 344.302 814.040 344.525 813.677 344.972  c
813.313 345.419 813.131 346.025 813.131 346.792  c
h
821.554 354.255 m
821.554 352.908 l
822.589 353.318 823.404 353.523 824.000 353.523  c
824.688 353.523 825.249 353.322 825.681 352.919  c
826.113 352.516 826.329 351.995 826.329 351.355  c
826.329 349.832 825.262 349.070 823.128 349.070  c
822.557 349.070 l
822.557 348.096 l
823.062 348.088 l
825.064 348.088 826.065 347.383 826.065 345.972  c
826.065 344.863 825.406 344.309 824.088 344.309  c
823.365 344.309 822.569 344.512 821.700 344.917  c
821.700 343.657 l
822.555 343.369 823.385 343.225 824.190 343.225  c
826.407 343.225 827.516 344.062 827.516 345.737  c
827.516 347.012 826.761 347.920 825.252 348.462  c
827.000 348.867 827.875 349.824 827.875 351.333  c
827.875 352.354 827.538 353.154 826.864 353.735  c
826.190 354.316 825.265 354.607 824.088 354.607  c
823.419 354.607 822.574 354.490 821.554 354.255  c
h
834.217 354.607 m
833.099 354.607 832.195 354.081 831.504 353.029  c
830.813 351.976 830.467 350.603 830.467 348.909  c
830.467 347.200 830.815 345.825 831.511 344.785  c
832.207 343.745 833.124 343.225 834.261 343.225  c
835.399 343.225 836.316 343.745 837.011 344.785  c
837.707 345.825 838.055 347.192 838.055 348.887  c
838.055 350.625 837.707 352.013 837.011 353.051  c
836.316 354.088 835.384 354.607 834.217 354.607  c
h
834.232 353.523 m
835.760 353.523 836.524 351.970 836.524 348.865  c
836.524 345.828 835.770 344.309 834.261 344.309  c
832.757 344.309 832.005 345.842 832.005 348.909  c
832.005 351.985 832.748 353.523 834.232 353.523  c
h
f
2 J
10.0000 M
.792157 .925490 1.00000 RG
1 J
1.45000 M
[ 0.00000 4.00000 ] 2.00000 d
.400000 .400000 .600000 RG
newpath
422.000 341.834 m
422.000 581.500 l
422.000 583.709 423.791 585.500 426.000 585.500  c
837.000 585.500 l
839.209 585.500 841.000 583.709 841.000 581.500  c
841.000 341.834 l
841.000 339.625 839.209 337.834 837.000 337.834  c
426.000 337.834 l
423.791 337.834 422.000 339.625 422.000 341.834  c
h
S
2 J
10.0000 M
[ ] 0.00000 d
0.00000 0.00000 0.00000 RG
1.00000 .800000 0.00000 RG
newpath
715.000 484.000 m
715.000 493.665 701.792 501.500 685.500 501.500  c
669.208 501.500 656.000 493.665 656.000 484.000  c
656.000 474.335 669.208 466.500 685.500 466.500  c
701.792 466.500 715.000 474.335 715.000 484.000  c
h
f
0 J
1.45000 M
0.00000 0.00000 0.00000 RG
newpath
715.000 484.000 m
715.000 493.665 701.792 501.500 685.500 501.500  c
669.208 501.500 656.000 493.665 656.000 484.000  c
656.000 474.335 669.208 466.500 685.500 466.500  c
701.792 466.500 715.000 474.335 715.000 484.000  c
h
S
2 J
10.0000 M
1.00000 .800000 0.00000 RG
newpath
826.000 414.500 m
826.000 436.591 807.868 454.500 785.500 454.500  c
763.132 454.500 745.000 436.591 745.000 414.500  c
745.000 392.409 763.132 374.500 785.500 374.500  c
807.868 374.500 826.000 392.409 826.000 414.500  c
h
f
0 J
1.45000 M
0.00000 0.00000 0.00000 RG
newpath
826.000 414.500 m
826.000 436.591 807.868 454.500 785.500 454.500  c
763.132 454.500 745.000 436.591 745.000 414.500  c
745.000 392.409 763.132 374.500 785.500 374.500  c
807.868 374.500 826.000 392.409 826.000 414.500  c
h
S
2 J
10.0000 M
0 J
1.45000 M
newpath
775.237 419.035 m
775.237 410.363 l
777.862 410.363 l
778.694 410.363 779.332 410.547 779.775 410.914  c
780.219 411.281 780.440 411.814 780.440 412.514  c
780.440 413.670 779.856 414.490 778.688 414.975  c
781.583 419.035 l
780.071 419.035 l
777.604 415.367 l
776.456 415.367 l
776.456 419.035 l
h
776.456 414.447 m
776.854 414.447 l
778.401 414.447 779.175 413.840 779.175 412.625  c
779.175 411.730 778.526 411.283 777.229 411.283  c
776.456 411.283 l
h
784.888 419.035 m
784.888 411.283 l
781.812 411.283 l
781.812 410.363 l
789.194 410.363 l
789.194 411.283 l
786.118 411.283 l
786.118 419.035 l
h
790.753 419.070 m
790.753 418.039 l
791.327 418.270 791.874 418.385 792.394 418.385  c
792.964 418.385 793.412 418.217 793.738 417.881  c
794.064 417.545 794.228 417.082 794.228 416.492  c
794.228 415.191 793.331 414.541 791.538 414.541  c
791.335 414.541 791.122 414.555 790.899 414.582  c
790.899 410.363 l
795.288 410.363 l
795.288 411.371 l
791.913 411.371 l
791.913 413.656 l
793.026 413.656 793.896 413.912 794.521 414.424  c
795.146 414.936 795.458 415.645 795.458 416.551  c
795.458 417.395 795.174 418.056 794.605 418.534  c
794.037 419.013 793.249 419.252 792.241 419.252  c
791.804 419.252 791.308 419.191 790.753 419.070  c
h
f
2 J
10.0000 M
1.00000 .800000 0.00000 RG
newpath
518.000 414.500 m
518.000 436.591 499.868 454.500 477.500 454.500  c
455.132 454.500 437.000 436.591 437.000 414.500  c
437.000 392.409 455.132 374.500 477.500 374.500  c
499.868 374.500 518.000 392.409 518.000 414.500  c
h
f
0 J
1.45000 M
0.00000 0.00000 0.00000 RG
newpath
518.000 414.500 m
518.000 436.591 499.868 454.500 477.500 454.500  c
455.132 454.500 437.000 436.591 437.000 414.500  c
437.000 392.409 455.132 374.500 477.500 374.500  c
499.868 374.500 518.000 392.409 518.000 414.500  c
h
S
2 J
10.0000 M
0 J
1.45000 M
newpath
467.237 419.035 m
467.237 410.363 l
469.862 410.363 l
470.694 410.363 471.332 410.547 471.775 410.914  c
472.219 411.281 472.440 411.814 472.440 412.514  c
472.440 413.670 471.856 414.490 470.688 414.975  c
473.583 419.035 l
472.071 419.035 l
469.604 415.367 l
468.456 415.367 l
468.456 419.035 l
h
468.456 414.447 m
468.854 414.447 l
470.401 414.447 471.175 413.840 471.175 412.625  c
471.175 411.730 470.526 411.283 469.229 411.283  c
468.456 411.283 l
h
476.888 419.035 m
476.888 411.283 l
473.812 411.283 l
473.812 410.363 l
481.194 410.363 l
481.194 411.283 l
478.118 411.283 l
478.118 419.035 l
h
485.812 419.035 m
485.812 416.580 l
481.909 416.580 l
481.909 415.707 l
485.812 410.363 l
486.896 410.363 l
486.896 415.637 l
488.056 415.637 l
488.056 416.580 l
486.896 416.580 l
486.896 419.035 l
h
483.040 415.637 m
485.888 415.637 l
485.888 411.781 l
h
f
2 J
10.0000 M
1.00000 .800000 0.00000 RG
newpath
597.500 484.000 m
597.500 493.665 584.292 501.500 568.000 501.500  c
551.708 501.500 538.500 493.665 538.500 484.000  c
538.500 474.335 551.708 466.500 568.000 466.500  c
584.292 466.500 597.500 474.335 597.500 484.000  c
h
f
0 J
1.45000 M
0.00000 0.00000 0.00000 RG
newpath
597.500 484.000 m
597.500 493.665 584.292 501.500 568.000 501.500  c
551.708 501.500 538.500 493.665 538.500 484.000  c
538.500 474.335 551.708 466.500 568.000 466.500  c
584.292 466.500 597.500 474.335 597.500 484.000  c
h
S
2 J
10.0000 M
0 J
1.45000 M
newpath
685.500 466.500 m
685.500 414.500 l
711.500 414.500 l
745.019 414.500 l
S
2 J
10.0000 M
0 J
1.45000 M
newpath
526.000 414.500 m
737.000 414.500 l
S
newpath
518.000 414.500 m
530.000 419.500 l
527.000 414.500 l
530.000 409.500 l
h
f
newpath
745.000 414.500 m
733.000 409.500 l
736.000 414.500 l
733.000 419.500 l
h
f
newpath
600.773 419.035 m
600.773 417.664 l
600.867 417.535 l
601.332 416.914 601.809 416.391 602.297 415.965  c
603.006 415.338 l
604.174 414.307 604.758 413.402 604.758 412.625  c
604.758 411.719 604.242 411.266 603.211 411.266  c
602.574 411.266 601.836 411.480 600.996 411.910  c
600.996 410.639 l
601.879 410.311 602.732 410.146 603.557 410.146  c
604.479 410.146 605.217 410.364 605.771 410.800  c
606.326 411.235 606.604 411.818 606.604 412.549  c
606.604 413.053 606.469 413.512 606.199 413.926  c
605.930 414.340 605.455 414.820 604.775 415.367  c
604.189 415.836 l
603.373 416.492 602.889 417.102 602.736 417.664  c
606.568 417.664 l
606.568 419.035 l
h
608.373 419.035 m
608.373 417.154 l
610.254 417.154 l
610.254 419.035 l
h
611.654 419.035 m
611.654 417.664 l
611.748 417.535 l
612.213 416.914 612.689 416.391 613.178 415.965  c
613.887 415.338 l
615.055 414.307 615.639 413.402 615.639 412.625  c
615.639 411.719 615.123 411.266 614.092 411.266  c
613.455 411.266 612.717 411.480 611.877 411.910  c
611.877 410.639 l
612.760 410.311 613.613 410.146 614.438 410.146  c
615.359 410.146 616.098 410.364 616.652 410.800  c
617.207 411.235 617.484 411.818 617.484 412.549  c
617.484 413.053 617.350 413.512 617.080 413.926  c
616.811 414.340 616.336 414.820 615.656 415.367  c
615.070 415.836 l
614.254 416.492 613.770 417.102 613.617 417.664  c
617.449 417.664 l
617.449 419.035 l
h
619.254 419.035 m
619.254 417.154 l
621.135 417.154 l
621.135 419.035 l
h
622.535 419.035 m
622.535 417.664 l
622.629 417.535 l
623.094 416.914 623.570 416.391 624.059 415.965  c
624.768 415.338 l
625.936 414.307 626.520 413.402 626.520 412.625  c
626.520 411.719 626.004 411.266 624.973 411.266  c
624.336 411.266 623.598 411.480 622.758 411.910  c
622.758 410.639 l
623.641 410.311 624.494 410.146 625.318 410.146  c
626.240 410.146 626.979 410.364 627.533 410.800  c
628.088 411.235 628.365 411.818 628.365 412.549  c
628.365 413.053 628.230 413.512 627.961 413.926  c
627.691 414.340 627.217 414.820 626.537 415.367  c
625.951 415.836 l
625.135 416.492 624.650 417.102 624.498 417.664  c
628.330 417.664 l
628.330 419.035 l
h
630.135 419.035 m
630.135 417.154 l
632.016 417.154 l
632.016 419.035 l
h
636.475 419.252 m
635.490 419.252 634.690 418.830 634.075 417.986  c
633.460 417.143 633.152 416.047 633.152 414.699  c
633.152 413.336 633.461 412.236 634.078 411.400  c
634.695 410.564 635.508 410.146 636.516 410.146  c
637.516 410.146 638.325 410.563 638.944 411.397  c
639.563 412.231 639.873 413.324 639.873 414.676  c
639.873 416.062 639.563 417.172 638.944 418.004  c
638.325 418.836 637.502 419.252 636.475 419.252  c
h
636.492 418.168 m
637.520 418.168 638.033 417.012 638.033 414.699  c
638.033 412.387 637.527 411.230 636.516 411.230  c
635.504 411.230 634.998 412.385 634.998 414.693  c
634.998 417.010 635.496 418.168 636.492 418.168  c
h
641.771 420.770 m
644.895 410.363 l
645.949 410.363 l
642.826 420.770 l
h
648.439 418.971 m
648.439 417.670 l
649.299 418.002 650.008 418.168 650.566 418.168  c
651.086 418.168 651.503 418.035 651.817 417.770  c
652.132 417.504 652.289 417.150 652.289 416.709  c
652.289 415.564 651.451 414.992 649.775 414.992  c
649.242 414.992 l
649.242 413.955 l
649.693 413.949 l
651.264 413.949 652.049 413.436 652.049 412.408  c
652.049 411.623 651.564 411.230 650.596 411.230  c
649.959 411.230 649.279 411.393 648.557 411.717  c
648.557 410.533 l
649.318 410.271 650.121 410.141 650.965 410.141  c
651.859 410.141 652.560 410.324 653.065 410.691  c
653.571 411.059 653.824 411.566 653.824 412.215  c
653.824 413.238 653.186 413.961 651.908 414.383  c
653.369 414.719 654.100 415.500 654.100 416.727  c
654.100 417.504 653.807 418.119 653.221 418.572  c
652.635 419.025 651.838 419.252 650.830 419.252  c
649.975 419.252 649.178 419.158 648.439 418.971  c
h
659.092 419.252 m
658.107 419.252 657.308 418.830 656.692 417.986  c
656.077 417.143 655.770 416.047 655.770 414.699  c
655.770 413.336 656.078 412.236 656.695 411.400  c
657.312 410.564 658.125 410.146 659.133 410.146  c
660.133 410.146 660.942 410.563 661.562 411.397  c
662.181 412.231 662.490 413.324 662.490 414.676  c
662.490 416.062 662.181 417.172 661.562 418.004  c
660.942 418.836 660.119 419.252 659.092 419.252  c
h
659.109 418.168 m
660.137 418.168 660.650 417.012 660.650 414.699  c
660.650 412.387 660.145 411.230 659.133 411.230  c
658.121 411.230 657.615 412.385 657.615 414.693  c
657.615 417.010 658.113 418.168 659.109 418.168  c
h
f
2 J
10.0000 M
0 J
1.45000 M
newpath
568.000 466.500 m
568.000 414.500 l
517.982 414.500 l
S
2 J
10.0000 M
.792157 .925490 1.00000 RG
newpath
422.000 160.834 m
422.000 284.500 l
422.000 286.709 423.791 288.500 426.000 288.500  c
529.000 288.500 l
531.209 288.500 533.000 286.709 533.000 284.500  c
533.000 160.834 l
533.000 158.625 531.209 156.834 529.000 156.834  c
426.000 156.834 l
423.791 156.834 422.000 158.625 422.000 160.834  c
h
f
.600000 .800000 1.00000 RG
newpath
422.000 156.834 m
533.000 156.834 l
533.000 178.500 l
422.000 178.500 l
422.000 156.834 l
h
f
.792157 .925490 1.00000 RG
0.00000 0.00000 0.00000 RG
0 J
1.45000 M
newpath
481.525 169.190 m
479.679 164.518 l
477.826 169.190 l
h
483.151 173.336 m
481.972 170.333 l
477.379 170.333 l
476.186 173.336 l
474.757 173.336 l
479.057 162.496 l
480.580 162.496 l
484.813 173.336 l
h
488.505 173.607 m
487.777 173.607 486.847 173.448 485.714 173.131  c
485.714 171.607 l
486.935 172.174 487.938 172.457 488.725 172.457  c
489.330 172.457 489.817 172.298 490.186 171.981  c
490.554 171.664 490.739 171.246 490.739 170.729  c
490.739 170.304 490.618 169.942 490.376 169.645  c
490.135 169.347 489.689 169.015 489.040 168.648  c
488.292 168.216 l
487.370 167.689 486.719 167.192 486.341 166.726  c
485.962 166.260 485.773 165.716 485.773 165.096  c
485.773 164.261 486.076 163.574 486.681 163.034  c
487.287 162.495 488.058 162.225 488.996 162.225  c
489.831 162.225 490.712 162.364 491.640 162.643  c
491.640 164.049 l
490.497 163.600 489.645 163.375 489.083 163.375  c
488.551 163.375 488.112 163.517 487.765 163.800  c
487.418 164.083 487.245 164.439 487.245 164.869  c
487.245 165.230 487.372 165.550 487.626 165.829  c
487.880 166.107 488.344 166.439 489.018 166.825  c
489.794 167.264 l
490.731 167.796 491.386 168.299 491.757 168.773  c
492.128 169.247 492.313 169.815 492.313 170.479  c
492.313 171.422 491.966 172.179 491.270 172.750  c
490.574 173.321 489.652 173.607 488.505 173.607  c
h
495.639 167.718 m
496.327 166.825 497.194 166.378 498.239 166.378  c
499.186 166.378 499.961 166.692 500.564 167.319  c
501.167 167.947 501.469 168.751 501.469 169.732  c
501.469 170.860 501.131 171.788 500.454 172.516  c
499.778 173.243 498.920 173.607 497.880 173.607  c
496.684 173.607 495.749 173.126 495.075 172.164  c
494.401 171.202 494.064 169.867 494.064 168.158  c
494.064 166.278 494.451 164.818 495.225 163.778  c
495.999 162.738 497.089 162.218 498.495 162.218  c
499.140 162.218 499.945 162.354 500.912 162.628  c
500.912 163.888 l
499.892 163.497 499.057 163.302 498.407 163.302  c
496.562 163.302 495.639 164.774 495.639 167.718  c
h
500.019 170.055 m
500.019 169.234 499.834 168.590 499.466 168.121  c
499.097 167.652 498.585 167.418 497.931 167.418  c
497.321 167.418 496.796 167.623 496.356 168.033  c
495.917 168.443 495.697 168.937 495.697 169.513  c
495.697 170.421 495.906 171.150 496.323 171.699  c
496.741 172.248 497.294 172.523 497.982 172.523  c
498.603 172.523 499.097 172.300 499.466 171.853  c
499.834 171.406 500.019 170.807 500.019 170.055  c
h
508.192 173.336 m
508.192 170.267 l
503.314 170.267 l
503.314 169.176 l
508.192 162.496 l
509.547 162.496 l
509.547 169.088 l
510.998 169.088 l
510.998 170.267 l
509.547 170.267 l
509.547 173.336 l
h
504.728 169.088 m
508.288 169.088 l
508.288 164.269 l
h
513.554 173.255 m
513.554 171.908 l
514.589 172.318 515.404 172.523 516.000 172.523  c
516.688 172.523 517.249 172.322 517.681 171.919  c
518.113 171.516 518.329 170.995 518.329 170.355  c
518.329 168.832 517.262 168.070 515.128 168.070  c
514.557 168.070 l
514.557 167.096 l
515.062 167.088 l
517.064 167.088 518.065 166.383 518.065 164.972  c
518.065 163.863 517.406 163.309 516.088 163.309  c
515.365 163.309 514.569 163.512 513.700 163.917  c
513.700 162.657 l
514.555 162.369 515.385 162.225 516.190 162.225  c
518.407 162.225 519.516 163.062 519.516 164.737  c
519.516 166.012 518.761 166.920 517.252 167.462  c
519.000 167.867 519.875 168.824 519.875 170.333  c
519.875 171.354 519.538 172.154 518.864 172.735  c
518.190 173.316 517.265 173.607 516.088 173.607  c
515.419 173.607 514.574 173.490 513.554 173.255  c
h
523.339 173.380 m
523.339 172.091 l
524.057 172.379 524.740 172.523 525.390 172.523  c
526.103 172.523 526.663 172.313 527.071 171.893  c
527.478 171.473 527.682 170.895 527.682 170.157  c
527.682 168.531 526.562 167.718 524.320 167.718  c
524.066 167.718 523.800 167.735 523.522 167.770  c
523.522 162.496 l
529.008 162.496 l
529.008 163.756 l
524.789 163.756 l
524.789 166.612 l
526.181 166.612 527.267 166.932 528.048 167.572  c
528.830 168.211 529.220 169.098 529.220 170.230  c
529.220 171.285 528.865 172.112 528.155 172.710  c
527.444 173.308 526.459 173.607 525.199 173.607  c
524.652 173.607 524.032 173.531 523.339 173.380  c
h
f
2 J
10.0000 M
.792157 .925490 1.00000 RG
1 J
1.45000 M
[ 0.00000 4.00000 ] 2.00000 d
.400000 .400000 .600000 RG
newpath
422.000 160.834 m
422.000 284.500 l
422.000 286.709 423.791 288.500 426.000 288.500  c
529.000 288.500 l
531.209 288.500 533.000 286.709 533.000 284.500  c
533.000 160.834 l
533.000 158.625 531.209 156.834 529.000 156.834  c
426.000 156.834 l
423.791 156.834 422.000 158.625 422.000 160.834  c
h
S
2 J
10.0000 M
[ ] 0.00000 d
0.00000 0.00000 0.00000 RG
1.00000 .800000 0.00000 RG
newpath
518.000 233.500 m
518.000 255.591 499.868 273.500 477.500 273.500  c
455.132 273.500 437.000 255.591 437.000 233.500  c
437.000 211.409 455.132 193.500 477.500 193.500  c
499.868 193.500 518.000 211.409 518.000 233.500  c
h
f
0 J
1.45000 M
0.00000 0.00000 0.00000 RG
newpath
518.000 233.500 m
518.000 255.591 499.868 273.500 477.500 273.500  c
455.132 273.500 437.000 255.591 437.000 233.500  c
437.000 211.409 455.132 193.500 477.500 193.500  c
499.868 193.500 518.000 211.409 518.000 233.500  c
h
S
2 J
10.0000 M
0 J
1.45000 M
newpath
467.237 238.035 m
467.237 229.363 l
469.862 229.363 l
470.694 229.363 471.332 229.547 471.775 229.914  c
472.219 230.281 472.440 230.814 472.440 231.514  c
472.440 232.670 471.856 233.490 470.688 233.975  c
473.583 238.035 l
472.071 238.035 l
469.604 234.367 l
468.456 234.367 l
468.456 238.035 l
h
468.456 233.447 m
468.854 233.447 l
470.401 233.447 471.175 232.840 471.175 231.625  c
471.175 230.730 470.526 230.283 469.229 230.283  c
468.456 230.283 l
h
476.888 238.035 m
476.888 230.283 l
473.812 230.283 l
473.812 229.363 l
481.194 229.363 l
481.194 230.283 l
478.118 230.283 l
478.118 238.035 l
h
483.099 238.035 m
483.099 237.168 l
484.833 237.168 l
484.833 230.324 l
483.099 230.758 l
483.099 229.867 l
485.993 229.146 l
485.993 237.168 l
487.728 237.168 l
487.728 238.035 l
h
f
2 J
10.0000 M
3.00000 w
0 J
1.45000 M
newpath
422.006 222.667 m
393.500 222.667 l
393.500 414.500 l
427.000 414.500 l
S
newpath
437.000 414.500 m
422.000 408.250 l
425.750 414.500 l
422.000 420.750 l
h
f
1.00000 w
newpath
330.797 323.786 m
330.797 322.049 l
331.887 322.505 332.819 322.733 333.593 322.733  c
334.136 322.733 334.563 322.612 334.875 322.371  c
335.187 322.129 335.343 321.801 335.343 321.386  c
335.343 321.058 335.245 320.781 335.049 320.556  c
334.853 320.330 334.482 320.062 333.935 319.752  c
333.258 319.376 l
332.351 318.866 331.711 318.377 331.337 317.910  c
330.964 317.443 330.777 316.897 330.777 316.273  c
330.777 315.439 331.083 314.769 331.696 314.263  c
332.309 313.757 333.119 313.504 334.126 313.504  c
334.933 313.504 335.842 313.621 336.854 313.853  c
336.854 315.473 l
335.819 315.086 335.001 314.892 334.400 314.892  c
333.935 314.892 333.562 314.996 333.282 315.203  c
333.002 315.410 332.862 315.683 332.862 316.020  c
332.862 316.298 332.960 316.542 333.156 316.751  c
333.352 316.961 333.721 317.219 334.263 317.524  c
334.988 317.927 l
335.963 318.474 336.635 318.978 337.004 319.438  c
337.374 319.898 337.558 320.459 337.558 321.120  c
337.558 322.058 337.209 322.794 336.512 323.328  c
335.815 323.861 334.853 324.127 333.627 324.127  c
332.816 324.127 331.873 324.014 330.797 323.786  c
h
345.474 323.622 m
344.513 323.904 343.601 324.045 342.740 324.045  c
341.486 324.045 340.498 323.690 339.773 322.979  c
339.048 322.268 338.686 321.297 338.686 320.067  c
338.686 318.905 339.018 317.969 339.681 317.261  c
340.344 316.552 341.220 316.198 342.309 316.198  c
343.407 316.198 344.209 316.544 344.715 317.237  c
345.221 317.930 345.474 319.026 345.474 320.525  c
340.819 320.525 l
340.956 321.956 341.742 322.671 343.177 322.671  c
343.856 322.671 344.622 322.514 345.474 322.200  c
h
340.792 319.383 m
343.485 319.383 l
343.485 318.103 343.072 317.462 342.248 317.462  c
341.409 317.462 340.924 318.103 340.792 319.383  c
h
351.435 323.833 m
350.952 323.975 350.571 324.045 350.293 324.045  c
348.539 324.045 347.662 323.225 347.662 321.584  c
347.662 317.633 l
346.821 317.633 l
346.821 316.369 l
347.662 316.369 l
347.662 315.104 l
349.685 314.872 l
349.685 316.369 l
351.292 316.369 l
351.292 317.633 l
349.685 317.633 l
349.685 321.318 l
349.685 322.238 350.061 322.699 350.813 322.699  c
350.986 322.699 351.194 322.667 351.435 322.603  c
h
357.854 323.875 m
357.854 313.081 l
359.877 313.081 l
359.877 323.875 l
h
365.558 324.045 m
364.387 324.045 363.456 323.691 362.766 322.982  c
362.075 322.274 361.730 321.320 361.730 320.122  c
361.730 318.909 362.077 317.952 362.772 317.250  c
363.467 316.549 364.412 316.198 365.606 316.198  c
366.805 316.198 367.751 316.549 368.446 317.250  c
369.141 317.952 369.489 318.905 369.489 320.108  c
369.489 321.338 369.140 322.302 368.443 323.000  c
367.746 323.697 366.784 324.045 365.558 324.045  c
h
365.592 322.781 m
366.754 322.781 367.335 321.890 367.335 320.108  c
367.335 319.292 367.182 318.647 366.874 318.173  c
366.566 317.699 366.144 317.462 365.606 317.462  c
365.073 317.462 364.652 317.699 364.345 318.173  c
364.037 318.647 363.883 319.297 363.883 320.122  c
363.883 320.937 364.036 321.584 364.341 322.063  c
364.647 322.542 365.064 322.781 365.592 322.781  c
h
376.885 323.710 m
376.047 323.934 375.270 324.045 374.554 324.045  c
373.356 324.045 372.409 323.693 371.714 322.989  c
371.019 322.285 370.671 321.327 370.671 320.115  c
370.671 318.889 371.029 317.930 371.745 317.237  c
372.460 316.544 373.449 316.198 374.711 316.198  c
375.322 316.198 376.026 316.296 376.824 316.492  c
376.824 317.955 l
375.994 317.686 375.331 317.551 374.834 317.551  c
374.228 317.551 373.741 317.784 373.372 318.249  c
373.002 318.713 372.818 319.331 372.818 320.101  c
372.818 320.889 373.017 321.521 373.416 321.995  c
373.815 322.469 374.347 322.706 375.012 322.706  c
375.618 322.706 376.243 322.573 376.885 322.309  c
h
382.477 323.068 m
381.803 323.720 381.080 324.045 380.310 324.045  c
379.654 324.045 379.121 323.845 378.710 323.444  c
378.300 323.043 378.095 322.523 378.095 321.885  c
378.095 321.056 378.427 320.417 379.090 319.968  c
379.753 319.519 380.702 319.294 381.937 319.294  c
382.477 319.294 l
382.477 318.611 l
382.477 317.832 382.033 317.442 381.144 317.442  c
380.356 317.442 379.558 317.665 378.751 318.112  c
378.751 316.717 l
379.667 316.371 380.574 316.198 381.472 316.198  c
383.436 316.198 384.418 316.979 384.418 318.542  c
384.418 321.865 l
384.418 322.453 384.608 322.747 384.986 322.747  c
385.054 322.747 385.143 322.737 385.252 322.719  c
385.300 323.854 l
384.872 323.982 384.494 324.045 384.166 324.045  c
383.336 324.045 382.803 323.720 382.566 323.068  c
h
382.477 321.981 m
382.477 320.457 l
381.999 320.457 l
380.691 320.457 380.037 320.867 380.037 321.687  c
380.037 321.965 380.131 322.199 380.320 322.388  c
380.509 322.577 380.743 322.671 381.021 322.671  c
381.495 322.671 381.980 322.441 382.477 321.981  c
h
387.030 323.875 m
387.030 313.081 l
389.053 313.081 l
389.053 323.875 l
h
396.197 326.575 m
396.197 316.369 l
398.220 316.369 l
398.220 317.784 l
398.740 316.726 399.558 316.198 400.674 316.198  c
401.577 316.198 402.286 316.528 402.804 317.189  c
403.321 317.850 403.580 318.759 403.580 319.917  c
403.580 321.174 403.288 322.177 402.705 322.924  c
402.121 323.672 401.340 324.045 400.360 324.045  c
399.571 324.045 398.858 323.736 398.220 323.116  c
398.220 326.575 l
h
398.220 321.913 m
398.712 322.459 399.236 322.733 399.792 322.733  c
400.289 322.733 400.686 322.493 400.982 322.012  c
401.278 321.531 401.426 320.889 401.426 320.087  c
401.426 318.552 400.932 317.784 399.943 317.784  c
399.346 317.784 398.772 318.169 398.220 318.939  c
h
405.473 323.875 m
405.473 316.369 l
407.497 316.369 l
407.497 317.784 l
408.021 316.726 408.818 316.198 409.889 316.198  c
410.017 316.198 410.142 316.211 410.265 316.239  c
410.265 318.043 l
409.978 317.939 409.711 317.886 409.465 317.886  c
408.659 317.886 408.002 318.294 407.497 319.110  c
407.497 323.875 l
h
417.949 323.622 m
416.987 323.904 416.076 324.045 415.214 324.045  c
413.961 324.045 412.972 323.690 412.248 322.979  c
411.523 322.268 411.161 321.297 411.161 320.067  c
411.161 318.905 411.492 317.969 412.155 317.261  c
412.818 316.552 413.694 316.198 414.784 316.198  c
415.882 316.198 416.684 316.544 417.190 317.237  c
417.696 317.930 417.949 319.026 417.949 320.525  c
413.293 320.525 l
413.430 321.956 414.216 322.671 415.652 322.671  c
416.331 322.671 417.097 322.514 417.949 322.200  c
h
413.266 319.383 m
415.959 319.383 l
415.959 318.103 415.547 317.462 414.722 317.462  c
413.884 317.462 413.398 318.103 413.266 319.383  c
h
420.252 323.875 m
420.252 317.633 l
419.220 317.633 l
419.220 316.369 l
420.252 316.369 l
420.252 315.829 l
420.252 313.883 421.175 312.910 423.021 312.910  c
423.618 312.910 424.233 312.996 424.867 313.169  c
424.867 314.537 l
424.292 314.295 423.778 314.174 423.322 314.174  c
422.625 314.174 422.276 314.701 422.276 315.753  c
422.276 316.369 l
424.176 316.369 l
424.176 317.633 l
422.276 317.633 l
422.276 323.875 l
h
431.163 323.875 m
431.163 322.692 l
433.186 322.692 l
433.186 315.227 l
431.163 315.733 l
431.163 314.516 l
435.216 313.504 l
435.216 322.692 l
437.240 322.692 l
437.240 323.875 l
h
440.166 323.833 m
440.166 322.364 l
441.027 322.696 441.745 322.863 442.319 322.863  c
442.898 322.863 443.357 322.691 443.696 322.347  c
444.036 322.003 444.206 321.537 444.206 320.949  c
444.206 319.500 443.164 318.775 441.082 318.775  c
440.835 318.775 440.589 318.795 440.343 318.836  c
440.343 313.757 l
446.154 313.757 l
446.154 315.357 l
441.820 315.357 l
441.717 317.538 l
443.176 317.538 444.314 317.836 445.132 318.433  c
445.950 319.030 446.359 319.864 446.359 320.935  c
446.359 321.924 446.001 322.703 445.286 323.273  c
444.570 323.843 443.590 324.127 442.346 324.127  c
441.818 324.127 441.091 324.029 440.166 323.833  c
h
452.238 324.127 m
451.089 324.127 450.156 323.635 449.438 322.651  c
448.721 321.667 448.362 320.388 448.362 318.816  c
448.362 317.225 448.722 315.943 449.442 314.967  c
450.162 313.992 451.110 313.504 452.286 313.504  c
453.452 313.504 454.397 313.991 455.119 314.964  c
455.841 315.937 456.203 317.212 456.203 318.789  c
456.203 320.406 455.841 321.701 455.119 322.671  c
454.397 323.642 453.436 324.127 452.238 324.127  c
h
452.258 322.863 m
453.457 322.863 454.056 321.514 454.056 318.816  c
454.056 316.118 453.466 314.769 452.286 314.769  c
451.105 314.769 450.515 316.116 450.515 318.809  c
450.515 321.512 451.096 322.863 452.258 322.863  c
h
f
3.00000 w
1.00000 w
2 J
10.0000 M
0 J
1.45000 M
newpath
477.500 374.500 m
477.500 273.500 l
S
newpath
477.600 328.535 m
477.600 327.521 l
479.334 327.521 l
479.334 321.123 l
477.600 321.557 l
477.600 320.514 l
481.074 319.646 l
481.074 327.521 l
482.809 327.521 l
482.809 328.535 l
h
484.373 328.535 m
484.373 326.654 l
486.254 326.654 l
486.254 328.535 l
h
488.480 328.535 m
488.480 327.521 l
490.215 327.521 l
490.215 321.123 l
488.480 321.557 l
488.480 320.514 l
491.955 319.646 l
491.955 327.521 l
493.689 327.521 l
493.689 328.535 l
h
495.254 328.535 m
495.254 326.654 l
497.135 326.654 l
497.135 328.535 l
h
499.361 328.535 m
499.361 327.521 l
501.096 327.521 l
501.096 321.123 l
499.361 321.557 l
499.361 320.514 l
502.836 319.646 l
502.836 327.521 l
504.570 327.521 l
504.570 328.535 l
h
506.135 328.535 m
506.135 326.654 l
508.016 326.654 l
508.016 328.535 l
h
512.475 328.752 m
511.490 328.752 510.690 328.330 510.075 327.486  c
509.460 326.643 509.152 325.547 509.152 324.199  c
509.152 322.836 509.461 321.736 510.078 320.900  c
510.695 320.064 511.508 319.646 512.516 319.646  c
513.516 319.646 514.325 320.063 514.944 320.897  c
515.563 321.731 515.873 322.824 515.873 324.176  c
515.873 325.562 515.563 326.672 514.944 327.504  c
514.325 328.336 513.502 328.752 512.475 328.752  c
h
512.492 327.668 m
513.520 327.668 514.033 326.512 514.033 324.199  c
514.033 321.887 513.527 320.730 512.516 320.730  c
511.504 320.730 510.998 321.885 510.998 324.193  c
510.998 326.510 511.496 327.668 512.492 327.668  c
h
517.771 330.270 m
520.895 319.863 l
521.949 319.863 l
518.826 330.270 l
h
524.439 328.471 m
524.439 327.170 l
525.299 327.502 526.008 327.668 526.566 327.668  c
527.086 327.668 527.503 327.535 527.817 327.270  c
528.132 327.004 528.289 326.650 528.289 326.209  c
528.289 325.064 527.451 324.492 525.775 324.492  c
525.242 324.492 l
525.242 323.455 l
525.693 323.449 l
527.264 323.449 528.049 322.936 528.049 321.908  c
528.049 321.123 527.564 320.730 526.596 320.730  c
525.959 320.730 525.279 320.893 524.557 321.217  c
524.557 320.033 l
525.318 319.771 526.121 319.641 526.965 319.641  c
527.859 319.641 528.560 319.824 529.065 320.191  c
529.571 320.559 529.824 321.066 529.824 321.715  c
529.824 322.738 529.186 323.461 527.908 323.883  c
529.369 324.219 530.100 325.000 530.100 326.227  c
530.100 327.004 529.807 327.619 529.221 328.072  c
528.635 328.525 527.838 328.752 526.830 328.752  c
525.975 328.752 525.178 328.658 524.439 328.471  c
h
535.092 328.752 m
534.107 328.752 533.308 328.330 532.692 327.486  c
532.077 326.643 531.770 325.547 531.770 324.199  c
531.770 322.836 532.078 321.736 532.695 320.900  c
533.312 320.064 534.125 319.646 535.133 319.646  c
536.133 319.646 536.942 320.063 537.562 320.897  c
538.181 321.731 538.490 322.824 538.490 324.176  c
538.490 325.562 538.181 326.672 537.562 327.504  c
536.942 328.336 536.119 328.752 535.092 328.752  c
h
535.109 327.668 m
536.137 327.668 536.650 326.512 536.650 324.199  c
536.650 321.887 536.145 320.730 535.133 320.730  c
534.121 320.730 533.615 321.885 533.615 324.193  c
533.615 326.510 534.113 327.668 535.109 327.668  c
h
f
2 J
10.0000 M
.792157 .925490 1.00000 RG
newpath
730.000 160.834 m
730.000 284.500 l
730.000 286.709 731.791 288.500 734.000 288.500  c
837.000 288.500 l
839.209 288.500 841.000 286.709 841.000 284.500  c
841.000 160.834 l
841.000 158.625 839.209 156.834 837.000 156.834  c
734.000 156.834 l
731.791 156.834 730.000 158.625 730.000 160.834  c
h
f
.600000 .800000 1.00000 RG
newpath
730.000 156.834 m
841.000 156.834 l
841.000 178.500 l
730.000 178.500 l
730.000 156.834 l
h
f
.792157 .925490 1.00000 RG
0.00000 0.00000 0.00000 RG
0 J
1.45000 M
newpath
789.525 169.190 m
787.679 164.518 l
785.826 169.190 l
h
791.151 173.336 m
789.972 170.333 l
785.379 170.333 l
784.186 173.336 l
782.757 173.336 l
787.057 162.496 l
788.580 162.496 l
792.813 173.336 l
h
796.505 173.607 m
795.777 173.607 794.847 173.448 793.714 173.131  c
793.714 171.607 l
794.935 172.174 795.938 172.457 796.725 172.457  c
797.330 172.457 797.817 172.298 798.186 171.981  c
798.554 171.664 798.739 171.246 798.739 170.729  c
798.739 170.304 798.618 169.942 798.376 169.645  c
798.135 169.347 797.689 169.015 797.040 168.648  c
796.292 168.216 l
795.370 167.689 794.719 167.192 794.341 166.726  c
793.962 166.260 793.773 165.716 793.773 165.096  c
793.773 164.261 794.076 163.574 794.681 163.034  c
795.287 162.495 796.058 162.225 796.996 162.225  c
797.831 162.225 798.712 162.364 799.640 162.643  c
799.640 164.049 l
798.497 163.600 797.645 163.375 797.083 163.375  c
796.551 163.375 796.112 163.517 795.765 163.800  c
795.418 164.083 795.245 164.439 795.245 164.869  c
795.245 165.230 795.372 165.550 795.626 165.829  c
795.880 166.107 796.344 166.439 797.018 166.825  c
797.794 167.264 l
798.731 167.796 799.386 168.299 799.757 168.773  c
800.128 169.247 800.313 169.815 800.313 170.479  c
800.313 171.422 799.966 172.179 799.270 172.750  c
798.574 173.321 797.652 173.607 796.505 173.607  c
h
803.316 173.336 m
803.316 172.252 l
805.484 172.252 l
805.484 163.697 l
803.316 164.239 l
803.316 163.126 l
806.935 162.225 l
806.935 172.252 l
809.103 172.252 l
809.103 173.336 l
h
811.791 173.336 m
811.791 172.069 l
812.210 171.087 813.060 170.018 814.339 168.861  c
815.167 168.121 l
816.231 167.159 816.764 166.205 816.764 165.257  c
816.764 164.652 816.582 164.176 816.218 163.829  c
815.854 163.482 815.355 163.309 814.720 163.309  c
813.968 163.309 813.082 163.600 812.062 164.181  c
812.062 162.906 l
813.023 162.452 813.978 162.225 814.925 162.225  c
815.941 162.225 816.756 162.499 817.372 163.045  c
817.987 163.592 818.294 164.317 818.294 165.221  c
818.294 165.870 818.139 166.446 817.829 166.949  c
817.519 167.452 816.942 168.062 816.097 168.780  c
815.541 169.256 l
814.383 170.238 813.714 171.175 813.534 172.069  c
818.243 172.069 l
818.243 173.336 l
h
821.554 173.255 m
821.554 171.908 l
822.589 172.318 823.404 172.523 824.000 172.523  c
824.688 172.523 825.249 172.322 825.681 171.919  c
826.113 171.516 826.329 170.995 826.329 170.355  c
826.329 168.832 825.262 168.070 823.128 168.070  c
822.557 168.070 l
822.557 167.096 l
823.062 167.088 l
825.064 167.088 826.065 166.383 826.065 164.972  c
826.065 163.863 825.406 163.309 824.088 163.309  c
823.365 163.309 822.569 163.512 821.700 163.917  c
821.700 162.657 l
822.555 162.369 823.385 162.225 824.190 162.225  c
826.407 162.225 827.516 163.062 827.516 164.737  c
827.516 166.012 826.761 166.920 825.252 167.462  c
827.000 167.867 827.875 168.824 827.875 170.333  c
827.875 171.354 827.538 172.154 826.864 172.735  c
826.190 173.316 825.265 173.607 824.088 173.607  c
823.419 173.607 822.574 173.490 821.554 173.255  c
h
831.222 173.270 m
831.222 172.047 l
832.140 172.364 832.921 172.523 833.565 172.523  c
834.464 172.523 835.166 172.141 835.671 171.377  c
836.177 170.613 836.429 169.549 836.429 168.187  c
835.697 169.090 834.864 169.542 833.932 169.542  c
833.019 169.542 832.245 169.206 831.610 168.535  c
830.975 167.864 830.658 167.044 830.658 166.078  c
830.658 164.969 830.996 164.050 831.672 163.320  c
832.348 162.590 833.199 162.225 834.225 162.225  c
835.401 162.225 836.329 162.698 837.008 163.642  c
837.687 164.587 838.026 165.880 838.026 167.521  c
838.026 169.386 837.612 170.866 836.784 171.963  c
835.957 173.059 834.837 173.607 833.426 173.607  c
832.860 173.607 832.125 173.495 831.222 173.270  c
h
832.101 165.792 m
832.101 166.632 832.287 167.293 832.661 167.777  c
833.034 168.260 833.546 168.502 834.195 168.502  c
834.806 168.502 835.327 168.294 835.759 167.879  c
836.191 167.464 836.407 166.964 836.407 166.378  c
836.407 165.455 836.198 164.712 835.781 164.148  c
835.364 163.584 834.815 163.302 834.137 163.302  c
833.507 163.302 833.010 163.525 832.646 163.972  c
832.282 164.419 832.101 165.025 832.101 165.792  c
h
f
2 J
10.0000 M
.792157 .925490 1.00000 RG
1 J
1.45000 M
[ 0.00000 4.00000 ] 2.00000 d
.400000 .400000 .600000 RG
newpath
730.000 160.834 m
730.000 284.500 l
730.000 286.709 731.791 288.500 734.000 288.500  c
837.000 288.500 l
839.209 288.500 841.000 286.709 841.000 284.500  c
841.000 160.834 l
841.000 158.625 839.209 156.834 837.000 156.834  c
734.000 156.834 l
731.791 156.834 730.000 158.625 730.000 160.834  c
h
S
2 J
10.0000 M
[ ] 0.00000 d
0.00000 0.00000 0.00000 RG
1.00000 .800000 0.00000 RG
newpath
826.000 233.500 m
826.000 255.591 807.868 273.500 785.500 273.500  c
763.132 273.500 745.000 255.591 745.000 233.500  c
745.000 211.409 763.132 193.500 785.500 193.500  c
807.868 193.500 826.000 211.409 826.000 233.500  c
h
f
0 J
1.45000 M
0.00000 0.00000 0.00000 RG
newpath
826.000 233.500 m
826.000 255.591 807.868 273.500 785.500 273.500  c
763.132 273.500 745.000 255.591 745.000 233.500  c
745.000 211.409 763.132 193.500 785.500 193.500  c
807.868 193.500 826.000 211.409 826.000 233.500  c
h
S
2 J
10.0000 M
0 J
1.45000 M
newpath
775.237 238.035 m
775.237 229.363 l
777.862 229.363 l
778.694 229.363 779.332 229.547 779.775 229.914  c
780.219 230.281 780.440 230.814 780.440 231.514  c
780.440 232.670 779.856 233.490 778.688 233.975  c
781.583 238.035 l
780.071 238.035 l
777.604 234.367 l
776.456 234.367 l
776.456 238.035 l
h
776.456 233.447 m
776.854 233.447 l
778.401 233.447 779.175 232.840 779.175 231.625  c
779.175 230.730 778.526 230.283 777.229 230.283  c
776.456 230.283 l
h
784.888 238.035 m
784.888 230.283 l
781.812 230.283 l
781.812 229.363 l
789.194 229.363 l
789.194 230.283 l
786.118 230.283 l
786.118 238.035 l
h
790.513 237.971 m
790.513 236.893 l
791.341 237.221 791.993 237.385 792.470 237.385  c
793.021 237.385 793.469 237.224 793.814 236.901  c
794.160 236.579 794.333 236.162 794.333 235.650  c
794.333 234.432 793.479 233.822 791.772 233.822  c
791.315 233.822 l
791.315 233.043 l
791.720 233.037 l
793.321 233.037 794.122 232.473 794.122 231.344  c
794.122 230.457 793.595 230.014 792.540 230.014  c
791.962 230.014 791.325 230.176 790.630 230.500  c
790.630 229.492 l
791.313 229.262 791.978 229.146 792.622 229.146  c
794.396 229.146 795.282 229.816 795.282 231.156  c
795.282 232.176 794.679 232.902 793.472 233.336  c
794.870 233.660 795.569 234.426 795.569 235.633  c
795.569 236.449 795.300 237.090 794.761 237.555  c
794.222 238.020 793.481 238.252 792.540 238.252  c
792.005 238.252 791.329 238.158 790.513 237.971  c
h
f
2 J
10.0000 M
3.00000 w
0 J
1.45000 M
newpath
840.973 222.667 m
896.500 222.667 l
896.500 414.500 l
836.000 414.500 l
S
newpath
826.000 414.500 m
841.000 420.750 l
837.250 414.500 l
841.000 408.250 l
h
f
1.00000 w
newpath
834.208 323.635 m
834.208 322.152 l
835.210 322.571 836.067 322.781 836.778 322.781  c
837.607 322.781 838.022 322.498 838.022 321.933  c
838.022 321.569 837.680 321.250 836.997 320.976  c
836.313 320.703 l
835.570 320.402 835.039 320.078 834.720 319.732  c
834.401 319.386 834.242 318.957 834.242 318.447  c
834.242 317.736 834.513 317.183 835.055 316.789  c
835.597 316.395 836.356 316.198 837.332 316.198  c
837.942 316.198 838.669 316.287 839.512 316.464  c
839.512 317.886 l
838.701 317.604 838.029 317.462 837.496 317.462  c
836.657 317.462 836.238 317.722 836.238 318.242  c
836.238 318.583 836.548 318.873 837.167 319.110  c
837.755 319.335 l
838.635 319.668 839.247 320.005 839.591 320.347  c
839.935 320.689 840.107 321.129 840.107 321.667  c
840.107 322.373 839.814 322.946 839.229 323.386  c
838.643 323.826 837.881 324.045 836.942 324.045  c
836.040 324.045 835.128 323.909 834.208 323.635  c
h
848.433 323.622 m
847.472 323.904 846.560 324.045 845.699 324.045  c
844.445 324.045 843.457 323.690 842.732 322.979  c
842.007 322.268 841.645 321.297 841.645 320.067  c
841.645 318.905 841.977 317.969 842.640 317.261  c
843.303 316.552 844.179 316.198 845.268 316.198  c
846.366 316.198 847.168 316.544 847.674 317.237  c
848.180 317.930 848.433 319.026 848.433 320.525  c
843.778 320.525 l
843.915 321.956 844.701 322.671 846.136 322.671  c
846.815 322.671 847.581 322.514 848.433 322.200  c
h
843.750 319.383 m
846.444 319.383 l
846.444 318.103 846.031 317.462 845.207 317.462  c
844.368 317.462 843.883 318.103 843.750 319.383  c
h
854.394 323.833 m
853.911 323.975 853.530 324.045 853.252 324.045  c
851.498 324.045 850.621 323.225 850.621 321.584  c
850.621 317.633 l
849.780 317.633 l
849.780 316.369 l
850.621 316.369 l
850.621 315.104 l
852.644 314.872 l
852.644 316.369 l
854.250 316.369 l
854.250 317.633 l
852.644 317.633 l
852.644 321.318 l
852.644 322.238 853.020 322.699 853.772 322.699  c
853.945 322.699 854.153 322.667 854.394 322.603  c
h
860.813 323.875 m
860.813 313.081 l
862.836 313.081 l
862.836 323.875 l
h
868.517 324.045 m
867.346 324.045 866.415 323.691 865.725 322.982  c
865.034 322.274 864.689 321.320 864.689 320.122  c
864.689 318.909 865.036 317.952 865.731 317.250  c
866.426 316.549 867.371 316.198 868.565 316.198  c
869.764 316.198 870.710 316.549 871.405 317.250  c
872.100 317.952 872.448 318.905 872.448 320.108  c
872.448 321.338 872.099 322.302 871.402 323.000  c
870.705 323.697 869.743 324.045 868.517 324.045  c
h
868.551 322.781 m
869.713 322.781 870.294 321.890 870.294 320.108  c
870.294 319.292 870.141 318.647 869.833 318.173  c
869.525 317.699 869.103 317.462 868.565 317.462  c
868.032 317.462 867.611 317.699 867.304 318.173  c
866.996 318.647 866.842 319.297 866.842 320.122  c
866.842 320.937 866.995 321.584 867.300 322.063  c
867.606 322.542 868.023 322.781 868.551 322.781  c
h
879.844 323.710 m
879.006 323.934 878.229 324.045 877.513 324.045  c
876.315 324.045 875.368 323.693 874.673 322.989  c
873.978 322.285 873.630 321.327 873.630 320.115  c
873.630 318.889 873.988 317.930 874.704 317.237  c
875.419 316.544 876.408 316.198 877.670 316.198  c
878.281 316.198 878.985 316.296 879.783 316.492  c
879.783 317.955 l
878.953 317.686 878.290 317.551 877.793 317.551  c
877.187 317.551 876.700 317.784 876.331 318.249  c
875.961 318.713 875.777 319.331 875.777 320.101  c
875.777 320.889 875.976 321.521 876.375 321.995  c
876.774 322.469 877.306 322.706 877.971 322.706  c
878.577 322.706 879.202 322.573 879.844 322.309  c
h
885.436 323.068 m
884.762 323.720 884.039 324.045 883.269 324.045  c
882.613 324.045 882.080 323.845 881.669 323.444  c
881.259 323.043 881.054 322.523 881.054 321.885  c
881.054 321.056 881.386 320.417 882.049 319.968  c
882.712 319.519 883.661 319.294 884.896 319.294  c
885.436 319.294 l
885.436 318.611 l
885.436 317.832 884.992 317.442 884.103 317.442  c
883.315 317.442 882.517 317.665 881.710 318.112  c
881.710 316.717 l
882.626 316.371 883.533 316.198 884.431 316.198  c
886.395 316.198 887.377 316.979 887.377 318.542  c
887.377 321.865 l
887.377 322.453 887.567 322.747 887.945 322.747  c
888.013 322.747 888.102 322.737 888.211 322.719  c
888.259 323.854 l
887.831 323.982 887.453 324.045 887.125 324.045  c
886.295 324.045 885.762 323.720 885.525 323.068  c
h
885.436 321.981 m
885.436 320.457 l
884.958 320.457 l
883.650 320.457 882.996 320.867 882.996 321.687  c
882.996 321.965 883.090 322.199 883.279 322.388  c
883.468 322.577 883.702 322.671 883.980 322.671  c
884.454 322.671 884.939 322.441 885.436 321.981  c
h
889.989 323.875 m
889.989 313.081 l
892.012 313.081 l
892.012 323.875 l
h
899.156 326.575 m
899.156 316.369 l
901.179 316.369 l
901.179 317.784 l
901.699 316.726 902.517 316.198 903.633 316.198  c
904.536 316.198 905.245 316.528 905.763 317.189  c
906.280 317.850 906.539 318.759 906.539 319.917  c
906.539 321.174 906.247 322.177 905.664 322.924  c
905.080 323.672 904.299 324.045 903.319 324.045  c
902.530 324.045 901.817 323.736 901.179 323.116  c
901.179 326.575 l
h
901.179 321.913 m
901.671 322.459 902.195 322.733 902.751 322.733  c
903.248 322.733 903.645 322.493 903.941 322.012  c
904.237 321.531 904.385 320.889 904.385 320.087  c
904.385 318.552 903.891 317.784 902.902 317.784  c
902.305 317.784 901.731 318.169 901.179 318.939  c
h
908.432 323.875 m
908.432 316.369 l
910.456 316.369 l
910.456 317.784 l
910.980 316.726 911.777 316.198 912.848 316.198  c
912.976 316.198 913.101 316.211 913.224 316.239  c
913.224 318.043 l
912.937 317.939 912.670 317.886 912.424 317.886  c
911.618 317.886 910.961 318.294 910.456 319.110  c
910.456 323.875 l
h
920.908 323.622 m
919.946 323.904 919.035 324.045 918.173 324.045  c
916.920 324.045 915.931 323.690 915.207 322.979  c
914.482 322.268 914.120 321.297 914.120 320.067  c
914.120 318.905 914.451 317.969 915.114 317.261  c
915.777 316.552 916.653 316.198 917.743 316.198  c
918.841 316.198 919.643 316.544 920.149 317.237  c
920.655 317.930 920.908 319.026 920.908 320.525  c
916.252 320.525 l
916.389 321.956 917.175 322.671 918.611 322.671  c
919.290 322.671 920.056 322.514 920.908 322.200  c
h
916.225 319.383 m
918.918 319.383 l
918.918 318.103 918.506 317.462 917.681 317.462  c
916.843 317.462 916.357 318.103 916.225 319.383  c
h
923.211 323.875 m
923.211 317.633 l
922.179 317.633 l
922.179 316.369 l
923.211 316.369 l
923.211 315.829 l
923.211 313.883 924.134 312.910 925.980 312.910  c
926.577 312.910 927.192 312.996 927.826 313.169  c
927.826 314.537 l
927.251 314.295 926.736 314.174 926.281 314.174  c
925.583 314.174 925.235 314.701 925.235 315.753  c
925.235 316.369 l
927.135 316.369 l
927.135 317.633 l
925.235 317.633 l
925.235 323.875 l
h
933.158 323.875 m
933.158 322.275 l
933.267 322.125 l
933.809 321.400 934.365 320.789 934.935 320.292  c
935.762 319.561 l
937.125 318.358 937.806 317.303 937.806 316.396  c
937.806 315.339 937.205 314.810 936.001 314.810  c
935.259 314.810 934.397 315.061 933.417 315.562  c
933.417 314.079 l
934.447 313.696 935.443 313.504 936.405 313.504  c
937.480 313.504 938.342 313.758 938.989 314.267  c
939.636 314.775 939.959 315.455 939.959 316.307  c
939.959 316.895 939.802 317.431 939.488 317.914  c
939.173 318.397 938.620 318.957 937.827 319.595  c
937.143 320.142 l
936.191 320.908 935.625 321.619 935.448 322.275  c
939.918 322.275 l
939.918 323.875 l
h
945.961 324.127 m
944.813 324.127 943.880 323.635 943.162 322.651  c
942.444 321.667 942.085 320.388 942.085 318.816  c
942.085 317.225 942.445 315.943 943.166 314.967  c
943.886 313.992 944.833 313.504 946.009 313.504  c
947.176 313.504 948.120 313.991 948.843 314.964  c
949.565 315.937 949.926 317.212 949.926 318.789  c
949.926 320.406 949.565 321.701 948.843 322.671  c
948.120 323.642 947.160 324.127 945.961 324.127  c
h
945.982 322.863 m
947.181 322.863 947.780 321.514 947.780 318.816  c
947.780 316.118 947.190 314.769 946.009 314.769  c
944.829 314.769 944.239 316.116 944.239 318.809  c
944.239 321.512 944.820 322.863 945.982 322.863  c
h
955.197 324.127 m
954.048 324.127 953.115 323.635 952.397 322.651  c
951.680 321.667 951.321 320.388 951.321 318.816  c
951.321 317.225 951.681 315.943 952.401 314.967  c
953.121 313.992 954.069 313.504 955.245 313.504  c
956.411 313.504 957.356 313.991 958.078 314.964  c
958.800 315.937 959.162 317.212 959.162 318.789  c
959.162 320.406 958.800 321.701 958.078 322.671  c
957.356 323.642 956.395 324.127 955.197 324.127  c
h
955.217 322.863 m
956.416 322.863 957.015 321.514 957.015 318.816  c
957.015 316.118 956.425 314.769 955.245 314.769  c
954.064 314.769 953.474 316.116 953.474 318.809  c
953.474 321.512 954.055 322.863 955.217 322.863  c
h
f
3.00000 w
1.00000 w
2 J
10.0000 M
0 J
1.45000 M
newpath
785.500 374.500 m
785.500 273.500 l
S
newpath
725.096 328.471 m
725.096 327.170 l
725.955 327.502 726.664 327.668 727.223 327.668  c
727.742 327.668 728.159 327.535 728.474 327.270  c
728.788 327.004 728.945 326.650 728.945 326.209  c
728.945 325.064 728.107 324.492 726.432 324.492  c
725.898 324.492 l
725.898 323.455 l
726.350 323.449 l
727.920 323.449 728.705 322.936 728.705 321.908  c
728.705 321.123 728.221 320.730 727.252 320.730  c
726.615 320.730 725.936 320.893 725.213 321.217  c
725.213 320.033 l
725.975 319.771 726.777 319.641 727.621 319.641  c
728.516 319.641 729.216 319.824 729.722 320.191  c
730.228 320.559 730.480 321.066 730.480 321.715  c
730.480 322.738 729.842 323.461 728.564 323.883  c
730.025 324.219 730.756 325.000 730.756 326.227  c
730.756 327.004 730.463 327.619 729.877 328.072  c
729.291 328.525 728.494 328.752 727.486 328.752  c
726.631 328.752 725.834 328.658 725.096 328.471  c
h
732.373 328.535 m
732.373 326.654 l
734.254 326.654 l
734.254 328.535 l
h
735.977 328.471 m
735.977 327.170 l
736.836 327.502 737.545 327.668 738.104 327.668  c
738.623 327.668 739.040 327.535 739.354 327.270  c
739.669 327.004 739.826 326.650 739.826 326.209  c
739.826 325.064 738.988 324.492 737.312 324.492  c
736.779 324.492 l
736.779 323.455 l
737.230 323.449 l
738.801 323.449 739.586 322.936 739.586 321.908  c
739.586 321.123 739.102 320.730 738.133 320.730  c
737.496 320.730 736.816 320.893 736.094 321.217  c
736.094 320.033 l
736.855 319.771 737.658 319.641 738.502 319.641  c
739.396 319.641 740.097 319.824 740.603 320.191  c
741.108 320.559 741.361 321.066 741.361 321.715  c
741.361 322.738 740.723 323.461 739.445 323.883  c
740.906 324.219 741.637 325.000 741.637 326.227  c
741.637 327.004 741.344 327.619 740.758 328.072  c
740.172 328.525 739.375 328.752 738.367 328.752  c
737.512 328.752 736.715 328.658 735.977 328.471  c
h
743.254 328.535 m
743.254 326.654 l
745.135 326.654 l
745.135 328.535 l
h
746.857 328.471 m
746.857 327.170 l
747.717 327.502 748.426 327.668 748.984 327.668  c
749.504 327.668 749.921 327.535 750.235 327.270  c
750.550 327.004 750.707 326.650 750.707 326.209  c
750.707 325.064 749.869 324.492 748.193 324.492  c
747.660 324.492 l
747.660 323.455 l
748.111 323.449 l
749.682 323.449 750.467 322.936 750.467 321.908  c
750.467 321.123 749.982 320.730 749.014 320.730  c
748.377 320.730 747.697 320.893 746.975 321.217  c
746.975 320.033 l
747.736 319.771 748.539 319.641 749.383 319.641  c
750.277 319.641 750.978 319.824 751.483 320.191  c
751.989 320.559 752.242 321.066 752.242 321.715  c
752.242 322.738 751.604 323.461 750.326 323.883  c
751.787 324.219 752.518 325.000 752.518 326.227  c
752.518 327.004 752.225 327.619 751.639 328.072  c
751.053 328.525 750.256 328.752 749.248 328.752  c
748.393 328.752 747.596 328.658 746.857 328.471  c
h
754.135 328.535 m
754.135 326.654 l
756.016 326.654 l
756.016 328.535 l
h
757.416 328.535 m
757.416 327.164 l
757.510 327.035 l
757.975 326.414 758.451 325.891 758.939 325.465  c
759.648 324.838 l
760.816 323.807 761.400 322.902 761.400 322.125  c
761.400 321.219 760.885 320.766 759.854 320.766  c
759.217 320.766 758.479 320.980 757.639 321.410  c
757.639 320.139 l
758.521 319.811 759.375 319.646 760.199 319.646  c
761.121 319.646 761.859 319.864 762.414 320.300  c
762.969 320.735 763.246 321.318 763.246 322.049  c
763.246 322.553 763.111 323.012 762.842 323.426  c
762.572 323.840 762.098 324.320 761.418 324.867  c
760.832 325.336 l
760.016 325.992 759.531 326.602 759.379 327.164  c
763.211 327.164 l
763.211 328.535 l
h
765.771 330.270 m
768.895 319.863 l
769.949 319.863 l
766.826 330.270 l
h
772.439 328.471 m
772.439 327.170 l
773.299 327.502 774.008 327.668 774.566 327.668  c
775.086 327.668 775.503 327.535 775.817 327.270  c
776.132 327.004 776.289 326.650 776.289 326.209  c
776.289 325.064 775.451 324.492 773.775 324.492  c
773.242 324.492 l
773.242 323.455 l
773.693 323.449 l
775.264 323.449 776.049 322.936 776.049 321.908  c
776.049 321.123 775.564 320.730 774.596 320.730  c
773.959 320.730 773.279 320.893 772.557 321.217  c
772.557 320.033 l
773.318 319.771 774.121 319.641 774.965 319.641  c
775.859 319.641 776.560 319.824 777.065 320.191  c
777.571 320.559 777.824 321.066 777.824 321.715  c
777.824 322.738 777.186 323.461 775.908 323.883  c
777.369 324.219 778.100 325.000 778.100 326.227  c
778.100 327.004 777.807 327.619 777.221 328.072  c
776.635 328.525 775.838 328.752 774.830 328.752  c
773.975 328.752 773.178 328.658 772.439 328.471  c
h
783.092 328.752 m
782.107 328.752 781.308 328.330 780.692 327.486  c
780.077 326.643 779.770 325.547 779.770 324.199  c
779.770 322.836 780.078 321.736 780.695 320.900  c
781.312 320.064 782.125 319.646 783.133 319.646  c
784.133 319.646 784.942 320.063 785.562 320.897  c
786.181 321.731 786.490 322.824 786.490 324.176  c
786.490 325.562 786.181 326.672 785.562 327.504  c
784.942 328.336 784.119 328.752 783.092 328.752  c
h
783.109 327.668 m
784.137 327.668 784.650 326.512 784.650 324.199  c
784.650 321.887 784.145 320.730 783.133 320.730  c
782.121 320.730 781.615 321.885 781.615 324.193  c
781.615 326.510 782.113 327.668 783.109 327.668  c
h
f
2 J
10.0000 M
0 J
1.45000 M
newpath
518.000 233.500 m
745.000 233.500 l
S
2 J
10.0000 M
Q
[ 1.00000 0.00000 0.00000 1.00000 0.00000 0.00000 ] defaultmatrix matrix concatmatrix setmatrix
cliprestore

%%Trailer
%%EOF
