%!PS-Adobe-3.0 EPSF-3.0
%%BoundingBox: 0 0 588 513
%%Creator: yExport 1.5
%%Producer: org.freehep.graphicsio.ps.EPSGraphics2D Revision: 12753 
%%For: 
%%Title: 
%%CreationDate: Wednesday, March 1, 2017 9:13:57 PM GMT
%%LanguageLevel: 3
%%EndComments
%%BeginProlog
100 dict dup begin

%
% File: org/freehep/graphicsio.ps/PSProlog.txt
% Author: Charles Loomis
%

% Redefinitions which save some space in the output file.  These are also
% the same as the PDF operators.
/q {gsave} def
/Q {grestore} def

/n {newpath} def
/m {moveto} def
/l {lineto} def
/c {curveto} def
/h {closepath} def

/re {4 -2 roll moveto
     dup 0 exch rlineto exch 0 rlineto
     neg 0 exch rlineto closepath} def

/f {fill} def
/f* {eofill} def
/F {gsave vg&FC fill grestore} def
/F* {gsave vg&FC eofill grestore} def

/s {closepath stroke} def
/S {stroke} def

/b {closepath gsave vg&FC fill grestore
    gsave stroke grestore newpath} def
/B {gsave vg&FC fill grestore gsave stroke grestore newpath} def
/b* {closepath gsave vg&FC eofill grestore
    gsave stroke grestore newpath} def
/B* {gsave vg&FC eofill grestore gsave stroke grestore newpath} def

/g {1 array astore /vg&fcolor exch def} def
/G {setgray} def
/k {4 array astore /vg&fcolor exch def} def
/K {setcmykcolor} def
/rg {3 array astore /vg&fcolor exch def} def
/RG {setrgbcolor} def

% Initialize the fill color.
0 0 0 rg

/vg&FC {mark vg&fcolor aload pop
        counttomark 1 eq {G} if
        counttomark 3 eq {RG} if
        counttomark 4 eq {K} if
        cleartomark } def

/vg&DFC {/vg&fcolor exch def} def

/vg&C {mark exch aload pop
       counttomark 1 eq {G} if
       counttomark 3 eq {RG} if
       counttomark 4 eq {K} if
       cleartomark } def

/w {setlinewidth} def
/j {setlinejoin} def
/J {setlinecap} def
/M {setmiterlimit} def
/d {setdash} def
/i {setflat} def

/W {clip} def
/W* {eoclip} def

% Setup the default graphics state.
% (black; 1 pt. linewidth; miter join; butt-ends; solid)
/defaultGraphicsState {0 g 1 w 0 j 0 J [] 0 d} def

% Emulation of the rectangle operators for PostScript implementations
% which do not implement all Level 2 features.  This is an INCOMPLETE
% emulation; only the "x y width height rect..." form is emulated.
/*rf {gsave newpath re fill grestore} def
/*rs {gsave newpath re stroke grestore} def
/*rc {newpath re clip} def
/rf  /rectfill where {pop /rectfill}{/*rf} ifelse load def
/rs  /rectstroke where {pop /rectstroke}{/*rs} ifelse load def
/rc  /rectclip where {pop /rectclip}{/*rc} ifelse load def

% Emulation of the selectfont operator.  This includes a 20% increase in
% the fontsize which is necessary to get sizes similar to the Java fonts.
/*sf {exch findfont exch
      dup type /arraytype eq {makefont}{scalefont} ifelse setfont} bind def
/sf /selectfont where {pop {1.2 mul selectfont}}{{1.2 mul *sf}} ifelse def

% Special version of stroke which allows the dash pattern to continue
% across path segments.  (This may be needed for PostScript although
% modern printers seem to do this correctly.)
/vg&stroke {
  currentdash pop length 0 eq
  {stroke}
  {
    currentdash /vg&doffset exch def pop
    flattenpath
    {m vg&resetdash}
    {2 copy
     currentpoint
     3 -1 roll sub dup mul
     3 1 roll sub dup mul
     add sqrt
     3 1 roll l
     currentdash 3 -1 roll add setdash}
     {}
     {h vg&resetdash}
     pathforall
     stroke
     vg&resetdash
  } ifelse
} def
/vg&resetdash {currentdash pop vg&doffset setdash} def

% Initialize variables for safety.
/delta 0 def
/xv 0 def  /yv 0 def  /width 0 def  /height 0 def

% Initialize to portrait INTERNATIONAL (Letter-height, A4-width) page.
/pw 595 def  /ph 791  def  /po true def /ftp false def

% Initialize margins to 20 points.
/ml 20 def  /mr 20 def  /mt 20 def  /mb 20 def

% Temporary matrices.
/smatrix 0 def  /nmatrix 0 def

% set page size (usage: <page width><page height> setpagesize)
/setpagesize {/ph exch def /pw exch def} def

% set page orientation (usage: portrait or landscape)
/portrait {/po true def} def
/landscape {/po false def} def

% force natural size for image (usage: naturalsize)
/naturalsize {/ftp false def} def

% resize image to fill page (usage: fittopage)
/fittopage {/ftp true def} def

% set margins of the page (usage: <left><bottom><top><right> setmargins)
/setmargins {/mr exch def /mt exch def /mb exch def /ml exch def} def

% set the graphic's size (usage: <width><height> setsize)
/setsize {/gh exch def /gw exch def} def

% set the graphic's origin (usage: <x0><y0> setorigin)
/setorigin {/gy exch def /gx exch def} def

% calculate image center
/imagecenter {pw ml sub mr sub 2 div ml add
              ph mt sub mb sub 2 div mb add} def

% calculate the necessary scaling
/imagescale {po {gw}{gh} ifelse pw ml sub mr sub div
             po {gh}{gw} ifelse ph mt sub mb sub div
             2 copy lt {exch} if pop
             ftp not {1 2 copy lt {exch} if pop} if
             1 exch div /sfactor exch def
             /gw gw sfactor mul def /gh gh sfactor mul def} def

% calculate image origin
/imageorigin {pw ml sub mr sub 2 div ml add
              po {gw}{gh} ifelse 2 div sub
              ph mt sub mb sub 2 div mb add
              po {gh}{gw} ifelse 2 div po {add}{sub} ifelse} def

% calculate the clipping origin
/cliporigin  {pw ml sub mr sub 2 div ml add
              po {gw}{gh} ifelse 2 div sub floor
              ph mt sub mb sub 2 div mb add
              po {gh}{gw} ifelse 2 div sub floor} def

% Set the clipping region to the bounding box.
/cliptobounds {cliporigin po {gw}{gh} ifelse 1 add
                          po {gh}{gw} ifelse 1 add rc} def

% set the base transformation matrix (usage: setbasematrix)
/setbasematrix {imageorigin translate
                po {0}{90} ifelse rotate
                sfactor sfactor neg scale
                /defaultmatrix matrix currentmatrix def} def

% The lower-right bias in drawing 1 pt. wide lines.
/bias  {q 0.5 0.5 translate} def
/unbias {Q} def

% Define the composite fonts used to print Unicode strings.
% Undefine particular values in an encoding array.
/vg&undef { {exch dup 3 -1 roll /.notdef put} forall } def
/vg&redef { {3 -1 roll dup 4 2 roll put} forall } def

% usage: key encoding basefontname vg&newbasefont font
/vg&newbasefont {
findfont dup length dict copy
  begin
    currentdict /FID undef
    /Encoding exch def
    dup /FontName exch def
    currentdict
  end
definefont
} def

% usage: key encoding basefontname vg&newskewedbasefont font
/vg&newskewedbasefont {
findfont dup length dict copy
  begin
    currentdict /FID undef
    /Encoding exch def
    dup /FontName exch def
    exch FontMatrix exch matrix concatmatrix /FontMatrix exch def
    currentdict
  end
definefont
} def

% usage: basekey suffix vg&nconcat name
/vg&nconcat {
  2 {dup length string cvs exch} repeat
  dup length 3 -1 roll dup length 3 -1 roll add string
  dup 0 4 -1 roll dup length 5 1 roll putinterval
  dup 4 -2 roll exch putinterval cvn
} def

%usage: fontname vg&skewmatrix matrix
/vg&skewmatrix {
findfont dup /FontInfo known
  {
    /FontInfo get dup /ItalicAngle known
    {
      [ 1 0 4 -1 roll /ItalicAngle get neg dup sin exch cos div 1 0 0 ]
    }
    {pop matrix} ifelse
  }
  {pop matrix} ifelse
} def

% usage: newfontname basefontname vg&newcompositefont --
/vg&newcompositefont {
/vg&fstyle exch def
/vg&bfont exch def
/vg&fname exch def
<<
/FontStyleBits vg&fstyle
/FontType 0
/FontMatrix matrix
/FontName vg&fname
/FMapType 2
/Encoding [ 0 1 255 {pop 6} for ]
          dup 16#00 0 put % Latin
          dup 16#03 1 put % Greek
          dup 16#20 2 put % Punctuation
          dup 16#21 3 put % Arrows
          dup 16#22 4 put % MathOps
          dup 16#27 5 put % Dingbats

/FDepVector [
vg&bfont /-UC-Latin vg&nconcat UCLatinEncoding
vg&bfont vg&newbasefont

vg&bfont vg&skewmatrix
vg&bfont /-UC-Greek vg&nconcat UCGreekEncoding
/Symbol vg&newskewedbasefont

vg&bfont /-UC-Punctuation vg&nconcat UCPunctuationEncoding
vg&bfont vg&newbasefont

/Arrows-UC findfont
/MathOps-UC findfont
/Dingbats-UC findfont
/Undefined-UC findfont ]
>>
vg&fname exch definefont pop
} def

% Null encoding vector (all elements set to .notdef)
/NullEncoding [ 256 {/.notdef} repeat ] def

% Unicode Latin encoding (unicode codes \u0000-\u00ff)
/UCLatinEncoding
  ISOLatin1Encoding dup length array copy
  dup 16#60 /grave put
  [ 16#90 16#91 16#92 16#93 16#94 16#95 16#96
    16#97 16#98 16#9a 16#9b 16#9d 16#9e 16#9f
  ] vg&undef
  def

% Unicode Greek encoding (unicode codes \u0370-\u03ff)
/UCGreekEncoding
  NullEncoding dup length array copy
  << 16#91 /Alpha    16#92 /Beta      16#93 /Gamma    16#94 /Delta
     16#95 /Epsilon  16#96 /Zeta      16#97 /Eta      16#98 /Theta
     16#99 /Iota     16#9a /Kappa     16#9b /Lambda   16#9c /Mu
     16#9d /Nu       16#9e /Xi        16#9f /Omicron  16#a0 /Pi
     16#a1 /Rho      16#a3 /Sigma     16#a4 /Tau      16#a5 /Upsilon
     16#a6 /Phi      16#a7 /Chi       16#a8 /Psi      16#a9 /Omega
     16#b1 /alpha    16#b2 /beta      16#b3 /gamma    16#b4 /delta
     16#b5 /epsilon  16#b6 /zeta      16#b7 /eta      16#b8 /theta
     16#b9 /iota     16#ba /kappa     16#bb /lambda   16#bc /mu
     16#bd /nu       16#be /xi        16#bf /omicron  16#c0 /pi
     16#c1 /rho      16#c2 /sigma1    16#c3 /sigma    16#c4 /tau
     16#c5 /upsilon  16#c6 /phi1      16#c7 /chi      16#c8 /psi
     16#c9 /omega    16#7e /semicolon 16#87 /dotmath  16#d1 /theta1
     16#d2 /Upsilon1 16#d5 /phi       16#d6 /omega1
  >> vg&redef
  def

% Unicode punctuation encoding (unicode codes \u2000-\u206f)
/UCPunctuationEncoding
  NullEncoding dup length array copy
  << 16#10 /hyphen          16#11 /hyphen              16#12 /endash
     16#13 /emdash          16#18 /quoteleft           16#19 /quoteright
     16#1a /quotesinglbase  16#1b /quotesingle         16#1c /quotedblleft
     16#1d /quotedblright   16#1e /quotedblbase        16#1f /quotedbl
     16#20 /dagger          16#21 /daggerdbl           16#22 /bullet
     16#24 /period          16#26 /ellipsis            16#27 /periodcentered
     16#30 /perthousand     16#44 /fraction
     16#70 /zerosuperior    16#74 /foursuperior        16#75 /fivesuperior
     16#76 /sixsuperior     16#77 /sevensuperior       16#78 /eightsuperior
     16#79 /ninesuperior    16#7b /hyphensuperior      16#7d /parenleftsuperior
     16#7e /parenrightsuperior
     16#80 /zeroinferior    16#84 /fourinferior        16#85 /fiveinferior
     16#81 /oneinferior     16#82 /twoinferior         16#83 /threeinferior
     16#86 /sixinferior     16#87 /seveninferior       16#88 /eightinferior
     16#89 /nineinferior    16#8b /hypheninferior      16#8d /parenleftinferior
     16#8e /parenrightinferior
  >> vg&redef
  def

% Unicode mathematical operators encoding (unicode codes \u2200-\u22ff)
/UCMathOpsEncoding
  NullEncoding dup length array copy
  << 16#00 /universal       16#02 /partialdiff         16#03 /existential
     16#05 /emptyset        16#06 /Delta               16#07 /gradient
     16#08 /element         16#09 /notelement          16#0b /suchthat
     16#0f /product         16#11 /summation           16#12 /minus
     16#15 /fraction        16#17 /asteriskmath        16#19 /bullet
     16#1a /radical         16#1d /proportional        16#1e /infinity
     16#20 /angle           16#23 /bar                 16#27 /logicaland
     16#28 /logicalor       16#29 /intersection        16#2a /union
     16#2b /integral        16#34 /therefore           16#36 /colon
     16#3c /similar         16#45 /congruent           16#48 /approxequal
     16#60 /notequal        16#61 /equivalence         16#64 /lessequal
     16#65 /greaterequal    16#82 /propersubset        16#83 /propersuperset
     16#86 /reflexsubset    16#87 /reflexsuperset      16#95 /circleplus
     16#97 /circlemultiply  16#a5 /perpendicular       16#03 /existential
     16#c0 /logicaland      16#c1 /logicalor           16#c2 /intersection
     16#c3 /union           16#c4 /diamond             16#c5 /dotmath
  >> vg&redef
  def

% Unicode arrows encoding (unicode codes \u2190-\u21ff)
% Also includes those "Letterlike" unicode characters
% which are available in the symbol font. (unicode codes \u2100-\u214f)
/UCArrowsEncoding
  NullEncoding dup length array copy
  << 16#11 /Ifraktur        16#1c /Rfraktur            16#22 /trademarkserif
     16#35 /aleph
     16#90 /arrowleft       16#91 /arrowup             16#92 /arrowright
     16#93 /arrowdown       16#94 /arrowboth           16#d0 /arrowdblleft
     16#d1 /arrowdblup      16#d2 /arrowdblright       16#d3 /arrowdbldown
     16#d4 /arrowdblboth
  >> vg&redef
  def

/ZapfDingbats findfont /Encoding get
dup length array copy /UCDingbatsEncoding exch def
16#20 1 16#7f {
  dup 16#20 sub exch
  UCDingbatsEncoding exch get
  UCDingbatsEncoding 3 1 roll put
} for
16#a0 1 16#ff {
  dup 16#40 sub exch
  UCDingbatsEncoding exch get
  UCDingbatsEncoding 3 1 roll put
} for
UCDingbatsEncoding [ 16#c0 1 16#ff {} for ] vg&undef
[ 16#00  16#05 16#0a 16#0b  16#28 16#4c 16#4e  16#53 16#54 16#55  16#57 16#5f
  16#60  16#68 16#69 16#6a  16#6b 16#6c 16#6d  16#6e 16#6f 16#70  16#71 16#72
  16#73  16#74 16#75 16#95  16#96 16#97 16#b0  16#bf
] vg&undef pop

% Define the base fonts which don't change.
/Undefined-UC NullEncoding       /Helvetica    vg&newbasefont pop
/MathOps-UC   UCMathOpsEncoding  /Symbol       vg&newbasefont pop
/Arrows-UC    UCArrowsEncoding   /Symbol       vg&newbasefont pop
/Dingbats-UC  UCDingbatsEncoding /ZapfDingbats vg&newbasefont pop

% Make the SansSerif composite fonts.
/SansSerif /Helvetica 16#00 vg&newcompositefont
/SansSerif-Bold /Helvetica-Bold 16#01 vg&newcompositefont
/SansSerif-Italic /Helvetica-Oblique 16#02 vg&newcompositefont
/SansSerif-BoldItalic /Helvetica-BoldOblique 16#03 vg&newcompositefont

% Make the Serif composite fonts.
/Serif /Times-Roman 16#00 vg&newcompositefont
/Serif-Bold /Times-Bold 16#01 vg&newcompositefont
/Serif-Italic /Times-Italic 16#02 vg&newcompositefont
/Serif-BoldItalic /Times-BoldItalic 16#03 vg&newcompositefont

% Make the Monospaced composite fonts.
/Monospaced /Courier 16#00 vg&newcompositefont
/Monospaced-Bold /Courier-Bold 16#01 vg&newcompositefont
/Monospaced-Italic /Courier-Oblique 16#02 vg&newcompositefont
/Monospaced-BoldItalic /Courier-BoldOblique 16#03 vg&newcompositefont

% Make the Dialog composite fonts.
/Dialog /Helvetica 16#00 vg&newcompositefont
/Dialog-Bold /Helvetica-Bold 16#01 vg&newcompositefont
/Dialog-Italic /Helvetica-Oblique 16#02 vg&newcompositefont
/Dialog-BoldItalic /Helvetica-BoldOblique 16#03 vg&newcompositefont

% Make the DialogInput composite fonts.
/DialogInput /Courier 16#00 vg&newcompositefont
/DialogInput-Bold /Courier-Bold 16#01 vg&newcompositefont
/DialogInput-Italic /Courier-Oblique 16#02 vg&newcompositefont
/DialogInput-BoldItalic /Courier-BoldOblique 16#03 vg&newcompositefont

% Make the Typewriter composite fonts (JDK 1.1 only).
/Typewriter /Courier 16#00 vg&newcompositefont
/Typewriter-Bold /Courier-Bold 16#01 vg&newcompositefont
/Typewriter-Italic /Courier-Oblique 16#02 vg&newcompositefont
/Typewriter-BoldItalic /Courier-BoldOblique 16#03 vg&newcompositefont


/cfontH {
 dup /fontsize exch def /SansSerif exch sf
 /vg&fontstyles [{cfontH} {cfontHB} {cfontHI} {cfontHBI}] def
} def
/cfontHB {
  dup /fontsize exch def /SansSerif-Bold exch sf
 /vg&fontstyles [{cfontH} {cfontHB} {cfontHI} {cfontHBI}] def
} def
/cfontHI {
 dup /fontsize exch def /SansSerif-Italic exch sf
 /vg&fontstyles [{cfontH} {cfontHB} {cfontHI} {cfontHBI}] def
} def
/cfontHBI {
 dup /fontsize exch def /SansSerif-BoldItalic exch sf
 /vg&fontstyles [{cfontH} {cfontHB} {cfontHI} {cfontHBI}] def
} def

/cfontT {
 dup /fontsize exch def /Serif exch sf
 /vg&fontstyles [{cfontT} {cfontTB} {cfontTI} {cfontTBI}] def
} def
/cfontTB {
 dup /fontsize exch def /Serif-Bold exch sf
 /vg&fontstyles [{cfontT} {cfontTB} {cfontTI} {cfontTBI}] def
} def
/cfontTI {
 dup /fontsize exch def /Serif-Italic exch sf
 /vg&fontstyles [{cfontT} {cfontTB} {cfontTI} {cfontTBI}] def
} def
/cfontTBI {
 dup /fontsize exch def /Serif-BoldItalic exch sf
 /vg&fontstyles [{cfontT} {cfontTB} {cfontTI} {cfontTBI}] def
} def

/cfontC {
 dup /fontsize exch def /Typewriter exch sf
 /vg&fontstyles [{cfontC} {cfontCB} {cfontCI} {cfontCBI}] def
} def
/cfontCB {
 dup /fontsize exch def /Typewriter-Bold exch sf
 /vg&fontstyles [{cfontC} {cfontCB} {cfontCI} {cfontCBI}] def
} def
/cfontCI {
 dup /fontsize exch def /Typewriter-Italic exch sf
 /vg&fontstyles [{cfontC} {cfontCB} {cfontCI} {cfontCBI}] def
} def
/cfontCBI {
 dup /fontsize exch def /Typewriter-BoldItalic exch sf
 /vg&fontstyles [{cfontC} {cfontCB} {cfontCI} {cfontCBI}] def
} def

% Darken or lighten the current color.
/darken {0.7 exch exp 3 copy
         q 4 -1 roll vg&C
         currentrgbcolor 3 {4 -2 roll mul} repeat
         3 array astore Q} def

/displayColorMap
<< /Cr   [1.00 0.00 0.00]       /Cg     [0.00 1.00 0.00]
   /Cb   [0.00 0.00 1.00]       /Cc     [1.00 0.00 0.00 0.00]
   /Cm   [0.00 1.00 0.00 0.00]  /Cy     [0.00 0.00 1.00 0.00]
   /Co   [1.00 0.78 0.00]       /Cp     [1.00 0.67 0.67]
   /Cw   [1   ]                 /Cgrl   [0.75]
   /Cgr  [0.50]                 /Cgrd   [0.25]
   /Ck   [0   ]
   /CGr  [1.00 0.00 0.00]       /CGg    [0.00 1.00 0.00]
   /CGb  [0.00 0.00 1.00]       /CGc    [1.00 0.00 0.00 0.00]
   /CGm  [0.00 1.00 0.00 0.00]  /CGy    [0.00 0.00 1.00 0.00]
   /CGo  [1.00 0.78 0.00]       /CGp    [1.00 0.67 0.67]
   /CGw  [1   ]                 /CGgrl  [0.75]
   /CGgr [0.50]                 /CGgrd  [0.25]
   /CGk  [0   ]
   /CIr  [1.00 0.00 0.00]       /CIg    [0.00 1.00 0.00]
   /CIb  [0.00 0.00 1.00]       /CIc    [1.00 0.00 0.00 0.00]
   /CIm  [0.00 1.00 0.00 0.00]  /CIy    [0.00 0.00 1.00 0.00]
   /CIo  [1.00 0.78 0.00]       /CIp    [1.00 0.67 0.67]
   /CIw  [1   ]                 /CIgrl  [0.75]
   /CIgr [0.50]                 /CIgrd  [0.25]
   /CIk  [0   ]
>> def

/printColorMap
<< /Cr   [1.00 0.33 0.33]       /Cg     [0.33 1.00 0.33]
   /Cb   [0.33 0.33 1.00]       /Cc     [1.00 0.00 0.00 0.00]
   /Cm   [0.00 1.00 0.00 0.00]  /Cy     [0.00 0.00 1.00 0.00]
   /Co   [1.00 0.78 0.00]       /Cp     [1.00 0.67 0.67]
   /Cw   [1   ]                 /Cgrl   [0.75]
   /Cgr  [0.50]                 /Cgrd   [0.25]
   /Ck   [0   ]
   /CGr  [1.00 0.33 0.33]       /CGg    [0.33 1.00 0.33]
   /CGb  [0.33 0.33 1.00]       /CGc    [1.00 0.00 0.00 0.00]
   /CGm  [0.00 1.00 0.00 0.00]  /CGy    [0.00 0.00 1.00 0.00]
   /CGo  [1.00 0.78 0.00]       /CGp    [1.00 0.67 0.67]
   /CGw  [1   ]                 /CGgrl  [0.75]
   /CGgr [0.50]                 /CGgrd  [0.25]
   /CGk  [0   ]
   /CIr  [1.00 0.33 0.33]       /CIg    [0.33 1.00 0.33]
   /CIb  [0.33 0.33 1.00]       /CIc    [1.00 0.00 0.00 0.00]
   /CIm  [0.00 1.00 0.00 0.00]  /CIy    [0.00 0.00 1.00 0.00]
   /CIo  [1.00 0.78 0.00]       /CIp    [1.00 0.67 0.67]
   /CIw  [1   ]                 /CIgrl  [0.75]
   /CIgr [0.50]                 /CIgrd  [0.25]
   /CIk  [0   ]
>> def

/grayColorMap
<< /Cr   [0   ]                 /Cg     [0   ]
   /Cb   [0   ]                 /Cc     [0   ]
   /Cm   [0   ]                 /Cy     [0   ]
   /Co   [0   ]                 /Cp     [0   ]
   /Cw   [0   ]                 /Cgrl   [0   ]
   /Cgr  [0   ]                 /Cgrd   [0   ]
   /Ck   [0   ]
   /CGr  [0.75]                 /CGg    [1   ]
   /CGb  [0.50]                 /CGc    [0.75]
   /CGm  [0.50]                 /CGy    [1   ]
   /CGo  [0.75]                 /CGp    [1   ]
   /CGw  [0   ]                 /CGgrl  [0.25]
   /CGgr [0.50]                 /CGgrd  [0.75]
   /CGk  [1   ]
   /CIr  [1   ]                 /CIg    [1   ]
   /CIb  [1   ]                 /CIc    [1   ]
   /CIm  [1   ]                 /CIy    [1   ]
   /CIo  [1   ]                 /CIp    [1   ]
   /CIw  [1   ]                 /CIgrl  [1   ]
   /CIgr [1   ]                 /CIgrd  [1   ]
   /CIk  [1   ]
>> def

/bwColorMap
<< /Cr   [0   ]                 /Cg     [0   ]
   /Cb   [0   ]                 /Cc     [0   ]
   /Cm   [0   ]                 /Cy     [0   ]
   /Co   [0   ]                 /Cp     [0   ]
   /Cw   [0   ]                 /Cgrl   [0   ]
   /Cgr  [0   ]                 /Cgrd   [0   ]
   /Ck   [0   ]
   /CGr  [1   ]                 /CGg    [1   ]
   /CGb  [1   ]                 /CGc    [1   ]
   /CGm  [1   ]                 /CGy    [1   ]
   /CGo  [1   ]                 /CGp    [1   ]
   /CGw  [0   ]                 /CGgrl  [1   ]
   /CGgr [1   ]                 /CGgrd  [1   ]
   /CGk  [1   ]
   /CIr  [1   ]                 /CIg    [1   ]
   /CIb  [1   ]                 /CIc    [1   ]
   /CIm  [1   ]                 /CIy    [1   ]
   /CIo  [1   ]                 /CIp    [1   ]
   /CIw  [1   ]                 /CIgrl  [1   ]
   /CIgr [1   ]                 /CIgrd  [1   ]
   /CIk  [1   ]
>> def

%
% The following routines handle the alignment of and printing of
% tagged strings.
%

% Predefine the bounding box values.
/bbllx 0 def /bblly 0 def /bburx 0 def /bbury 0 def

% This routine pops the first unicode character off of a string and returns
% the remainder of the string, the character code of first character,
% and a "true" if the string was non-zero length.
% <string>      popfirst <remaining string> <true>
% <null string> popfirst <false>
/popfirst {
  dup length 1 gt
    {dup 0 get /vg&fbyte exch def
     dup 1 get /vg&cbyte exch def
     dup length 2 sub 2 exch getinterval true}
    {pop false} ifelse
} def

% This routine shows a single unicode character given the font and
% character codes.
% <font code> <char code> unicharshow --
/unicharshow {
  2 string
  dup 0 5 -1 roll put
  dup 1 4 -1 roll put
  internalshow
} def

% This is an internal routine to alternate between determining the
% bounding box for stringsize and showing the string for recshow.
% <string> internalshow --
/internalshow {show} def

% This is an internal routine to alternate between determining the
% bounding box for stringsize and stroking various ornaments.
% <string> internalstroke --
/internalstroke {S} def

% Sets up internalshow to use the null device to determine string size.
% -- nullinternalshow --
/nullinternalshow {/internalshow {false charpath flattenpath
                                  pathbbox updatebbox} def} def

% Sets up internalstroke to use the null device to determine string size.
% -- nullinternalstroke --
/nullinternalstroke {
 /internalstroke {flattenpath pathbbox updatebbox} def} def

% This routine tests to see if the character code matches the first
% character of a string.
% <char code> <string> testchar <char code> <true or false>
/testchar {exch dup 3 -1 roll 0 get eq} def

% Raise the text baseline for superscripts.
% -- raise --
/raise {
  0 fontsize 2 div rmoveto
  /fontsize fontsize 2 mul 3 div def
  currentfont /FontName get fontsize sf
} def

% Un-raise the text baseline for superscripts.
% -- unraise --
/unraise {
  /fontsize fontsize 1.5 mul def
  0 fontsize 2 div neg rmoveto
} def

% Lower the text baseline for subscripts.
% -- lower --
/lower {
  0 fontsize 3 div neg rmoveto
  /fontsize fontsize 2 mul 3 div def
  currentfont /FontName get fontsize sf
} def

% Un-lower the text baseline for subscripts.
% -- unlower --
/unlower {
  /fontsize fontsize 1.5 mul def
  0 fontsize 3 div rmoveto
} def

% Compare the top two elements on the stack and leave only the
% larger one.
/maxval {2 copy gt {pop} {exch pop} ifelse} def

% Tokenize a string.  Do not use the usual PostScript token because
% parentheses will not be interpreted correctly because of rescanning
% of the string.
/vg&token {/vg&string exch def /vg&index -1 def /vg&level 0 def
0 2 vg&string length 2 sub {
  dup dup 1 add exch vg&string exch get 8 bitshift vg&string 3 -1 roll get or
  dup 16#f0fe eq {pop 1}{16#f0ff eq {-1}{0} ifelse} ifelse
  /vg&level exch vg&level add def
  vg&level 0 eq {/vg&index exch def exit} if pop
} for
vg&index 0 ge {
  vg&string vg&index 2 add dup vg&string length exch sub getinterval
  vg&index 2 gt {vg&string 2 vg&index 2 sub getinterval}{()} ifelse
  true}
{false} ifelse
} bind def

% Recursively show an unicode string.
% <string> recshow --
/recshow {
  popfirst
  {
    % Test to see if this is a string attribute.
    vg&fbyte 16#f0 and 16#e0 eq
    {
      q

      % Font style.
      currentfont dup /FontStyleBits known {/FontStyleBits get}{pop 0} ifelse
      vg&cbyte or vg&fontstyles exch get fontsize exch exec

      vg&token pop recshow currentpoint Q m recshow
    }
    {
      vg&fbyte 16#F8 and 16#F0 eq {

        % Superscript and/or subscript.
        vg&cbyte 16#00 eq {
          vg&token pop exch vg&token pop 3 -1 roll
          q raise recshow unraise currentpoint pop Q exch
          q lower recshow unlower currentpoint pop Q
          maxval currentpoint exch pop m recshow } if

        % Strikeout.
        vg&cbyte 16#01 eq {
          vg&token pop currentpoint 3 -1 roll recshow
          q 0 J vg&underline vg&uthick w
          currentpoint 4 -2 roll fontsize 3 div add moveto
          fontsize 3 div add lineto internalstroke Q
          recshow} if

        % Underline.
        vg&cbyte 16#02 eq {
          vg&token pop currentpoint 3 -1 roll recshow
          q 0 J vg&underline vg&uthick w
          currentpoint 4 -2 roll vg&uoffset add moveto
          vg&uoffset add lineto internalstroke Q
          recshow} if

        % Dashed underline.
        vg&cbyte 16#03 eq {
          vg&token pop currentpoint 3 -1 roll recshow
          q 0 J [ vg&uthick 5 mul vg&uthick 2 mul] 0 d
          vg&underline vg&uthick w
          currentpoint 4 -2 roll vg&uoffset add moveto
          vg&uoffset add lineto internalstroke Q
          recshow} if

        % Dotted underline.
        vg&cbyte 16#04 eq {
          vg&token pop currentpoint 3 -1 roll recshow
          q 1 J [ 0 vg&uthick 3 mul] 0 d
          vg&underline vg&uthick w
          currentpoint 4 -2 roll vg&uoffset add moveto
          vg&uoffset add lineto internalstroke Q
          recshow} if

        % Thick underline.
        vg&cbyte 16#05 eq {
          vg&token pop currentpoint 3 -1 roll recshow
          q 0 J vg&underline vg&uthick 2 mul w
          currentpoint 4 -2 roll vg&uoffset vg&uthick 2 div sub add moveto
          vg&uoffset vg&uthick 2 div sub add lineto internalstroke Q
          recshow} if

        % Gray thick underline.
        vg&cbyte 16#06 eq {
          vg&token pop currentpoint 3 -1 roll recshow
          q 0 J vg&underline vg&uthick 2 mul w 0.5 setgray
          currentpoint 4 -2 roll vg&uoffset vg&uthick 2 div sub add moveto
          vg&uoffset vg&uthick 2 div sub add lineto internalstroke Q
          recshow} if

        % Overbar.
        vg&cbyte 16#07 eq {
          vg&token pop dup stringsize relative 4 1 roll pop pop exch
          3 -1 roll recshow
          q 0 J vg&underline vg&uthick w
          vg&uoffset neg add dup currentpoint pop exch m l internalstroke Q
          recshow} if
      }
      {
        vg&fbyte vg&cbyte unicharshow recshow
      } ifelse
    } ifelse
  } if
} def

% Get the underline position and thickness from the current font.
/vg&underline {

currentfont dup /FontType get 0 eq {/FDepVector get 0 get} if
dup dup /FontInfo known {
  /FontInfo get dup
  dup /UnderlinePosition known {
    /UnderlinePosition get /vg&uoffset exch def
  }
  {
    pop /vg&uoffset 0 def
  } ifelse
  dup /UnderlineThickness known {
    /UnderlineThickness get /vg&uthick exch def
  }
  {
    pop /vg&uthick 0 def
  } ifelse
}
{
  pop /vg&uoffset 0 def /vg&uthick 0 def
} ifelse
/FontMatrix get
currentfont dup /FontType get 0 eq
{/FontMatrix get matrix concatmatrix}{pop} ifelse
dup 0 vg&uoffset 3 -1 roll transform /vg&uoffset exch def pop
0 vg&uthick 3 -1 roll transform /vg&uthick exch def pop
} def

% Make a frame with the coordinates on the stack.
% <llx> <lly> <urx> <ury> frame --
/frame {4 copy m 3 1 roll exch l 4 -2 roll l l h} def

% Resets the accumulated bounding box to a degenerate box at the
% current point.
% -- resetbbox --
/resetbbox {
  currentpoint 2 copy
  /bbury exch def
  /bburx exch def
  /bblly exch def
  /bbllx exch def
} def

% Update the accumulated bounding box.
% <llx'> <lly'> <urx'> <ury'> updatebbox --
/updatebbox {
  dup bbury gt {/bbury exch def} {pop} ifelse
  dup bburx gt {/bburx exch def} {pop} ifelse
  dup bblly lt {/bblly exch def} {pop} ifelse
  dup bbllx lt {/bbllx exch def} {pop} ifelse
} def

% Set the bounding box to the values on the stack.
% <llx'> <lly'> <urx'> <ury'> updatebbox --
/restorebbox {
  /bbury exch def /bburx exch def /bblly exch def /bbllx exch def
} def

% Push the accumulated bounding box onto the stack.
% -- pushbbox <llx> <lly> <urx> <ury>
/pushbbox {bbllx bblly bburx bbury} def

% Make the relative bounding box relative to the currentpoint.
% <llx'> <lly'> <urx'> <ury'> inflate <llx> <lly> <urx> <ury>
/inflate {
  2 {fontsize 0.2 mul add 4 1 roll} repeat
  2 {fontsize 0.2 mul sub 4 1 roll} repeat
} def

% Make the relative bounding box relative to the currentpoint.
% <llx'> <lly'> <urx'> <ury'> relative <llx> <lly> <urx> <ury>
/relative {
  currentpoint 3 -1 roll add 3 1 roll add exch 4 2 roll
  currentpoint 3 -1 roll add 3 1 roll add exch 4 2 roll
} def

% Returns the size of a string appropriate for recshow.
% <string> stringsize <llx> <lly> <urx> <ury>
/stringsize {
  pushbbox /internalshow load /internalstroke load 7 -1 roll
  q
  nulldevice 0 0 m
  nullinternalshow nullinternalstroke
  resetbbox
  recshow
  /internalstroke exch def /internalshow exch def
  pushbbox 8 -4 roll restorebbox
  Q
} def

% Calculate values for string positioning.
/calcval {4 copy
  3 -1 roll sub /widy exch def sub neg /widx exch def
  pop pop /dy exch def /dx exch def} def

% Utilities to position a string.
% First letter (U=upper, C=center, B=baseline, L=lower)
% Second letter (L=left, C=center, R=right)
/align [
{calcval dx neg widy dy add neg rmoveto} % UL
{calcval dx neg widy 2 div dy add neg rmoveto} % CL
{calcval dx neg 0 rmoveto} % BL
{calcval dx neg dy neg rmoveto} % LL
{calcval widx dx add neg widy dy add neg rmoveto} % UR
{calcval widx dx add neg widy 2 div dy add neg rmoveto} % CR
{calcval widx dx add neg 0 rmoveto} % BR
{calcval widx dx add neg dy neg rmoveto} % LR
{calcval widx 2 div dx add neg widy dy add neg rmoveto} % UC
{calcval widx 2 div dx add neg widy 2 div dy add neg rmoveto} % CC
{calcval widx 2 div dx add neg 0 rmoveto} % BC
{calcval widx 2 div dx add neg dy neg rmoveto} % LC
] def

/vg&str {m q 1 -1 scale dup stringsize 4 copy align 11 -1 roll get exec
         q inflate relative frame exch exec Q recshow Q} def

end /procDict exch def
%%EndProlog

%%BeginSetup
save
procDict begin
printColorMap begin
588 513 setpagesize
0 0 0 0 setmargins
0 0 setorigin
588 513 setsize
naturalsize
portrait
imagescale
cliptobounds
setbasematrix
/Helvetica 10 sf
defaultGraphicsState
%%EndSetup

0.00000 0.00000 0.00000 RG
[ 1.00000 0.00000 0.00000 1.00000 0.00000 0.00000 ] defaultmatrix matrix concatmatrix setmatrix
cliprestore
1.00000 1.00000 1.00000 RG
newpath
0.00000 0.00000 m
588.000 0.00000 l
588.000 513.000 l
0.00000 513.000 l
0.00000 0.00000 l
h
f
0.00000 0.00000 0.00000 RG
0.00000 0.00000 0.00000 RG
[ 1.00000 0.00000 0.00000 1.00000 0.00000 0.00000 ] defaultmatrix matrix concatmatrix setmatrix
cliprestore
1.00000 1.00000 1.00000 RG
newpath
0.00000 0.00000 m
588.000 0.00000 l
588.000 513.000 l
0.00000 513.000 l
0.00000 0.00000 l
h
f
0.00000 0.00000 0.00000 RG
0 0 588 513 rc
q
[ 1.00000 0.00000 0.00000 1.00000 0.00000 0.00000 ] concat
[ 1.00000 0.00000 0.00000 1.00000 -407.000 -117.000 ] concat
1.00000 1.00000 1.00000 RG
newpath
407.000 117.000 m
995.000 117.000 l
995.000 630.000 l
407.000 630.000 l
407.000 117.000 l
h
f
0.00000 0.00000 0.00000 RG
[ 1.00000 0.00000 0.00000 1.00000 -407.000 -117.000 ] defaultmatrix matrix concatmatrix setmatrix
[ 1.00000 0.00000 0.00000 1.00000 -407.000 -117.000 ] defaultmatrix matrix concatmatrix setmatrix
[ 1.00000 0.00000 0.00000 1.00000 0.00000 0.00000 ] defaultmatrix matrix concatmatrix setmatrix
[ 1.00000 0.00000 0.00000 1.00000 -407.000 -117.000 ] defaultmatrix matrix concatmatrix setmatrix
.792157 .925490 1.00000 RG
newpath
452.000 306.501 m
452.000 439.500 l
452.000 441.709 453.791 443.500 456.000 443.500  c
559.000 443.500 l
561.209 443.500 563.000 441.709 563.000 439.500  c
563.000 306.501 l
563.000 304.292 561.209 302.501 559.000 302.501  c
456.000 302.501 l
453.791 302.501 452.000 304.292 452.000 306.501  c
h
f
.600000 .800000 1.00000 RG
newpath
452.000 302.501 m
563.000 302.501 l
563.000 324.167 l
452.000 324.167 l
452.000 302.501 l
h
f
.792157 .925490 1.00000 RG
0.00000 0.00000 0.00000 RG
0 J
1.45000 M
newpath
506.779 314.857 m
504.933 310.185 l
503.080 314.857 l
h
508.405 319.003 m
507.226 316.000 l
502.633 316.000 l
501.439 319.003 l
500.011 319.003 l
504.311 308.163 l
505.834 308.163 l
510.067 319.003 l
h
513.759 319.274 m
513.031 319.274 512.101 319.115 510.968 318.798  c
510.968 317.274 l
512.189 317.841 513.192 318.124 513.979 318.124  c
514.584 318.124 515.071 317.965 515.440 317.648  c
515.808 317.331 515.993 316.913 515.993 316.396  c
515.993 315.971 515.872 315.609 515.630 315.312  c
515.388 315.014 514.943 314.682 514.293 314.315  c
513.546 313.883 l
512.624 313.356 511.973 312.859 511.594 312.393  c
511.216 311.927 511.027 311.383 511.027 310.763  c
511.027 309.928 511.330 309.241 511.935 308.701  c
512.541 308.162 513.312 307.892 514.250 307.892  c
515.084 307.892 515.966 308.031 516.894 308.310  c
516.894 309.716 l
515.751 309.267 514.899 309.042 514.337 309.042  c
513.805 309.042 513.366 309.184 513.019 309.467  c
512.672 309.750 512.499 310.106 512.499 310.536  c
512.499 310.897 512.626 311.217 512.880 311.496  c
513.134 311.774 513.598 312.106 514.271 312.492  c
515.048 312.931 l
515.985 313.463 516.640 313.966 517.011 314.440  c
517.382 314.914 517.567 315.482 517.567 316.146  c
517.567 317.089 517.219 317.846 516.524 318.417  c
515.828 318.988 514.906 319.274 513.759 319.274  c
h
520.893 313.385 m
521.581 312.492 522.448 312.045 523.493 312.045  c
524.440 312.045 525.215 312.359 525.818 312.986  c
526.421 313.614 526.723 314.418 526.723 315.399  c
526.723 316.527 526.385 317.455 525.708 318.183  c
525.032 318.910 524.174 319.274 523.134 319.274  c
521.938 319.274 521.002 318.793 520.329 317.831  c
519.655 316.869 519.318 315.534 519.318 313.825  c
519.318 311.945 519.705 310.485 520.479 309.445  c
521.253 308.405 522.343 307.885 523.749 307.885  c
524.394 307.885 525.199 308.021 526.166 308.295  c
526.166 309.555 l
525.146 309.164 524.311 308.969 523.661 308.969  c
521.815 308.969 520.893 310.441 520.893 313.385  c
h
525.272 315.722 m
525.272 314.901 525.088 314.257 524.719 313.788  c
524.351 313.319 523.839 313.085 523.185 313.085  c
522.575 313.085 522.050 313.290 521.610 313.700  c
521.171 314.110 520.951 314.604 520.951 315.180  c
520.951 316.088 521.160 316.817 521.577 317.366  c
521.995 317.915 522.548 318.190 523.236 318.190  c
523.856 318.190 524.351 317.967 524.719 317.520  c
525.088 317.073 525.272 316.474 525.272 315.722  c
h
533.446 319.003 m
533.446 315.934 l
528.568 315.934 l
528.568 314.843 l
533.446 308.163 l
534.801 308.163 l
534.801 314.755 l
536.251 314.755 l
536.251 315.934 l
534.801 315.934 l
534.801 319.003 l
h
529.982 314.755 m
533.542 314.755 l
533.542 309.936 l
h
538.808 318.922 m
538.808 317.575 l
539.843 317.985 540.658 318.190 541.254 318.190  c
541.942 318.190 542.503 317.989 542.935 317.586  c
543.367 317.183 543.583 316.662 543.583 316.022  c
543.583 314.499 542.516 313.737 540.382 313.737  c
539.811 313.737 l
539.811 312.763 l
540.316 312.755 l
542.318 312.755 543.319 312.050 543.319 310.639  c
543.319 309.530 542.660 308.976 541.342 308.976  c
540.619 308.976 539.823 309.179 538.954 309.584  c
538.954 308.324 l
539.809 308.036 540.639 307.892 541.444 307.892  c
543.661 307.892 544.770 308.729 544.770 310.404  c
544.770 311.679 544.015 312.587 542.506 313.129  c
544.254 313.534 545.128 314.491 545.128 316.000  c
545.128 317.021 544.792 317.821 544.118 318.402  c
543.444 318.983 542.519 319.274 541.342 319.274  c
540.673 319.274 539.828 319.157 538.808 318.922  c
h
548.593 319.047 m
548.593 317.758 l
549.311 318.046 549.994 318.190 550.644 318.190  c
551.356 318.190 551.917 317.980 552.324 317.560  c
552.732 317.140 552.936 316.562 552.936 315.824  c
552.936 314.198 551.815 313.385 549.574 313.385  c
549.320 313.385 549.054 313.402 548.776 313.437  c
548.776 308.163 l
554.262 308.163 l
554.262 309.423 l
550.043 309.423 l
550.043 312.279 l
551.435 312.279 552.521 312.599 553.302 313.239  c
554.083 313.878 554.474 314.765 554.474 315.897  c
554.474 316.952 554.119 317.779 553.408 318.377  c
552.698 318.975 551.713 319.274 550.453 319.274  c
549.906 319.274 549.286 319.198 548.593 319.047  c
h
f
2 J
10.0000 M
.792157 .925490 1.00000 RG
1 J
1.45000 M
[ 0.00000 4.00000 ] 2.00000 d
.400000 .400000 .600000 RG
newpath
452.000 306.501 m
452.000 439.500 l
452.000 441.709 453.791 443.500 456.000 443.500  c
559.000 443.500 l
561.209 443.500 563.000 441.709 563.000 439.500  c
563.000 306.501 l
563.000 304.292 561.209 302.501 559.000 302.501  c
456.000 302.501 l
453.791 302.501 452.000 304.292 452.000 306.501  c
h
S
2 J
10.0000 M
[ ] 0.00000 d
0.00000 0.00000 0.00000 RG
1.00000 .800000 0.00000 RG
newpath
548.000 379.167 m
548.000 401.258 529.868 419.167 507.500 419.167  c
485.132 419.167 467.000 401.258 467.000 379.167  c
467.000 357.076 485.132 339.167 507.500 339.167  c
529.868 339.167 548.000 357.076 548.000 379.167  c
h
f
0 J
1.45000 M
0.00000 0.00000 0.00000 RG
newpath
548.000 379.167 m
548.000 401.258 529.868 419.167 507.500 419.167  c
485.132 419.167 467.000 401.258 467.000 379.167  c
467.000 357.076 485.132 339.167 507.500 339.167  c
529.868 339.167 548.000 357.076 548.000 379.167  c
h
S
2 J
10.0000 M
0 J
1.45000 M
newpath
497.237 383.702 m
497.237 375.030 l
499.862 375.030 l
500.694 375.030 501.332 375.214 501.775 375.581  c
502.219 375.948 502.440 376.481 502.440 377.181  c
502.440 378.337 501.856 379.157 500.688 379.642  c
503.583 383.702 l
502.071 383.702 l
499.604 380.034 l
498.456 380.034 l
498.456 383.702 l
h
498.456 379.114 m
498.854 379.114 l
500.401 379.114 501.175 378.507 501.175 377.292  c
501.175 376.397 500.526 375.950 499.229 375.950  c
498.456 375.950 l
h
506.888 383.702 m
506.888 375.950 l
503.812 375.950 l
503.812 375.030 l
511.194 375.030 l
511.194 375.950 l
508.118 375.950 l
508.118 383.702 l
h
513.099 383.702 m
513.099 382.835 l
514.833 382.835 l
514.833 375.991 l
513.099 376.425 l
513.099 375.534 l
515.993 374.813 l
515.993 382.835 l
517.728 382.835 l
517.728 383.702 l
h
f
2 J
10.0000 M
.792157 .925490 1.00000 RG
newpath
631.000 477.501 m
631.000 610.500 l
631.000 612.709 632.791 614.500 635.000 614.500  c
738.000 614.500 l
740.209 614.500 742.000 612.709 742.000 610.500  c
742.000 477.501 l
742.000 475.292 740.209 473.501 738.000 473.501  c
635.000 473.501 l
632.791 473.501 631.000 475.292 631.000 477.501  c
h
f
.600000 .800000 1.00000 RG
newpath
631.000 473.501 m
742.000 473.501 l
742.000 495.167 l
631.000 495.167 l
631.000 473.501 l
h
f
.792157 .925490 1.00000 RG
0.00000 0.00000 0.00000 RG
0 J
1.45000 M
newpath
690.525 485.857 m
688.679 481.185 l
686.826 485.857 l
h
692.151 490.003 m
690.972 487.000 l
686.379 487.000 l
685.186 490.003 l
683.757 490.003 l
688.057 479.163 l
689.580 479.163 l
693.813 490.003 l
h
697.505 490.274 m
696.777 490.274 695.847 490.115 694.714 489.798  c
694.714 488.274 l
695.935 488.841 696.938 489.124 697.725 489.124  c
698.330 489.124 698.817 488.965 699.186 488.648  c
699.554 488.331 699.739 487.913 699.739 487.396  c
699.739 486.971 699.618 486.609 699.376 486.312  c
699.135 486.014 698.689 485.682 698.040 485.315  c
697.292 484.883 l
696.370 484.356 695.719 483.859 695.341 483.393  c
694.962 482.927 694.773 482.383 694.773 481.763  c
694.773 480.928 695.076 480.241 695.681 479.701  c
696.287 479.162 697.058 478.892 697.996 478.892  c
698.831 478.892 699.712 479.031 700.640 479.310  c
700.640 480.716 l
699.497 480.267 698.645 480.042 698.083 480.042  c
697.551 480.042 697.112 480.184 696.765 480.467  c
696.418 480.750 696.245 481.106 696.245 481.536  c
696.245 481.897 696.372 482.217 696.626 482.496  c
696.880 482.774 697.344 483.106 698.018 483.492  c
698.794 483.931 l
699.731 484.463 700.386 484.966 700.757 485.440  c
701.128 485.914 701.313 486.482 701.313 487.146  c
701.313 488.089 700.966 488.846 700.270 489.417  c
699.574 489.988 698.652 490.274 697.505 490.274  c
h
704.316 490.003 m
704.316 488.919 l
706.484 488.919 l
706.484 480.364 l
704.316 480.906 l
704.316 479.793 l
707.935 478.892 l
707.935 488.919 l
710.103 488.919 l
710.103 490.003 l
h
712.791 490.003 m
712.791 488.736 l
713.210 487.754 714.060 486.685 715.339 485.528  c
716.167 484.788 l
717.231 483.826 717.764 482.872 717.764 481.924  c
717.764 481.319 717.582 480.843 717.218 480.496  c
716.854 480.149 716.355 479.976 715.720 479.976  c
714.968 479.976 714.082 480.267 713.062 480.848  c
713.062 479.573 l
714.023 479.119 714.978 478.892 715.925 478.892  c
716.941 478.892 717.756 479.166 718.372 479.712  c
718.987 480.259 719.294 480.984 719.294 481.888  c
719.294 482.537 719.139 483.113 718.829 483.616  c
718.519 484.119 717.942 484.729 717.097 485.447  c
716.541 485.923 l
715.383 486.905 714.714 487.842 714.534 488.736  c
719.243 488.736 l
719.243 490.003 l
h
722.554 489.922 m
722.554 488.575 l
723.589 488.985 724.404 489.190 725.000 489.190  c
725.688 489.190 726.249 488.989 726.681 488.586  c
727.113 488.183 727.329 487.662 727.329 487.022  c
727.329 485.499 726.262 484.737 724.128 484.737  c
723.557 484.737 l
723.557 483.763 l
724.062 483.755 l
726.064 483.755 727.065 483.050 727.065 481.639  c
727.065 480.530 726.406 479.976 725.088 479.976  c
724.365 479.976 723.569 480.179 722.700 480.584  c
722.700 479.324 l
723.555 479.036 724.385 478.892 725.190 478.892  c
727.407 478.892 728.516 479.729 728.516 481.404  c
728.516 482.679 727.761 483.587 726.252 484.129  c
728.000 484.534 728.875 485.491 728.875 487.000  c
728.875 488.021 728.538 488.821 727.864 489.402  c
727.190 489.983 726.265 490.274 725.088 490.274  c
724.419 490.274 723.574 490.157 722.554 489.922  c
h
732.222 489.937 m
732.222 488.714 l
733.140 489.031 733.921 489.190 734.565 489.190  c
735.464 489.190 736.166 488.808 736.671 488.044  c
737.177 487.280 737.429 486.216 737.429 484.854  c
736.697 485.757 735.864 486.209 734.932 486.209  c
734.019 486.209 733.245 485.873 732.610 485.202  c
731.975 484.531 731.658 483.711 731.658 482.745  c
731.658 481.636 731.996 480.717 732.672 479.987  c
733.348 479.257 734.199 478.892 735.225 478.892  c
736.401 478.892 737.329 479.365 738.008 480.309  c
738.687 481.254 739.026 482.547 739.026 484.188  c
739.026 486.053 738.612 487.533 737.784 488.630  c
736.957 489.726 735.837 490.274 734.426 490.274  c
733.860 490.274 733.125 490.162 732.222 489.937  c
h
733.101 482.459 m
733.101 483.299 733.287 483.960 733.661 484.444  c
734.034 484.927 734.546 485.169 735.195 485.169  c
735.806 485.169 736.327 484.961 736.759 484.546  c
737.191 484.131 737.407 483.631 737.407 483.045  c
737.407 482.122 737.198 481.379 736.781 480.815  c
736.364 480.251 735.815 479.969 735.137 479.969  c
734.507 479.969 734.010 480.192 733.646 480.639  c
733.282 481.086 733.101 481.692 733.101 482.459  c
h
f
2 J
10.0000 M
.792157 .925490 1.00000 RG
1 J
1.45000 M
[ 0.00000 4.00000 ] 2.00000 d
.400000 .400000 .600000 RG
newpath
631.000 477.501 m
631.000 610.500 l
631.000 612.709 632.791 614.500 635.000 614.500  c
738.000 614.500 l
740.209 614.500 742.000 612.709 742.000 610.500  c
742.000 477.501 l
742.000 475.292 740.209 473.501 738.000 473.501  c
635.000 473.501 l
632.791 473.501 631.000 475.292 631.000 477.501  c
h
S
2 J
10.0000 M
[ ] 0.00000 d
0.00000 0.00000 0.00000 RG
1.00000 .800000 0.00000 RG
newpath
727.000 550.167 m
727.000 572.258 708.868 590.167 686.500 590.167  c
664.132 590.167 646.000 572.258 646.000 550.167  c
646.000 528.076 664.132 510.167 686.500 510.167  c
708.868 510.167 727.000 528.076 727.000 550.167  c
h
f
0 J
1.45000 M
0.00000 0.00000 0.00000 RG
newpath
727.000 550.167 m
727.000 572.258 708.868 590.167 686.500 590.167  c
664.132 590.167 646.000 572.258 646.000 550.167  c
646.000 528.076 664.132 510.167 686.500 510.167  c
708.868 510.167 727.000 528.076 727.000 550.167  c
h
S
2 J
10.0000 M
0 J
1.45000 M
newpath
676.237 554.702 m
676.237 546.030 l
678.862 546.030 l
679.694 546.030 680.332 546.214 680.775 546.581  c
681.219 546.948 681.440 547.481 681.440 548.181  c
681.440 549.337 680.856 550.157 679.688 550.642  c
682.583 554.702 l
681.071 554.702 l
678.604 551.034 l
677.456 551.034 l
677.456 554.702 l
h
677.456 550.114 m
677.854 550.114 l
679.401 550.114 680.175 549.507 680.175 548.292  c
680.175 547.397 679.526 546.950 678.229 546.950  c
677.456 546.950 l
h
685.888 554.702 m
685.888 546.950 l
682.812 546.950 l
682.812 546.030 l
690.194 546.030 l
690.194 546.950 l
687.118 546.950 l
687.118 554.702 l
h
691.513 554.638 m
691.513 553.560 l
692.341 553.888 692.993 554.052 693.470 554.052  c
694.021 554.052 694.469 553.891 694.814 553.568  c
695.160 553.246 695.333 552.829 695.333 552.317  c
695.333 551.099 694.479 550.489 692.772 550.489  c
692.315 550.489 l
692.315 549.710 l
692.720 549.704 l
694.321 549.704 695.122 549.140 695.122 548.011  c
695.122 547.124 694.595 546.681 693.540 546.681  c
692.962 546.681 692.325 546.843 691.630 547.167  c
691.630 546.159 l
692.313 545.929 692.978 545.813 693.622 545.813  c
695.396 545.813 696.282 546.483 696.282 547.823  c
696.282 548.843 695.679 549.569 694.472 550.003  c
695.870 550.327 696.569 551.093 696.569 552.300  c
696.569 553.116 696.300 553.757 695.761 554.222  c
695.222 554.687 694.481 554.919 693.540 554.919  c
693.005 554.919 692.329 554.825 691.513 554.638  c
h
f
2 J
10.0000 M
0 J
1.45000 M
[ 6.00000 2.00000 ] 0.00000 d
newpath
517.500 443.464 m
517.500 542.000 l
598.000 542.000 l
630.971 542.746 l
S
[ ] 0.00000 d
newpath
429.412 500.785 m
429.412 498.330 l
425.510 498.330 l
425.510 497.457 l
429.412 492.114 l
430.496 492.114 l
430.496 497.387 l
431.656 497.387 l
431.656 498.330 l
430.496 498.330 l
430.496 500.785 l
h
426.641 497.387 m
429.488 497.387 l
429.488 493.531 l
h
433.654 500.785 m
433.654 499.338 l
435.102 499.338 l
435.102 500.785 l
h
440.041 501.002 m
439.146 501.002 438.423 500.581 437.870 499.740  c
437.317 498.898 437.041 497.799 437.041 496.444  c
437.041 495.076 437.319 493.977 437.876 493.145  c
438.433 492.313 439.166 491.897 440.076 491.897  c
440.986 491.897 441.720 492.313 442.276 493.145  c
442.833 493.977 443.111 495.071 443.111 496.426  c
443.111 497.817 442.833 498.927 442.276 499.757  c
441.720 500.587 440.975 501.002 440.041 501.002  c
h
440.053 500.135 m
441.275 500.135 441.887 498.893 441.887 496.408  c
441.887 493.979 441.283 492.764 440.076 492.764  c
438.873 492.764 438.271 493.990 438.271 496.444  c
438.271 498.905 438.865 500.135 440.053 500.135  c
h
445.039 500.785 m
445.039 499.338 l
446.486 499.338 l
446.486 500.785 l
h
451.426 501.002 m
450.531 501.002 449.808 500.581 449.255 499.740  c
448.702 498.898 448.426 497.799 448.426 496.444  c
448.426 495.076 448.704 493.977 449.261 493.145  c
449.817 492.313 450.551 491.897 451.461 491.897  c
452.371 491.897 453.104 492.313 453.661 493.145  c
454.218 493.977 454.496 495.071 454.496 496.426  c
454.496 497.817 454.218 498.927 453.661 499.757  c
453.104 500.587 452.359 501.002 451.426 501.002  c
h
451.438 500.135 m
452.660 500.135 453.271 498.893 453.271 496.408  c
453.271 493.979 452.668 492.764 451.461 492.764  c
450.258 492.764 449.656 493.990 449.656 496.444  c
449.656 498.905 450.250 500.135 451.438 500.135  c
h
456.424 500.785 m
456.424 499.338 l
457.871 499.338 l
457.871 500.785 l
h
462.811 501.002 m
461.916 501.002 461.192 500.581 460.640 499.740  c
460.087 498.898 459.811 497.799 459.811 496.444  c
459.811 495.076 460.089 493.977 460.646 493.145  c
461.202 492.313 461.936 491.897 462.846 491.897  c
463.756 491.897 464.489 492.313 465.046 493.145  c
465.603 493.977 465.881 495.071 465.881 496.426  c
465.881 497.817 465.603 498.927 465.046 499.757  c
464.489 500.587 463.744 501.002 462.811 501.002  c
h
462.822 500.135 m
464.045 500.135 464.656 498.893 464.656 496.408  c
464.656 493.979 464.053 492.764 462.846 492.764  c
461.643 492.764 461.041 493.990 461.041 496.444  c
461.041 498.905 461.635 500.135 462.822 500.135  c
h
467.768 502.520 m
470.891 492.114 l
471.799 492.114 l
468.676 502.520 l
h
474.734 500.785 m
474.734 499.918 l
476.469 499.918 l
476.469 493.074 l
474.734 493.508 l
474.734 492.617 l
477.629 491.897 l
477.629 499.918 l
479.363 499.918 l
479.363 500.785 l
h
482.580 496.291 m
483.131 495.576 483.824 495.219 484.660 495.219  c
485.418 495.219 486.038 495.470 486.521 495.972  c
487.003 496.474 487.244 497.117 487.244 497.903  c
487.244 498.805 486.974 499.547 486.433 500.129  c
485.892 500.711 485.205 501.002 484.373 501.002  c
483.416 501.002 482.668 500.617 482.129 499.848  c
481.590 499.078 481.320 498.010 481.320 496.643  c
481.320 495.139 481.630 493.971 482.249 493.139  c
482.868 492.307 483.740 491.891 484.865 491.891  c
485.381 491.891 486.025 492.000 486.799 492.219  c
486.799 493.227 l
485.982 492.914 485.314 492.758 484.795 492.758  c
483.318 492.758 482.580 493.936 482.580 496.291  c
h
486.084 498.160 m
486.084 497.504 485.937 496.989 485.642 496.614  c
485.347 496.239 484.938 496.051 484.414 496.051  c
483.926 496.051 483.506 496.215 483.154 496.543  c
482.803 496.871 482.627 497.266 482.627 497.727  c
482.627 498.453 482.794 499.036 483.128 499.476  c
483.462 499.915 483.904 500.135 484.455 500.135  c
484.951 500.135 485.347 499.956 485.642 499.599  c
485.937 499.241 486.084 498.762 486.084 498.160  c
h
f
newpath
437.460 514.918 m
435.228 506.246 l
436.411 506.246 l
438.187 513.096 l
439.821 506.246 l
441.005 506.246 l
442.552 513.002 l
444.462 506.246 l
445.464 506.246 l
443.032 514.918 l
441.808 514.918 l
440.278 508.233 l
438.679 514.918 l
h
446.782 512.967 m
446.782 512.100 l
453.720 512.100 l
453.720 512.967 l
h
446.782 510.799 m
446.782 509.932 l
453.720 509.932 l
453.720 510.799 l
h
456.825 514.918 m
456.825 514.051 l
458.560 514.051 l
458.560 507.207 l
456.825 507.641 l
456.825 506.750 l
459.720 506.030 l
459.720 514.051 l
461.454 514.051 l
461.454 514.918 l
h
466.370 515.135 m
465.476 515.135 464.752 514.714 464.199 513.872  c
463.646 513.031 463.370 511.932 463.370 510.576  c
463.370 509.209 463.648 508.110 464.205 507.278  c
464.762 506.446 465.495 506.030 466.405 506.030  c
467.315 506.030 468.049 506.446 468.605 507.278  c
469.162 508.110 469.440 509.203 469.440 510.559  c
469.440 511.949 469.162 513.060 468.605 513.890  c
468.049 514.720 467.304 515.135 466.370 515.135  c
h
466.382 514.268 m
467.604 514.268 468.216 513.026 468.216 510.541  c
468.216 508.112 467.612 506.897 466.405 506.897  c
465.202 506.897 464.601 508.123 464.601 510.576  c
464.601 513.037 465.194 514.268 466.382 514.268  c
h
473.958 515.135 m
473.063 515.135 472.340 514.714 471.787 513.872  c
471.234 513.031 470.958 511.932 470.958 510.576  c
470.958 509.209 471.236 508.110 471.793 507.278  c
472.350 506.446 473.083 506.030 473.993 506.030  c
474.903 506.030 475.637 506.446 476.193 507.278  c
476.750 508.110 477.028 509.203 477.028 510.559  c
477.028 511.949 476.750 513.060 476.193 513.890  c
475.637 514.720 474.892 515.135 473.958 515.135  c
h
473.970 514.268 m
475.192 514.268 475.804 513.026 475.804 510.541  c
475.804 508.112 475.200 506.897 473.993 506.897  c
472.790 506.897 472.188 508.123 472.188 510.576  c
472.188 513.037 472.782 514.268 473.970 514.268  c
h
f
[ 6.00000 2.00000 ] 0.00000 d
2 J
10.0000 M
[ ] 0.00000 d
0 J
1.45000 M
newpath
542.395 412.503 m
651.605 516.831 l
S
newpath
536.611 406.977 m
541.834 418.881 l
543.118 413.193 l
548.741 411.650 l
h
f
newpath
657.389 522.357 m
652.166 510.453 l
650.882 516.141 l
645.259 517.684 l
h
f
newpath
553.637 487.480 m
553.637 486.613 l
555.371 486.613 l
555.371 479.769 l
553.637 480.203 l
553.637 479.312 l
556.531 478.592 l
556.531 486.613 l
558.266 486.613 l
558.266 487.480 l
h
560.592 487.480 m
560.592 486.033 l
562.039 486.033 l
562.039 487.480 l
h
565.021 487.480 m
565.021 486.613 l
566.756 486.613 l
566.756 479.769 l
565.021 480.203 l
565.021 479.312 l
567.916 478.592 l
567.916 486.613 l
569.650 486.613 l
569.650 487.480 l
h
571.976 487.480 m
571.976 486.033 l
573.424 486.033 l
573.424 487.480 l
h
576.406 487.480 m
576.406 486.613 l
578.141 486.613 l
578.141 479.769 l
576.406 480.203 l
576.406 479.312 l
579.301 478.592 l
579.301 486.613 l
581.035 486.613 l
581.035 487.480 l
h
583.361 487.480 m
583.361 486.033 l
584.808 486.033 l
584.808 487.480 l
h
587.791 487.480 m
587.791 486.613 l
589.525 486.613 l
589.525 479.769 l
587.791 480.203 l
587.791 479.312 l
590.685 478.592 l
590.685 486.613 l
592.420 486.613 l
592.420 487.480 l
h
f
2 J
10.0000 M
.792157 .925490 1.00000 RG
newpath
631.000 136.167 m
631.000 269.166 l
631.000 271.375 632.791 273.166 635.000 273.166  c
738.000 273.166 l
740.209 273.166 742.000 271.375 742.000 269.166  c
742.000 136.167 l
742.000 133.958 740.209 132.167 738.000 132.167  c
635.000 132.167 l
632.791 132.167 631.000 133.958 631.000 136.167  c
h
f
.600000 .800000 1.00000 RG
newpath
631.000 132.167 m
742.000 132.167 l
742.000 153.833 l
631.000 153.833 l
631.000 132.167 l
h
f
.792157 .925490 1.00000 RG
0.00000 0.00000 0.00000 RG
0 J
1.45000 M
newpath
690.525 144.523 m
688.679 139.851 l
686.826 144.523 l
h
692.151 148.669 m
690.972 145.666 l
686.379 145.666 l
685.186 148.669 l
683.757 148.669 l
688.057 137.829 l
689.580 137.829 l
693.813 148.669 l
h
697.505 148.940 m
696.777 148.940 695.847 148.781 694.714 148.464  c
694.714 146.940 l
695.935 147.507 696.938 147.790 697.725 147.790  c
698.330 147.790 698.817 147.631 699.186 147.314  c
699.554 146.997 699.739 146.579 699.739 146.062  c
699.739 145.637 699.618 145.275 699.376 144.978  c
699.135 144.680 698.689 144.348 698.040 143.981  c
697.292 143.549 l
696.370 143.022 695.719 142.525 695.341 142.059  c
694.962 141.593 694.773 141.049 694.773 140.429  c
694.773 139.594 695.076 138.907 695.681 138.367  c
696.287 137.828 697.058 137.558 697.996 137.558  c
698.831 137.558 699.712 137.697 700.640 137.976  c
700.640 139.382 l
699.497 138.933 698.645 138.708 698.083 138.708  c
697.551 138.708 697.112 138.850 696.765 139.133  c
696.418 139.416 696.245 139.772 696.245 140.202  c
696.245 140.563 696.372 140.883 696.626 141.162  c
696.880 141.440 697.344 141.772 698.018 142.158  c
698.794 142.597 l
699.731 143.129 700.386 143.632 700.757 144.106  c
701.128 144.580 701.313 145.148 701.313 145.812  c
701.313 146.755 700.966 147.512 700.270 148.083  c
699.574 148.654 698.652 148.940 697.505 148.940  c
h
703.584 148.588 m
703.584 147.241 l
704.619 147.651 705.435 147.856 706.030 147.856  c
706.719 147.856 707.279 147.655 707.711 147.252  c
708.143 146.849 708.359 146.328 708.359 145.688  c
708.359 144.165 707.292 143.403 705.159 143.403  c
704.587 143.403 l
704.587 142.429 l
705.093 142.421 l
707.095 142.421 708.096 141.716 708.096 140.305  c
708.096 139.196 707.437 138.642 706.118 138.642  c
705.396 138.642 704.600 138.845 703.730 139.250  c
703.730 137.990 l
704.585 137.702 705.415 137.558 706.221 137.558  c
708.438 137.558 709.546 138.396 709.546 140.070  c
709.546 141.345 708.792 142.253 707.283 142.795  c
709.031 143.200 709.905 144.157 709.905 145.666  c
709.905 146.687 709.568 147.487 708.894 148.068  c
708.220 148.649 707.295 148.940 706.118 148.940  c
705.449 148.940 704.604 148.823 703.584 148.588  c
h
712.791 148.669 m
712.791 147.402 l
713.210 146.420 714.060 145.351 715.339 144.194  c
716.167 143.454 l
717.231 142.492 717.764 141.538 717.764 140.590  c
717.764 139.985 717.582 139.509 717.218 139.162  c
716.854 138.815 716.355 138.642 715.720 138.642  c
714.968 138.642 714.082 138.933 713.062 139.514  c
713.062 138.239 l
714.023 137.785 714.978 137.558 715.925 137.558  c
716.941 137.558 717.756 137.832 718.372 138.378  c
718.987 138.925 719.294 139.650 719.294 140.554  c
719.294 141.203 719.139 141.779 718.829 142.282  c
718.519 142.785 717.942 143.396 717.097 144.113  c
716.541 144.589 l
715.383 145.571 714.714 146.508 714.534 147.402  c
719.243 147.402 l
719.243 148.669 l
h
722.737 148.603 m
722.737 147.380 l
723.655 147.697 724.436 147.856 725.081 147.856  c
725.979 147.856 726.681 147.474 727.186 146.710  c
727.692 145.946 727.944 144.882 727.944 143.520  c
727.212 144.423 726.379 144.875 725.447 144.875  c
724.534 144.875 723.760 144.539 723.125 143.868  c
722.490 143.197 722.173 142.377 722.173 141.411  c
722.173 140.302 722.511 139.383 723.187 138.653  c
723.864 137.923 724.714 137.558 725.740 137.558  c
726.917 137.558 727.844 138.031 728.523 138.975  c
729.202 139.920 729.541 141.213 729.541 142.854  c
729.541 144.719 729.127 146.199 728.300 147.296  c
727.472 148.392 726.353 148.940 724.941 148.940  c
724.375 148.940 723.640 148.828 722.737 148.603  c
h
723.616 141.125 m
723.616 141.965 723.802 142.626 724.176 143.110  c
724.550 143.593 725.061 143.835 725.710 143.835  c
726.321 143.835 726.842 143.627 727.274 143.212  c
727.706 142.797 727.922 142.297 727.922 141.711  c
727.922 140.788 727.714 140.045 727.296 139.481  c
726.879 138.917 726.331 138.635 725.652 138.635  c
725.022 138.635 724.525 138.858 724.161 139.305  c
723.798 139.752 723.616 140.358 723.616 141.125  c
h
731.760 148.669 m
731.760 147.402 l
732.180 146.420 733.030 145.351 734.309 144.194  c
735.137 143.454 l
736.201 142.492 736.733 141.538 736.733 140.590  c
736.733 139.985 736.552 139.509 736.188 139.162  c
735.824 138.815 735.325 138.642 734.690 138.642  c
733.938 138.642 733.052 138.933 732.031 139.514  c
732.031 138.239 l
732.993 137.785 733.948 137.558 734.895 137.558  c
735.911 137.558 736.726 137.832 737.341 138.378  c
737.957 138.925 738.264 139.650 738.264 140.554  c
738.264 141.203 738.109 141.779 737.799 142.282  c
737.489 142.785 736.912 143.396 736.067 144.113  c
735.510 144.589 l
734.353 145.571 733.684 146.508 733.503 147.402  c
738.213 147.402 l
738.213 148.669 l
h
f
2 J
10.0000 M
.792157 .925490 1.00000 RG
1 J
1.45000 M
[ 0.00000 4.00000 ] 2.00000 d
.400000 .400000 .600000 RG
newpath
631.000 136.167 m
631.000 269.166 l
631.000 271.375 632.791 273.166 635.000 273.166  c
738.000 273.166 l
740.209 273.166 742.000 271.375 742.000 269.166  c
742.000 136.167 l
742.000 133.958 740.209 132.167 738.000 132.167  c
635.000 132.167 l
632.791 132.167 631.000 133.958 631.000 136.167  c
h
S
2 J
10.0000 M
[ ] 0.00000 d
0.00000 0.00000 0.00000 RG
1.00000 .800000 0.00000 RG
newpath
727.000 208.833 m
727.000 230.924 708.868 248.833 686.500 248.833  c
664.132 248.833 646.000 230.924 646.000 208.833  c
646.000 186.742 664.132 168.833 686.500 168.833  c
708.868 168.833 727.000 186.742 727.000 208.833  c
h
f
0 J
1.45000 M
0.00000 0.00000 0.00000 RG
newpath
727.000 208.833 m
727.000 230.924 708.868 248.833 686.500 248.833  c
664.132 248.833 646.000 230.924 646.000 208.833  c
646.000 186.742 664.132 168.833 686.500 168.833  c
708.868 168.833 727.000 186.742 727.000 208.833  c
h
S
2 J
10.0000 M
0 J
1.45000 M
newpath
659.412 213.368 m
659.412 210.913 l
655.510 210.913 l
655.510 210.040 l
659.412 204.696 l
660.496 204.696 l
660.496 209.970 l
661.656 209.970 l
661.656 210.913 l
660.496 210.913 l
660.496 213.368 l
h
656.641 209.970 m
659.488 209.970 l
659.488 206.114 l
h
663.654 213.368 m
663.654 211.921 l
665.102 211.921 l
665.102 213.368 l
h
670.041 213.585 m
669.146 213.585 668.423 213.164 667.870 212.322  c
667.317 211.480 667.041 210.382 667.041 209.026  c
667.041 207.659 667.319 206.560 667.876 205.728  c
668.433 204.896 669.166 204.479 670.076 204.479  c
670.986 204.479 671.720 204.896 672.276 205.728  c
672.833 206.560 673.111 207.653 673.111 209.009  c
673.111 210.399 672.833 211.510 672.276 212.340  c
671.720 213.170 670.975 213.585 670.041 213.585  c
h
670.053 212.718 m
671.275 212.718 671.887 211.476 671.887 208.991  c
671.887 206.562 671.283 205.347 670.076 205.347  c
668.873 205.347 668.271 206.573 668.271 209.026  c
668.271 211.487 668.865 212.718 670.053 212.718  c
h
675.039 213.368 m
675.039 211.921 l
676.486 211.921 l
676.486 213.368 l
h
681.426 213.585 m
680.531 213.585 679.808 213.164 679.255 212.322  c
678.702 211.480 678.426 210.382 678.426 209.026  c
678.426 207.659 678.704 206.560 679.261 205.728  c
679.817 204.896 680.551 204.479 681.461 204.479  c
682.371 204.479 683.104 204.896 683.661 205.728  c
684.218 206.560 684.496 207.653 684.496 209.009  c
684.496 210.399 684.218 211.510 683.661 212.340  c
683.104 213.170 682.359 213.585 681.426 213.585  c
h
681.438 212.718 m
682.660 212.718 683.271 211.476 683.271 208.991  c
683.271 206.562 682.668 205.347 681.461 205.347  c
680.258 205.347 679.656 206.573 679.656 209.026  c
679.656 211.487 680.250 212.718 681.438 212.718  c
h
686.424 213.368 m
686.424 211.921 l
687.871 211.921 l
687.871 213.368 l
h
692.811 213.585 m
691.916 213.585 691.192 213.164 690.640 212.322  c
690.087 211.480 689.811 210.382 689.811 209.026  c
689.811 207.659 690.089 206.560 690.646 205.728  c
691.202 204.896 691.936 204.479 692.846 204.479  c
693.756 204.479 694.489 204.896 695.046 205.728  c
695.603 206.560 695.881 207.653 695.881 209.009  c
695.881 210.399 695.603 211.510 695.046 212.340  c
694.489 213.170 693.744 213.585 692.811 213.585  c
h
692.822 212.718 m
694.045 212.718 694.656 211.476 694.656 208.991  c
694.656 206.562 694.053 205.347 692.846 205.347  c
691.643 205.347 691.041 206.573 691.041 209.026  c
691.041 211.487 691.635 212.718 692.822 212.718  c
h
697.768 215.103 m
700.891 204.696 l
701.799 204.696 l
698.676 215.103 l
h
704.734 213.368 m
704.734 212.501 l
706.469 212.501 l
706.469 205.657 l
704.734 206.091 l
704.734 205.200 l
707.629 204.479 l
707.629 212.501 l
709.363 212.501 l
709.363 213.368 l
h
712.580 208.874 m
713.131 208.159 713.824 207.802 714.660 207.802  c
715.418 207.802 716.038 208.053 716.521 208.555  c
717.003 209.057 717.244 209.700 717.244 210.485  c
717.244 211.388 716.974 212.130 716.433 212.712  c
715.892 213.294 715.205 213.585 714.373 213.585  c
713.416 213.585 712.668 213.200 712.129 212.431  c
711.590 211.661 711.320 210.593 711.320 209.226  c
711.320 207.722 711.630 206.554 712.249 205.722  c
712.868 204.890 713.740 204.474 714.865 204.474  c
715.381 204.474 716.025 204.583 716.799 204.802  c
716.799 205.810 l
715.982 205.497 715.314 205.341 714.795 205.341  c
713.318 205.341 712.580 206.519 712.580 208.874  c
h
716.084 210.743 m
716.084 210.087 715.937 209.571 715.642 209.196  c
715.347 208.821 714.938 208.634 714.414 208.634  c
713.926 208.634 713.506 208.798 713.154 209.126  c
712.803 209.454 712.627 209.849 712.627 210.310  c
712.627 211.036 712.794 211.619 713.128 212.059  c
713.462 212.498 713.904 212.718 714.455 212.718  c
714.951 212.718 715.347 212.539 715.642 212.182  c
715.937 211.824 716.084 211.345 716.084 210.743  c
h
f
2 J
10.0000 M
0 J
1.45000 M
newpath
651.539 242.101 m
542.461 345.899 l
S
newpath
657.335 236.586 m
645.195 241.237 l
650.815 242.791 l
652.088 248.481 l
h
f
newpath
536.665 351.414 m
548.805 346.763 l
543.185 345.209 l
541.912 339.519 l
h
f
2 J
10.0000 M
.792157 .925490 1.00000 RG
newpath
818.000 312.667 m
818.000 445.667 l
818.000 447.876 819.791 449.667 822.000 449.667  c
925.000 449.667 l
927.209 449.667 929.000 447.876 929.000 445.667  c
929.000 312.667 l
929.000 310.458 927.209 308.667 925.000 308.667  c
822.000 308.667 l
819.791 308.667 818.000 310.458 818.000 312.667  c
h
f
.600000 .800000 1.00000 RG
newpath
818.000 308.667 m
929.000 308.667 l
929.000 330.333 l
818.000 330.333 l
818.000 308.667 l
h
f
.792157 .925490 1.00000 RG
0.00000 0.00000 0.00000 RG
0 J
1.45000 M
newpath
868.040 321.024 m
866.194 316.351 l
864.341 321.024 l
h
869.666 325.169 m
868.487 322.167 l
863.895 322.167 l
862.701 325.169 l
861.272 325.169 l
865.572 314.330 l
867.095 314.330 l
871.329 325.169 l
h
875.020 325.440 m
874.292 325.440 873.362 325.282 872.229 324.964  c
872.229 323.441 l
873.450 324.007 874.454 324.291 875.240 324.291  c
875.845 324.291 876.332 324.132 876.701 323.814  c
877.070 323.497 877.254 323.080 877.254 322.562  c
877.254 322.137 877.133 321.776 876.891 321.478  c
876.650 321.180 876.204 320.848 875.555 320.482  c
874.808 320.050 l
873.885 319.522 873.234 319.026 872.856 318.559  c
872.477 318.093 872.288 317.550 872.288 316.930  c
872.288 316.095 872.591 315.407 873.196 314.868  c
873.802 314.328 874.573 314.059 875.511 314.059  c
876.346 314.059 877.227 314.198 878.155 314.476  c
878.155 315.882 l
877.012 315.433 876.160 315.208 875.599 315.208  c
875.066 315.208 874.627 315.350 874.280 315.633  c
873.934 315.917 873.760 316.273 873.760 316.703  c
873.760 317.064 873.887 317.384 874.141 317.662  c
874.395 317.940 874.859 318.272 875.533 318.658  c
876.309 319.098 l
877.247 319.630 877.901 320.133 878.272 320.606  c
878.643 321.080 878.829 321.649 878.829 322.313  c
878.829 323.255 878.481 324.012 877.785 324.583  c
877.089 325.155 876.167 325.440 875.020 325.440  c
h
881.099 325.089 m
881.099 323.741 l
882.134 324.151 882.950 324.356 883.545 324.356  c
884.234 324.356 884.794 324.155 885.226 323.752  c
885.658 323.349 885.875 322.828 885.875 322.188  c
885.875 320.665 884.808 319.903 882.674 319.903  c
882.103 319.903 l
882.103 318.929 l
882.608 318.922 l
884.610 318.922 885.611 318.216 885.611 316.805  c
885.611 315.697 884.952 315.143 883.633 315.143  c
882.911 315.143 882.115 315.345 881.246 315.750  c
881.246 314.491 l
882.100 314.203 882.930 314.059 883.736 314.059  c
885.953 314.059 887.061 314.896 887.061 316.571  c
887.061 317.845 886.307 318.753 884.798 319.295  c
886.546 319.701 887.420 320.658 887.420 322.167  c
887.420 323.187 887.083 323.988 886.409 324.569  c
885.735 325.150 884.810 325.440 883.633 325.440  c
882.964 325.440 882.120 325.323 881.099 325.089  c
h
892.510 319.266 m
891.451 318.529 890.921 317.713 890.921 316.820  c
890.921 316.000 891.221 315.333 891.822 314.820  c
892.422 314.308 893.206 314.051 894.173 314.051  c
895.066 314.051 895.790 314.269 896.344 314.703  c
896.899 315.138 897.176 315.702 897.176 316.395  c
897.176 317.445 896.502 318.402 895.154 319.266  c
896.790 320.067 897.608 321.100 897.608 322.364  c
897.608 323.272 897.265 324.012 896.579 324.583  c
895.893 325.155 895.008 325.440 893.924 325.440  c
892.859 325.440 891.999 325.171 891.342 324.631  c
890.685 324.092 890.357 323.382 890.357 322.503  c
890.357 321.205 891.075 320.125 892.510 319.266  c
h
894.349 318.812 m
895.359 318.148 895.865 317.408 895.865 316.593  c
895.865 316.158 895.696 315.808 895.359 315.542  c
895.022 315.276 894.578 315.143 894.026 315.143  c
893.494 315.143 893.062 315.273 892.730 315.534  c
892.398 315.796 892.232 316.134 892.232 316.549  c
892.232 316.954 892.382 317.317 892.682 317.636  c
892.983 317.956 893.538 318.348 894.349 318.812  c
h
893.294 319.852 m
892.713 320.301 892.319 320.693 892.111 321.028  c
891.904 321.362 891.800 321.778 891.800 322.276  c
891.800 322.896 892.000 323.398 892.400 323.781  c
892.801 324.165 893.328 324.356 893.982 324.356  c
894.612 324.356 895.126 324.193 895.524 323.866  c
895.922 323.539 896.121 323.114 896.121 322.591  c
896.121 322.171 895.998 321.816 895.751 321.526  c
895.505 321.235 895.027 320.880 894.319 320.460  c
h
900.252 325.104 m
900.252 323.880 l
901.170 324.198 901.951 324.356 902.596 324.356  c
903.494 324.356 904.196 323.974 904.701 323.210  c
905.207 322.446 905.459 321.383 905.459 320.021  c
904.727 320.924 903.895 321.375 902.962 321.375  c
902.049 321.375 901.275 321.040 900.640 320.368  c
900.005 319.697 899.688 318.878 899.688 317.911  c
899.688 316.803 900.026 315.884 900.702 315.154  c
901.379 314.424 902.229 314.059 903.255 314.059  c
904.432 314.059 905.359 314.531 906.038 315.476  c
906.717 316.421 907.056 317.713 907.056 319.354  c
907.056 321.219 906.642 322.700 905.815 323.796  c
904.987 324.892 903.868 325.440 902.457 325.440  c
901.890 325.440 901.155 325.328 900.252 325.104  c
h
901.131 317.625 m
901.131 318.465 901.318 319.127 901.691 319.610  c
902.065 320.094 902.576 320.335 903.226 320.335  c
903.836 320.335 904.357 320.128 904.789 319.713  c
905.221 319.298 905.438 318.797 905.438 318.211  c
905.438 317.289 905.229 316.545 904.811 315.981  c
904.394 315.417 903.846 315.135 903.167 315.135  c
902.537 315.135 902.040 315.359 901.677 315.805  c
901.313 316.252 901.131 316.859 901.131 317.625  c
h
909.554 325.089 m
909.554 323.741 l
910.589 324.151 911.404 324.356 912.000 324.356  c
912.688 324.356 913.249 324.155 913.681 323.752  c
914.113 323.349 914.329 322.828 914.329 322.188  c
914.329 320.665 913.262 319.903 911.128 319.903  c
910.557 319.903 l
910.557 318.929 l
911.062 318.922 l
913.064 318.922 914.065 318.216 914.065 316.805  c
914.065 315.697 913.406 315.143 912.088 315.143  c
911.365 315.143 910.569 315.345 909.700 315.750  c
909.700 314.491 l
910.555 314.203 911.385 314.059 912.190 314.059  c
914.407 314.059 915.516 314.896 915.516 316.571  c
915.516 317.845 914.761 318.753 913.252 319.295  c
915.000 319.701 915.875 320.658 915.875 322.167  c
915.875 323.187 915.538 323.988 914.864 324.569  c
914.190 325.150 913.265 325.440 912.088 325.440  c
911.419 325.440 910.574 325.323 909.554 325.089  c
h
922.217 325.440 m
921.099 325.440 920.195 324.914 919.504 323.862  c
918.813 322.810 918.467 321.437 918.467 319.742  c
918.467 318.033 918.815 316.659 919.511 315.619  c
920.207 314.579 921.124 314.059 922.261 314.059  c
923.399 314.059 924.316 314.579 925.011 315.619  c
925.707 316.659 926.055 318.026 926.055 319.720  c
926.055 321.458 925.707 322.846 925.011 323.884  c
924.316 324.922 923.384 325.440 922.217 325.440  c
h
922.232 324.356 m
923.760 324.356 924.524 322.804 924.524 319.698  c
924.524 316.661 923.770 315.143 922.261 315.143  c
920.757 315.143 920.005 316.676 920.005 319.742  c
920.005 322.818 920.748 324.356 922.232 324.356  c
h
f
2 J
10.0000 M
.792157 .925490 1.00000 RG
0.00000 0.00000 0.00000 RG
0 J
1.45000 M
newpath
849.831 383.702 m
849.831 382.688 l
850.167 381.903 850.847 381.048 851.870 380.122  c
852.532 379.530 l
853.384 378.761 853.810 377.997 853.810 377.239  c
853.810 376.755 853.664 376.374 853.373 376.097  c
853.082 375.819 852.683 375.681 852.175 375.681  c
851.573 375.681 850.864 375.913 850.048 376.378  c
850.048 375.358 l
850.817 374.995 851.581 374.813 852.339 374.813  c
853.151 374.813 853.804 375.032 854.296 375.470  c
854.788 375.907 855.034 376.487 855.034 377.210  c
855.034 377.729 854.910 378.190 854.662 378.593  c
854.414 378.995 853.952 379.483 853.276 380.058  c
852.831 380.438 l
851.905 381.224 851.370 381.974 851.226 382.688  c
854.993 382.688 l
854.993 383.702 l
h
860.185 383.919 m
859.290 383.919 858.566 383.498 858.014 382.656  c
857.461 381.814 857.185 380.716 857.185 379.360  c
857.185 377.993 857.463 376.894 858.020 376.062  c
858.576 375.229 859.310 374.813 860.220 374.813  c
861.130 374.813 861.863 375.229 862.420 376.062  c
862.977 376.894 863.255 377.987 863.255 379.343  c
863.255 380.733 862.977 381.844 862.420 382.674  c
861.863 383.504 861.118 383.919 860.185 383.919  c
h
860.196 383.052 m
861.419 383.052 862.030 381.810 862.030 379.325  c
862.030 376.896 861.427 375.681 860.220 375.681  c
859.017 375.681 858.415 376.907 858.415 379.360  c
858.415 381.821 859.009 383.052 860.196 383.052  c
h
865.183 383.702 m
865.183 382.255 l
866.630 382.255 l
866.630 383.702 l
h
871.569 383.919 m
870.675 383.919 869.951 383.498 869.398 382.656  c
868.846 381.814 868.569 380.716 868.569 379.360  c
868.569 377.993 868.848 376.894 869.404 376.062  c
869.961 375.229 870.694 374.813 871.604 374.813  c
872.515 374.813 873.248 375.229 873.805 376.062  c
874.361 376.894 874.640 377.987 874.640 379.343  c
874.640 380.733 874.361 381.844 873.805 382.674  c
873.248 383.504 872.503 383.919 871.569 383.919  c
h
871.581 383.052 m
872.804 383.052 873.415 381.810 873.415 379.325  c
873.415 376.896 872.812 375.681 871.604 375.681  c
870.401 375.681 869.800 376.907 869.800 379.360  c
869.800 381.821 870.394 383.052 871.581 383.052  c
h
876.567 383.702 m
876.567 382.255 l
878.015 382.255 l
878.015 383.702 l
h
882.954 383.919 m
882.060 383.919 881.336 383.498 880.783 382.656  c
880.230 381.814 879.954 380.716 879.954 379.360  c
879.954 377.993 880.232 376.894 880.789 376.062  c
881.346 375.229 882.079 374.813 882.989 374.813  c
883.899 374.813 884.633 375.229 885.189 376.062  c
885.746 376.894 886.024 377.987 886.024 379.343  c
886.024 380.733 885.746 381.844 885.189 382.674  c
884.633 383.504 883.888 383.919 882.954 383.919  c
h
882.966 383.052 m
884.188 383.052 884.800 381.810 884.800 379.325  c
884.800 376.896 884.196 375.681 882.989 375.681  c
881.786 375.681 881.185 376.907 881.185 379.360  c
881.185 381.821 881.778 383.052 882.966 383.052  c
h
887.952 383.702 m
887.952 382.255 l
889.399 382.255 l
889.399 383.702 l
h
894.339 383.919 m
893.444 383.919 892.721 383.498 892.168 382.656  c
891.615 381.814 891.339 380.716 891.339 379.360  c
891.339 377.993 891.617 376.894 892.174 376.062  c
892.730 375.229 893.464 374.813 894.374 374.813  c
895.284 374.813 896.018 375.229 896.574 376.062  c
897.131 376.894 897.409 377.987 897.409 379.343  c
897.409 380.733 897.131 381.844 896.574 382.674  c
896.018 383.504 895.272 383.919 894.339 383.919  c
h
894.351 383.052 m
895.573 383.052 896.185 381.810 896.185 379.325  c
896.185 376.896 895.581 375.681 894.374 375.681  c
893.171 375.681 892.569 376.907 892.569 379.360  c
892.569 381.821 893.163 383.052 894.351 383.052  c
h
f
2 J
10.0000 M
.792157 .925490 1.00000 RG
1 J
1.45000 M
[ 0.00000 4.00000 ] 2.00000 d
.400000 .400000 .600000 RG
newpath
818.000 312.667 m
818.000 445.667 l
818.000 447.876 819.791 449.667 822.000 449.667  c
925.000 449.667 l
927.209 449.667 929.000 447.876 929.000 445.667  c
929.000 312.667 l
929.000 310.458 927.209 308.667 925.000 308.667  c
822.000 308.667 l
819.791 308.667 818.000 310.458 818.000 312.667  c
h
S
2 J
10.0000 M
[ ] 0.00000 d
0.00000 0.00000 0.00000 RG
1.00000 .800000 0.00000 RG
newpath
914.000 385.333 m
914.000 407.425 895.868 425.333 873.500 425.333  c
851.132 425.333 833.000 407.425 833.000 385.333  c
833.000 363.242 851.132 345.333 873.500 345.333  c
895.868 345.333 914.000 363.242 914.000 385.333  c
h
f
0 J
1.45000 M
0.00000 0.00000 0.00000 RG
newpath
914.000 385.333 m
914.000 407.425 895.868 425.333 873.500 425.333  c
851.132 425.333 833.000 407.425 833.000 385.333  c
833.000 363.242 851.132 345.333 873.500 345.333  c
895.868 345.333 914.000 363.242 914.000 385.333  c
h
S
2 J
10.0000 M
0 J
1.45000 M
newpath
863.237 389.869 m
863.237 381.197 l
865.862 381.197 l
866.694 381.197 867.332 381.380 867.775 381.748  c
868.219 382.115 868.440 382.648 868.440 383.347  c
868.440 384.503 867.856 385.324 866.688 385.808  c
869.583 389.869 l
868.071 389.869 l
865.604 386.201 l
864.456 386.201 l
864.456 389.869 l
h
864.456 385.281 m
864.854 385.281 l
866.401 385.281 867.175 384.673 867.175 383.458  c
867.175 382.564 866.526 382.117 865.229 382.117  c
864.456 382.117 l
h
872.888 389.869 m
872.888 382.117 l
869.812 382.117 l
869.812 381.197 l
877.194 381.197 l
877.194 382.117 l
874.118 382.117 l
874.118 389.869 l
h
878.290 389.869 m
878.290 388.855 l
878.626 388.070 879.306 387.214 880.329 386.289  c
880.991 385.697 l
881.843 384.927 882.269 384.164 882.269 383.406  c
882.269 382.921 882.123 382.541 881.832 382.263  c
881.541 381.986 881.142 381.847 880.634 381.847  c
880.032 381.847 879.323 382.080 878.507 382.544  c
878.507 381.525 l
879.276 381.162 880.040 380.980 880.798 380.980  c
881.610 380.980 882.263 381.199 882.755 381.636  c
883.247 382.074 883.493 382.654 883.493 383.376  c
883.493 383.896 883.369 384.357 883.121 384.759  c
882.873 385.162 882.411 385.650 881.735 386.224  c
881.290 386.605 l
880.364 387.390 879.829 388.140 879.685 388.855  c
883.452 388.855 l
883.452 389.869 l
h
f
2 J
10.0000 M
0 J
1.45000 M
[ 6.00000 2.00000 ] 0.00000 d
newpath
882.500 449.660 m
882.500 525.000 l
882.500 544.000 l
741.960 544.000 l
S
[ ] 0.00000 d
newpath
918.412 499.089 m
918.412 496.634 l
914.510 496.634 l
914.510 495.761 l
918.412 490.417 l
919.496 490.417 l
919.496 495.690 l
920.656 495.690 l
920.656 496.634 l
919.496 496.634 l
919.496 499.089 l
h
915.641 495.690 m
918.488 495.690 l
918.488 491.835 l
h
922.654 499.089 m
922.654 497.642 l
924.102 497.642 l
924.102 499.089 l
h
929.041 499.306 m
928.146 499.306 927.423 498.885 926.870 498.043  c
926.317 497.201 926.041 496.103 926.041 494.747  c
926.041 493.380 926.319 492.280 926.876 491.448  c
927.433 490.616 928.166 490.200 929.076 490.200  c
929.986 490.200 930.720 490.616 931.276 491.448  c
931.833 492.280 932.111 493.374 932.111 494.729  c
932.111 496.120 931.833 497.230 931.276 498.061  c
930.720 498.891 929.975 499.306 929.041 499.306  c
h
929.053 498.438 m
930.275 498.438 930.887 497.196 930.887 494.712  c
930.887 492.282 930.283 491.067 929.076 491.067  c
927.873 491.067 927.271 492.294 927.271 494.747  c
927.271 497.208 927.865 498.438 929.053 498.438  c
h
934.039 499.089 m
934.039 497.642 l
935.486 497.642 l
935.486 499.089 l
h
940.426 499.306 m
939.531 499.306 938.808 498.885 938.255 498.043  c
937.702 497.201 937.426 496.103 937.426 494.747  c
937.426 493.380 937.704 492.280 938.261 491.448  c
938.817 490.616 939.551 490.200 940.461 490.200  c
941.371 490.200 942.104 490.616 942.661 491.448  c
943.218 492.280 943.496 493.374 943.496 494.729  c
943.496 496.120 943.218 497.230 942.661 498.061  c
942.104 498.891 941.359 499.306 940.426 499.306  c
h
940.438 498.438 m
941.660 498.438 942.271 497.196 942.271 494.712  c
942.271 492.282 941.668 491.067 940.461 491.067  c
939.258 491.067 938.656 492.294 938.656 494.747  c
938.656 497.208 939.250 498.438 940.438 498.438  c
h
945.424 499.089 m
945.424 497.642 l
946.871 497.642 l
946.871 499.089 l
h
951.811 499.306 m
950.916 499.306 950.192 498.885 949.640 498.043  c
949.087 497.201 948.811 496.103 948.811 494.747  c
948.811 493.380 949.089 492.280 949.646 491.448  c
950.202 490.616 950.936 490.200 951.846 490.200  c
952.756 490.200 953.489 490.616 954.046 491.448  c
954.603 492.280 954.881 493.374 954.881 494.729  c
954.881 496.120 954.603 497.230 954.046 498.061  c
953.489 498.891 952.744 499.306 951.811 499.306  c
h
951.822 498.438 m
953.045 498.438 953.656 497.196 953.656 494.712  c
953.656 492.282 953.053 491.067 951.846 491.067  c
950.643 491.067 950.041 492.294 950.041 494.747  c
950.041 497.208 950.635 498.438 951.822 498.438  c
h
956.768 500.823 m
959.891 490.417 l
960.799 490.417 l
957.676 500.823 l
h
963.734 499.089 m
963.734 498.222 l
965.469 498.222 l
965.469 491.378 l
963.734 491.811 l
963.734 490.921 l
966.629 490.200 l
966.629 498.222 l
968.363 498.222 l
968.363 499.089 l
h
971.580 494.595 m
972.131 493.880 972.824 493.522 973.660 493.522  c
974.418 493.522 975.038 493.773 975.521 494.275  c
976.003 494.777 976.244 495.421 976.244 496.206  c
976.244 497.108 975.974 497.851 975.433 498.433  c
974.892 499.015 974.205 499.306 973.373 499.306  c
972.416 499.306 971.668 498.921 971.129 498.151  c
970.590 497.382 970.320 496.313 970.320 494.946  c
970.320 493.442 970.630 492.274 971.249 491.442  c
971.868 490.610 972.740 490.194 973.865 490.194  c
974.381 490.194 975.025 490.304 975.799 490.522  c
975.799 491.530 l
974.982 491.218 974.314 491.061 973.795 491.061  c
972.318 491.061 971.580 492.239 971.580 494.595  c
h
975.084 496.464 m
975.084 495.808 974.937 495.292 974.642 494.917  c
974.347 494.542 973.938 494.354 973.414 494.354  c
972.926 494.354 972.506 494.519 972.154 494.847  c
971.803 495.175 971.627 495.569 971.627 496.030  c
971.627 496.757 971.794 497.340 972.128 497.779  c
972.462 498.219 972.904 498.438 973.455 498.438  c
973.951 498.438 974.347 498.260 974.642 497.902  c
974.937 497.545 975.084 497.065 975.084 496.464  c
h
f
newpath
935.946 513.222 m
933.714 504.550 l
934.897 504.550 l
936.673 511.399 l
938.308 504.550 l
939.491 504.550 l
941.038 511.306 l
942.948 504.550 l
943.950 504.550 l
941.519 513.222 l
940.294 513.222 l
938.765 506.536 l
937.165 513.222 l
h
945.269 511.271 m
945.269 510.403 l
952.206 510.403 l
952.206 511.271 l
h
945.269 509.103 m
945.269 508.235 l
952.206 508.235 l
952.206 509.103 l
h
957.269 513.438 m
956.374 513.438 955.650 513.018 955.098 512.176  c
954.545 511.334 954.269 510.235 954.269 508.880  c
954.269 507.513 954.547 506.413 955.104 505.581  c
955.660 504.749 956.394 504.333 957.304 504.333  c
958.214 504.333 958.947 504.749 959.504 505.581  c
960.061 506.413 960.339 507.507 960.339 508.862  c
960.339 510.253 960.061 511.363 959.504 512.193  c
958.947 513.023 958.202 513.438 957.269 513.438  c
h
957.280 512.571 m
958.503 512.571 959.114 511.329 959.114 508.845  c
959.114 506.415 958.511 505.200 957.304 505.200  c
956.101 505.200 955.499 506.427 955.499 508.880  c
955.499 511.341 956.093 512.571 957.280 512.571  c
h
f
[ 6.00000 2.00000 ] 0.00000 d
2 J
10.0000 M
[ ] 0.00000 d
0 J
1.45000 M
newpath
721.598 241.960 m
838.402 352.207 l
S
newpath
715.780 236.469 m
721.074 248.342 l
722.325 242.646 l
727.938 241.069 l
h
f
newpath
844.220 357.698 m
838.926 345.825 l
837.675 351.520 l
832.062 353.097 l
h
f
2 J
10.0000 M
0 J
1.45000 M
newpath
837.283 417.258 m
722.717 518.243 l
S
newpath
843.284 411.968 m
830.976 416.152 l
836.532 417.919 l
837.588 423.654 l
h
f
newpath
716.716 523.533 m
729.024 519.348 l
723.468 517.581 l
722.412 511.847 l
h
f
newpath
736.271 453.321 m
736.271 452.307 l
736.607 451.522 737.286 450.667 738.310 449.741  c
738.972 449.149 l
739.823 448.380 740.249 447.616 740.249 446.858  c
740.249 446.374 740.104 445.993 739.813 445.716  c
739.522 445.438 739.122 445.300 738.615 445.300  c
738.013 445.300 737.304 445.532 736.488 445.997  c
736.488 444.977 l
737.257 444.614 738.021 444.432 738.779 444.432  c
739.591 444.432 740.243 444.651 740.736 445.089  c
741.228 445.526 741.474 446.106 741.474 446.829  c
741.474 447.348 741.350 447.809 741.102 448.212  c
740.854 448.614 740.392 449.102 739.716 449.677  c
739.271 450.057 l
738.345 450.843 737.810 451.593 737.665 452.307  c
741.433 452.307 l
741.433 453.321 l
h
744.034 453.321 m
744.034 451.874 l
745.482 451.874 l
745.482 453.321 l
h
747.656 453.321 m
747.656 452.307 l
747.991 451.522 748.671 450.667 749.695 449.741  c
750.357 449.149 l
751.208 448.380 751.634 447.616 751.634 446.858  c
751.634 446.374 751.489 445.993 751.198 445.716  c
750.906 445.438 750.507 445.300 749.999 445.300  c
749.398 445.300 748.689 445.532 747.872 445.997  c
747.872 444.977 l
748.642 444.614 749.406 444.432 750.163 444.432  c
750.976 444.432 751.628 444.651 752.120 445.089  c
752.613 445.526 752.859 446.106 752.859 446.829  c
752.859 447.348 752.735 447.809 752.487 448.212  c
752.239 448.614 751.777 449.102 751.101 449.677  c
750.656 450.057 l
749.730 450.843 749.195 451.593 749.050 452.307  c
752.818 452.307 l
752.818 453.321 l
h
755.419 453.321 m
755.419 451.874 l
756.866 451.874 l
756.866 453.321 l
h
759.040 453.321 m
759.040 452.307 l
759.376 451.522 760.056 450.667 761.079 449.741  c
761.741 449.149 l
762.593 448.380 763.019 447.616 763.019 446.858  c
763.019 446.374 762.873 445.993 762.582 445.716  c
762.291 445.438 761.892 445.300 761.384 445.300  c
760.782 445.300 760.073 445.532 759.257 445.997  c
759.257 444.977 l
760.027 444.614 760.790 444.432 761.548 444.432  c
762.361 444.432 763.013 444.651 763.505 445.089  c
763.997 445.526 764.243 446.106 764.243 446.829  c
764.243 447.348 764.119 447.809 763.871 448.212  c
763.623 448.614 763.161 449.102 762.486 449.677  c
762.040 450.057 l
761.115 450.843 760.579 451.593 760.435 452.307  c
764.202 452.307 l
764.202 453.321 l
h
766.804 453.321 m
766.804 451.874 l
768.251 451.874 l
768.251 453.321 l
h
770.425 453.321 m
770.425 452.307 l
770.761 451.522 771.441 450.667 772.464 449.741  c
773.126 449.149 l
773.978 448.380 774.404 447.616 774.404 446.858  c
774.404 446.374 774.258 445.993 773.967 445.716  c
773.676 445.438 773.277 445.300 772.769 445.300  c
772.167 445.300 771.458 445.532 770.642 445.997  c
770.642 444.977 l
771.411 444.614 772.175 444.432 772.933 444.432  c
773.745 444.432 774.398 444.651 774.890 445.089  c
775.382 445.526 775.628 446.106 775.628 446.829  c
775.628 447.348 775.504 447.809 775.256 448.212  c
775.008 448.614 774.546 449.102 773.870 449.677  c
773.425 450.057 l
772.499 450.843 771.964 451.593 771.820 452.307  c
775.587 452.307 l
775.587 453.321 l
h
f
2 J
10.0000 M
Q
[ 1.00000 0.00000 0.00000 1.00000 0.00000 0.00000 ] defaultmatrix matrix concatmatrix setmatrix
cliprestore

%%Trailer
%%EOF
