%!PS-Adobe-3.0 EPSF-3.0
%%BoundingBox: 0 0 661 581
%%Creator: yExport 1.5
%%Producer: org.freehep.graphicsio.ps.EPSGraphics2D Revision: 12753 
%%For: 
%%Title: 
%%CreationDate: Wednesday, March 29, 2017 7:39:42 PM BST
%%LanguageLevel: 3
%%EndComments
%%BeginProlog
100 dict dup begin

%
% File: org/freehep/graphicsio.ps/PSProlog.txt
% Author: Charles Loomis
%

% Redefinitions which save some space in the output file.  These are also
% the same as the PDF operators.
/q {gsave} def
/Q {grestore} def

/n {newpath} def
/m {moveto} def
/l {lineto} def
/c {curveto} def
/h {closepath} def

/re {4 -2 roll moveto
     dup 0 exch rlineto exch 0 rlineto
     neg 0 exch rlineto closepath} def

/f {fill} def
/f* {eofill} def
/F {gsave vg&FC fill grestore} def
/F* {gsave vg&FC eofill grestore} def

/s {closepath stroke} def
/S {stroke} def

/b {closepath gsave vg&FC fill grestore
    gsave stroke grestore newpath} def
/B {gsave vg&FC fill grestore gsave stroke grestore newpath} def
/b* {closepath gsave vg&FC eofill grestore
    gsave stroke grestore newpath} def
/B* {gsave vg&FC eofill grestore gsave stroke grestore newpath} def

/g {1 array astore /vg&fcolor exch def} def
/G {setgray} def
/k {4 array astore /vg&fcolor exch def} def
/K {setcmykcolor} def
/rg {3 array astore /vg&fcolor exch def} def
/RG {setrgbcolor} def

% Initialize the fill color.
0 0 0 rg

/vg&FC {mark vg&fcolor aload pop
        counttomark 1 eq {G} if
        counttomark 3 eq {RG} if
        counttomark 4 eq {K} if
        cleartomark } def

/vg&DFC {/vg&fcolor exch def} def

/vg&C {mark exch aload pop
       counttomark 1 eq {G} if
       counttomark 3 eq {RG} if
       counttomark 4 eq {K} if
       cleartomark } def

/w {setlinewidth} def
/j {setlinejoin} def
/J {setlinecap} def
/M {setmiterlimit} def
/d {setdash} def
/i {setflat} def

/W {clip} def
/W* {eoclip} def

% Setup the default graphics state.
% (black; 1 pt. linewidth; miter join; butt-ends; solid)
/defaultGraphicsState {0 g 1 w 0 j 0 J [] 0 d} def

% Emulation of the rectangle operators for PostScript implementations
% which do not implement all Level 2 features.  This is an INCOMPLETE
% emulation; only the "x y width height rect..." form is emulated.
/*rf {gsave newpath re fill grestore} def
/*rs {gsave newpath re stroke grestore} def
/*rc {newpath re clip} def
/rf  /rectfill where {pop /rectfill}{/*rf} ifelse load def
/rs  /rectstroke where {pop /rectstroke}{/*rs} ifelse load def
/rc  /rectclip where {pop /rectclip}{/*rc} ifelse load def

% Emulation of the selectfont operator.  This includes a 20% increase in
% the fontsize which is necessary to get sizes similar to the Java fonts.
/*sf {exch findfont exch
      dup type /arraytype eq {makefont}{scalefont} ifelse setfont} bind def
/sf /selectfont where {pop {1.2 mul selectfont}}{{1.2 mul *sf}} ifelse def

% Special version of stroke which allows the dash pattern to continue
% across path segments.  (This may be needed for PostScript although
% modern printers seem to do this correctly.)
/vg&stroke {
  currentdash pop length 0 eq
  {stroke}
  {
    currentdash /vg&doffset exch def pop
    flattenpath
    {m vg&resetdash}
    {2 copy
     currentpoint
     3 -1 roll sub dup mul
     3 1 roll sub dup mul
     add sqrt
     3 1 roll l
     currentdash 3 -1 roll add setdash}
     {}
     {h vg&resetdash}
     pathforall
     stroke
     vg&resetdash
  } ifelse
} def
/vg&resetdash {currentdash pop vg&doffset setdash} def

% Initialize variables for safety.
/delta 0 def
/xv 0 def  /yv 0 def  /width 0 def  /height 0 def

% Initialize to portrait INTERNATIONAL (Letter-height, A4-width) page.
/pw 595 def  /ph 791  def  /po true def /ftp false def

% Initialize margins to 20 points.
/ml 20 def  /mr 20 def  /mt 20 def  /mb 20 def

% Temporary matrices.
/smatrix 0 def  /nmatrix 0 def

% set page size (usage: <page width><page height> setpagesize)
/setpagesize {/ph exch def /pw exch def} def

% set page orientation (usage: portrait or landscape)
/portrait {/po true def} def
/landscape {/po false def} def

% force natural size for image (usage: naturalsize)
/naturalsize {/ftp false def} def

% resize image to fill page (usage: fittopage)
/fittopage {/ftp true def} def

% set margins of the page (usage: <left><bottom><top><right> setmargins)
/setmargins {/mr exch def /mt exch def /mb exch def /ml exch def} def

% set the graphic's size (usage: <width><height> setsize)
/setsize {/gh exch def /gw exch def} def

% set the graphic's origin (usage: <x0><y0> setorigin)
/setorigin {/gy exch def /gx exch def} def

% calculate image center
/imagecenter {pw ml sub mr sub 2 div ml add
              ph mt sub mb sub 2 div mb add} def

% calculate the necessary scaling
/imagescale {po {gw}{gh} ifelse pw ml sub mr sub div
             po {gh}{gw} ifelse ph mt sub mb sub div
             2 copy lt {exch} if pop
             ftp not {1 2 copy lt {exch} if pop} if
             1 exch div /sfactor exch def
             /gw gw sfactor mul def /gh gh sfactor mul def} def

% calculate image origin
/imageorigin {pw ml sub mr sub 2 div ml add
              po {gw}{gh} ifelse 2 div sub
              ph mt sub mb sub 2 div mb add
              po {gh}{gw} ifelse 2 div po {add}{sub} ifelse} def

% calculate the clipping origin
/cliporigin  {pw ml sub mr sub 2 div ml add
              po {gw}{gh} ifelse 2 div sub floor
              ph mt sub mb sub 2 div mb add
              po {gh}{gw} ifelse 2 div sub floor} def

% Set the clipping region to the bounding box.
/cliptobounds {cliporigin po {gw}{gh} ifelse 1 add
                          po {gh}{gw} ifelse 1 add rc} def

% set the base transformation matrix (usage: setbasematrix)
/setbasematrix {imageorigin translate
                po {0}{90} ifelse rotate
                sfactor sfactor neg scale
                /defaultmatrix matrix currentmatrix def} def

% The lower-right bias in drawing 1 pt. wide lines.
/bias  {q 0.5 0.5 translate} def
/unbias {Q} def

% Define the composite fonts used to print Unicode strings.
% Undefine particular values in an encoding array.
/vg&undef { {exch dup 3 -1 roll /.notdef put} forall } def
/vg&redef { {3 -1 roll dup 4 2 roll put} forall } def

% usage: key encoding basefontname vg&newbasefont font
/vg&newbasefont {
findfont dup length dict copy
  begin
    currentdict /FID undef
    /Encoding exch def
    dup /FontName exch def
    currentdict
  end
definefont
} def

% usage: key encoding basefontname vg&newskewedbasefont font
/vg&newskewedbasefont {
findfont dup length dict copy
  begin
    currentdict /FID undef
    /Encoding exch def
    dup /FontName exch def
    exch FontMatrix exch matrix concatmatrix /FontMatrix exch def
    currentdict
  end
definefont
} def

% usage: basekey suffix vg&nconcat name
/vg&nconcat {
  2 {dup length string cvs exch} repeat
  dup length 3 -1 roll dup length 3 -1 roll add string
  dup 0 4 -1 roll dup length 5 1 roll putinterval
  dup 4 -2 roll exch putinterval cvn
} def

%usage: fontname vg&skewmatrix matrix
/vg&skewmatrix {
findfont dup /FontInfo known
  {
    /FontInfo get dup /ItalicAngle known
    {
      [ 1 0 4 -1 roll /ItalicAngle get neg dup sin exch cos div 1 0 0 ]
    }
    {pop matrix} ifelse
  }
  {pop matrix} ifelse
} def

% usage: newfontname basefontname vg&newcompositefont --
/vg&newcompositefont {
/vg&fstyle exch def
/vg&bfont exch def
/vg&fname exch def
<<
/FontStyleBits vg&fstyle
/FontType 0
/FontMatrix matrix
/FontName vg&fname
/FMapType 2
/Encoding [ 0 1 255 {pop 6} for ]
          dup 16#00 0 put % Latin
          dup 16#03 1 put % Greek
          dup 16#20 2 put % Punctuation
          dup 16#21 3 put % Arrows
          dup 16#22 4 put % MathOps
          dup 16#27 5 put % Dingbats

/FDepVector [
vg&bfont /-UC-Latin vg&nconcat UCLatinEncoding
vg&bfont vg&newbasefont

vg&bfont vg&skewmatrix
vg&bfont /-UC-Greek vg&nconcat UCGreekEncoding
/Symbol vg&newskewedbasefont

vg&bfont /-UC-Punctuation vg&nconcat UCPunctuationEncoding
vg&bfont vg&newbasefont

/Arrows-UC findfont
/MathOps-UC findfont
/Dingbats-UC findfont
/Undefined-UC findfont ]
>>
vg&fname exch definefont pop
} def

% Null encoding vector (all elements set to .notdef)
/NullEncoding [ 256 {/.notdef} repeat ] def

% Unicode Latin encoding (unicode codes \u0000-\u00ff)
/UCLatinEncoding
  ISOLatin1Encoding dup length array copy
  dup 16#60 /grave put
  [ 16#90 16#91 16#92 16#93 16#94 16#95 16#96
    16#97 16#98 16#9a 16#9b 16#9d 16#9e 16#9f
  ] vg&undef
  def

% Unicode Greek encoding (unicode codes \u0370-\u03ff)
/UCGreekEncoding
  NullEncoding dup length array copy
  << 16#91 /Alpha    16#92 /Beta      16#93 /Gamma    16#94 /Delta
     16#95 /Epsilon  16#96 /Zeta      16#97 /Eta      16#98 /Theta
     16#99 /Iota     16#9a /Kappa     16#9b /Lambda   16#9c /Mu
     16#9d /Nu       16#9e /Xi        16#9f /Omicron  16#a0 /Pi
     16#a1 /Rho      16#a3 /Sigma     16#a4 /Tau      16#a5 /Upsilon
     16#a6 /Phi      16#a7 /Chi       16#a8 /Psi      16#a9 /Omega
     16#b1 /alpha    16#b2 /beta      16#b3 /gamma    16#b4 /delta
     16#b5 /epsilon  16#b6 /zeta      16#b7 /eta      16#b8 /theta
     16#b9 /iota     16#ba /kappa     16#bb /lambda   16#bc /mu
     16#bd /nu       16#be /xi        16#bf /omicron  16#c0 /pi
     16#c1 /rho      16#c2 /sigma1    16#c3 /sigma    16#c4 /tau
     16#c5 /upsilon  16#c6 /phi1      16#c7 /chi      16#c8 /psi
     16#c9 /omega    16#7e /semicolon 16#87 /dotmath  16#d1 /theta1
     16#d2 /Upsilon1 16#d5 /phi       16#d6 /omega1
  >> vg&redef
  def

% Unicode punctuation encoding (unicode codes \u2000-\u206f)
/UCPunctuationEncoding
  NullEncoding dup length array copy
  << 16#10 /hyphen          16#11 /hyphen              16#12 /endash
     16#13 /emdash          16#18 /quoteleft           16#19 /quoteright
     16#1a /quotesinglbase  16#1b /quotesingle         16#1c /quotedblleft
     16#1d /quotedblright   16#1e /quotedblbase        16#1f /quotedbl
     16#20 /dagger          16#21 /daggerdbl           16#22 /bullet
     16#24 /period          16#26 /ellipsis            16#27 /periodcentered
     16#30 /perthousand     16#44 /fraction
     16#70 /zerosuperior    16#74 /foursuperior        16#75 /fivesuperior
     16#76 /sixsuperior     16#77 /sevensuperior       16#78 /eightsuperior
     16#79 /ninesuperior    16#7b /hyphensuperior      16#7d /parenleftsuperior
     16#7e /parenrightsuperior
     16#80 /zeroinferior    16#84 /fourinferior        16#85 /fiveinferior
     16#81 /oneinferior     16#82 /twoinferior         16#83 /threeinferior
     16#86 /sixinferior     16#87 /seveninferior       16#88 /eightinferior
     16#89 /nineinferior    16#8b /hypheninferior      16#8d /parenleftinferior
     16#8e /parenrightinferior
  >> vg&redef
  def

% Unicode mathematical operators encoding (unicode codes \u2200-\u22ff)
/UCMathOpsEncoding
  NullEncoding dup length array copy
  << 16#00 /universal       16#02 /partialdiff         16#03 /existential
     16#05 /emptyset        16#06 /Delta               16#07 /gradient
     16#08 /element         16#09 /notelement          16#0b /suchthat
     16#0f /product         16#11 /summation           16#12 /minus
     16#15 /fraction        16#17 /asteriskmath        16#19 /bullet
     16#1a /radical         16#1d /proportional        16#1e /infinity
     16#20 /angle           16#23 /bar                 16#27 /logicaland
     16#28 /logicalor       16#29 /intersection        16#2a /union
     16#2b /integral        16#34 /therefore           16#36 /colon
     16#3c /similar         16#45 /congruent           16#48 /approxequal
     16#60 /notequal        16#61 /equivalence         16#64 /lessequal
     16#65 /greaterequal    16#82 /propersubset        16#83 /propersuperset
     16#86 /reflexsubset    16#87 /reflexsuperset      16#95 /circleplus
     16#97 /circlemultiply  16#a5 /perpendicular       16#03 /existential
     16#c0 /logicaland      16#c1 /logicalor           16#c2 /intersection
     16#c3 /union           16#c4 /diamond             16#c5 /dotmath
  >> vg&redef
  def

% Unicode arrows encoding (unicode codes \u2190-\u21ff)
% Also includes those "Letterlike" unicode characters
% which are available in the symbol font. (unicode codes \u2100-\u214f)
/UCArrowsEncoding
  NullEncoding dup length array copy
  << 16#11 /Ifraktur        16#1c /Rfraktur            16#22 /trademarkserif
     16#35 /aleph
     16#90 /arrowleft       16#91 /arrowup             16#92 /arrowright
     16#93 /arrowdown       16#94 /arrowboth           16#d0 /arrowdblleft
     16#d1 /arrowdblup      16#d2 /arrowdblright       16#d3 /arrowdbldown
     16#d4 /arrowdblboth
  >> vg&redef
  def

/ZapfDingbats findfont /Encoding get
dup length array copy /UCDingbatsEncoding exch def
16#20 1 16#7f {
  dup 16#20 sub exch
  UCDingbatsEncoding exch get
  UCDingbatsEncoding 3 1 roll put
} for
16#a0 1 16#ff {
  dup 16#40 sub exch
  UCDingbatsEncoding exch get
  UCDingbatsEncoding 3 1 roll put
} for
UCDingbatsEncoding [ 16#c0 1 16#ff {} for ] vg&undef
[ 16#00  16#05 16#0a 16#0b  16#28 16#4c 16#4e  16#53 16#54 16#55  16#57 16#5f
  16#60  16#68 16#69 16#6a  16#6b 16#6c 16#6d  16#6e 16#6f 16#70  16#71 16#72
  16#73  16#74 16#75 16#95  16#96 16#97 16#b0  16#bf
] vg&undef pop

% Define the base fonts which don't change.
/Undefined-UC NullEncoding       /Helvetica    vg&newbasefont pop
/MathOps-UC   UCMathOpsEncoding  /Symbol       vg&newbasefont pop
/Arrows-UC    UCArrowsEncoding   /Symbol       vg&newbasefont pop
/Dingbats-UC  UCDingbatsEncoding /ZapfDingbats vg&newbasefont pop

% Make the SansSerif composite fonts.
/SansSerif /Helvetica 16#00 vg&newcompositefont
/SansSerif-Bold /Helvetica-Bold 16#01 vg&newcompositefont
/SansSerif-Italic /Helvetica-Oblique 16#02 vg&newcompositefont
/SansSerif-BoldItalic /Helvetica-BoldOblique 16#03 vg&newcompositefont

% Make the Serif composite fonts.
/Serif /Times-Roman 16#00 vg&newcompositefont
/Serif-Bold /Times-Bold 16#01 vg&newcompositefont
/Serif-Italic /Times-Italic 16#02 vg&newcompositefont
/Serif-BoldItalic /Times-BoldItalic 16#03 vg&newcompositefont

% Make the Monospaced composite fonts.
/Monospaced /Courier 16#00 vg&newcompositefont
/Monospaced-Bold /Courier-Bold 16#01 vg&newcompositefont
/Monospaced-Italic /Courier-Oblique 16#02 vg&newcompositefont
/Monospaced-BoldItalic /Courier-BoldOblique 16#03 vg&newcompositefont

% Make the Dialog composite fonts.
/Dialog /Helvetica 16#00 vg&newcompositefont
/Dialog-Bold /Helvetica-Bold 16#01 vg&newcompositefont
/Dialog-Italic /Helvetica-Oblique 16#02 vg&newcompositefont
/Dialog-BoldItalic /Helvetica-BoldOblique 16#03 vg&newcompositefont

% Make the DialogInput composite fonts.
/DialogInput /Courier 16#00 vg&newcompositefont
/DialogInput-Bold /Courier-Bold 16#01 vg&newcompositefont
/DialogInput-Italic /Courier-Oblique 16#02 vg&newcompositefont
/DialogInput-BoldItalic /Courier-BoldOblique 16#03 vg&newcompositefont

% Make the Typewriter composite fonts (JDK 1.1 only).
/Typewriter /Courier 16#00 vg&newcompositefont
/Typewriter-Bold /Courier-Bold 16#01 vg&newcompositefont
/Typewriter-Italic /Courier-Oblique 16#02 vg&newcompositefont
/Typewriter-BoldItalic /Courier-BoldOblique 16#03 vg&newcompositefont


/cfontH {
 dup /fontsize exch def /SansSerif exch sf
 /vg&fontstyles [{cfontH} {cfontHB} {cfontHI} {cfontHBI}] def
} def
/cfontHB {
  dup /fontsize exch def /SansSerif-Bold exch sf
 /vg&fontstyles [{cfontH} {cfontHB} {cfontHI} {cfontHBI}] def
} def
/cfontHI {
 dup /fontsize exch def /SansSerif-Italic exch sf
 /vg&fontstyles [{cfontH} {cfontHB} {cfontHI} {cfontHBI}] def
} def
/cfontHBI {
 dup /fontsize exch def /SansSerif-BoldItalic exch sf
 /vg&fontstyles [{cfontH} {cfontHB} {cfontHI} {cfontHBI}] def
} def

/cfontT {
 dup /fontsize exch def /Serif exch sf
 /vg&fontstyles [{cfontT} {cfontTB} {cfontTI} {cfontTBI}] def
} def
/cfontTB {
 dup /fontsize exch def /Serif-Bold exch sf
 /vg&fontstyles [{cfontT} {cfontTB} {cfontTI} {cfontTBI}] def
} def
/cfontTI {
 dup /fontsize exch def /Serif-Italic exch sf
 /vg&fontstyles [{cfontT} {cfontTB} {cfontTI} {cfontTBI}] def
} def
/cfontTBI {
 dup /fontsize exch def /Serif-BoldItalic exch sf
 /vg&fontstyles [{cfontT} {cfontTB} {cfontTI} {cfontTBI}] def
} def

/cfontC {
 dup /fontsize exch def /Typewriter exch sf
 /vg&fontstyles [{cfontC} {cfontCB} {cfontCI} {cfontCBI}] def
} def
/cfontCB {
 dup /fontsize exch def /Typewriter-Bold exch sf
 /vg&fontstyles [{cfontC} {cfontCB} {cfontCI} {cfontCBI}] def
} def
/cfontCI {
 dup /fontsize exch def /Typewriter-Italic exch sf
 /vg&fontstyles [{cfontC} {cfontCB} {cfontCI} {cfontCBI}] def
} def
/cfontCBI {
 dup /fontsize exch def /Typewriter-BoldItalic exch sf
 /vg&fontstyles [{cfontC} {cfontCB} {cfontCI} {cfontCBI}] def
} def

% Darken or lighten the current color.
/darken {0.7 exch exp 3 copy
         q 4 -1 roll vg&C
         currentrgbcolor 3 {4 -2 roll mul} repeat
         3 array astore Q} def

/displayColorMap
<< /Cr   [1.00 0.00 0.00]       /Cg     [0.00 1.00 0.00]
   /Cb   [0.00 0.00 1.00]       /Cc     [1.00 0.00 0.00 0.00]
   /Cm   [0.00 1.00 0.00 0.00]  /Cy     [0.00 0.00 1.00 0.00]
   /Co   [1.00 0.78 0.00]       /Cp     [1.00 0.67 0.67]
   /Cw   [1   ]                 /Cgrl   [0.75]
   /Cgr  [0.50]                 /Cgrd   [0.25]
   /Ck   [0   ]
   /CGr  [1.00 0.00 0.00]       /CGg    [0.00 1.00 0.00]
   /CGb  [0.00 0.00 1.00]       /CGc    [1.00 0.00 0.00 0.00]
   /CGm  [0.00 1.00 0.00 0.00]  /CGy    [0.00 0.00 1.00 0.00]
   /CGo  [1.00 0.78 0.00]       /CGp    [1.00 0.67 0.67]
   /CGw  [1   ]                 /CGgrl  [0.75]
   /CGgr [0.50]                 /CGgrd  [0.25]
   /CGk  [0   ]
   /CIr  [1.00 0.00 0.00]       /CIg    [0.00 1.00 0.00]
   /CIb  [0.00 0.00 1.00]       /CIc    [1.00 0.00 0.00 0.00]
   /CIm  [0.00 1.00 0.00 0.00]  /CIy    [0.00 0.00 1.00 0.00]
   /CIo  [1.00 0.78 0.00]       /CIp    [1.00 0.67 0.67]
   /CIw  [1   ]                 /CIgrl  [0.75]
   /CIgr [0.50]                 /CIgrd  [0.25]
   /CIk  [0   ]
>> def

/printColorMap
<< /Cr   [1.00 0.33 0.33]       /Cg     [0.33 1.00 0.33]
   /Cb   [0.33 0.33 1.00]       /Cc     [1.00 0.00 0.00 0.00]
   /Cm   [0.00 1.00 0.00 0.00]  /Cy     [0.00 0.00 1.00 0.00]
   /Co   [1.00 0.78 0.00]       /Cp     [1.00 0.67 0.67]
   /Cw   [1   ]                 /Cgrl   [0.75]
   /Cgr  [0.50]                 /Cgrd   [0.25]
   /Ck   [0   ]
   /CGr  [1.00 0.33 0.33]       /CGg    [0.33 1.00 0.33]
   /CGb  [0.33 0.33 1.00]       /CGc    [1.00 0.00 0.00 0.00]
   /CGm  [0.00 1.00 0.00 0.00]  /CGy    [0.00 0.00 1.00 0.00]
   /CGo  [1.00 0.78 0.00]       /CGp    [1.00 0.67 0.67]
   /CGw  [1   ]                 /CGgrl  [0.75]
   /CGgr [0.50]                 /CGgrd  [0.25]
   /CGk  [0   ]
   /CIr  [1.00 0.33 0.33]       /CIg    [0.33 1.00 0.33]
   /CIb  [0.33 0.33 1.00]       /CIc    [1.00 0.00 0.00 0.00]
   /CIm  [0.00 1.00 0.00 0.00]  /CIy    [0.00 0.00 1.00 0.00]
   /CIo  [1.00 0.78 0.00]       /CIp    [1.00 0.67 0.67]
   /CIw  [1   ]                 /CIgrl  [0.75]
   /CIgr [0.50]                 /CIgrd  [0.25]
   /CIk  [0   ]
>> def

/grayColorMap
<< /Cr   [0   ]                 /Cg     [0   ]
   /Cb   [0   ]                 /Cc     [0   ]
   /Cm   [0   ]                 /Cy     [0   ]
   /Co   [0   ]                 /Cp     [0   ]
   /Cw   [0   ]                 /Cgrl   [0   ]
   /Cgr  [0   ]                 /Cgrd   [0   ]
   /Ck   [0   ]
   /CGr  [0.75]                 /CGg    [1   ]
   /CGb  [0.50]                 /CGc    [0.75]
   /CGm  [0.50]                 /CGy    [1   ]
   /CGo  [0.75]                 /CGp    [1   ]
   /CGw  [0   ]                 /CGgrl  [0.25]
   /CGgr [0.50]                 /CGgrd  [0.75]
   /CGk  [1   ]
   /CIr  [1   ]                 /CIg    [1   ]
   /CIb  [1   ]                 /CIc    [1   ]
   /CIm  [1   ]                 /CIy    [1   ]
   /CIo  [1   ]                 /CIp    [1   ]
   /CIw  [1   ]                 /CIgrl  [1   ]
   /CIgr [1   ]                 /CIgrd  [1   ]
   /CIk  [1   ]
>> def

/bwColorMap
<< /Cr   [0   ]                 /Cg     [0   ]
   /Cb   [0   ]                 /Cc     [0   ]
   /Cm   [0   ]                 /Cy     [0   ]
   /Co   [0   ]                 /Cp     [0   ]
   /Cw   [0   ]                 /Cgrl   [0   ]
   /Cgr  [0   ]                 /Cgrd   [0   ]
   /Ck   [0   ]
   /CGr  [1   ]                 /CGg    [1   ]
   /CGb  [1   ]                 /CGc    [1   ]
   /CGm  [1   ]                 /CGy    [1   ]
   /CGo  [1   ]                 /CGp    [1   ]
   /CGw  [0   ]                 /CGgrl  [1   ]
   /CGgr [1   ]                 /CGgrd  [1   ]
   /CGk  [1   ]
   /CIr  [1   ]                 /CIg    [1   ]
   /CIb  [1   ]                 /CIc    [1   ]
   /CIm  [1   ]                 /CIy    [1   ]
   /CIo  [1   ]                 /CIp    [1   ]
   /CIw  [1   ]                 /CIgrl  [1   ]
   /CIgr [1   ]                 /CIgrd  [1   ]
   /CIk  [1   ]
>> def

%
% The following routines handle the alignment of and printing of
% tagged strings.
%

% Predefine the bounding box values.
/bbllx 0 def /bblly 0 def /bburx 0 def /bbury 0 def

% This routine pops the first unicode character off of a string and returns
% the remainder of the string, the character code of first character,
% and a "true" if the string was non-zero length.
% <string>      popfirst <remaining string> <true>
% <null string> popfirst <false>
/popfirst {
  dup length 1 gt
    {dup 0 get /vg&fbyte exch def
     dup 1 get /vg&cbyte exch def
     dup length 2 sub 2 exch getinterval true}
    {pop false} ifelse
} def

% This routine shows a single unicode character given the font and
% character codes.
% <font code> <char code> unicharshow --
/unicharshow {
  2 string
  dup 0 5 -1 roll put
  dup 1 4 -1 roll put
  internalshow
} def

% This is an internal routine to alternate between determining the
% bounding box for stringsize and showing the string for recshow.
% <string> internalshow --
/internalshow {show} def

% This is an internal routine to alternate between determining the
% bounding box for stringsize and stroking various ornaments.
% <string> internalstroke --
/internalstroke {S} def

% Sets up internalshow to use the null device to determine string size.
% -- nullinternalshow --
/nullinternalshow {/internalshow {false charpath flattenpath
                                  pathbbox updatebbox} def} def

% Sets up internalstroke to use the null device to determine string size.
% -- nullinternalstroke --
/nullinternalstroke {
 /internalstroke {flattenpath pathbbox updatebbox} def} def

% This routine tests to see if the character code matches the first
% character of a string.
% <char code> <string> testchar <char code> <true or false>
/testchar {exch dup 3 -1 roll 0 get eq} def

% Raise the text baseline for superscripts.
% -- raise --
/raise {
  0 fontsize 2 div rmoveto
  /fontsize fontsize 2 mul 3 div def
  currentfont /FontName get fontsize sf
} def

% Un-raise the text baseline for superscripts.
% -- unraise --
/unraise {
  /fontsize fontsize 1.5 mul def
  0 fontsize 2 div neg rmoveto
} def

% Lower the text baseline for subscripts.
% -- lower --
/lower {
  0 fontsize 3 div neg rmoveto
  /fontsize fontsize 2 mul 3 div def
  currentfont /FontName get fontsize sf
} def

% Un-lower the text baseline for subscripts.
% -- unlower --
/unlower {
  /fontsize fontsize 1.5 mul def
  0 fontsize 3 div rmoveto
} def

% Compare the top two elements on the stack and leave only the
% larger one.
/maxval {2 copy gt {pop} {exch pop} ifelse} def

% Tokenize a string.  Do not use the usual PostScript token because
% parentheses will not be interpreted correctly because of rescanning
% of the string.
/vg&token {/vg&string exch def /vg&index -1 def /vg&level 0 def
0 2 vg&string length 2 sub {
  dup dup 1 add exch vg&string exch get 8 bitshift vg&string 3 -1 roll get or
  dup 16#f0fe eq {pop 1}{16#f0ff eq {-1}{0} ifelse} ifelse
  /vg&level exch vg&level add def
  vg&level 0 eq {/vg&index exch def exit} if pop
} for
vg&index 0 ge {
  vg&string vg&index 2 add dup vg&string length exch sub getinterval
  vg&index 2 gt {vg&string 2 vg&index 2 sub getinterval}{()} ifelse
  true}
{false} ifelse
} bind def

% Recursively show an unicode string.
% <string> recshow --
/recshow {
  popfirst
  {
    % Test to see if this is a string attribute.
    vg&fbyte 16#f0 and 16#e0 eq
    {
      q

      % Font style.
      currentfont dup /FontStyleBits known {/FontStyleBits get}{pop 0} ifelse
      vg&cbyte or vg&fontstyles exch get fontsize exch exec

      vg&token pop recshow currentpoint Q m recshow
    }
    {
      vg&fbyte 16#F8 and 16#F0 eq {

        % Superscript and/or subscript.
        vg&cbyte 16#00 eq {
          vg&token pop exch vg&token pop 3 -1 roll
          q raise recshow unraise currentpoint pop Q exch
          q lower recshow unlower currentpoint pop Q
          maxval currentpoint exch pop m recshow } if

        % Strikeout.
        vg&cbyte 16#01 eq {
          vg&token pop currentpoint 3 -1 roll recshow
          q 0 J vg&underline vg&uthick w
          currentpoint 4 -2 roll fontsize 3 div add moveto
          fontsize 3 div add lineto internalstroke Q
          recshow} if

        % Underline.
        vg&cbyte 16#02 eq {
          vg&token pop currentpoint 3 -1 roll recshow
          q 0 J vg&underline vg&uthick w
          currentpoint 4 -2 roll vg&uoffset add moveto
          vg&uoffset add lineto internalstroke Q
          recshow} if

        % Dashed underline.
        vg&cbyte 16#03 eq {
          vg&token pop currentpoint 3 -1 roll recshow
          q 0 J [ vg&uthick 5 mul vg&uthick 2 mul] 0 d
          vg&underline vg&uthick w
          currentpoint 4 -2 roll vg&uoffset add moveto
          vg&uoffset add lineto internalstroke Q
          recshow} if

        % Dotted underline.
        vg&cbyte 16#04 eq {
          vg&token pop currentpoint 3 -1 roll recshow
          q 1 J [ 0 vg&uthick 3 mul] 0 d
          vg&underline vg&uthick w
          currentpoint 4 -2 roll vg&uoffset add moveto
          vg&uoffset add lineto internalstroke Q
          recshow} if

        % Thick underline.
        vg&cbyte 16#05 eq {
          vg&token pop currentpoint 3 -1 roll recshow
          q 0 J vg&underline vg&uthick 2 mul w
          currentpoint 4 -2 roll vg&uoffset vg&uthick 2 div sub add moveto
          vg&uoffset vg&uthick 2 div sub add lineto internalstroke Q
          recshow} if

        % Gray thick underline.
        vg&cbyte 16#06 eq {
          vg&token pop currentpoint 3 -1 roll recshow
          q 0 J vg&underline vg&uthick 2 mul w 0.5 setgray
          currentpoint 4 -2 roll vg&uoffset vg&uthick 2 div sub add moveto
          vg&uoffset vg&uthick 2 div sub add lineto internalstroke Q
          recshow} if

        % Overbar.
        vg&cbyte 16#07 eq {
          vg&token pop dup stringsize relative 4 1 roll pop pop exch
          3 -1 roll recshow
          q 0 J vg&underline vg&uthick w
          vg&uoffset neg add dup currentpoint pop exch m l internalstroke Q
          recshow} if
      }
      {
        vg&fbyte vg&cbyte unicharshow recshow
      } ifelse
    } ifelse
  } if
} def

% Get the underline position and thickness from the current font.
/vg&underline {

currentfont dup /FontType get 0 eq {/FDepVector get 0 get} if
dup dup /FontInfo known {
  /FontInfo get dup
  dup /UnderlinePosition known {
    /UnderlinePosition get /vg&uoffset exch def
  }
  {
    pop /vg&uoffset 0 def
  } ifelse
  dup /UnderlineThickness known {
    /UnderlineThickness get /vg&uthick exch def
  }
  {
    pop /vg&uthick 0 def
  } ifelse
}
{
  pop /vg&uoffset 0 def /vg&uthick 0 def
} ifelse
/FontMatrix get
currentfont dup /FontType get 0 eq
{/FontMatrix get matrix concatmatrix}{pop} ifelse
dup 0 vg&uoffset 3 -1 roll transform /vg&uoffset exch def pop
0 vg&uthick 3 -1 roll transform /vg&uthick exch def pop
} def

% Make a frame with the coordinates on the stack.
% <llx> <lly> <urx> <ury> frame --
/frame {4 copy m 3 1 roll exch l 4 -2 roll l l h} def

% Resets the accumulated bounding box to a degenerate box at the
% current point.
% -- resetbbox --
/resetbbox {
  currentpoint 2 copy
  /bbury exch def
  /bburx exch def
  /bblly exch def
  /bbllx exch def
} def

% Update the accumulated bounding box.
% <llx'> <lly'> <urx'> <ury'> updatebbox --
/updatebbox {
  dup bbury gt {/bbury exch def} {pop} ifelse
  dup bburx gt {/bburx exch def} {pop} ifelse
  dup bblly lt {/bblly exch def} {pop} ifelse
  dup bbllx lt {/bbllx exch def} {pop} ifelse
} def

% Set the bounding box to the values on the stack.
% <llx'> <lly'> <urx'> <ury'> updatebbox --
/restorebbox {
  /bbury exch def /bburx exch def /bblly exch def /bbllx exch def
} def

% Push the accumulated bounding box onto the stack.
% -- pushbbox <llx> <lly> <urx> <ury>
/pushbbox {bbllx bblly bburx bbury} def

% Make the relative bounding box relative to the currentpoint.
% <llx'> <lly'> <urx'> <ury'> inflate <llx> <lly> <urx> <ury>
/inflate {
  2 {fontsize 0.2 mul add 4 1 roll} repeat
  2 {fontsize 0.2 mul sub 4 1 roll} repeat
} def

% Make the relative bounding box relative to the currentpoint.
% <llx'> <lly'> <urx'> <ury'> relative <llx> <lly> <urx> <ury>
/relative {
  currentpoint 3 -1 roll add 3 1 roll add exch 4 2 roll
  currentpoint 3 -1 roll add 3 1 roll add exch 4 2 roll
} def

% Returns the size of a string appropriate for recshow.
% <string> stringsize <llx> <lly> <urx> <ury>
/stringsize {
  pushbbox /internalshow load /internalstroke load 7 -1 roll
  q
  nulldevice 0 0 m
  nullinternalshow nullinternalstroke
  resetbbox
  recshow
  /internalstroke exch def /internalshow exch def
  pushbbox 8 -4 roll restorebbox
  Q
} def

% Calculate values for string positioning.
/calcval {4 copy
  3 -1 roll sub /widy exch def sub neg /widx exch def
  pop pop /dy exch def /dx exch def} def

% Utilities to position a string.
% First letter (U=upper, C=center, B=baseline, L=lower)
% Second letter (L=left, C=center, R=right)
/align [
{calcval dx neg widy dy add neg rmoveto} % UL
{calcval dx neg widy 2 div dy add neg rmoveto} % CL
{calcval dx neg 0 rmoveto} % BL
{calcval dx neg dy neg rmoveto} % LL
{calcval widx dx add neg widy dy add neg rmoveto} % UR
{calcval widx dx add neg widy 2 div dy add neg rmoveto} % CR
{calcval widx dx add neg 0 rmoveto} % BR
{calcval widx dx add neg dy neg rmoveto} % LR
{calcval widx 2 div dx add neg widy dy add neg rmoveto} % UC
{calcval widx 2 div dx add neg widy 2 div dy add neg rmoveto} % CC
{calcval widx 2 div dx add neg 0 rmoveto} % BC
{calcval widx 2 div dx add neg dy neg rmoveto} % LC
] def

/vg&str {m q 1 -1 scale dup stringsize 4 copy align 11 -1 roll get exec
         q inflate relative frame exch exec Q recshow Q} def

end /procDict exch def
%%EndProlog

%%BeginSetup
save
procDict begin
printColorMap begin
661 581 setpagesize
0 0 0 0 setmargins
0 0 setorigin
661 581 setsize
naturalsize
portrait
imagescale
cliptobounds
setbasematrix
/Helvetica 10 sf
defaultGraphicsState
%%EndSetup

0.00000 0.00000 0.00000 RG
[ 1.00000 0.00000 0.00000 1.00000 0.00000 0.00000 ] defaultmatrix matrix concatmatrix setmatrix
cliprestore
1.00000 1.00000 1.00000 RG
newpath
0.00000 0.00000 m
661.000 0.00000 l
661.000 581.000 l
0.00000 581.000 l
0.00000 0.00000 l
h
f
0.00000 0.00000 0.00000 RG
0.00000 0.00000 0.00000 RG
[ 1.00000 0.00000 0.00000 1.00000 0.00000 0.00000 ] defaultmatrix matrix concatmatrix setmatrix
cliprestore
1.00000 1.00000 1.00000 RG
newpath
0.00000 0.00000 m
661.000 0.00000 l
661.000 581.000 l
0.00000 581.000 l
0.00000 0.00000 l
h
f
0.00000 0.00000 0.00000 RG
0 0 661 581 rc
q
[ 1.00000 0.00000 0.00000 1.00000 0.00000 0.00000 ] concat
[ 1.00000 0.00000 0.00000 1.00000 -328.000 -105.000 ] concat
1.00000 1.00000 1.00000 RG
newpath
328.000 105.000 m
989.000 105.000 l
989.000 686.000 l
328.000 686.000 l
328.000 105.000 l
h
f
0.00000 0.00000 0.00000 RG
[ 1.00000 0.00000 0.00000 1.00000 -328.000 -105.000 ] defaultmatrix matrix concatmatrix setmatrix
[ 1.00000 0.00000 0.00000 1.00000 -328.000 -105.000 ] defaultmatrix matrix concatmatrix setmatrix
[ 1.00000 0.00000 0.00000 1.00000 0.00000 0.00000 ] defaultmatrix matrix concatmatrix setmatrix
[ 1.00000 0.00000 0.00000 1.00000 -328.000 -105.000 ] defaultmatrix matrix concatmatrix setmatrix
1.00000 .800000 0.00000 RG
newpath
548.000 394.000 m
548.000 413.330 532.330 429.000 513.000 429.000  c
493.670 429.000 478.000 413.330 478.000 394.000  c
478.000 374.670 493.670 359.000 513.000 359.000  c
532.330 359.000 548.000 374.670 548.000 394.000  c
h
f
0 J
1.45000 M
0.00000 0.00000 0.00000 RG
newpath
548.000 394.000 m
548.000 413.330 532.330 429.000 513.000 429.000  c
493.670 429.000 478.000 413.330 478.000 394.000  c
478.000 374.670 493.670 359.000 513.000 359.000  c
532.330 359.000 548.000 374.670 548.000 394.000  c
h
S
2 J
10.0000 M
0 J
1.45000 M
newpath
486.601 398.535 m
486.601 389.863 l
491.446 389.863 l
491.446 390.783 l
487.831 390.783 l
487.831 393.689 l
490.866 393.689 l
490.866 394.598 l
487.831 394.598 l
487.831 398.535 l
h
493.069 398.535 m
493.069 392.172 l
494.224 392.172 l
494.224 398.535 l
h
493.069 391.018 m
493.069 389.863 l
494.224 389.863 l
494.224 391.018 l
h
496.538 398.605 m
496.538 389.283 l
497.692 389.283 l
497.692 393.367 l
498.165 392.477 498.874 392.031 499.819 392.031  c
500.585 392.031 501.188 392.311 501.627 392.869  c
502.066 393.428 502.286 394.191 502.286 395.160  c
502.286 396.215 502.037 397.065 501.539 397.712  c
501.041 398.358 500.386 398.682 499.573 398.682  c
498.819 398.682 498.192 398.393 497.692 397.814  c
497.552 398.605 l
h
497.692 397.018 m
498.286 397.549 498.853 397.814 499.392 397.814  c
500.501 397.814 501.056 396.969 501.056 395.277  c
501.056 393.785 500.563 393.039 499.579 393.039  c
498.935 393.039 498.306 393.389 497.692 394.088  c
h
508.755 398.330 m
507.981 398.564 507.319 398.682 506.769 398.682  c
505.831 398.682 505.066 398.370 504.475 397.747  c
503.883 397.124 503.587 396.316 503.587 395.324  c
503.587 394.359 503.848 393.568 504.369 392.951  c
504.891 392.334 505.558 392.025 506.370 392.025  c
507.140 392.025 507.734 392.299 508.154 392.846  c
508.574 393.393 508.784 394.170 508.784 395.178  c
508.778 395.535 l
504.765 395.535 l
504.933 397.047 505.673 397.803 506.985 397.803  c
507.466 397.803 508.056 397.674 508.755 397.416  c
h
504.817 394.668 m
507.624 394.668 l
507.624 393.484 507.183 392.893 506.300 392.893  c
505.413 392.893 504.919 393.484 504.817 394.668  c
h
510.776 398.535 m
510.776 392.172 l
511.931 392.172 l
511.931 393.367 l
512.388 392.477 513.052 392.031 513.923 392.031  c
514.040 392.031 514.163 392.041 514.292 392.061  c
514.292 393.139 l
514.093 393.072 513.917 393.039 513.765 393.039  c
513.034 393.039 512.423 393.473 511.931 394.340  c
511.931 398.535 l
h
515.651 398.535 m
515.651 389.863 l
518.276 389.863 l
519.108 389.863 519.746 390.047 520.189 390.414  c
520.633 390.781 520.854 391.314 520.854 392.014  c
520.854 393.170 520.271 393.990 519.103 394.475  c
521.997 398.535 l
520.485 398.535 l
518.019 394.867 l
516.870 394.867 l
516.870 398.535 l
h
516.870 393.947 m
517.269 393.947 l
518.815 393.947 519.589 393.340 519.589 392.125  c
519.589 391.230 518.940 390.783 517.644 390.783  c
516.870 390.783 l
h
523.274 398.535 m
523.274 392.172 l
524.429 392.172 l
524.429 398.535 l
h
523.274 391.018 m
523.274 389.863 l
524.429 389.863 l
524.429 391.018 l
h
526.743 398.535 m
526.743 392.172 l
527.897 392.172 l
527.897 393.367 l
528.507 392.477 529.253 392.031 530.136 392.031  c
530.687 392.031 531.126 392.206 531.454 392.556  c
531.782 392.905 531.946 393.375 531.946 393.965  c
531.946 398.535 l
530.792 398.535 l
530.792 394.340 l
530.792 393.867 530.723 393.530 530.584 393.329  c
530.445 393.128 530.216 393.027 529.896 393.027  c
529.188 393.027 528.522 393.490 527.897 394.416  c
527.897 398.535 l
h
534.214 400.650 m
534.349 399.648 l
535.017 399.965 535.675 400.123 536.323 400.123  c
537.624 400.123 538.274 399.434 538.274 398.055  c
538.274 397.053 l
537.849 397.943 537.149 398.389 536.177 398.389  c
535.415 398.389 534.810 398.111 534.360 397.557  c
533.911 397.002 533.687 396.254 533.687 395.312  c
533.687 394.344 533.942 393.555 534.454 392.945  c
534.966 392.336 535.628 392.031 536.440 392.031  c
537.151 392.031 537.763 392.320 538.274 392.898  c
538.274 392.172 l
539.435 392.172 l
539.435 396.801 l
539.435 397.797 539.383 398.534 539.279 399.013  c
539.176 399.491 538.981 399.883 538.696 400.188  c
538.192 400.723 537.409 400.990 536.347 400.990  c
535.604 400.990 534.894 400.877 534.214 400.650  c
h
538.274 396.332 m
538.274 393.689 l
537.767 393.162 537.214 392.898 536.616 392.898  c
536.085 392.898 535.669 393.111 535.368 393.537  c
535.067 393.963 534.917 394.547 534.917 395.289  c
534.917 396.684 535.407 397.381 536.388 397.381  c
537.056 397.381 537.685 397.031 538.274 396.332  c
h
f
2 J
10.0000 M
1.00000 .800000 0.00000 RG
newpath
693.500 290.000 m
693.500 309.330 677.830 325.000 658.500 325.000  c
639.170 325.000 623.500 309.330 623.500 290.000  c
623.500 270.670 639.170 255.000 658.500 255.000  c
677.830 255.000 693.500 270.670 693.500 290.000  c
h
f
0 J
1.45000 M
0.00000 0.00000 0.00000 RG
newpath
693.500 290.000 m
693.500 309.330 677.830 325.000 658.500 325.000  c
639.170 325.000 623.500 309.330 623.500 290.000  c
623.500 270.670 639.170 255.000 658.500 255.000  c
677.830 255.000 693.500 270.670 693.500 290.000  c
h
S
2 J
10.0000 M
0 J
1.45000 M
newpath
649.242 294.535 m
649.242 286.783 l
646.166 286.783 l
646.166 285.863 l
653.549 285.863 l
653.549 286.783 l
650.473 286.783 l
650.473 294.535 l
h
654.768 294.535 m
654.768 285.863 l
657.650 285.863 l
658.510 285.863 659.204 285.959 659.733 286.150  c
660.263 286.342 660.721 286.666 661.107 287.123  c
661.721 287.850 662.027 288.807 662.027 289.994  c
662.027 291.436 661.646 292.553 660.885 293.346  c
660.123 294.139 659.051 294.535 657.668 294.535  c
h
655.998 293.615 m
657.574 293.615 l
658.699 293.615 659.496 293.312 659.965 292.707  c
660.469 292.062 660.721 291.197 660.721 290.111  c
660.721 289.092 660.473 288.291 659.977 287.709  c
659.676 287.354 659.316 287.110 658.898 286.979  c
658.480 286.849 657.852 286.783 657.012 286.783  c
655.998 286.783 l
h
667.471 294.752 m
666.123 294.752 665.082 294.356 664.348 293.565  c
663.613 292.774 663.246 291.654 663.246 290.205  c
663.246 288.760 663.620 287.639 664.368 286.842  c
665.116 286.045 666.170 285.646 667.529 285.646  c
668.307 285.646 669.217 285.773 670.260 286.027  c
670.260 287.182 l
669.072 286.771 668.156 286.566 667.512 286.566  c
666.570 286.566 665.842 286.885 665.326 287.521  c
664.811 288.158 664.553 289.057 664.553 290.217  c
664.553 291.322 664.828 292.194 665.379 292.833  c
665.930 293.472 666.682 293.791 667.635 293.791  c
668.455 293.791 669.334 293.539 670.271 293.035  c
670.271 294.090 l
669.416 294.531 668.482 294.752 667.471 294.752  c
h
f
2 J
10.0000 M
1.00000 .800000 0.00000 RG
newpath
839.000 394.000 m
839.000 413.330 823.330 429.000 804.000 429.000  c
784.670 429.000 769.000 413.330 769.000 394.000  c
769.000 374.670 784.670 359.000 804.000 359.000  c
823.330 359.000 839.000 374.670 839.000 394.000  c
h
f
0 J
1.45000 M
0.00000 0.00000 0.00000 RG
newpath
839.000 394.000 m
839.000 413.330 823.330 429.000 804.000 429.000  c
784.670 429.000 769.000 413.330 769.000 394.000  c
769.000 374.670 784.670 359.000 804.000 359.000  c
823.330 359.000 839.000 374.670 839.000 394.000  c
h
S
2 J
10.0000 M
0 J
1.45000 M
newpath
789.653 398.752 m
789.071 398.752 788.327 398.625 787.421 398.371  c
787.421 397.152 l
788.397 397.605 789.200 397.832 789.829 397.832  c
790.313 397.832 790.703 397.705 790.998 397.451  c
791.293 397.197 791.440 396.863 791.440 396.449  c
791.440 396.109 791.344 395.820 791.150 395.582  c
790.957 395.344 790.601 395.078 790.081 394.785  c
789.483 394.439 l
788.745 394.018 788.225 393.620 787.922 393.247  c
787.619 392.874 787.468 392.439 787.468 391.943  c
787.468 391.275 787.710 390.726 788.194 390.294  c
788.679 389.862 789.296 389.646 790.046 389.646  c
790.714 389.646 791.419 389.758 792.161 389.980  c
792.161 391.105 l
791.247 390.746 790.565 390.566 790.116 390.566  c
789.690 390.566 789.339 390.680 789.062 390.906  c
788.784 391.133 788.646 391.418 788.646 391.762  c
788.646 392.051 788.747 392.307 788.950 392.529  c
789.153 392.752 789.524 393.018 790.063 393.326  c
790.685 393.678 l
791.435 394.104 791.958 394.506 792.255 394.885  c
792.552 395.264 792.700 395.719 792.700 396.250  c
792.700 397.004 792.422 397.609 791.865 398.066  c
791.309 398.523 790.571 398.752 789.653 398.752  c
h
794.452 400.850 m
794.452 392.172 l
795.606 392.172 l
795.606 393.367 l
796.079 392.477 796.788 392.031 797.733 392.031  c
798.499 392.031 799.102 392.311 799.541 392.869  c
799.980 393.428 800.200 394.191 800.200 395.160  c
800.200 396.215 799.951 397.065 799.453 397.712  c
798.955 398.358 798.300 398.682 797.487 398.682  c
796.733 398.682 796.106 398.393 795.606 397.814  c
795.606 400.850 l
h
795.606 397.018 m
796.200 397.549 796.767 397.814 797.306 397.814  c
798.415 397.814 798.970 396.969 798.970 395.277  c
798.970 393.785 798.478 393.039 797.493 393.039  c
796.849 393.039 796.220 393.389 795.606 394.088  c
h
802.005 398.535 m
802.005 392.172 l
803.159 392.172 l
803.159 393.367 l
803.616 392.477 804.280 392.031 805.151 392.031  c
805.269 392.031 805.392 392.041 805.521 392.061  c
805.521 393.139 l
805.321 393.072 805.146 393.039 804.993 393.039  c
804.263 393.039 803.651 393.473 803.159 394.340  c
803.159 398.535 l
h
806.915 398.535 m
806.915 392.172 l
808.069 392.172 l
808.069 398.535 l
h
806.915 391.018 m
806.915 389.863 l
808.069 389.863 l
808.069 391.018 l
h
810.384 398.535 m
810.384 392.172 l
811.538 392.172 l
811.538 393.367 l
812.147 392.477 812.894 392.031 813.776 392.031  c
814.327 392.031 814.767 392.206 815.095 392.556  c
815.423 392.905 815.587 393.375 815.587 393.965  c
815.587 398.535 l
814.433 398.535 l
814.433 394.340 l
814.433 393.867 814.363 393.530 814.225 393.329  c
814.086 393.128 813.856 393.027 813.536 393.027  c
812.829 393.027 812.163 393.490 811.538 394.416  c
811.538 398.535 l
h
819.741 398.682 m
819.155 398.682 818.698 398.514 818.370 398.178  c
818.042 397.842 817.878 397.375 817.878 396.777  c
817.878 393.039 l
817.081 393.039 l
817.081 392.172 l
817.878 392.172 l
817.878 391.018 l
819.032 390.906 l
819.032 392.172 l
820.696 392.172 l
820.696 393.039 l
819.032 393.039 l
819.032 396.566 l
819.032 397.398 819.392 397.814 820.110 397.814  c
820.263 397.814 820.448 397.789 820.667 397.738  c
820.667 398.535 l
820.312 398.633 820.003 398.682 819.741 398.682  c
h
f
2 J
10.0000 M
1.00000 .800000 0.00000 RG
newpath
693.500 500.500 m
693.500 519.830 677.830 535.500 658.500 535.500  c
639.170 535.500 623.500 519.830 623.500 500.500  c
623.500 481.170 639.170 465.500 658.500 465.500  c
677.830 465.500 693.500 481.170 693.500 500.500  c
h
f
0 J
1.45000 M
0.00000 0.00000 0.00000 RG
newpath
693.500 500.500 m
693.500 519.830 677.830 535.500 658.500 535.500  c
639.170 535.500 623.500 519.830 623.500 500.500  c
623.500 481.170 639.170 465.500 658.500 465.500  c
677.830 465.500 693.500 481.170 693.500 500.500  c
h
S
2 J
10.0000 M
0 J
1.45000 M
newpath
645.814 505.035 m
645.814 497.283 l
642.738 497.283 l
642.738 496.363 l
650.121 496.363 l
650.121 497.283 l
647.045 497.283 l
647.045 505.035 l
h
655.734 501.719 m
654.258 497.980 l
652.775 501.719 l
h
657.035 505.035 m
656.092 502.633 l
652.418 502.633 l
651.463 505.035 l
650.320 505.035 l
653.760 496.363 l
654.979 496.363 l
658.365 505.035 l
h
661.682 505.035 m
661.682 497.283 l
658.605 497.283 l
658.605 496.363 l
665.988 496.363 l
665.988 497.283 l
662.912 497.283 l
662.912 505.035 l
h
671.602 501.719 m
670.125 497.980 l
668.643 501.719 l
h
672.902 505.035 m
671.959 502.633 l
668.285 502.633 l
667.330 505.035 l
666.188 505.035 l
669.627 496.363 l
670.846 496.363 l
674.232 505.035 l
h
f
2 J
10.0000 M
1.00000 .800000 0.00000 RG
newpath
914.000 394.000 m
914.000 406.426 903.926 416.500 891.500 416.500  c
879.074 416.500 869.000 406.426 869.000 394.000  c
869.000 381.574 879.074 371.500 891.500 371.500  c
903.926 371.500 914.000 381.574 914.000 394.000  c
h
f
0 J
1.45000 M
0.00000 0.00000 0.00000 RG
newpath
914.000 394.000 m
914.000 406.426 903.926 416.500 891.500 416.500  c
879.074 416.500 869.000 406.426 869.000 394.000  c
869.000 381.574 879.074 371.500 891.500 371.500  c
903.926 371.500 914.000 381.574 914.000 394.000  c
h
S
2 J
10.0000 M
0 J
1.45000 M
newpath
873.755 398.535 m
873.755 392.172 l
874.909 392.172 l
874.909 398.535 l
h
873.755 391.018 m
873.755 389.863 l
874.909 389.863 l
874.909 391.018 l
h
878.888 398.752 m
878.306 398.752 877.562 398.625 876.655 398.371  c
876.655 397.152 l
877.632 397.605 878.435 397.832 879.063 397.832  c
879.548 397.832 879.938 397.705 880.232 397.451  c
880.527 397.197 880.675 396.863 880.675 396.449  c
880.675 396.109 880.578 395.820 880.385 395.582  c
880.191 395.344 879.835 395.078 879.315 394.785  c
878.718 394.439 l
877.979 394.018 877.459 393.620 877.156 393.247  c
876.854 392.874 876.702 392.439 876.702 391.943  c
876.702 391.275 876.944 390.726 877.429 390.294  c
877.913 389.862 878.530 389.646 879.280 389.646  c
879.948 389.646 880.653 389.758 881.396 389.980  c
881.396 391.105 l
880.481 390.746 879.800 390.566 879.351 390.566  c
878.925 390.566 878.573 390.680 878.296 390.906  c
878.019 391.133 877.880 391.418 877.880 391.762  c
877.880 392.051 877.981 392.307 878.185 392.529  c
878.388 392.752 878.759 393.018 879.298 393.326  c
879.919 393.678 l
880.669 394.104 881.192 394.506 881.489 394.885  c
881.786 395.264 881.935 395.719 881.935 396.250  c
881.935 397.004 881.656 397.609 881.100 398.066  c
880.543 398.523 879.806 398.752 878.888 398.752  c
h
883.687 400.850 m
883.687 392.172 l
884.841 392.172 l
884.841 393.367 l
885.313 392.477 886.022 392.031 886.968 392.031  c
887.733 392.031 888.336 392.311 888.775 392.869  c
889.215 393.428 889.435 394.191 889.435 395.160  c
889.435 396.215 889.186 397.065 888.688 397.712  c
888.189 398.358 887.534 398.682 886.722 398.682  c
885.968 398.682 885.341 398.393 884.841 397.814  c
884.841 400.850 l
h
884.841 397.018 m
885.435 397.549 886.001 397.814 886.540 397.814  c
887.649 397.814 888.204 396.969 888.204 395.277  c
888.204 393.785 887.712 393.039 886.728 393.039  c
886.083 393.039 885.454 393.389 884.841 394.088  c
h
891.239 398.535 m
891.239 392.172 l
892.394 392.172 l
892.394 393.367 l
892.851 392.477 893.515 392.031 894.386 392.031  c
894.503 392.031 894.626 392.041 894.755 392.061  c
894.755 393.139 l
894.556 393.072 894.380 393.039 894.228 393.039  c
893.497 393.039 892.886 393.473 892.394 394.340  c
892.394 398.535 l
h
896.149 398.535 m
896.149 392.172 l
897.304 392.172 l
897.304 398.535 l
h
896.149 391.018 m
896.149 389.863 l
897.304 389.863 l
897.304 391.018 l
h
899.618 398.535 m
899.618 392.172 l
900.772 392.172 l
900.772 393.367 l
901.382 392.477 902.128 392.031 903.011 392.031  c
903.562 392.031 904.001 392.206 904.329 392.556  c
904.657 392.905 904.821 393.375 904.821 393.965  c
904.821 398.535 l
903.667 398.535 l
903.667 394.340 l
903.667 393.867 903.598 393.530 903.459 393.329  c
903.320 393.128 903.091 393.027 902.771 393.027  c
902.063 393.027 901.397 393.490 900.772 394.416  c
900.772 398.535 l
h
908.976 398.682 m
908.390 398.682 907.933 398.514 907.604 398.178  c
907.276 397.842 907.112 397.375 907.112 396.777  c
907.112 393.039 l
906.315 393.039 l
906.315 392.172 l
907.112 392.172 l
907.112 391.018 l
908.267 390.906 l
908.267 392.172 l
909.931 392.172 l
909.931 393.039 l
908.267 393.039 l
908.267 396.566 l
908.267 397.398 908.626 397.814 909.345 397.814  c
909.497 397.814 909.683 397.789 909.901 397.738  c
909.901 398.535 l
909.546 398.633 909.237 398.682 908.976 398.682  c
h
f
2 J
10.0000 M
1.00000 .800000 0.00000 RG
newpath
681.000 202.500 m
681.000 214.926 670.926 225.000 658.500 225.000  c
646.074 225.000 636.000 214.926 636.000 202.500  c
636.000 190.074 646.074 180.000 658.500 180.000  c
670.926 180.000 681.000 190.074 681.000 202.500  c
h
f
0 J
1.45000 M
0.00000 0.00000 0.00000 RG
newpath
681.000 202.500 m
681.000 214.926 670.926 225.000 658.500 225.000  c
646.074 225.000 636.000 214.926 636.000 202.500  c
636.000 190.074 646.074 180.000 658.500 180.000  c
670.926 180.000 681.000 190.074 681.000 202.500  c
h
S
2 J
10.0000 M
0 J
1.45000 M
newpath
645.480 207.035 m
645.480 200.672 l
646.635 200.672 l
646.635 207.035 l
h
645.480 199.518 m
645.480 198.363 l
646.635 198.363 l
646.635 199.518 l
h
650.977 207.035 m
650.977 199.283 l
647.900 199.283 l
647.900 198.363 l
655.283 198.363 l
655.283 199.283 l
652.207 199.283 l
652.207 207.035 l
h
656.502 207.035 m
656.502 198.363 l
659.385 198.363 l
660.244 198.363 660.938 198.459 661.468 198.650  c
661.997 198.842 662.455 199.166 662.842 199.623  c
663.455 200.350 663.762 201.307 663.762 202.494  c
663.762 203.936 663.381 205.053 662.619 205.846  c
661.857 206.639 660.785 207.035 659.402 207.035  c
h
657.732 206.115 m
659.309 206.115 l
660.434 206.115 661.230 205.812 661.699 205.207  c
662.203 204.562 662.455 203.697 662.455 202.611  c
662.455 201.592 662.207 200.791 661.711 200.209  c
661.410 199.854 661.051 199.610 660.633 199.479  c
660.215 199.349 659.586 199.283 658.746 199.283  c
657.732 199.283 l
h
669.205 207.252 m
667.857 207.252 666.816 206.856 666.082 206.065  c
665.348 205.274 664.980 204.154 664.980 202.705  c
664.980 201.260 665.354 200.139 666.103 199.342  c
666.851 198.545 667.904 198.146 669.264 198.146  c
670.041 198.146 670.951 198.273 671.994 198.527  c
671.994 199.682 l
670.807 199.271 669.891 199.066 669.246 199.066  c
668.305 199.066 667.576 199.385 667.061 200.021  c
666.545 200.658 666.287 201.557 666.287 202.717  c
666.287 203.822 666.562 204.694 667.113 205.333  c
667.664 205.972 668.416 206.291 669.369 206.291  c
670.189 206.291 671.068 206.039 672.006 205.535  c
672.006 206.590 l
671.150 207.031 670.217 207.252 669.205 207.252  c
h
f
2 J
10.0000 M
1.00000 .800000 0.00000 RG
newpath
448.000 394.000 m
448.000 406.426 437.926 416.500 425.500 416.500  c
413.074 416.500 403.000 406.426 403.000 394.000  c
403.000 381.574 413.074 371.500 425.500 371.500  c
437.926 371.500 448.000 381.574 448.000 394.000  c
h
f
0 J
1.45000 M
0.00000 0.00000 0.00000 RG
newpath
448.000 394.000 m
448.000 406.426 437.926 416.500 425.500 416.500  c
413.074 416.500 403.000 406.426 403.000 394.000  c
403.000 381.574 413.074 371.500 425.500 371.500  c
437.926 371.500 448.000 381.574 448.000 394.000  c
h
S
2 J
10.0000 M
0 J
1.45000 M
newpath
417.909 398.535 m
417.909 392.172 l
419.063 392.172 l
419.063 398.535 l
h
417.909 391.018 m
417.909 389.863 l
419.063 389.863 l
419.063 391.018 l
h
421.343 398.535 m
421.343 389.863 l
426.188 389.863 l
426.188 390.783 l
422.573 390.783 l
422.573 393.689 l
425.608 393.689 l
425.608 394.598 l
422.573 394.598 l
422.573 398.535 l
h
427.776 398.535 m
427.776 389.863 l
430.401 389.863 l
431.233 389.863 431.871 390.047 432.314 390.414  c
432.758 390.781 432.979 391.314 432.979 392.014  c
432.979 393.170 432.396 393.990 431.228 394.475  c
434.122 398.535 l
432.610 398.535 l
430.144 394.867 l
428.995 394.867 l
428.995 398.535 l
h
428.995 393.947 m
429.394 393.947 l
430.940 393.947 431.714 393.340 431.714 392.125  c
431.714 391.230 431.065 390.783 429.769 390.783  c
428.995 390.783 l
h
f
2 J
10.0000 M
1.00000 .800000 0.00000 RG
newpath
681.000 588.000 m
681.000 600.426 670.926 610.500 658.500 610.500  c
646.074 610.500 636.000 600.426 636.000 588.000  c
636.000 575.574 646.074 565.500 658.500 565.500  c
670.926 565.500 681.000 575.574 681.000 588.000  c
h
f
0 J
1.45000 M
0.00000 0.00000 0.00000 RG
newpath
681.000 588.000 m
681.000 600.426 670.926 610.500 658.500 610.500  c
646.074 610.500 636.000 600.426 636.000 588.000  c
636.000 575.574 646.074 565.500 658.500 565.500  c
670.926 565.500 681.000 575.574 681.000 588.000  c
h
S
2 J
10.0000 M
0 J
1.45000 M
newpath
642.053 592.535 m
642.053 586.172 l
643.207 586.172 l
643.207 592.535 l
h
642.053 585.018 m
642.053 583.863 l
643.207 583.863 l
643.207 585.018 l
h
647.549 592.535 m
647.549 584.783 l
644.473 584.783 l
644.473 583.863 l
651.855 583.863 l
651.855 584.783 l
648.779 584.783 l
648.779 592.535 l
h
657.469 589.219 m
655.992 585.480 l
654.510 589.219 l
h
658.770 592.535 m
657.826 590.133 l
654.152 590.133 l
653.197 592.535 l
652.055 592.535 l
655.494 583.863 l
656.713 583.863 l
660.100 592.535 l
h
663.416 592.535 m
663.416 584.783 l
660.340 584.783 l
660.340 583.863 l
667.723 583.863 l
667.723 584.783 l
664.646 584.783 l
664.646 592.535 l
h
673.336 589.219 m
671.859 585.480 l
670.377 589.219 l
h
674.637 592.535 m
673.693 590.133 l
670.020 590.133 l
669.064 592.535 l
667.922 592.535 l
671.361 583.863 l
672.580 583.863 l
675.967 592.535 l
h
f
2 J
10.0000 M
1.00000 .800000 0.00000 RG
newpath
944.000 439.000 m
974.000 439.000 l
974.000 469.000 l
944.000 469.000 l
944.000 439.000 l
h
f
0 J
1.45000 M
0.00000 0.00000 0.00000 RG
newpath
944.000 439.000 m
974.000 439.000 l
974.000 469.000 l
944.000 469.000 l
944.000 439.000 l
h
S
2 J
10.0000 M
0 J
1.45000 M
newpath
953.217 458.535 m
953.217 457.668 l
954.951 457.668 l
954.951 450.824 l
953.217 451.258 l
953.217 450.367 l
956.111 449.646 l
956.111 457.668 l
957.846 457.668 l
957.846 458.535 l
h
959.996 458.535 m
959.996 457.521 l
960.332 456.736 961.012 455.881 962.035 454.955  c
962.697 454.363 l
963.549 453.594 963.975 452.830 963.975 452.072  c
963.975 451.588 963.829 451.207 963.538 450.930  c
963.247 450.652 962.848 450.514 962.340 450.514  c
961.738 450.514 961.029 450.746 960.213 451.211  c
960.213 450.191 l
960.982 449.828 961.746 449.646 962.504 449.646  c
963.316 449.646 963.969 449.865 964.461 450.303  c
964.953 450.740 965.199 451.320 965.199 452.043  c
965.199 452.562 965.075 453.023 964.827 453.426  c
964.579 453.828 964.117 454.316 963.441 454.891  c
962.996 455.271 l
962.070 456.057 961.535 456.807 961.391 457.521  c
965.158 457.521 l
965.158 458.535 l
h
f
2 J
10.0000 M
1.00000 .800000 0.00000 RG
newpath
944.000 379.000 m
974.000 379.000 l
974.000 409.000 l
944.000 409.000 l
944.000 379.000 l
h
f
0 J
1.45000 M
0.00000 0.00000 0.00000 RG
newpath
944.000 379.000 m
974.000 379.000 l
974.000 409.000 l
944.000 409.000 l
944.000 379.000 l
h
S
2 J
10.0000 M
0 J
1.45000 M
newpath
953.217 398.535 m
953.217 397.668 l
954.951 397.668 l
954.951 390.824 l
953.217 391.258 l
953.217 390.367 l
956.111 389.646 l
956.111 397.668 l
957.846 397.668 l
957.846 398.535 l
h
962.762 398.752 m
961.867 398.752 961.144 398.331 960.591 397.489  c
960.038 396.647 959.762 395.549 959.762 394.193  c
959.762 392.826 960.040 391.727 960.597 390.895  c
961.153 390.062 961.887 389.646 962.797 389.646  c
963.707 389.646 964.440 390.062 964.997 390.895  c
965.554 391.727 965.832 392.820 965.832 394.176  c
965.832 395.566 965.554 396.677 964.997 397.507  c
964.440 398.337 963.695 398.752 962.762 398.752  c
h
962.773 397.885 m
963.996 397.885 964.607 396.643 964.607 394.158  c
964.607 391.729 964.004 390.514 962.797 390.514  c
961.594 390.514 960.992 391.740 960.992 394.193  c
960.992 396.654 961.586 397.885 962.773 397.885  c
h
f
2 J
10.0000 M
1.00000 .800000 0.00000 RG
newpath
944.000 319.000 m
974.000 319.000 l
974.000 349.000 l
944.000 349.000 l
944.000 319.000 l
h
f
0 J
1.45000 M
0.00000 0.00000 0.00000 RG
newpath
944.000 319.000 m
974.000 319.000 l
974.000 349.000 l
944.000 349.000 l
944.000 319.000 l
h
S
2 J
10.0000 M
0 J
1.45000 M
newpath
953.217 338.535 m
953.217 337.668 l
954.951 337.668 l
954.951 330.824 l
953.217 331.258 l
953.217 330.367 l
956.111 329.646 l
956.111 337.668 l
957.846 337.668 l
957.846 338.535 l
h
960.805 338.535 m
960.805 337.668 l
962.539 337.668 l
962.539 330.824 l
960.805 331.258 l
960.805 330.367 l
963.699 329.646 l
963.699 337.668 l
965.434 337.668 l
965.434 338.535 l
h
f
2 J
10.0000 M
1.00000 .800000 0.00000 RG
newpath
583.500 120.000 m
613.500 120.000 l
613.500 150.000 l
583.500 150.000 l
583.500 120.000 l
h
f
0 J
1.45000 M
0.00000 0.00000 0.00000 RG
newpath
583.500 120.000 m
613.500 120.000 l
613.500 150.000 l
583.500 150.000 l
583.500 120.000 l
h
S
2 J
10.0000 M
0 J
1.45000 M
newpath
599.224 139.535 m
599.224 137.080 l
595.321 137.080 l
595.321 136.207 l
599.224 130.863 l
600.308 130.863 l
600.308 136.137 l
601.468 136.137 l
601.468 137.080 l
600.308 137.080 l
600.308 139.535 l
h
596.452 136.137 m
599.300 136.137 l
599.300 132.281 l
h
f
2 J
10.0000 M
1.00000 .800000 0.00000 RG
newpath
643.500 120.000 m
673.500 120.000 l
673.500 150.000 l
643.500 150.000 l
643.500 120.000 l
h
f
0 J
1.45000 M
0.00000 0.00000 0.00000 RG
newpath
643.500 120.000 m
673.500 120.000 l
673.500 150.000 l
643.500 150.000 l
643.500 120.000 l
h
S
2 J
10.0000 M
0 J
1.45000 M
newpath
656.165 139.570 m
656.165 138.539 l
656.739 138.770 657.286 138.885 657.806 138.885  c
658.376 138.885 658.824 138.717 659.150 138.381  c
659.477 138.045 659.640 137.582 659.640 136.992  c
659.640 135.691 658.743 135.041 656.950 135.041  c
656.747 135.041 656.534 135.055 656.312 135.082  c
656.312 130.863 l
660.700 130.863 l
660.700 131.871 l
657.325 131.871 l
657.325 134.156 l
658.438 134.156 659.308 134.412 659.933 134.924  c
660.558 135.436 660.870 136.145 660.870 137.051  c
660.870 137.895 660.586 138.556 660.018 139.034  c
659.449 139.513 658.661 139.752 657.653 139.752  c
657.216 139.752 656.720 139.691 656.165 139.570  c
h
f
2 J
10.0000 M
1.00000 .800000 0.00000 RG
newpath
703.500 120.000 m
733.500 120.000 l
733.500 150.000 l
703.500 150.000 l
703.500 120.000 l
h
f
0 J
1.45000 M
0.00000 0.00000 0.00000 RG
newpath
703.500 120.000 m
733.500 120.000 l
733.500 150.000 l
703.500 150.000 l
703.500 120.000 l
h
S
2 J
10.0000 M
0 J
1.45000 M
newpath
716.769 135.041 m
717.319 134.326 718.013 133.969 718.849 133.969  c
719.606 133.969 720.227 134.220 720.709 134.722  c
721.191 135.224 721.433 135.867 721.433 136.652  c
721.433 137.555 721.162 138.297 720.621 138.879  c
720.080 139.461 719.394 139.752 718.562 139.752  c
717.604 139.752 716.856 139.367 716.317 138.598  c
715.778 137.828 715.509 136.760 715.509 135.393  c
715.509 133.889 715.818 132.721 716.438 131.889  c
717.057 131.057 717.929 130.641 719.054 130.641  c
719.569 130.641 720.214 130.750 720.987 130.969  c
720.987 131.977 l
720.171 131.664 719.503 131.508 718.983 131.508  c
717.507 131.508 716.769 132.686 716.769 135.041  c
h
720.272 136.910 m
720.272 136.254 720.125 135.738 719.830 135.363  c
719.535 134.988 719.126 134.801 718.603 134.801  c
718.114 134.801 717.694 134.965 717.343 135.293  c
716.991 135.621 716.815 136.016 716.815 136.477  c
716.815 137.203 716.982 137.786 717.316 138.226  c
717.650 138.665 718.093 138.885 718.644 138.885  c
719.140 138.885 719.535 138.706 719.830 138.349  c
720.125 137.991 720.272 137.512 720.272 136.910  c
h
f
2 J
10.0000 M
1.00000 .800000 0.00000 RG
newpath
343.000 319.000 m
373.000 319.000 l
373.000 349.000 l
343.000 349.000 l
343.000 319.000 l
h
f
0 J
1.45000 M
0.00000 0.00000 0.00000 RG
newpath
343.000 319.000 m
373.000 319.000 l
373.000 349.000 l
343.000 349.000 l
343.000 319.000 l
h
S
2 J
10.0000 M
0 J
1.45000 M
newpath
356.011 338.535 m
356.124 337.859 356.285 337.275 356.494 336.783  c
356.703 336.291 357.073 335.615 357.604 334.756  c
359.972 330.947 l
355.507 330.947 l
355.507 329.863 l
361.073 329.863 l
361.073 330.947 l
358.851 334.225 357.606 336.754 357.341 338.535  c
h
f
2 J
10.0000 M
1.00000 .800000 0.00000 RG
newpath
343.000 379.000 m
373.000 379.000 l
373.000 409.000 l
343.000 409.000 l
343.000 379.000 l
h
f
0 J
1.45000 M
0.00000 0.00000 0.00000 RG
newpath
343.000 379.000 m
373.000 379.000 l
373.000 409.000 l
343.000 409.000 l
343.000 379.000 l
h
S
2 J
10.0000 M
0 J
1.45000 M
newpath
356.966 393.812 m
356.118 393.223 355.694 392.570 355.694 391.855  c
355.694 391.199 355.935 390.666 356.415 390.256  c
356.896 389.846 357.522 389.641 358.296 389.641  c
359.011 389.641 359.590 389.814 360.033 390.162  c
360.477 390.510 360.698 390.961 360.698 391.516  c
360.698 392.355 360.159 393.121 359.081 393.812  c
360.390 394.453 361.044 395.279 361.044 396.291  c
361.044 397.018 360.770 397.609 360.221 398.066  c
359.672 398.523 358.964 398.752 358.097 398.752  c
357.245 398.752 356.557 398.536 356.031 398.104  c
355.506 397.673 355.243 397.105 355.243 396.402  c
355.243 395.363 355.817 394.500 356.966 393.812  c
h
358.437 393.449 m
359.245 392.918 359.649 392.326 359.649 391.674  c
359.649 391.326 359.515 391.046 359.245 390.833  c
358.976 390.620 358.620 390.514 358.179 390.514  c
357.753 390.514 357.407 390.618 357.142 390.827  c
356.876 391.036 356.743 391.307 356.743 391.639  c
356.743 391.963 356.863 392.253 357.104 392.509  c
357.344 392.765 357.788 393.078 358.437 393.449  c
h
357.593 394.281 m
357.128 394.641 356.812 394.954 356.646 395.222  c
356.480 395.489 356.397 395.822 356.397 396.221  c
356.397 396.717 356.558 397.118 356.878 397.425  c
357.198 397.731 357.620 397.885 358.144 397.885  c
358.647 397.885 359.059 397.754 359.377 397.492  c
359.695 397.230 359.854 396.891 359.854 396.473  c
359.854 396.137 359.756 395.853 359.559 395.620  c
359.361 395.388 358.979 395.104 358.413 394.768  c
h
f
2 J
10.0000 M
1.00000 .800000 0.00000 RG
newpath
343.000 439.000 m
373.000 439.000 l
373.000 469.000 l
343.000 469.000 l
343.000 439.000 l
h
f
0 J
1.45000 M
0.00000 0.00000 0.00000 RG
newpath
343.000 439.000 m
373.000 439.000 l
373.000 469.000 l
343.000 469.000 l
343.000 439.000 l
h
S
2 J
10.0000 M
0 J
1.45000 M
newpath
355.571 458.482 m
355.571 457.504 l
356.306 457.758 356.931 457.885 357.446 457.885  c
358.165 457.885 358.727 457.579 359.131 456.968  c
359.535 456.356 359.737 455.506 359.737 454.416  c
359.151 455.139 358.485 455.500 357.739 455.500  c
357.009 455.500 356.390 455.231 355.882 454.694  c
355.374 454.157 355.120 453.502 355.120 452.729  c
355.120 451.842 355.391 451.106 355.932 450.522  c
356.473 449.938 357.153 449.646 357.974 449.646  c
358.915 449.646 359.657 450.024 360.200 450.780  c
360.743 451.536 361.015 452.570 361.015 453.883  c
361.015 455.375 360.684 456.560 360.021 457.437  c
359.359 458.313 358.464 458.752 357.335 458.752  c
356.882 458.752 356.294 458.662 355.571 458.482  c
h
356.274 452.500 m
356.274 453.172 356.424 453.701 356.723 454.088  c
357.021 454.475 357.431 454.668 357.950 454.668  c
358.438 454.668 358.855 454.502 359.201 454.170  c
359.547 453.838 359.720 453.438 359.720 452.969  c
359.720 452.230 359.553 451.636 359.219 451.185  c
358.885 450.733 358.446 450.508 357.903 450.508  c
357.399 450.508 357.002 450.687 356.711 451.044  c
356.420 451.401 356.274 451.887 356.274 452.500  c
h
f
2 J
10.0000 M
1.00000 .800000 0.00000 RG
newpath
583.500 640.500 m
613.500 640.500 l
613.500 670.500 l
583.500 670.500 l
583.500 640.500 l
h
f
0 J
1.45000 M
0.00000 0.00000 0.00000 RG
newpath
583.500 640.500 m
613.500 640.500 l
613.500 670.500 l
583.500 670.500 l
583.500 640.500 l
h
S
2 J
10.0000 M
0 J
1.45000 M
newpath
592.717 660.035 m
592.717 659.168 l
594.451 659.168 l
594.451 652.324 l
592.717 652.758 l
592.717 651.867 l
595.611 651.146 l
595.611 659.168 l
597.346 659.168 l
597.346 660.035 l
h
599.959 660.070 m
599.959 659.039 l
600.533 659.270 601.080 659.385 601.600 659.385  c
602.170 659.385 602.618 659.217 602.944 658.881  c
603.271 658.545 603.434 658.082 603.434 657.492  c
603.434 656.191 602.537 655.541 600.744 655.541  c
600.541 655.541 600.328 655.555 600.105 655.582  c
600.105 651.363 l
604.494 651.363 l
604.494 652.371 l
601.119 652.371 l
601.119 654.656 l
602.232 654.656 603.102 654.912 603.727 655.424  c
604.352 655.936 604.664 656.645 604.664 657.551  c
604.664 658.395 604.380 659.056 603.812 659.534  c
603.243 660.013 602.455 660.252 601.447 660.252  c
601.010 660.252 600.514 660.191 599.959 660.070  c
h
f
2 J
10.0000 M
1.00000 .800000 0.00000 RG
newpath
643.500 640.500 m
673.500 640.500 l
673.500 670.500 l
643.500 670.500 l
643.500 640.500 l
h
f
0 J
1.45000 M
0.00000 0.00000 0.00000 RG
newpath
643.500 640.500 m
673.500 640.500 l
673.500 670.500 l
643.500 670.500 l
643.500 640.500 l
h
S
2 J
10.0000 M
0 J
1.45000 M
newpath
652.717 660.035 m
652.717 659.168 l
654.451 659.168 l
654.451 652.324 l
652.717 652.758 l
652.717 651.867 l
655.611 651.146 l
655.611 659.168 l
657.346 659.168 l
657.346 660.035 l
h
663.018 660.035 m
663.018 657.580 l
659.115 657.580 l
659.115 656.707 l
663.018 651.363 l
664.102 651.363 l
664.102 656.637 l
665.262 656.637 l
665.262 657.580 l
664.102 657.580 l
664.102 660.035 l
h
660.246 656.637 m
663.094 656.637 l
663.094 652.781 l
h
f
2 J
10.0000 M
1.00000 .800000 0.00000 RG
newpath
703.500 640.500 m
733.500 640.500 l
733.500 670.500 l
703.500 670.500 l
703.500 640.500 l
h
f
0 J
1.45000 M
0.00000 0.00000 0.00000 RG
newpath
703.500 640.500 m
733.500 640.500 l
733.500 670.500 l
703.500 670.500 l
703.500 640.500 l
h
S
2 J
10.0000 M
0 J
1.45000 M
newpath
712.717 660.035 m
712.717 659.168 l
714.451 659.168 l
714.451 652.324 l
712.717 652.758 l
712.717 651.867 l
715.611 651.146 l
715.611 659.168 l
717.346 659.168 l
717.346 660.035 l
h
719.719 659.971 m
719.719 658.893 l
720.547 659.221 721.199 659.385 721.676 659.385  c
722.227 659.385 722.675 659.224 723.021 658.901  c
723.366 658.579 723.539 658.162 723.539 657.650  c
723.539 656.432 722.686 655.822 720.979 655.822  c
720.521 655.822 l
720.521 655.043 l
720.926 655.037 l
722.527 655.037 723.328 654.473 723.328 653.344  c
723.328 652.457 722.801 652.014 721.746 652.014  c
721.168 652.014 720.531 652.176 719.836 652.500  c
719.836 651.492 l
720.520 651.262 721.184 651.146 721.828 651.146  c
723.602 651.146 724.488 651.816 724.488 653.156  c
724.488 654.176 723.885 654.902 722.678 655.336  c
724.076 655.660 724.775 656.426 724.775 657.633  c
724.775 658.449 724.506 659.090 723.967 659.555  c
723.428 660.020 722.688 660.252 721.746 660.252  c
721.211 660.252 720.535 660.158 719.719 659.971  c
h
f
2 J
10.0000 M
0 J
1.45000 M
newpath
541.474 373.647 m
630.026 310.353 l
S
2 J
10.0000 M
0 J
1.45000 M
newpath
548.000 394.000 m
769.000 394.000 l
S
2 J
10.0000 M
0 J
1.45000 M
newpath
686.974 310.353 m
775.526 373.647 l
S
2 J
10.0000 M
0 J
1.45000 M
newpath
775.757 414.672 m
686.743 479.828 l
S
2 J
10.0000 M
0 J
1.45000 M
newpath
630.257 479.828 m
541.243 414.672 l
S
2 J
10.0000 M
0 J
1.45000 M
newpath
869.000 394.000 m
839.000 394.000 l
S
2 J
10.0000 M
0 J
1.45000 M
newpath
658.500 225.000 m
658.500 255.000 l
S
2 J
10.0000 M
0 J
1.45000 M
newpath
448.000 394.000 m
478.000 394.000 l
S
2 J
10.0000 M
0 J
1.45000 M
newpath
658.500 565.500 m
658.500 535.500 l
S
2 J
10.0000 M
0 J
1.45000 M
newpath
944.000 440.667 m
914.296 414.263 l
S
newpath
908.317 408.948 m
913.964 420.658 l
915.043 414.927 l
920.607 413.184 l
h
f
2 J
10.0000 M
0 J
1.45000 M
newpath
944.000 394.000 m
922.000 394.000 l
S
newpath
914.000 394.000 m
926.000 399.000 l
923.000 394.000 l
926.000 389.000 l
h
f
2 J
10.0000 M
0 J
1.45000 M
newpath
944.000 347.333 m
914.296 373.737 l
S
newpath
908.317 379.052 m
920.607 374.816 l
915.043 373.073 l
913.964 367.342 l
h
f
2 J
10.0000 M
0 J
1.45000 M
newpath
611.833 150.000 m
638.237 179.704 l
S
newpath
643.552 185.683 m
639.316 173.393 l
637.573 178.957 l
631.842 180.036 l
h
f
2 J
10.0000 M
0 J
1.45000 M
newpath
658.500 150.000 m
658.500 172.000 l
S
newpath
658.500 180.000 m
663.500 168.000 l
658.500 171.000 l
653.500 168.000 l
h
f
2 J
10.0000 M
0 J
1.45000 M
newpath
705.167 150.000 m
678.763 179.704 l
S
newpath
673.448 185.683 m
685.158 180.036 l
679.427 178.957 l
677.684 173.393 l
h
f
2 J
10.0000 M
0 J
1.45000 M
newpath
373.000 347.333 m
402.704 373.737 l
S
newpath
408.683 379.052 m
403.036 367.342 l
401.957 373.073 l
396.393 374.817 l
h
f
2 J
10.0000 M
0 J
1.45000 M
newpath
373.000 394.000 m
395.000 394.000 l
S
newpath
403.000 394.000 m
391.000 389.000 l
394.000 394.000 l
391.000 399.000 l
h
f
2 J
10.0000 M
0 J
1.45000 M
newpath
373.000 440.667 m
402.704 414.263 l
S
newpath
408.683 408.948 m
396.393 413.183 l
401.957 414.927 l
403.036 420.658 l
h
f
2 J
10.0000 M
0 J
1.45000 M
newpath
611.833 640.500 m
638.237 610.796 l
S
newpath
643.552 604.817 m
631.842 610.464 l
637.573 611.543 l
639.316 617.107 l
h
f
2 J
10.0000 M
0 J
1.45000 M
newpath
658.500 640.500 m
658.500 618.500 l
S
newpath
658.500 610.500 m
653.500 622.500 l
658.500 619.500 l
663.500 622.500 l
h
f
2 J
10.0000 M
0 J
1.45000 M
newpath
705.167 640.500 m
678.763 610.796 l
S
newpath
673.448 604.817 m
677.684 617.107 l
679.427 611.543 l
685.158 610.464 l
h
f
2 J
10.0000 M
Q
[ 1.00000 0.00000 0.00000 1.00000 0.00000 0.00000 ] defaultmatrix matrix concatmatrix setmatrix
cliprestore

%%Trailer
%%EOF
