%!PS-Adobe-3.0 EPSF-3.0
%%BoundingBox: 0 0 353 239
%%Creator: yExport 1.5
%%Producer: org.freehep.graphicsio.ps.EPSGraphics2D Revision: 12753 
%%For: 
%%Title: 
%%CreationDate: Wednesday, March 15, 2017 1:45:49 AM GMT
%%LanguageLevel: 3
%%EndComments
%%BeginProlog
100 dict dup begin

%
% File: org/freehep/graphicsio.ps/PSProlog.txt
% Author: Charles Loomis
%

% Redefinitions which save some space in the output file.  These are also
% the same as the PDF operators.
/q {gsave} def
/Q {grestore} def

/n {newpath} def
/m {moveto} def
/l {lineto} def
/c {curveto} def
/h {closepath} def

/re {4 -2 roll moveto
     dup 0 exch rlineto exch 0 rlineto
     neg 0 exch rlineto closepath} def

/f {fill} def
/f* {eofill} def
/F {gsave vg&FC fill grestore} def
/F* {gsave vg&FC eofill grestore} def

/s {closepath stroke} def
/S {stroke} def

/b {closepath gsave vg&FC fill grestore
    gsave stroke grestore newpath} def
/B {gsave vg&FC fill grestore gsave stroke grestore newpath} def
/b* {closepath gsave vg&FC eofill grestore
    gsave stroke grestore newpath} def
/B* {gsave vg&FC eofill grestore gsave stroke grestore newpath} def

/g {1 array astore /vg&fcolor exch def} def
/G {setgray} def
/k {4 array astore /vg&fcolor exch def} def
/K {setcmykcolor} def
/rg {3 array astore /vg&fcolor exch def} def
/RG {setrgbcolor} def

% Initialize the fill color.
0 0 0 rg

/vg&FC {mark vg&fcolor aload pop
        counttomark 1 eq {G} if
        counttomark 3 eq {RG} if
        counttomark 4 eq {K} if
        cleartomark } def

/vg&DFC {/vg&fcolor exch def} def

/vg&C {mark exch aload pop
       counttomark 1 eq {G} if
       counttomark 3 eq {RG} if
       counttomark 4 eq {K} if
       cleartomark } def

/w {setlinewidth} def
/j {setlinejoin} def
/J {setlinecap} def
/M {setmiterlimit} def
/d {setdash} def
/i {setflat} def

/W {clip} def
/W* {eoclip} def

% Setup the default graphics state.
% (black; 1 pt. linewidth; miter join; butt-ends; solid)
/defaultGraphicsState {0 g 1 w 0 j 0 J [] 0 d} def

% Emulation of the rectangle operators for PostScript implementations
% which do not implement all Level 2 features.  This is an INCOMPLETE
% emulation; only the "x y width height rect..." form is emulated.
/*rf {gsave newpath re fill grestore} def
/*rs {gsave newpath re stroke grestore} def
/*rc {newpath re clip} def
/rf  /rectfill where {pop /rectfill}{/*rf} ifelse load def
/rs  /rectstroke where {pop /rectstroke}{/*rs} ifelse load def
/rc  /rectclip where {pop /rectclip}{/*rc} ifelse load def

% Emulation of the selectfont operator.  This includes a 20% increase in
% the fontsize which is necessary to get sizes similar to the Java fonts.
/*sf {exch findfont exch
      dup type /arraytype eq {makefont}{scalefont} ifelse setfont} bind def
/sf /selectfont where {pop {1.2 mul selectfont}}{{1.2 mul *sf}} ifelse def

% Special version of stroke which allows the dash pattern to continue
% across path segments.  (This may be needed for PostScript although
% modern printers seem to do this correctly.)
/vg&stroke {
  currentdash pop length 0 eq
  {stroke}
  {
    currentdash /vg&doffset exch def pop
    flattenpath
    {m vg&resetdash}
    {2 copy
     currentpoint
     3 -1 roll sub dup mul
     3 1 roll sub dup mul
     add sqrt
     3 1 roll l
     currentdash 3 -1 roll add setdash}
     {}
     {h vg&resetdash}
     pathforall
     stroke
     vg&resetdash
  } ifelse
} def
/vg&resetdash {currentdash pop vg&doffset setdash} def

% Initialize variables for safety.
/delta 0 def
/xv 0 def  /yv 0 def  /width 0 def  /height 0 def

% Initialize to portrait INTERNATIONAL (Letter-height, A4-width) page.
/pw 595 def  /ph 791  def  /po true def /ftp false def

% Initialize margins to 20 points.
/ml 20 def  /mr 20 def  /mt 20 def  /mb 20 def

% Temporary matrices.
/smatrix 0 def  /nmatrix 0 def

% set page size (usage: <page width><page height> setpagesize)
/setpagesize {/ph exch def /pw exch def} def

% set page orientation (usage: portrait or landscape)
/portrait {/po true def} def
/landscape {/po false def} def

% force natural size for image (usage: naturalsize)
/naturalsize {/ftp false def} def

% resize image to fill page (usage: fittopage)
/fittopage {/ftp true def} def

% set margins of the page (usage: <left><bottom><top><right> setmargins)
/setmargins {/mr exch def /mt exch def /mb exch def /ml exch def} def

% set the graphic's size (usage: <width><height> setsize)
/setsize {/gh exch def /gw exch def} def

% set the graphic's origin (usage: <x0><y0> setorigin)
/setorigin {/gy exch def /gx exch def} def

% calculate image center
/imagecenter {pw ml sub mr sub 2 div ml add
              ph mt sub mb sub 2 div mb add} def

% calculate the necessary scaling
/imagescale {po {gw}{gh} ifelse pw ml sub mr sub div
             po {gh}{gw} ifelse ph mt sub mb sub div
             2 copy lt {exch} if pop
             ftp not {1 2 copy lt {exch} if pop} if
             1 exch div /sfactor exch def
             /gw gw sfactor mul def /gh gh sfactor mul def} def

% calculate image origin
/imageorigin {pw ml sub mr sub 2 div ml add
              po {gw}{gh} ifelse 2 div sub
              ph mt sub mb sub 2 div mb add
              po {gh}{gw} ifelse 2 div po {add}{sub} ifelse} def

% calculate the clipping origin
/cliporigin  {pw ml sub mr sub 2 div ml add
              po {gw}{gh} ifelse 2 div sub floor
              ph mt sub mb sub 2 div mb add
              po {gh}{gw} ifelse 2 div sub floor} def

% Set the clipping region to the bounding box.
/cliptobounds {cliporigin po {gw}{gh} ifelse 1 add
                          po {gh}{gw} ifelse 1 add rc} def

% set the base transformation matrix (usage: setbasematrix)
/setbasematrix {imageorigin translate
                po {0}{90} ifelse rotate
                sfactor sfactor neg scale
                /defaultmatrix matrix currentmatrix def} def

% The lower-right bias in drawing 1 pt. wide lines.
/bias  {q 0.5 0.5 translate} def
/unbias {Q} def

% Define the composite fonts used to print Unicode strings.
% Undefine particular values in an encoding array.
/vg&undef { {exch dup 3 -1 roll /.notdef put} forall } def
/vg&redef { {3 -1 roll dup 4 2 roll put} forall } def

% usage: key encoding basefontname vg&newbasefont font
/vg&newbasefont {
findfont dup length dict copy
  begin
    currentdict /FID undef
    /Encoding exch def
    dup /FontName exch def
    currentdict
  end
definefont
} def

% usage: key encoding basefontname vg&newskewedbasefont font
/vg&newskewedbasefont {
findfont dup length dict copy
  begin
    currentdict /FID undef
    /Encoding exch def
    dup /FontName exch def
    exch FontMatrix exch matrix concatmatrix /FontMatrix exch def
    currentdict
  end
definefont
} def

% usage: basekey suffix vg&nconcat name
/vg&nconcat {
  2 {dup length string cvs exch} repeat
  dup length 3 -1 roll dup length 3 -1 roll add string
  dup 0 4 -1 roll dup length 5 1 roll putinterval
  dup 4 -2 roll exch putinterval cvn
} def

%usage: fontname vg&skewmatrix matrix
/vg&skewmatrix {
findfont dup /FontInfo known
  {
    /FontInfo get dup /ItalicAngle known
    {
      [ 1 0 4 -1 roll /ItalicAngle get neg dup sin exch cos div 1 0 0 ]
    }
    {pop matrix} ifelse
  }
  {pop matrix} ifelse
} def

% usage: newfontname basefontname vg&newcompositefont --
/vg&newcompositefont {
/vg&fstyle exch def
/vg&bfont exch def
/vg&fname exch def
<<
/FontStyleBits vg&fstyle
/FontType 0
/FontMatrix matrix
/FontName vg&fname
/FMapType 2
/Encoding [ 0 1 255 {pop 6} for ]
          dup 16#00 0 put % Latin
          dup 16#03 1 put % Greek
          dup 16#20 2 put % Punctuation
          dup 16#21 3 put % Arrows
          dup 16#22 4 put % MathOps
          dup 16#27 5 put % Dingbats

/FDepVector [
vg&bfont /-UC-Latin vg&nconcat UCLatinEncoding
vg&bfont vg&newbasefont

vg&bfont vg&skewmatrix
vg&bfont /-UC-Greek vg&nconcat UCGreekEncoding
/Symbol vg&newskewedbasefont

vg&bfont /-UC-Punctuation vg&nconcat UCPunctuationEncoding
vg&bfont vg&newbasefont

/Arrows-UC findfont
/MathOps-UC findfont
/Dingbats-UC findfont
/Undefined-UC findfont ]
>>
vg&fname exch definefont pop
} def

% Null encoding vector (all elements set to .notdef)
/NullEncoding [ 256 {/.notdef} repeat ] def

% Unicode Latin encoding (unicode codes \u0000-\u00ff)
/UCLatinEncoding
  ISOLatin1Encoding dup length array copy
  dup 16#60 /grave put
  [ 16#90 16#91 16#92 16#93 16#94 16#95 16#96
    16#97 16#98 16#9a 16#9b 16#9d 16#9e 16#9f
  ] vg&undef
  def

% Unicode Greek encoding (unicode codes \u0370-\u03ff)
/UCGreekEncoding
  NullEncoding dup length array copy
  << 16#91 /Alpha    16#92 /Beta      16#93 /Gamma    16#94 /Delta
     16#95 /Epsilon  16#96 /Zeta      16#97 /Eta      16#98 /Theta
     16#99 /Iota     16#9a /Kappa     16#9b /Lambda   16#9c /Mu
     16#9d /Nu       16#9e /Xi        16#9f /Omicron  16#a0 /Pi
     16#a1 /Rho      16#a3 /Sigma     16#a4 /Tau      16#a5 /Upsilon
     16#a6 /Phi      16#a7 /Chi       16#a8 /Psi      16#a9 /Omega
     16#b1 /alpha    16#b2 /beta      16#b3 /gamma    16#b4 /delta
     16#b5 /epsilon  16#b6 /zeta      16#b7 /eta      16#b8 /theta
     16#b9 /iota     16#ba /kappa     16#bb /lambda   16#bc /mu
     16#bd /nu       16#be /xi        16#bf /omicron  16#c0 /pi
     16#c1 /rho      16#c2 /sigma1    16#c3 /sigma    16#c4 /tau
     16#c5 /upsilon  16#c6 /phi1      16#c7 /chi      16#c8 /psi
     16#c9 /omega    16#7e /semicolon 16#87 /dotmath  16#d1 /theta1
     16#d2 /Upsilon1 16#d5 /phi       16#d6 /omega1
  >> vg&redef
  def

% Unicode punctuation encoding (unicode codes \u2000-\u206f)
/UCPunctuationEncoding
  NullEncoding dup length array copy
  << 16#10 /hyphen          16#11 /hyphen              16#12 /endash
     16#13 /emdash          16#18 /quoteleft           16#19 /quoteright
     16#1a /quotesinglbase  16#1b /quotesingle         16#1c /quotedblleft
     16#1d /quotedblright   16#1e /quotedblbase        16#1f /quotedbl
     16#20 /dagger          16#21 /daggerdbl           16#22 /bullet
     16#24 /period          16#26 /ellipsis            16#27 /periodcentered
     16#30 /perthousand     16#44 /fraction
     16#70 /zerosuperior    16#74 /foursuperior        16#75 /fivesuperior
     16#76 /sixsuperior     16#77 /sevensuperior       16#78 /eightsuperior
     16#79 /ninesuperior    16#7b /hyphensuperior      16#7d /parenleftsuperior
     16#7e /parenrightsuperior
     16#80 /zeroinferior    16#84 /fourinferior        16#85 /fiveinferior
     16#81 /oneinferior     16#82 /twoinferior         16#83 /threeinferior
     16#86 /sixinferior     16#87 /seveninferior       16#88 /eightinferior
     16#89 /nineinferior    16#8b /hypheninferior      16#8d /parenleftinferior
     16#8e /parenrightinferior
  >> vg&redef
  def

% Unicode mathematical operators encoding (unicode codes \u2200-\u22ff)
/UCMathOpsEncoding
  NullEncoding dup length array copy
  << 16#00 /universal       16#02 /partialdiff         16#03 /existential
     16#05 /emptyset        16#06 /Delta               16#07 /gradient
     16#08 /element         16#09 /notelement          16#0b /suchthat
     16#0f /product         16#11 /summation           16#12 /minus
     16#15 /fraction        16#17 /asteriskmath        16#19 /bullet
     16#1a /radical         16#1d /proportional        16#1e /infinity
     16#20 /angle           16#23 /bar                 16#27 /logicaland
     16#28 /logicalor       16#29 /intersection        16#2a /union
     16#2b /integral        16#34 /therefore           16#36 /colon
     16#3c /similar         16#45 /congruent           16#48 /approxequal
     16#60 /notequal        16#61 /equivalence         16#64 /lessequal
     16#65 /greaterequal    16#82 /propersubset        16#83 /propersuperset
     16#86 /reflexsubset    16#87 /reflexsuperset      16#95 /circleplus
     16#97 /circlemultiply  16#a5 /perpendicular       16#03 /existential
     16#c0 /logicaland      16#c1 /logicalor           16#c2 /intersection
     16#c3 /union           16#c4 /diamond             16#c5 /dotmath
  >> vg&redef
  def

% Unicode arrows encoding (unicode codes \u2190-\u21ff)
% Also includes those "Letterlike" unicode characters
% which are available in the symbol font. (unicode codes \u2100-\u214f)
/UCArrowsEncoding
  NullEncoding dup length array copy
  << 16#11 /Ifraktur        16#1c /Rfraktur            16#22 /trademarkserif
     16#35 /aleph
     16#90 /arrowleft       16#91 /arrowup             16#92 /arrowright
     16#93 /arrowdown       16#94 /arrowboth           16#d0 /arrowdblleft
     16#d1 /arrowdblup      16#d2 /arrowdblright       16#d3 /arrowdbldown
     16#d4 /arrowdblboth
  >> vg&redef
  def

/ZapfDingbats findfont /Encoding get
dup length array copy /UCDingbatsEncoding exch def
16#20 1 16#7f {
  dup 16#20 sub exch
  UCDingbatsEncoding exch get
  UCDingbatsEncoding 3 1 roll put
} for
16#a0 1 16#ff {
  dup 16#40 sub exch
  UCDingbatsEncoding exch get
  UCDingbatsEncoding 3 1 roll put
} for
UCDingbatsEncoding [ 16#c0 1 16#ff {} for ] vg&undef
[ 16#00  16#05 16#0a 16#0b  16#28 16#4c 16#4e  16#53 16#54 16#55  16#57 16#5f
  16#60  16#68 16#69 16#6a  16#6b 16#6c 16#6d  16#6e 16#6f 16#70  16#71 16#72
  16#73  16#74 16#75 16#95  16#96 16#97 16#b0  16#bf
] vg&undef pop

% Define the base fonts which don't change.
/Undefined-UC NullEncoding       /Helvetica    vg&newbasefont pop
/MathOps-UC   UCMathOpsEncoding  /Symbol       vg&newbasefont pop
/Arrows-UC    UCArrowsEncoding   /Symbol       vg&newbasefont pop
/Dingbats-UC  UCDingbatsEncoding /ZapfDingbats vg&newbasefont pop

% Make the SansSerif composite fonts.
/SansSerif /Helvetica 16#00 vg&newcompositefont
/SansSerif-Bold /Helvetica-Bold 16#01 vg&newcompositefont
/SansSerif-Italic /Helvetica-Oblique 16#02 vg&newcompositefont
/SansSerif-BoldItalic /Helvetica-BoldOblique 16#03 vg&newcompositefont

% Make the Serif composite fonts.
/Serif /Times-Roman 16#00 vg&newcompositefont
/Serif-Bold /Times-Bold 16#01 vg&newcompositefont
/Serif-Italic /Times-Italic 16#02 vg&newcompositefont
/Serif-BoldItalic /Times-BoldItalic 16#03 vg&newcompositefont

% Make the Monospaced composite fonts.
/Monospaced /Courier 16#00 vg&newcompositefont
/Monospaced-Bold /Courier-Bold 16#01 vg&newcompositefont
/Monospaced-Italic /Courier-Oblique 16#02 vg&newcompositefont
/Monospaced-BoldItalic /Courier-BoldOblique 16#03 vg&newcompositefont

% Make the Dialog composite fonts.
/Dialog /Helvetica 16#00 vg&newcompositefont
/Dialog-Bold /Helvetica-Bold 16#01 vg&newcompositefont
/Dialog-Italic /Helvetica-Oblique 16#02 vg&newcompositefont
/Dialog-BoldItalic /Helvetica-BoldOblique 16#03 vg&newcompositefont

% Make the DialogInput composite fonts.
/DialogInput /Courier 16#00 vg&newcompositefont
/DialogInput-Bold /Courier-Bold 16#01 vg&newcompositefont
/DialogInput-Italic /Courier-Oblique 16#02 vg&newcompositefont
/DialogInput-BoldItalic /Courier-BoldOblique 16#03 vg&newcompositefont

% Make the Typewriter composite fonts (JDK 1.1 only).
/Typewriter /Courier 16#00 vg&newcompositefont
/Typewriter-Bold /Courier-Bold 16#01 vg&newcompositefont
/Typewriter-Italic /Courier-Oblique 16#02 vg&newcompositefont
/Typewriter-BoldItalic /Courier-BoldOblique 16#03 vg&newcompositefont


/cfontH {
 dup /fontsize exch def /SansSerif exch sf
 /vg&fontstyles [{cfontH} {cfontHB} {cfontHI} {cfontHBI}] def
} def
/cfontHB {
  dup /fontsize exch def /SansSerif-Bold exch sf
 /vg&fontstyles [{cfontH} {cfontHB} {cfontHI} {cfontHBI}] def
} def
/cfontHI {
 dup /fontsize exch def /SansSerif-Italic exch sf
 /vg&fontstyles [{cfontH} {cfontHB} {cfontHI} {cfontHBI}] def
} def
/cfontHBI {
 dup /fontsize exch def /SansSerif-BoldItalic exch sf
 /vg&fontstyles [{cfontH} {cfontHB} {cfontHI} {cfontHBI}] def
} def

/cfontT {
 dup /fontsize exch def /Serif exch sf
 /vg&fontstyles [{cfontT} {cfontTB} {cfontTI} {cfontTBI}] def
} def
/cfontTB {
 dup /fontsize exch def /Serif-Bold exch sf
 /vg&fontstyles [{cfontT} {cfontTB} {cfontTI} {cfontTBI}] def
} def
/cfontTI {
 dup /fontsize exch def /Serif-Italic exch sf
 /vg&fontstyles [{cfontT} {cfontTB} {cfontTI} {cfontTBI}] def
} def
/cfontTBI {
 dup /fontsize exch def /Serif-BoldItalic exch sf
 /vg&fontstyles [{cfontT} {cfontTB} {cfontTI} {cfontTBI}] def
} def

/cfontC {
 dup /fontsize exch def /Typewriter exch sf
 /vg&fontstyles [{cfontC} {cfontCB} {cfontCI} {cfontCBI}] def
} def
/cfontCB {
 dup /fontsize exch def /Typewriter-Bold exch sf
 /vg&fontstyles [{cfontC} {cfontCB} {cfontCI} {cfontCBI}] def
} def
/cfontCI {
 dup /fontsize exch def /Typewriter-Italic exch sf
 /vg&fontstyles [{cfontC} {cfontCB} {cfontCI} {cfontCBI}] def
} def
/cfontCBI {
 dup /fontsize exch def /Typewriter-BoldItalic exch sf
 /vg&fontstyles [{cfontC} {cfontCB} {cfontCI} {cfontCBI}] def
} def

% Darken or lighten the current color.
/darken {0.7 exch exp 3 copy
         q 4 -1 roll vg&C
         currentrgbcolor 3 {4 -2 roll mul} repeat
         3 array astore Q} def

/displayColorMap
<< /Cr   [1.00 0.00 0.00]       /Cg     [0.00 1.00 0.00]
   /Cb   [0.00 0.00 1.00]       /Cc     [1.00 0.00 0.00 0.00]
   /Cm   [0.00 1.00 0.00 0.00]  /Cy     [0.00 0.00 1.00 0.00]
   /Co   [1.00 0.78 0.00]       /Cp     [1.00 0.67 0.67]
   /Cw   [1   ]                 /Cgrl   [0.75]
   /Cgr  [0.50]                 /Cgrd   [0.25]
   /Ck   [0   ]
   /CGr  [1.00 0.00 0.00]       /CGg    [0.00 1.00 0.00]
   /CGb  [0.00 0.00 1.00]       /CGc    [1.00 0.00 0.00 0.00]
   /CGm  [0.00 1.00 0.00 0.00]  /CGy    [0.00 0.00 1.00 0.00]
   /CGo  [1.00 0.78 0.00]       /CGp    [1.00 0.67 0.67]
   /CGw  [1   ]                 /CGgrl  [0.75]
   /CGgr [0.50]                 /CGgrd  [0.25]
   /CGk  [0   ]
   /CIr  [1.00 0.00 0.00]       /CIg    [0.00 1.00 0.00]
   /CIb  [0.00 0.00 1.00]       /CIc    [1.00 0.00 0.00 0.00]
   /CIm  [0.00 1.00 0.00 0.00]  /CIy    [0.00 0.00 1.00 0.00]
   /CIo  [1.00 0.78 0.00]       /CIp    [1.00 0.67 0.67]
   /CIw  [1   ]                 /CIgrl  [0.75]
   /CIgr [0.50]                 /CIgrd  [0.25]
   /CIk  [0   ]
>> def

/printColorMap
<< /Cr   [1.00 0.33 0.33]       /Cg     [0.33 1.00 0.33]
   /Cb   [0.33 0.33 1.00]       /Cc     [1.00 0.00 0.00 0.00]
   /Cm   [0.00 1.00 0.00 0.00]  /Cy     [0.00 0.00 1.00 0.00]
   /Co   [1.00 0.78 0.00]       /Cp     [1.00 0.67 0.67]
   /Cw   [1   ]                 /Cgrl   [0.75]
   /Cgr  [0.50]                 /Cgrd   [0.25]
   /Ck   [0   ]
   /CGr  [1.00 0.33 0.33]       /CGg    [0.33 1.00 0.33]
   /CGb  [0.33 0.33 1.00]       /CGc    [1.00 0.00 0.00 0.00]
   /CGm  [0.00 1.00 0.00 0.00]  /CGy    [0.00 0.00 1.00 0.00]
   /CGo  [1.00 0.78 0.00]       /CGp    [1.00 0.67 0.67]
   /CGw  [1   ]                 /CGgrl  [0.75]
   /CGgr [0.50]                 /CGgrd  [0.25]
   /CGk  [0   ]
   /CIr  [1.00 0.33 0.33]       /CIg    [0.33 1.00 0.33]
   /CIb  [0.33 0.33 1.00]       /CIc    [1.00 0.00 0.00 0.00]
   /CIm  [0.00 1.00 0.00 0.00]  /CIy    [0.00 0.00 1.00 0.00]
   /CIo  [1.00 0.78 0.00]       /CIp    [1.00 0.67 0.67]
   /CIw  [1   ]                 /CIgrl  [0.75]
   /CIgr [0.50]                 /CIgrd  [0.25]
   /CIk  [0   ]
>> def

/grayColorMap
<< /Cr   [0   ]                 /Cg     [0   ]
   /Cb   [0   ]                 /Cc     [0   ]
   /Cm   [0   ]                 /Cy     [0   ]
   /Co   [0   ]                 /Cp     [0   ]
   /Cw   [0   ]                 /Cgrl   [0   ]
   /Cgr  [0   ]                 /Cgrd   [0   ]
   /Ck   [0   ]
   /CGr  [0.75]                 /CGg    [1   ]
   /CGb  [0.50]                 /CGc    [0.75]
   /CGm  [0.50]                 /CGy    [1   ]
   /CGo  [0.75]                 /CGp    [1   ]
   /CGw  [0   ]                 /CGgrl  [0.25]
   /CGgr [0.50]                 /CGgrd  [0.75]
   /CGk  [1   ]
   /CIr  [1   ]                 /CIg    [1   ]
   /CIb  [1   ]                 /CIc    [1   ]
   /CIm  [1   ]                 /CIy    [1   ]
   /CIo  [1   ]                 /CIp    [1   ]
   /CIw  [1   ]                 /CIgrl  [1   ]
   /CIgr [1   ]                 /CIgrd  [1   ]
   /CIk  [1   ]
>> def

/bwColorMap
<< /Cr   [0   ]                 /Cg     [0   ]
   /Cb   [0   ]                 /Cc     [0   ]
   /Cm   [0   ]                 /Cy     [0   ]
   /Co   [0   ]                 /Cp     [0   ]
   /Cw   [0   ]                 /Cgrl   [0   ]
   /Cgr  [0   ]                 /Cgrd   [0   ]
   /Ck   [0   ]
   /CGr  [1   ]                 /CGg    [1   ]
   /CGb  [1   ]                 /CGc    [1   ]
   /CGm  [1   ]                 /CGy    [1   ]
   /CGo  [1   ]                 /CGp    [1   ]
   /CGw  [0   ]                 /CGgrl  [1   ]
   /CGgr [1   ]                 /CGgrd  [1   ]
   /CGk  [1   ]
   /CIr  [1   ]                 /CIg    [1   ]
   /CIb  [1   ]                 /CIc    [1   ]
   /CIm  [1   ]                 /CIy    [1   ]
   /CIo  [1   ]                 /CIp    [1   ]
   /CIw  [1   ]                 /CIgrl  [1   ]
   /CIgr [1   ]                 /CIgrd  [1   ]
   /CIk  [1   ]
>> def

%
% The following routines handle the alignment of and printing of
% tagged strings.
%

% Predefine the bounding box values.
/bbllx 0 def /bblly 0 def /bburx 0 def /bbury 0 def

% This routine pops the first unicode character off of a string and returns
% the remainder of the string, the character code of first character,
% and a "true" if the string was non-zero length.
% <string>      popfirst <remaining string> <true>
% <null string> popfirst <false>
/popfirst {
  dup length 1 gt
    {dup 0 get /vg&fbyte exch def
     dup 1 get /vg&cbyte exch def
     dup length 2 sub 2 exch getinterval true}
    {pop false} ifelse
} def

% This routine shows a single unicode character given the font and
% character codes.
% <font code> <char code> unicharshow --
/unicharshow {
  2 string
  dup 0 5 -1 roll put
  dup 1 4 -1 roll put
  internalshow
} def

% This is an internal routine to alternate between determining the
% bounding box for stringsize and showing the string for recshow.
% <string> internalshow --
/internalshow {show} def

% This is an internal routine to alternate between determining the
% bounding box for stringsize and stroking various ornaments.
% <string> internalstroke --
/internalstroke {S} def

% Sets up internalshow to use the null device to determine string size.
% -- nullinternalshow --
/nullinternalshow {/internalshow {false charpath flattenpath
                                  pathbbox updatebbox} def} def

% Sets up internalstroke to use the null device to determine string size.
% -- nullinternalstroke --
/nullinternalstroke {
 /internalstroke {flattenpath pathbbox updatebbox} def} def

% This routine tests to see if the character code matches the first
% character of a string.
% <char code> <string> testchar <char code> <true or false>
/testchar {exch dup 3 -1 roll 0 get eq} def

% Raise the text baseline for superscripts.
% -- raise --
/raise {
  0 fontsize 2 div rmoveto
  /fontsize fontsize 2 mul 3 div def
  currentfont /FontName get fontsize sf
} def

% Un-raise the text baseline for superscripts.
% -- unraise --
/unraise {
  /fontsize fontsize 1.5 mul def
  0 fontsize 2 div neg rmoveto
} def

% Lower the text baseline for subscripts.
% -- lower --
/lower {
  0 fontsize 3 div neg rmoveto
  /fontsize fontsize 2 mul 3 div def
  currentfont /FontName get fontsize sf
} def

% Un-lower the text baseline for subscripts.
% -- unlower --
/unlower {
  /fontsize fontsize 1.5 mul def
  0 fontsize 3 div rmoveto
} def

% Compare the top two elements on the stack and leave only the
% larger one.
/maxval {2 copy gt {pop} {exch pop} ifelse} def

% Tokenize a string.  Do not use the usual PostScript token because
% parentheses will not be interpreted correctly because of rescanning
% of the string.
/vg&token {/vg&string exch def /vg&index -1 def /vg&level 0 def
0 2 vg&string length 2 sub {
  dup dup 1 add exch vg&string exch get 8 bitshift vg&string 3 -1 roll get or
  dup 16#f0fe eq {pop 1}{16#f0ff eq {-1}{0} ifelse} ifelse
  /vg&level exch vg&level add def
  vg&level 0 eq {/vg&index exch def exit} if pop
} for
vg&index 0 ge {
  vg&string vg&index 2 add dup vg&string length exch sub getinterval
  vg&index 2 gt {vg&string 2 vg&index 2 sub getinterval}{()} ifelse
  true}
{false} ifelse
} bind def

% Recursively show an unicode string.
% <string> recshow --
/recshow {
  popfirst
  {
    % Test to see if this is a string attribute.
    vg&fbyte 16#f0 and 16#e0 eq
    {
      q

      % Font style.
      currentfont dup /FontStyleBits known {/FontStyleBits get}{pop 0} ifelse
      vg&cbyte or vg&fontstyles exch get fontsize exch exec

      vg&token pop recshow currentpoint Q m recshow
    }
    {
      vg&fbyte 16#F8 and 16#F0 eq {

        % Superscript and/or subscript.
        vg&cbyte 16#00 eq {
          vg&token pop exch vg&token pop 3 -1 roll
          q raise recshow unraise currentpoint pop Q exch
          q lower recshow unlower currentpoint pop Q
          maxval currentpoint exch pop m recshow } if

        % Strikeout.
        vg&cbyte 16#01 eq {
          vg&token pop currentpoint 3 -1 roll recshow
          q 0 J vg&underline vg&uthick w
          currentpoint 4 -2 roll fontsize 3 div add moveto
          fontsize 3 div add lineto internalstroke Q
          recshow} if

        % Underline.
        vg&cbyte 16#02 eq {
          vg&token pop currentpoint 3 -1 roll recshow
          q 0 J vg&underline vg&uthick w
          currentpoint 4 -2 roll vg&uoffset add moveto
          vg&uoffset add lineto internalstroke Q
          recshow} if

        % Dashed underline.
        vg&cbyte 16#03 eq {
          vg&token pop currentpoint 3 -1 roll recshow
          q 0 J [ vg&uthick 5 mul vg&uthick 2 mul] 0 d
          vg&underline vg&uthick w
          currentpoint 4 -2 roll vg&uoffset add moveto
          vg&uoffset add lineto internalstroke Q
          recshow} if

        % Dotted underline.
        vg&cbyte 16#04 eq {
          vg&token pop currentpoint 3 -1 roll recshow
          q 1 J [ 0 vg&uthick 3 mul] 0 d
          vg&underline vg&uthick w
          currentpoint 4 -2 roll vg&uoffset add moveto
          vg&uoffset add lineto internalstroke Q
          recshow} if

        % Thick underline.
        vg&cbyte 16#05 eq {
          vg&token pop currentpoint 3 -1 roll recshow
          q 0 J vg&underline vg&uthick 2 mul w
          currentpoint 4 -2 roll vg&uoffset vg&uthick 2 div sub add moveto
          vg&uoffset vg&uthick 2 div sub add lineto internalstroke Q
          recshow} if

        % Gray thick underline.
        vg&cbyte 16#06 eq {
          vg&token pop currentpoint 3 -1 roll recshow
          q 0 J vg&underline vg&uthick 2 mul w 0.5 setgray
          currentpoint 4 -2 roll vg&uoffset vg&uthick 2 div sub add moveto
          vg&uoffset vg&uthick 2 div sub add lineto internalstroke Q
          recshow} if

        % Overbar.
        vg&cbyte 16#07 eq {
          vg&token pop dup stringsize relative 4 1 roll pop pop exch
          3 -1 roll recshow
          q 0 J vg&underline vg&uthick w
          vg&uoffset neg add dup currentpoint pop exch m l internalstroke Q
          recshow} if
      }
      {
        vg&fbyte vg&cbyte unicharshow recshow
      } ifelse
    } ifelse
  } if
} def

% Get the underline position and thickness from the current font.
/vg&underline {

currentfont dup /FontType get 0 eq {/FDepVector get 0 get} if
dup dup /FontInfo known {
  /FontInfo get dup
  dup /UnderlinePosition known {
    /UnderlinePosition get /vg&uoffset exch def
  }
  {
    pop /vg&uoffset 0 def
  } ifelse
  dup /UnderlineThickness known {
    /UnderlineThickness get /vg&uthick exch def
  }
  {
    pop /vg&uthick 0 def
  } ifelse
}
{
  pop /vg&uoffset 0 def /vg&uthick 0 def
} ifelse
/FontMatrix get
currentfont dup /FontType get 0 eq
{/FontMatrix get matrix concatmatrix}{pop} ifelse
dup 0 vg&uoffset 3 -1 roll transform /vg&uoffset exch def pop
0 vg&uthick 3 -1 roll transform /vg&uthick exch def pop
} def

% Make a frame with the coordinates on the stack.
% <llx> <lly> <urx> <ury> frame --
/frame {4 copy m 3 1 roll exch l 4 -2 roll l l h} def

% Resets the accumulated bounding box to a degenerate box at the
% current point.
% -- resetbbox --
/resetbbox {
  currentpoint 2 copy
  /bbury exch def
  /bburx exch def
  /bblly exch def
  /bbllx exch def
} def

% Update the accumulated bounding box.
% <llx'> <lly'> <urx'> <ury'> updatebbox --
/updatebbox {
  dup bbury gt {/bbury exch def} {pop} ifelse
  dup bburx gt {/bburx exch def} {pop} ifelse
  dup bblly lt {/bblly exch def} {pop} ifelse
  dup bbllx lt {/bbllx exch def} {pop} ifelse
} def

% Set the bounding box to the values on the stack.
% <llx'> <lly'> <urx'> <ury'> updatebbox --
/restorebbox {
  /bbury exch def /bburx exch def /bblly exch def /bbllx exch def
} def

% Push the accumulated bounding box onto the stack.
% -- pushbbox <llx> <lly> <urx> <ury>
/pushbbox {bbllx bblly bburx bbury} def

% Make the relative bounding box relative to the currentpoint.
% <llx'> <lly'> <urx'> <ury'> inflate <llx> <lly> <urx> <ury>
/inflate {
  2 {fontsize 0.2 mul add 4 1 roll} repeat
  2 {fontsize 0.2 mul sub 4 1 roll} repeat
} def

% Make the relative bounding box relative to the currentpoint.
% <llx'> <lly'> <urx'> <ury'> relative <llx> <lly> <urx> <ury>
/relative {
  currentpoint 3 -1 roll add 3 1 roll add exch 4 2 roll
  currentpoint 3 -1 roll add 3 1 roll add exch 4 2 roll
} def

% Returns the size of a string appropriate for recshow.
% <string> stringsize <llx> <lly> <urx> <ury>
/stringsize {
  pushbbox /internalshow load /internalstroke load 7 -1 roll
  q
  nulldevice 0 0 m
  nullinternalshow nullinternalstroke
  resetbbox
  recshow
  /internalstroke exch def /internalshow exch def
  pushbbox 8 -4 roll restorebbox
  Q
} def

% Calculate values for string positioning.
/calcval {4 copy
  3 -1 roll sub /widy exch def sub neg /widx exch def
  pop pop /dy exch def /dx exch def} def

% Utilities to position a string.
% First letter (U=upper, C=center, B=baseline, L=lower)
% Second letter (L=left, C=center, R=right)
/align [
{calcval dx neg widy dy add neg rmoveto} % UL
{calcval dx neg widy 2 div dy add neg rmoveto} % CL
{calcval dx neg 0 rmoveto} % BL
{calcval dx neg dy neg rmoveto} % LL
{calcval widx dx add neg widy dy add neg rmoveto} % UR
{calcval widx dx add neg widy 2 div dy add neg rmoveto} % CR
{calcval widx dx add neg 0 rmoveto} % BR
{calcval widx dx add neg dy neg rmoveto} % LR
{calcval widx 2 div dx add neg widy dy add neg rmoveto} % UC
{calcval widx 2 div dx add neg widy 2 div dy add neg rmoveto} % CC
{calcval widx 2 div dx add neg 0 rmoveto} % BC
{calcval widx 2 div dx add neg dy neg rmoveto} % LC
] def

/vg&str {m q 1 -1 scale dup stringsize 4 copy align 11 -1 roll get exec
         q inflate relative frame exch exec Q recshow Q} def

end /procDict exch def
%%EndProlog

%%BeginSetup
save
procDict begin
printColorMap begin
353 239 setpagesize
0 0 0 0 setmargins
0 0 setorigin
353 239 setsize
naturalsize
portrait
imagescale
cliptobounds
setbasematrix
/Helvetica 10 sf
defaultGraphicsState
%%EndSetup

0.00000 0.00000 0.00000 RG
[ 1.00000 0.00000 0.00000 1.00000 0.00000 0.00000 ] defaultmatrix matrix concatmatrix setmatrix
cliprestore
1.00000 1.00000 1.00000 RG
newpath
0.00000 0.00000 m
353.000 0.00000 l
353.000 239.000 l
0.00000 239.000 l
0.00000 0.00000 l
h
f
0.00000 0.00000 0.00000 RG
0.00000 0.00000 0.00000 RG
[ 1.00000 0.00000 0.00000 1.00000 0.00000 0.00000 ] defaultmatrix matrix concatmatrix setmatrix
cliprestore
1.00000 1.00000 1.00000 RG
newpath
0.00000 0.00000 m
353.000 0.00000 l
353.000 239.000 l
0.00000 239.000 l
0.00000 0.00000 l
h
f
0.00000 0.00000 0.00000 RG
0 0 353 239 rc
q
[ 1.00000 0.00000 0.00000 1.00000 0.00000 0.00000 ] concat
[ 1.00000 0.00000 0.00000 1.00000 -239.000 -163.000 ] concat
1.00000 1.00000 1.00000 RG
newpath
239.000 163.000 m
592.000 163.000 l
592.000 402.000 l
239.000 402.000 l
239.000 163.000 l
h
f
0.00000 0.00000 0.00000 RG
[ 1.00000 0.00000 0.00000 1.00000 -239.000 -163.000 ] defaultmatrix matrix concatmatrix setmatrix
[ 1.00000 0.00000 0.00000 1.00000 -239.000 -163.000 ] defaultmatrix matrix concatmatrix setmatrix
[ 1.00000 0.00000 0.00000 1.00000 0.00000 0.00000 ] defaultmatrix matrix concatmatrix setmatrix
[ 1.00000 0.00000 0.00000 1.00000 -239.000 -163.000 ] defaultmatrix matrix concatmatrix setmatrix
1.00000 .800000 0.00000 RG
newpath
254.512 357.000 m
335.512 357.000 l
335.512 387.000 l
254.512 387.000 l
254.512 357.000 l
h
f
0.00000 0.00000 0.00000 RG
0 J
1.45000 M
newpath
268.612 374.602 m
268.612 365.930 l
273.458 365.930 l
273.458 366.850 l
269.843 366.850 l
269.843 369.756 l
272.878 369.756 l
272.878 370.664 l
269.843 370.664 l
269.843 374.602 l
h
275.081 374.602 m
275.081 368.238 l
276.235 368.238 l
276.235 374.602 l
h
275.081 367.084 m
275.081 365.930 l
276.235 365.930 l
276.235 367.084 l
h
278.550 374.672 m
278.550 365.350 l
279.704 365.350 l
279.704 369.434 l
280.177 368.543 280.886 368.098 281.831 368.098  c
282.597 368.098 283.199 368.377 283.639 368.936  c
284.078 369.494 284.298 370.258 284.298 371.227  c
284.298 372.281 284.049 373.132 283.551 373.778  c
283.053 374.425 282.397 374.748 281.585 374.748  c
280.831 374.748 280.204 374.459 279.704 373.881  c
279.563 374.672 l
h
279.704 373.084 m
280.298 373.615 280.864 373.881 281.403 373.881  c
282.513 373.881 283.067 373.035 283.067 371.344  c
283.067 369.852 282.575 369.105 281.591 369.105  c
280.946 369.105 280.317 369.455 279.704 370.154  c
h
290.766 374.396 m
289.993 374.631 289.331 374.748 288.780 374.748  c
287.843 374.748 287.078 374.437 286.486 373.813  c
285.894 373.190 285.598 372.383 285.598 371.391  c
285.598 370.426 285.859 369.635 286.381 369.018  c
286.902 368.400 287.569 368.092 288.382 368.092  c
289.151 368.092 289.746 368.365 290.166 368.912  c
290.586 369.459 290.796 370.236 290.796 371.244  c
290.790 371.602 l
286.776 371.602 l
286.944 373.113 287.684 373.869 288.997 373.869  c
289.477 373.869 290.067 373.740 290.766 373.482  c
h
286.829 370.734 m
289.636 370.734 l
289.636 369.551 289.194 368.959 288.311 368.959  c
287.425 368.959 286.931 369.551 286.829 370.734  c
h
292.788 374.602 m
292.788 368.238 l
293.942 368.238 l
293.942 369.434 l
294.399 368.543 295.063 368.098 295.934 368.098  c
296.052 368.098 296.175 368.107 296.304 368.127  c
296.304 369.205 l
296.104 369.139 295.929 369.105 295.776 369.105  c
295.046 369.105 294.434 369.539 293.942 370.406  c
293.942 374.602 l
h
297.663 374.602 m
297.663 365.930 l
300.288 365.930 l
301.120 365.930 301.758 366.113 302.201 366.480  c
302.644 366.848 302.866 367.381 302.866 368.080  c
302.866 369.236 302.282 370.057 301.114 370.541  c
304.009 374.602 l
302.497 374.602 l
300.030 370.934 l
298.882 370.934 l
298.882 374.602 l
h
298.882 370.014 m
299.280 370.014 l
300.827 370.014 301.600 369.406 301.600 368.191  c
301.600 367.297 300.952 366.850 299.655 366.850  c
298.882 366.850 l
h
305.286 374.602 m
305.286 368.238 l
306.440 368.238 l
306.440 374.602 l
h
305.286 367.084 m
305.286 365.930 l
306.440 365.930 l
306.440 367.084 l
h
308.755 374.602 m
308.755 368.238 l
309.909 368.238 l
309.909 369.434 l
310.518 368.543 311.264 368.098 312.147 368.098  c
312.698 368.098 313.138 368.272 313.466 368.622  c
313.794 368.972 313.958 369.441 313.958 370.031  c
313.958 374.602 l
312.804 374.602 l
312.804 370.406 l
312.804 369.934 312.734 369.597 312.596 369.396  c
312.457 369.194 312.227 369.094 311.907 369.094  c
311.200 369.094 310.534 369.557 309.909 370.482  c
309.909 374.602 l
h
316.225 376.717 m
316.360 375.715 l
317.028 376.031 317.686 376.189 318.335 376.189  c
319.636 376.189 320.286 375.500 320.286 374.121  c
320.286 373.119 l
319.860 374.010 319.161 374.455 318.188 374.455  c
317.427 374.455 316.821 374.178 316.372 373.623  c
315.923 373.068 315.698 372.320 315.698 371.379  c
315.698 370.410 315.954 369.621 316.466 369.012  c
316.977 368.402 317.639 368.098 318.452 368.098  c
319.163 368.098 319.774 368.387 320.286 368.965  c
320.286 368.238 l
321.446 368.238 l
321.446 372.867 l
321.446 373.863 321.394 374.601 321.291 375.079  c
321.187 375.558 320.993 375.949 320.708 376.254  c
320.204 376.789 319.421 377.057 318.358 377.057  c
317.616 377.057 316.905 376.943 316.225 376.717  c
h
320.286 372.398 m
320.286 369.756 l
319.778 369.229 319.225 368.965 318.628 368.965  c
318.097 368.965 317.681 369.178 317.380 369.604  c
317.079 370.029 316.929 370.613 316.929 371.355  c
316.929 372.750 317.419 373.447 318.399 373.447  c
319.067 373.447 319.696 373.098 320.286 372.398  c
h
f
2 J
10.0000 M
1.00000 .800000 0.00000 RG
0 J
1.45000 M
0.00000 0.00000 0.00000 RG
newpath
254.512 357.000 m
335.512 357.000 l
335.512 387.000 l
254.512 387.000 l
254.512 357.000 l
h
S
2 J
10.0000 M
1.00000 .800000 0.00000 RG
newpath
495.616 178.000 m
576.616 178.000 l
576.616 208.000 l
495.616 208.000 l
495.616 178.000 l
h
f
0.00000 0.00000 0.00000 RG
0 J
1.45000 M
newpath
521.769 197.752 m
521.187 197.752 520.443 197.625 519.537 197.371  c
519.537 196.152 l
520.513 196.605 521.316 196.832 521.945 196.832  c
522.429 196.832 522.819 196.705 523.114 196.451  c
523.409 196.197 523.556 195.863 523.556 195.449  c
523.556 195.109 523.459 194.820 523.266 194.582  c
523.073 194.344 522.716 194.078 522.197 193.785  c
521.599 193.439 l
520.861 193.018 520.340 192.620 520.038 192.247  c
519.735 191.874 519.583 191.439 519.583 190.943  c
519.583 190.275 519.826 189.726 520.310 189.294  c
520.794 188.862 521.412 188.646 522.162 188.646  c
522.830 188.646 523.535 188.758 524.277 188.980  c
524.277 190.105 l
523.363 189.746 522.681 189.566 522.232 189.566  c
521.806 189.566 521.455 189.680 521.177 189.906  c
520.900 190.133 520.761 190.418 520.761 190.762  c
520.761 191.051 520.863 191.307 521.066 191.529  c
521.269 191.752 521.640 192.018 522.179 192.326  c
522.800 192.678 l
523.550 193.104 524.074 193.506 524.371 193.885  c
524.667 194.264 524.816 194.719 524.816 195.250  c
524.816 196.004 524.538 196.609 523.981 197.066  c
523.424 197.523 522.687 197.752 521.769 197.752  c
h
526.568 199.850 m
526.568 191.172 l
527.722 191.172 l
527.722 192.367 l
528.195 191.477 528.904 191.031 529.849 191.031  c
530.615 191.031 531.217 191.311 531.657 191.869  c
532.096 192.428 532.316 193.191 532.316 194.160  c
532.316 195.215 532.067 196.065 531.569 196.712  c
531.071 197.358 530.416 197.682 529.603 197.682  c
528.849 197.682 528.222 197.393 527.722 196.814  c
527.722 199.850 l
h
527.722 196.018 m
528.316 196.549 528.882 196.814 529.421 196.814  c
530.531 196.814 531.085 195.969 531.085 194.277  c
531.085 192.785 530.593 192.039 529.609 192.039  c
528.964 192.039 528.335 192.389 527.722 193.088  c
h
534.121 197.535 m
534.121 191.172 l
535.275 191.172 l
535.275 192.367 l
535.732 191.477 536.396 191.031 537.267 191.031  c
537.384 191.031 537.507 191.041 537.636 191.061  c
537.636 192.139 l
537.437 192.072 537.261 192.039 537.109 192.039  c
536.378 192.039 535.767 192.473 535.275 193.340  c
535.275 197.535 l
h
539.031 197.535 m
539.031 191.172 l
540.185 191.172 l
540.185 197.535 l
h
539.031 190.018 m
539.031 188.863 l
540.185 188.863 l
540.185 190.018 l
h
542.500 197.535 m
542.500 191.172 l
543.654 191.172 l
543.654 192.367 l
544.263 191.477 545.009 191.031 545.892 191.031  c
546.443 191.031 546.882 191.206 547.210 191.556  c
547.539 191.905 547.703 192.375 547.703 192.965  c
547.703 197.535 l
546.548 197.535 l
546.548 193.340 l
546.548 192.867 546.479 192.530 546.340 192.329  c
546.202 192.128 545.972 192.027 545.652 192.027  c
544.945 192.027 544.279 192.490 543.654 193.416  c
543.654 197.535 l
h
551.857 197.682 m
551.271 197.682 550.814 197.514 550.486 197.178  c
550.158 196.842 549.994 196.375 549.994 195.777  c
549.994 192.039 l
549.197 192.039 l
549.197 191.172 l
549.994 191.172 l
549.994 190.018 l
551.148 189.906 l
551.148 191.172 l
552.812 191.172 l
552.812 192.039 l
551.148 192.039 l
551.148 195.566 l
551.148 196.398 551.507 196.814 552.226 196.814  c
552.378 196.814 552.564 196.789 552.783 196.738  c
552.783 197.535 l
552.427 197.633 552.119 197.682 551.857 197.682  c
h
f
2 J
10.0000 M
1.00000 .800000 0.00000 RG
0 J
1.45000 M
0.00000 0.00000 0.00000 RG
newpath
495.616 178.000 m
576.616 178.000 l
576.616 208.000 l
495.616 208.000 l
495.616 178.000 l
h
S
2 J
10.0000 M
1.00000 .800000 0.00000 RG
newpath
254.512 178.000 m
335.512 178.000 l
335.512 208.000 l
254.512 208.000 l
254.512 178.000 l
h
f
0.00000 0.00000 0.00000 RG
0 J
1.45000 M
newpath
285.528 199.469 m
285.528 191.717 l
282.452 191.717 l
282.452 190.797 l
289.835 190.797 l
289.835 191.717 l
286.759 191.717 l
286.759 199.469 l
h
294.370 198.660 m
293.679 199.297 293.013 199.615 292.372 199.615  c
291.845 199.615 291.407 199.450 291.059 199.120  c
290.712 198.790 290.538 198.373 290.538 197.869  c
290.538 197.174 290.830 196.640 291.414 196.267  c
291.998 195.894 292.835 195.707 293.925 195.707  c
294.200 195.707 l
294.200 194.939 l
294.200 194.201 293.821 193.832 293.063 193.832  c
292.454 193.832 291.796 194.020 291.089 194.395  c
291.089 193.439 l
291.866 193.123 292.595 192.965 293.274 192.965  c
293.985 192.965 294.510 193.125 294.848 193.445  c
295.185 193.766 295.354 194.264 295.354 194.939  c
295.354 197.822 l
295.354 198.482 295.557 198.812 295.964 198.812  c
296.014 198.812 296.089 198.805 296.186 198.789  c
296.268 199.428 l
296.007 199.553 295.718 199.615 295.401 199.615  c
294.862 199.615 294.518 199.297 294.370 198.660  c
h
294.200 198.033 m
294.200 196.387 l
293.813 196.375 l
293.181 196.375 292.669 196.495 292.278 196.735  c
291.888 196.976 291.692 197.291 291.692 197.682  c
291.692 197.959 291.790 198.193 291.985 198.385  c
292.181 198.576 292.419 198.672 292.700 198.672  c
293.181 198.672 293.681 198.459 294.200 198.033  c
h
299.626 199.615 m
299.040 199.615 298.583 199.447 298.255 199.111  c
297.927 198.775 297.763 198.309 297.763 197.711  c
297.763 193.973 l
296.966 193.973 l
296.966 193.105 l
297.763 193.105 l
297.763 191.951 l
298.917 191.840 l
298.917 193.105 l
300.581 193.105 l
300.581 193.973 l
298.917 193.973 l
298.917 197.500 l
298.917 198.332 299.276 198.748 299.995 198.748  c
300.147 198.748 300.333 198.723 300.552 198.672  c
300.552 199.469 l
300.196 199.566 299.888 199.615 299.626 199.615  c
h
305.485 198.660 m
304.794 199.297 304.128 199.615 303.487 199.615  c
302.960 199.615 302.522 199.450 302.175 199.120  c
301.827 198.790 301.653 198.373 301.653 197.869  c
301.653 197.174 301.945 196.640 302.529 196.267  c
303.113 195.894 303.950 195.707 305.040 195.707  c
305.315 195.707 l
305.315 194.939 l
305.315 194.201 304.936 193.832 304.179 193.832  c
303.569 193.832 302.911 194.020 302.204 194.395  c
302.204 193.439 l
302.981 193.123 303.710 192.965 304.389 192.965  c
305.100 192.965 305.625 193.125 305.963 193.445  c
306.301 193.766 306.470 194.264 306.470 194.939  c
306.470 197.822 l
306.470 198.482 306.673 198.812 307.079 198.812  c
307.130 198.812 307.204 198.805 307.302 198.789  c
307.384 199.428 l
307.122 199.553 306.833 199.615 306.516 199.615  c
305.977 199.615 305.634 199.297 305.485 198.660  c
h
305.315 198.033 m
305.315 196.387 l
304.929 196.375 l
304.296 196.375 303.784 196.495 303.393 196.735  c
303.003 196.976 302.807 197.291 302.807 197.682  c
302.807 197.959 302.905 198.193 303.100 198.385  c
303.296 198.576 303.534 198.672 303.815 198.672  c
304.296 198.672 304.796 198.459 305.315 198.033  c
h
f
2 J
10.0000 M
1.00000 .800000 0.00000 RG
0 J
1.45000 M
0.00000 0.00000 0.00000 RG
newpath
254.512 178.000 m
335.512 178.000 l
335.512 208.000 l
254.512 208.000 l
254.512 178.000 l
h
S
2 J
10.0000 M
0 J
1.45000 M
newpath
315.216 357.000 m
509.488 212.769 l
S
newpath
515.911 208.000 m
503.296 211.139 l
508.685 213.365 l
509.257 219.168 l
h
f
newpath
392.018 287.182 m
391.158 287.182 390.445 286.863 389.879 286.227  c
389.313 285.590 389.029 284.787 389.029 283.818  c
389.029 282.783 389.310 281.977 389.870 281.398  c
390.431 280.820 391.213 280.531 392.217 280.531  c
392.713 280.531 393.268 280.600 393.881 280.736  c
393.881 281.703 l
393.229 281.512 392.697 281.416 392.287 281.416  c
391.697 281.416 391.224 281.638 390.866 282.081  c
390.509 282.524 390.330 283.115 390.330 283.854  c
390.330 284.568 390.514 285.146 390.881 285.588  c
391.248 286.029 391.729 286.250 392.322 286.250  c
392.850 286.250 393.393 286.115 393.951 285.846  c
393.951 286.842 l
393.205 287.068 392.561 287.182 392.018 287.182  c
h
399.658 287.035 m
399.658 285.840 l
399.045 286.734 398.301 287.182 397.426 287.182  c
396.871 287.182 396.430 287.007 396.102 286.657  c
395.774 286.308 395.610 285.836 395.610 285.242  c
395.610 280.672 l
396.764 280.672 l
396.764 284.867 l
396.764 285.344 396.833 285.683 396.972 285.884  c
397.111 286.085 397.342 286.186 397.666 286.186  c
398.369 286.186 399.033 285.723 399.658 284.797  c
399.658 280.672 l
400.813 280.672 l
400.813 287.035 l
h
404.815 287.182 m
404.287 287.182 403.647 287.059 402.893 286.812  c
402.893 285.752 l
403.647 286.127 404.303 286.314 404.862 286.314  c
405.194 286.314 405.469 286.225 405.688 286.045  c
405.906 285.865 406.016 285.641 406.016 285.371  c
406.016 284.977 405.709 284.650 405.096 284.393  c
404.422 284.105 l
403.426 283.691 402.928 283.096 402.928 282.318  c
402.928 281.764 403.124 281.327 403.517 281.009  c
403.909 280.690 404.447 280.531 405.131 280.531  c
405.487 280.531 405.926 280.580 406.449 280.678  c
406.690 280.725 l
406.690 281.686 l
406.045 281.494 405.533 281.398 405.154 281.398  c
404.412 281.398 404.041 281.668 404.041 282.207  c
404.041 282.555 404.322 282.848 404.885 283.086  c
405.442 283.320 l
406.070 283.586 406.516 283.866 406.778 284.161  c
407.039 284.456 407.170 284.824 407.170 285.266  c
407.170 285.824 406.949 286.283 406.508 286.643  c
406.067 287.002 405.502 287.182 404.815 287.182  c
h
411.154 287.182 m
410.569 287.182 410.112 287.014 409.783 286.678  c
409.455 286.342 409.291 285.875 409.291 285.277  c
409.291 281.539 l
408.494 281.539 l
408.494 280.672 l
409.291 280.672 l
409.291 279.518 l
410.445 279.406 l
410.445 280.672 l
412.110 280.672 l
412.110 281.539 l
410.445 281.539 l
410.445 285.066 l
410.445 285.898 410.805 286.314 411.524 286.314  c
411.676 286.314 411.862 286.289 412.080 286.238  c
412.080 287.035 l
411.725 287.133 411.416 287.182 411.154 287.182  c
h
416.223 287.182 m
415.313 287.182 414.586 286.880 414.043 286.276  c
413.500 285.673 413.229 284.865 413.229 283.854  c
413.229 282.830 413.501 282.021 414.046 281.425  c
414.591 280.829 415.330 280.531 416.264 280.531  c
417.197 280.531 417.937 280.829 418.482 281.425  c
419.027 282.021 419.299 282.826 419.299 283.842  c
419.299 284.881 419.026 285.697 418.479 286.291  c
417.932 286.885 417.180 287.182 416.223 287.182  c
h
416.240 286.314 m
417.463 286.314 418.074 285.490 418.074 283.842  c
418.074 282.213 417.471 281.398 416.264 281.398  c
415.061 281.398 414.459 282.217 414.459 283.854  c
414.459 285.494 415.053 286.314 416.240 286.314  c
h
421.104 287.035 m
421.104 280.672 l
422.258 280.672 l
422.258 281.867 l
422.820 280.977 423.543 280.531 424.426 280.531  c
425.278 280.531 425.858 280.977 426.166 281.867  c
426.713 280.973 427.424 280.525 428.299 280.525  c
428.862 280.525 429.297 280.690 429.606 281.021  c
429.914 281.351 430.069 281.812 430.069 282.406  c
430.069 287.035 l
428.908 287.035 l
428.908 282.588 l
428.908 281.861 428.621 281.498 428.047 281.498  c
427.449 281.498 426.822 281.922 426.166 282.770  c
426.166 287.035 l
425.006 287.035 l
425.006 282.588 l
425.006 281.857 424.713 281.492 424.127 281.492  c
423.545 281.492 422.922 281.918 422.258 282.770  c
422.258 287.035 l
h
436.971 286.830 m
436.197 287.064 435.535 287.182 434.985 287.182  c
434.047 287.182 433.282 286.870 432.691 286.247  c
432.099 285.624 431.803 284.816 431.803 283.824  c
431.803 282.859 432.064 282.068 432.585 281.451  c
433.107 280.834 433.774 280.525 434.586 280.525  c
435.356 280.525 435.950 280.799 436.370 281.346  c
436.790 281.893 437.000 282.670 437.000 283.678  c
436.994 284.035 l
432.981 284.035 l
433.149 285.547 433.889 286.303 435.201 286.303  c
435.682 286.303 436.272 286.174 436.971 285.916  c
h
433.033 283.168 m
435.840 283.168 l
435.840 281.984 435.399 281.393 434.516 281.393  c
433.629 281.393 433.135 281.984 433.033 283.168  c
h
438.992 287.035 m
438.992 280.672 l
440.147 280.672 l
440.147 281.867 l
440.604 280.977 441.268 280.531 442.139 280.531  c
442.256 280.531 442.379 280.541 442.508 280.561  c
442.508 281.639 l
442.309 281.572 442.133 281.539 441.981 281.539  c
441.250 281.539 440.639 281.973 440.147 282.840  c
440.147 287.035 l
h
f
2 J
10.0000 M
0 J
1.45000 M
newpath
335.512 193.000 m
495.616 193.000 l
S
newpath
403.801 199.850 m
403.801 191.172 l
404.955 191.172 l
404.955 192.367 l
405.428 191.477 406.137 191.031 407.082 191.031  c
407.848 191.031 408.450 191.311 408.890 191.869  c
409.329 192.428 409.549 193.191 409.549 194.160  c
409.549 195.215 409.300 196.065 408.802 196.712  c
408.304 197.358 407.649 197.682 406.836 197.682  c
406.082 197.682 405.455 197.393 404.955 196.814  c
404.955 199.850 l
h
404.955 196.018 m
405.549 196.549 406.115 196.814 406.654 196.814  c
407.764 196.814 408.319 195.969 408.319 194.277  c
408.319 192.785 407.826 192.039 406.842 192.039  c
406.197 192.039 405.569 192.389 404.955 193.088  c
h
416.018 197.330 m
415.244 197.564 414.582 197.682 414.031 197.682  c
413.094 197.682 412.329 197.370 411.737 196.747  c
411.146 196.124 410.850 195.316 410.850 194.324  c
410.850 193.359 411.111 192.568 411.632 191.951  c
412.154 191.334 412.820 191.025 413.633 191.025  c
414.403 191.025 414.997 191.299 415.417 191.846  c
415.837 192.393 416.047 193.170 416.047 194.178  c
416.041 194.535 l
412.028 194.535 l
412.195 196.047 412.936 196.803 414.248 196.803  c
414.729 196.803 415.319 196.674 416.018 196.416  c
h
412.080 193.668 m
414.887 193.668 l
414.887 192.484 414.445 191.893 413.563 191.893  c
412.676 191.893 412.182 192.484 412.080 193.668  c
h
422.703 197.330 m
421.930 197.564 421.268 197.682 420.717 197.682  c
419.779 197.682 419.015 197.370 418.423 196.747  c
417.831 196.124 417.535 195.316 417.535 194.324  c
417.535 193.359 417.796 192.568 418.318 191.951  c
418.839 191.334 419.506 191.025 420.319 191.025  c
421.088 191.025 421.683 191.299 422.103 191.846  c
422.523 192.393 422.733 193.170 422.733 194.178  c
422.727 194.535 l
418.713 194.535 l
418.881 196.047 419.621 196.803 420.934 196.803  c
421.414 196.803 422.004 196.674 422.703 196.416  c
h
418.766 193.668 m
421.572 193.668 l
421.572 192.484 421.131 191.893 420.248 191.893  c
419.362 191.893 418.867 192.484 418.766 193.668  c
h
424.725 197.535 m
424.725 191.172 l
425.879 191.172 l
425.879 192.367 l
426.336 191.477 427.000 191.031 427.871 191.031  c
427.988 191.031 428.112 191.041 428.240 191.061  c
428.240 192.139 l
428.041 192.072 427.865 192.039 427.713 192.039  c
426.983 192.039 426.371 192.473 425.879 193.340  c
425.879 197.535 l
h
f
2 J
10.0000 M
0 J
1.45000 M
newpath
295.012 208.000 m
295.012 349.000 l
S
newpath
295.012 357.000 m
300.012 345.000 l
295.012 348.000 l
290.012 345.000 l
h
f
newpath
271.835 289.350 m
271.835 280.672 l
272.989 280.672 l
272.989 281.867 l
273.462 280.977 274.171 280.531 275.116 280.531  c
275.882 280.531 276.484 280.811 276.924 281.369  c
277.363 281.928 277.583 282.691 277.583 283.660  c
277.583 284.715 277.334 285.565 276.836 286.212  c
276.338 286.858 275.682 287.182 274.870 287.182  c
274.116 287.182 273.489 286.893 272.989 286.314  c
272.989 289.350 l
h
272.989 285.518 m
273.583 286.049 274.149 286.314 274.688 286.314  c
275.798 286.314 276.352 285.469 276.352 283.777  c
276.352 282.285 275.860 281.539 274.876 281.539  c
274.231 281.539 273.602 281.889 272.989 282.588  c
h
279.388 287.035 m
279.388 280.672 l
280.542 280.672 l
280.542 281.867 l
280.999 280.977 281.663 280.531 282.534 280.531  c
282.651 280.531 282.774 280.541 282.903 280.561  c
282.903 281.639 l
282.704 281.572 282.528 281.539 282.376 281.539  c
281.645 281.539 281.034 281.973 280.542 282.840  c
280.542 287.035 l
h
286.788 287.182 m
285.878 287.182 285.151 286.880 284.608 286.276  c
284.065 285.673 283.794 284.865 283.794 283.854  c
283.794 282.830 284.066 282.021 284.611 281.425  c
285.156 280.829 285.895 280.531 286.829 280.531  c
287.763 280.531 288.502 280.829 289.047 281.425  c
289.592 282.021 289.864 282.826 289.864 283.842  c
289.864 284.881 289.591 285.697 289.044 286.291  c
288.497 286.885 287.745 287.182 286.788 287.182  c
h
286.806 286.314 m
288.028 286.314 288.639 285.490 288.639 283.842  c
288.639 282.213 288.036 281.398 286.829 281.398  c
285.626 281.398 285.024 282.217 285.024 283.854  c
285.024 285.494 285.618 286.314 286.806 286.314  c
h
292.987 287.035 m
290.620 280.672 l
291.774 280.672 l
293.626 285.623 l
295.577 280.672 l
296.655 280.672 l
294.141 287.035 l
h
297.880 287.035 m
297.880 280.672 l
299.034 280.672 l
299.034 287.035 l
h
297.880 279.518 m
297.880 278.363 l
299.034 278.363 l
299.034 279.518 l
h
305.432 287.035 m
305.432 285.840 l
304.964 286.734 304.257 287.182 303.311 287.182  c
302.546 287.182 301.943 286.902 301.504 286.344  c
301.064 285.785 300.845 285.021 300.845 284.053  c
300.845 282.994 301.094 282.143 301.592 281.498  c
302.090 280.854 302.745 280.531 303.557 280.531  c
304.311 280.531 304.936 280.820 305.432 281.398  c
305.432 277.783 l
306.593 277.783 l
306.593 287.035 l
h
305.432 282.189 m
304.835 281.662 304.268 281.398 303.733 281.398  c
302.628 281.398 302.075 282.244 302.075 283.936  c
302.075 285.424 302.567 286.168 303.552 286.168  c
304.192 286.168 304.819 285.818 305.432 285.119  c
h
313.565 286.830 m
312.792 287.064 312.130 287.182 311.579 287.182  c
310.641 287.182 309.877 286.870 309.285 286.247  c
308.693 285.624 308.397 284.816 308.397 283.824  c
308.397 282.859 308.658 282.068 309.180 281.451  c
309.701 280.834 310.368 280.525 311.181 280.525  c
311.950 280.525 312.545 280.799 312.965 281.346  c
313.385 281.893 313.595 282.670 313.595 283.678  c
313.589 284.035 l
309.575 284.035 l
309.743 285.547 310.483 286.303 311.796 286.303  c
312.276 286.303 312.866 286.174 313.565 285.916  c
h
309.628 283.168 m
312.434 283.168 l
312.434 281.984 311.993 281.393 311.110 281.393  c
310.223 281.393 309.729 281.984 309.628 283.168  c
h
315.587 287.035 m
315.587 280.672 l
316.741 280.672 l
316.741 281.867 l
317.198 280.977 317.862 280.531 318.733 280.531  c
318.850 280.531 318.973 280.541 319.102 280.561  c
319.102 281.639 l
318.903 281.572 318.727 281.539 318.575 281.539  c
317.845 281.539 317.233 281.973 316.741 282.840  c
316.741 287.035 l
h
f
2 J
10.0000 M
1.00000 .800000 0.00000 RG
newpath
495.616 357.000 m
576.616 357.000 l
576.616 387.000 l
495.616 387.000 l
495.616 357.000 l
h
f
0.00000 0.00000 0.00000 RG
0 J
1.45000 M
newpath
526.858 376.535 m
526.858 368.783 l
523.782 368.783 l
523.782 367.863 l
531.165 367.863 l
531.165 368.783 l
528.088 368.783 l
528.088 376.535 l
h
532.383 376.535 m
532.383 367.863 l
535.266 367.863 l
536.125 367.863 536.820 367.959 537.349 368.150  c
537.878 368.342 538.336 368.666 538.723 369.123  c
539.336 369.850 539.643 370.807 539.643 371.994  c
539.643 373.436 539.262 374.553 538.500 375.346  c
537.739 376.139 536.667 376.535 535.284 376.535  c
h
533.614 375.615 m
535.190 375.615 l
536.315 375.615 537.112 375.312 537.581 374.707  c
538.084 374.062 538.336 373.197 538.336 372.111  c
538.336 371.092 538.088 370.291 537.592 369.709  c
537.292 369.354 536.932 369.110 536.514 368.979  c
536.096 368.849 535.467 368.783 534.627 368.783  c
533.614 368.783 l
h
545.086 376.752 m
543.739 376.752 542.698 376.356 541.963 375.565  c
541.229 374.774 540.862 373.654 540.862 372.205  c
540.862 370.760 541.236 369.639 541.984 368.842  c
542.732 368.045 543.786 367.646 545.145 367.646  c
545.922 367.646 546.833 367.773 547.875 368.027  c
547.875 369.182 l
546.688 368.771 545.772 368.566 545.127 368.566  c
544.186 368.566 543.458 368.885 542.942 369.521  c
542.426 370.158 542.168 371.057 542.168 372.217  c
542.168 373.322 542.444 374.194 542.995 374.833  c
543.545 375.472 544.297 375.791 545.250 375.791  c
546.071 375.791 546.950 375.539 547.887 375.035  c
547.887 376.090 l
547.032 376.531 546.098 376.752 545.086 376.752  c
h
f
2 J
10.0000 M
1.00000 .800000 0.00000 RG
0 J
1.45000 M
0.00000 0.00000 0.00000 RG
newpath
495.616 357.000 m
576.616 357.000 l
576.616 387.000 l
495.616 387.000 l
495.616 357.000 l
h
S
2 J
10.0000 M
0 J
1.45000 M
newpath
335.512 372.000 m
495.616 372.000 l
S
newpath
403.801 378.850 m
403.801 370.172 l
404.955 370.172 l
404.955 371.367 l
405.428 370.477 406.137 370.031 407.082 370.031  c
407.848 370.031 408.450 370.311 408.890 370.869  c
409.329 371.428 409.549 372.191 409.549 373.160  c
409.549 374.215 409.300 375.065 408.802 375.712  c
408.304 376.358 407.649 376.682 406.836 376.682  c
406.082 376.682 405.455 376.393 404.955 375.814  c
404.955 378.850 l
h
404.955 375.018 m
405.549 375.549 406.115 375.814 406.654 375.814  c
407.764 375.814 408.319 374.969 408.319 373.277  c
408.319 371.785 407.826 371.039 406.842 371.039  c
406.197 371.039 405.569 371.389 404.955 372.088  c
h
416.018 376.330 m
415.244 376.564 414.582 376.682 414.031 376.682  c
413.094 376.682 412.329 376.370 411.737 375.747  c
411.146 375.124 410.850 374.316 410.850 373.324  c
410.850 372.359 411.111 371.568 411.632 370.951  c
412.154 370.334 412.820 370.025 413.633 370.025  c
414.403 370.025 414.997 370.299 415.417 370.846  c
415.837 371.393 416.047 372.170 416.047 373.178  c
416.041 373.535 l
412.028 373.535 l
412.195 375.047 412.936 375.803 414.248 375.803  c
414.729 375.803 415.319 375.674 416.018 375.416  c
h
412.080 372.668 m
414.887 372.668 l
414.887 371.484 414.445 370.893 413.563 370.893  c
412.676 370.893 412.182 371.484 412.080 372.668  c
h
422.703 376.330 m
421.930 376.564 421.268 376.682 420.717 376.682  c
419.779 376.682 419.015 376.370 418.423 375.747  c
417.831 375.124 417.535 374.316 417.535 373.324  c
417.535 372.359 417.796 371.568 418.318 370.951  c
418.839 370.334 419.506 370.025 420.319 370.025  c
421.088 370.025 421.683 370.299 422.103 370.846  c
422.523 371.393 422.733 372.170 422.733 373.178  c
422.727 373.535 l
418.713 373.535 l
418.881 375.047 419.621 375.803 420.934 375.803  c
421.414 375.803 422.004 375.674 422.703 375.416  c
h
418.766 372.668 m
421.572 372.668 l
421.572 371.484 421.131 370.893 420.248 370.893  c
419.362 370.893 418.867 371.484 418.766 372.668  c
h
424.725 376.535 m
424.725 370.172 l
425.879 370.172 l
425.879 371.367 l
426.336 370.477 427.000 370.031 427.871 370.031  c
427.988 370.031 428.112 370.041 428.240 370.061  c
428.240 371.139 l
428.041 371.072 427.865 371.039 427.713 371.039  c
426.983 371.039 426.371 371.473 425.879 372.340  c
425.879 376.535 l
h
f
2 J
10.0000 M
0 J
1.45000 M
newpath
536.116 208.000 m
536.116 349.000 l
S
newpath
536.116 357.000 m
541.116 345.000 l
536.116 348.000 l
531.116 345.000 l
h
f
newpath
512.939 289.350 m
512.939 280.672 l
514.093 280.672 l
514.093 281.867 l
514.566 280.977 515.275 280.531 516.220 280.531  c
516.986 280.531 517.588 280.811 518.028 281.369  c
518.467 281.928 518.687 282.691 518.687 283.660  c
518.687 284.715 518.438 285.565 517.940 286.212  c
517.442 286.858 516.787 287.182 515.974 287.182  c
515.220 287.182 514.593 286.893 514.093 286.314  c
514.093 289.350 l
h
514.093 285.518 m
514.687 286.049 515.253 286.314 515.792 286.314  c
516.902 286.314 517.457 285.469 517.457 283.777  c
517.457 282.285 516.964 281.539 515.980 281.539  c
515.335 281.539 514.707 281.889 514.093 282.588  c
h
520.492 287.035 m
520.492 280.672 l
521.646 280.672 l
521.646 281.867 l
522.103 280.977 522.767 280.531 523.638 280.531  c
523.755 280.531 523.878 280.541 524.007 280.561  c
524.007 281.639 l
523.808 281.572 523.632 281.539 523.480 281.539  c
522.750 281.539 522.138 281.973 521.646 282.840  c
521.646 287.035 l
h
527.892 287.182 m
526.982 287.182 526.255 286.880 525.712 286.276  c
525.169 285.673 524.898 284.865 524.898 283.854  c
524.898 282.830 525.170 282.021 525.715 281.425  c
526.260 280.829 527.000 280.531 527.933 280.531  c
528.867 280.531 529.606 280.829 530.151 281.425  c
530.696 282.021 530.968 282.826 530.968 283.842  c
530.968 284.881 530.695 285.697 530.148 286.291  c
529.601 286.885 528.849 287.182 527.892 287.182  c
h
527.910 286.314 m
529.132 286.314 529.744 285.490 529.744 283.842  c
529.744 282.213 529.140 281.398 527.933 281.398  c
526.730 281.398 526.128 282.217 526.128 283.854  c
526.128 285.494 526.722 286.314 527.910 286.314  c
h
534.091 287.035 m
531.724 280.672 l
532.878 280.672 l
534.730 285.623 l
536.681 280.672 l
537.759 280.672 l
535.246 287.035 l
h
538.984 287.035 m
538.984 280.672 l
540.138 280.672 l
540.138 287.035 l
h
538.984 279.518 m
538.984 278.363 l
540.138 278.363 l
540.138 279.518 l
h
546.537 287.035 m
546.537 285.840 l
546.068 286.734 545.361 287.182 544.416 287.182  c
543.650 287.182 543.047 286.902 542.608 286.344  c
542.168 285.785 541.949 285.021 541.949 284.053  c
541.949 282.994 542.198 282.143 542.696 281.498  c
543.194 280.854 543.849 280.531 544.662 280.531  c
545.416 280.531 546.041 280.820 546.537 281.398  c
546.537 277.783 l
547.697 277.783 l
547.697 287.035 l
h
546.537 282.189 m
545.939 281.662 545.373 281.398 544.837 281.398  c
543.732 281.398 543.179 282.244 543.179 283.936  c
543.179 285.424 543.671 286.168 544.656 286.168  c
545.296 286.168 545.923 285.818 546.537 285.119  c
h
554.669 286.830 m
553.896 287.064 553.234 287.182 552.683 287.182  c
551.746 287.182 550.981 286.870 550.389 286.247  c
549.797 285.624 549.501 284.816 549.501 283.824  c
549.501 282.859 549.762 282.068 550.284 281.451  c
550.805 280.834 551.472 280.525 552.285 280.525  c
553.054 280.525 553.649 280.799 554.069 281.346  c
554.489 281.893 554.699 282.670 554.699 283.678  c
554.693 284.035 l
550.679 284.035 l
550.847 285.547 551.587 286.303 552.900 286.303  c
553.380 286.303 553.970 286.174 554.669 285.916  c
h
550.732 283.168 m
553.539 283.168 l
553.539 281.984 553.097 281.393 552.214 281.393  c
551.328 281.393 550.833 281.984 550.732 283.168  c
h
556.691 287.035 m
556.691 280.672 l
557.845 280.672 l
557.845 281.867 l
558.302 280.977 558.966 280.531 559.837 280.531  c
559.955 280.531 560.078 280.541 560.207 280.561  c
560.207 281.639 l
560.007 281.572 559.832 281.539 559.679 281.539  c
558.949 281.539 558.337 281.973 557.845 282.840  c
557.845 287.035 l
h
f
2 J
10.0000 M
Q
[ 1.00000 0.00000 0.00000 1.00000 0.00000 0.00000 ] defaultmatrix matrix concatmatrix setmatrix
cliprestore

%%Trailer
%%EOF
